Variable: X0
========================
Name: L0
[11.0,11.0,11.0,11.975]
Name: L1
[11.0,11.975,11.975,12.95]
Name: L2
[11.975,12.95,12.95,13.925]
Name: L3
[12.95,13.925,13.925,14.9]
Name: L4
[13.925,14.9,14.9,14.9]

Variable: X1
========================
Name: L0
[0.7,0.7,0.7,1.9749999999999999]
Name: L1
[0.7,1.9749999999999999,1.9749999999999999,3.25]
Name: L2
[1.9749999999999999,3.25,3.25,4.5249999999999995]
Name: L3
[3.25,4.5249999999999995,4.5249999999999995,5.8]
Name: L4
[4.525,5.8,5.8,5.8]

Variable: X2
========================
Name: L0
[1.3,1.3,1.3,1.8]
Name: L1
[1.3,1.8,1.8,2.3]
Name: L2
[1.8,2.3,2.3,2.8]
Name: L3
[2.3,2.8,2.8,3.3]
Name: L4
[2.8,3.3,3.3,3.3]

Variable: X3
========================
Name: L0
[10.6,10.6,10.6,15.45]
Name: L1
[10.6,15.45,15.45,20.299999999999997]
Name: L2
[15.45,20.299999999999997,20.299999999999997,25.15]
Name: L3
[20.299999999999997,25.15,25.15,30.0]
Name: L4
[25.15,30.0,30.0,30.0]

Variable: X4
========================
Name: L0
[70.0,70.0,70.0,93.0]
Name: L1
[70.0,93.0,93.0,116.0]
Name: L2
[93.0,116.0,116.0,139.0]
Name: L3
[116.0,139.0,139.0,162.0]
Name: L4
[139.0,162.0,162.0,162.0]

Variable: X5
========================
Name: L0
[0.9,0.9,0.9,1.65]
Name: L1
[0.9,1.65,1.65,2.4]
Name: L2
[1.65,2.4,2.4,3.15]
Name: L3
[2.4,3.15,3.15,3.9]
Name: L4
[3.15,3.9,3.9,3.9]

Variable: X6
========================
Name: L0
[0.3,0.3,0.3,1.5]
Name: L1
[0.3,1.5,1.5,2.6999999999999997]
Name: L2
[1.5,2.6999999999999997,2.6999999999999997,3.8999999999999995]
Name: L3
[2.6999999999999997,3.8999999999999995,3.8999999999999995,5.1]
Name: L4
[3.8999999999999995,5.1,5.1,5.1]

Variable: X7
========================
Name: L0
[0.1,0.1,0.1,0.25]
Name: L1
[0.1,0.25,0.25,0.4]
Name: L2
[0.25,0.4,0.4,0.5499999999999999]
Name: L3
[0.4,0.5499999999999999,0.5499999999999999,0.7]
Name: L4
[0.5499999999999999,0.7,0.7,0.7]

Variable: X8
========================
Name: L0
[0.4,0.4,0.4,1.2000000000000002]
Name: L1
[0.4,1.2000000000000002,1.2000000000000002,2.0]
Name: L2
[1.2000000000000002,2.0,2.0,2.8000000000000003]
Name: L3
[2.0,2.8000000000000003,2.8000000000000003,3.6]
Name: L4
[2.8,3.6,3.6,3.6]

Variable: X9
========================
Name: L0
[1.2,1.2,1.2,4.15]
Name: L1
[1.2,4.15,4.15,7.1000000000000005]
Name: L2
[4.15,7.1000000000000005,7.1000000000000005,10.05]
Name: L3
[7.1000000000000005,10.05,10.05,13.0]
Name: L4
[10.05,13.0,13.0,13.0]

Variable: X10
========================
Name: L0
[0.4,0.4,0.4,0.75]
Name: L1
[0.4,0.75,0.75,1.1]
Name: L2
[0.75,1.1,1.1,1.4499999999999997]
Name: L3
[1.1,1.4499999999999997,1.4499999999999997,1.7999999999999998]
Name: L4
[1.4500000000000002,1.8,1.8,1.8]

Variable: X11
========================
Name: L0
[1.2,1.2,1.2,1.9]
Name: L1
[1.2,1.9,1.9,2.5999999999999996]
Name: L2
[1.9,2.5999999999999996,2.5999999999999996,3.3]
Name: L3
[2.5999999999999996,3.3,3.3,4.0]
Name: L4
[3.3,4.0,4.0,4.0]

Variable: X12
========================
Name: L0
[278.0,278.0,278.0,628.5]
Name: L1
[278.0,628.5,628.5,979.0]
Name: L2
[628.5,979.0,979.0,1329.5]
Name: L3
[979.0,1329.5,1329.5,1680.0]
Name: L4
[1329.5,1680.0,1680.0,1680.0]

Variable: Class
========================
Name: 1
[0.0,0.0,0.0,0.0]
Name: 2
[1.0,1.0,1.0,1.0]
Name: 3
[2.0,2.0,2.0,2.0]

