Loading data set: mnist_uint8.mat
Setting parameters
==========================================================
* ReducedData	10000
* Training Parameters:
	-> Epochs	500
	-> LearningRate	0.20
==========================================================
Start Training
Number of training examples: 10000  BatchSize: 100
Number of inputs: 784  Number of outputs: 10
Number of hidden layers: 3 (200  200  200)
Training NN  (784  200  200  200   10) with BackPropagation for 500 epochs
 epoch 1/500. Took 0.57186 seconds. 
  Full-batch training loss = 0.230712, test loss = 0.251366
  Training set accuracy = 0.931500, Test set accuracy = 0.923400
 epoch 2/500. Took 0.56123 seconds. 
  Full-batch training loss = 0.147255, test loss = 0.197561
  Training set accuracy = 0.954100, Test set accuracy = 0.940100
 epoch 3/500. Took 0.56485 seconds. 
  Full-batch training loss = 0.095351, test loss = 0.171394
  Training set accuracy = 0.970100, Test set accuracy = 0.948900
 epoch 4/500. Took 0.56809 seconds. 
  Full-batch training loss = 0.087805, test loss = 0.205298
  Training set accuracy = 0.971400, Test set accuracy = 0.939400
 epoch 5/500. Took 0.56503 seconds. 
  Full-batch training loss = 0.069510, test loss = 0.201433
  Training set accuracy = 0.976400, Test set accuracy = 0.945300
 epoch 6/500. Took 0.56744 seconds. 
  Full-batch training loss = 0.052024, test loss = 0.168338
  Training set accuracy = 0.981900, Test set accuracy = 0.951900
 epoch 7/500. Took 0.57067 seconds. 
  Full-batch training loss = 0.034764, test loss = 0.193221
  Training set accuracy = 0.989400, Test set accuracy = 0.953000
 epoch 8/500. Took 0.56641 seconds. 
  Full-batch training loss = 0.043274, test loss = 0.223690
  Training set accuracy = 0.986200, Test set accuracy = 0.948400
 epoch 9/500. Took 0.55522 seconds. 
  Full-batch training loss = 0.046216, test loss = 0.193587
  Training set accuracy = 0.986100, Test set accuracy = 0.949100
 epoch 10/500. Took 0.55954 seconds. 
  Full-batch training loss = 0.053196, test loss = 0.243103
  Training set accuracy = 0.982600, Test set accuracy = 0.946100
 epoch 11/500. Took 0.56326 seconds. 
  Full-batch training loss = 0.033075, test loss = 0.226371
  Training set accuracy = 0.989100, Test set accuracy = 0.949000
 epoch 12/500. Took 0.56241 seconds. 
  Full-batch training loss = 0.009739, test loss = 0.184856
  Training set accuracy = 0.997400, Test set accuracy = 0.961700
 epoch 13/500. Took 0.56658 seconds. 
  Full-batch training loss = 0.025129, test loss = 0.200390
  Training set accuracy = 0.991800, Test set accuracy = 0.956400
 epoch 14/500. Took 0.5712 seconds. 
  Full-batch training loss = 0.010338, test loss = 0.194033
  Training set accuracy = 0.996400, Test set accuracy = 0.960200
 epoch 15/500. Took 0.56743 seconds. 
  Full-batch training loss = 0.008966, test loss = 0.183244
  Training set accuracy = 0.997400, Test set accuracy = 0.962500
 epoch 16/500. Took 0.56302 seconds. 
  Full-batch training loss = 0.013472, test loss = 0.227557
  Training set accuracy = 0.995900, Test set accuracy = 0.954000
 epoch 17/500. Took 0.56242 seconds. 
  Full-batch training loss = 0.003426, test loss = 0.172667
  Training set accuracy = 0.999100, Test set accuracy = 0.964500
 epoch 18/500. Took 0.56525 seconds. 
  Full-batch training loss = 0.002145, test loss = 0.181172
  Training set accuracy = 0.999500, Test set accuracy = 0.966400
 epoch 19/500. Took 0.57012 seconds. 
  Full-batch training loss = 0.000232, test loss = 0.175857
  Training set accuracy = 1.000000, Test set accuracy = 0.968000
 epoch 20/500. Took 0.57518 seconds. 
  Full-batch training loss = 0.000152, test loss = 0.178138
  Training set accuracy = 1.000000, Test set accuracy = 0.967700
 epoch 21/500. Took 0.57013 seconds. 
  Full-batch training loss = 0.000125, test loss = 0.180091
  Training set accuracy = 1.000000, Test set accuracy = 0.967600
 epoch 22/500. Took 0.56629 seconds. 
  Full-batch training loss = 0.000108, test loss = 0.181639
  Training set accuracy = 1.000000, Test set accuracy = 0.967400
 epoch 23/500. Took 0.55861 seconds. 
  Full-batch training loss = 0.000095, test loss = 0.183311
  Training set accuracy = 1.000000, Test set accuracy = 0.967400
 epoch 24/500. Took 0.57259 seconds. 
  Full-batch training loss = 0.000085, test loss = 0.184548
  Training set accuracy = 1.000000, Test set accuracy = 0.967600
 epoch 25/500. Took 0.57585 seconds. 
  Full-batch training loss = 0.000077, test loss = 0.185792
  Training set accuracy = 1.000000, Test set accuracy = 0.967600
 epoch 26/500. Took 0.56533 seconds. 
  Full-batch training loss = 0.000070, test loss = 0.186970
  Training set accuracy = 1.000000, Test set accuracy = 0.967900
 epoch 27/500. Took 0.57128 seconds. 
  Full-batch training loss = 0.000065, test loss = 0.188069
  Training set accuracy = 1.000000, Test set accuracy = 0.967900
 epoch 28/500. Took 0.56527 seconds. 
  Full-batch training loss = 0.000060, test loss = 0.189120
  Training set accuracy = 1.000000, Test set accuracy = 0.967900
 epoch 29/500. Took 0.56323 seconds. 
  Full-batch training loss = 0.000056, test loss = 0.190069
  Training set accuracy = 1.000000, Test set accuracy = 0.967900
 epoch 30/500. Took 0.56737 seconds. 
  Full-batch training loss = 0.000052, test loss = 0.190979
  Training set accuracy = 1.000000, Test set accuracy = 0.967900
 epoch 31/500. Took 0.56427 seconds. 
  Full-batch training loss = 0.000049, test loss = 0.191832
  Training set accuracy = 1.000000, Test set accuracy = 0.968000
 epoch 32/500. Took 0.56061 seconds. 
  Full-batch training loss = 0.000046, test loss = 0.192651
  Training set accuracy = 1.000000, Test set accuracy = 0.968100
 epoch 33/500. Took 0.56469 seconds. 
  Full-batch training loss = 0.000044, test loss = 0.193399
  Training set accuracy = 1.000000, Test set accuracy = 0.968000
 epoch 34/500. Took 0.56948 seconds. 
  Full-batch training loss = 0.000042, test loss = 0.194212
  Training set accuracy = 1.000000, Test set accuracy = 0.968000
 epoch 35/500. Took 0.57569 seconds. 
  Full-batch training loss = 0.000040, test loss = 0.194945
  Training set accuracy = 1.000000, Test set accuracy = 0.968100
 epoch 36/500. Took 0.56505 seconds. 
  Full-batch training loss = 0.000038, test loss = 0.195626
  Training set accuracy = 1.000000, Test set accuracy = 0.968100
 epoch 37/500. Took 0.57372 seconds. 
  Full-batch training loss = 0.000036, test loss = 0.196292
  Training set accuracy = 1.000000, Test set accuracy = 0.968100
 epoch 38/500. Took 0.5701 seconds. 
  Full-batch training loss = 0.000035, test loss = 0.196906
  Training set accuracy = 1.000000, Test set accuracy = 0.968200
 epoch 39/500. Took 0.57175 seconds. 
  Full-batch training loss = 0.000033, test loss = 0.197517
  Training set accuracy = 1.000000, Test set accuracy = 0.968200
 epoch 40/500. Took 0.57341 seconds. 
  Full-batch training loss = 0.000032, test loss = 0.198078
  Training set accuracy = 1.000000, Test set accuracy = 0.968200
 epoch 41/500. Took 0.57241 seconds. 
  Full-batch training loss = 0.000031, test loss = 0.198660
  Training set accuracy = 1.000000, Test set accuracy = 0.968200
 epoch 42/500. Took 0.5671 seconds. 
  Full-batch training loss = 0.000030, test loss = 0.199265
  Training set accuracy = 1.000000, Test set accuracy = 0.968200
 epoch 43/500. Took 0.56791 seconds. 
  Full-batch training loss = 0.000029, test loss = 0.199810
  Training set accuracy = 1.000000, Test set accuracy = 0.968200
 epoch 44/500. Took 0.57691 seconds. 
  Full-batch training loss = 0.000028, test loss = 0.200377
  Training set accuracy = 1.000000, Test set accuracy = 0.968200
 epoch 45/500. Took 0.56559 seconds. 
  Full-batch training loss = 0.000027, test loss = 0.200872
  Training set accuracy = 1.000000, Test set accuracy = 0.968200
 epoch 46/500. Took 0.57835 seconds. 
  Full-batch training loss = 0.000026, test loss = 0.201394
  Training set accuracy = 1.000000, Test set accuracy = 0.968100
 epoch 47/500. Took 0.57019 seconds. 
  Full-batch training loss = 0.000025, test loss = 0.201881
  Training set accuracy = 1.000000, Test set accuracy = 0.968100
 epoch 48/500. Took 0.57763 seconds. 
  Full-batch training loss = 0.000024, test loss = 0.202343
  Training set accuracy = 1.000000, Test set accuracy = 0.968000
 epoch 49/500. Took 0.57512 seconds. 
  Full-batch training loss = 0.000023, test loss = 0.202799
  Training set accuracy = 1.000000, Test set accuracy = 0.968000
 epoch 50/500. Took 0.5719 seconds. 
  Full-batch training loss = 0.000023, test loss = 0.203230
  Training set accuracy = 1.000000, Test set accuracy = 0.968000
 epoch 51/500. Took 0.56643 seconds. 
  Full-batch training loss = 0.000022, test loss = 0.203678
  Training set accuracy = 1.000000, Test set accuracy = 0.968000
 epoch 52/500. Took 0.57084 seconds. 
  Full-batch training loss = 0.000022, test loss = 0.204108
  Training set accuracy = 1.000000, Test set accuracy = 0.968100
 epoch 53/500. Took 0.57059 seconds. 
  Full-batch training loss = 0.000021, test loss = 0.204514
  Training set accuracy = 1.000000, Test set accuracy = 0.968200
 epoch 54/500. Took 0.57185 seconds. 
  Full-batch training loss = 0.000020, test loss = 0.204910
  Training set accuracy = 1.000000, Test set accuracy = 0.968200
 epoch 55/500. Took 0.57061 seconds. 
  Full-batch training loss = 0.000020, test loss = 0.205319
  Training set accuracy = 1.000000, Test set accuracy = 0.968200
 epoch 56/500. Took 0.57499 seconds. 
  Full-batch training loss = 0.000019, test loss = 0.205709
  Training set accuracy = 1.000000, Test set accuracy = 0.968200
 epoch 57/500. Took 0.56657 seconds. 
  Full-batch training loss = 0.000019, test loss = 0.206077
  Training set accuracy = 1.000000, Test set accuracy = 0.968300
 epoch 58/500. Took 0.57165 seconds. 
  Full-batch training loss = 0.000018, test loss = 0.206450
  Training set accuracy = 1.000000, Test set accuracy = 0.968300
 epoch 59/500. Took 0.5791 seconds. 
  Full-batch training loss = 0.000018, test loss = 0.206829
  Training set accuracy = 1.000000, Test set accuracy = 0.968300
 epoch 60/500. Took 0.57515 seconds. 
  Full-batch training loss = 0.000018, test loss = 0.207156
  Training set accuracy = 1.000000, Test set accuracy = 0.968300
 epoch 61/500. Took 0.57885 seconds. 
  Full-batch training loss = 0.000017, test loss = 0.207483
  Training set accuracy = 1.000000, Test set accuracy = 0.968300
 epoch 62/500. Took 0.57041 seconds. 
  Full-batch training loss = 0.000017, test loss = 0.207845
  Training set accuracy = 1.000000, Test set accuracy = 0.968300
 epoch 63/500. Took 0.5747 seconds. 
  Full-batch training loss = 0.000017, test loss = 0.208180
  Training set accuracy = 1.000000, Test set accuracy = 0.968300
 epoch 64/500. Took 0.57518 seconds. 
  Full-batch training loss = 0.000016, test loss = 0.208496
  Training set accuracy = 1.000000, Test set accuracy = 0.968400
 epoch 65/500. Took 0.57352 seconds. 
  Full-batch training loss = 0.000016, test loss = 0.208804
  Training set accuracy = 1.000000, Test set accuracy = 0.968400
 epoch 66/500. Took 0.57387 seconds. 
  Full-batch training loss = 0.000016, test loss = 0.209113
  Training set accuracy = 1.000000, Test set accuracy = 0.968300
 epoch 67/500. Took 0.57551 seconds. 
  Full-batch training loss = 0.000015, test loss = 0.209424
  Training set accuracy = 1.000000, Test set accuracy = 0.968400
 epoch 68/500. Took 0.57625 seconds. 
  Full-batch training loss = 0.000015, test loss = 0.209746
  Training set accuracy = 1.000000, Test set accuracy = 0.968400
 epoch 69/500. Took 0.57576 seconds. 
  Full-batch training loss = 0.000015, test loss = 0.210041
  Training set accuracy = 1.000000, Test set accuracy = 0.968400
 epoch 70/500. Took 0.6169 seconds. 
  Full-batch training loss = 0.000014, test loss = 0.210338
  Training set accuracy = 1.000000, Test set accuracy = 0.968500
 epoch 71/500. Took 0.59688 seconds. 
  Full-batch training loss = 0.000014, test loss = 0.210636
  Training set accuracy = 1.000000, Test set accuracy = 0.968500
 epoch 72/500. Took 0.59485 seconds. 
  Full-batch training loss = 0.000014, test loss = 0.210900
  Training set accuracy = 1.000000, Test set accuracy = 0.968500
 epoch 73/500. Took 0.5889 seconds. 
  Full-batch training loss = 0.000014, test loss = 0.211173
  Training set accuracy = 1.000000, Test set accuracy = 0.968500
 epoch 74/500. Took 0.59435 seconds. 
  Full-batch training loss = 0.000013, test loss = 0.211454
  Training set accuracy = 1.000000, Test set accuracy = 0.968500
 epoch 75/500. Took 0.58413 seconds. 
  Full-batch training loss = 0.000013, test loss = 0.211703
  Training set accuracy = 1.000000, Test set accuracy = 0.968500
 epoch 76/500. Took 0.58897 seconds. 
  Full-batch training loss = 0.000013, test loss = 0.211963
  Training set accuracy = 1.000000, Test set accuracy = 0.968600
 epoch 77/500. Took 0.5879 seconds. 
  Full-batch training loss = 0.000013, test loss = 0.212242
  Training set accuracy = 1.000000, Test set accuracy = 0.968500
 epoch 78/500. Took 0.58834 seconds. 
  Full-batch training loss = 0.000012, test loss = 0.212491
  Training set accuracy = 1.000000, Test set accuracy = 0.968500
 epoch 79/500. Took 0.60237 seconds. 
  Full-batch training loss = 0.000012, test loss = 0.212743
  Training set accuracy = 1.000000, Test set accuracy = 0.968600
 epoch 80/500. Took 0.67351 seconds. 
  Full-batch training loss = 0.000012, test loss = 0.212996
  Training set accuracy = 1.000000, Test set accuracy = 0.968600
 epoch 81/500. Took 0.58557 seconds. 
  Full-batch training loss = 0.000012, test loss = 0.213249
  Training set accuracy = 1.000000, Test set accuracy = 0.968700
 epoch 82/500. Took 0.56977 seconds. 
  Full-batch training loss = 0.000012, test loss = 0.213489
  Training set accuracy = 1.000000, Test set accuracy = 0.968700
 epoch 83/500. Took 0.58961 seconds. 
  Full-batch training loss = 0.000012, test loss = 0.213721
  Training set accuracy = 1.000000, Test set accuracy = 0.968700
 epoch 84/500. Took 0.5785 seconds. 
  Full-batch training loss = 0.000011, test loss = 0.213963
  Training set accuracy = 1.000000, Test set accuracy = 0.968800
 epoch 85/500. Took 0.58194 seconds. 
  Full-batch training loss = 0.000011, test loss = 0.214192
  Training set accuracy = 1.000000, Test set accuracy = 0.968800
 epoch 86/500. Took 0.58265 seconds. 
  Full-batch training loss = 0.000011, test loss = 0.214391
  Training set accuracy = 1.000000, Test set accuracy = 0.968800
 epoch 87/500. Took 0.58844 seconds. 
  Full-batch training loss = 0.000011, test loss = 0.214633
  Training set accuracy = 1.000000, Test set accuracy = 0.968800
 epoch 88/500. Took 0.5944 seconds. 
  Full-batch training loss = 0.000011, test loss = 0.214860
  Training set accuracy = 1.000000, Test set accuracy = 0.968800
 epoch 89/500. Took 0.58755 seconds. 
  Full-batch training loss = 0.000011, test loss = 0.215071
  Training set accuracy = 1.000000, Test set accuracy = 0.968800
 epoch 90/500. Took 0.58191 seconds. 
  Full-batch training loss = 0.000010, test loss = 0.215298
  Training set accuracy = 1.000000, Test set accuracy = 0.968800
 epoch 91/500. Took 0.57907 seconds. 
  Full-batch training loss = 0.000010, test loss = 0.215502
  Training set accuracy = 1.000000, Test set accuracy = 0.968800
 epoch 92/500. Took 0.58147 seconds. 
  Full-batch training loss = 0.000010, test loss = 0.215711
  Training set accuracy = 1.000000, Test set accuracy = 0.968800
 epoch 93/500. Took 0.57063 seconds. 
  Full-batch training loss = 0.000010, test loss = 0.215923
  Training set accuracy = 1.000000, Test set accuracy = 0.968800
 epoch 94/500. Took 0.57681 seconds. 
  Full-batch training loss = 0.000010, test loss = 0.216118
  Training set accuracy = 1.000000, Test set accuracy = 0.968800
 epoch 95/500. Took 0.5807 seconds. 
  Full-batch training loss = 0.000010, test loss = 0.216332
  Training set accuracy = 1.000000, Test set accuracy = 0.968800
 epoch 96/500. Took 0.57975 seconds. 
  Full-batch training loss = 0.000010, test loss = 0.216522
  Training set accuracy = 1.000000, Test set accuracy = 0.968800
 epoch 97/500. Took 0.57807 seconds. 
  Full-batch training loss = 0.000009, test loss = 0.216727
  Training set accuracy = 1.000000, Test set accuracy = 0.968800
 epoch 98/500. Took 0.57188 seconds. 
  Full-batch training loss = 0.000009, test loss = 0.216922
  Training set accuracy = 1.000000, Test set accuracy = 0.968900
 epoch 99/500. Took 0.58136 seconds. 
  Full-batch training loss = 0.000009, test loss = 0.217122
  Training set accuracy = 1.000000, Test set accuracy = 0.968900
 epoch 100/500. Took 0.58414 seconds. 
  Full-batch training loss = 0.000009, test loss = 0.217319
  Training set accuracy = 1.000000, Test set accuracy = 0.968900
 epoch 101/500. Took 0.57499 seconds. 
  Full-batch training loss = 0.000009, test loss = 0.217484
  Training set accuracy = 1.000000, Test set accuracy = 0.968900
 epoch 102/500. Took 0.58054 seconds. 
  Full-batch training loss = 0.000009, test loss = 0.217677
  Training set accuracy = 1.000000, Test set accuracy = 0.968900
 epoch 103/500. Took 0.58211 seconds. 
  Full-batch training loss = 0.000009, test loss = 0.217863
  Training set accuracy = 1.000000, Test set accuracy = 0.968900
 epoch 104/500. Took 0.59189 seconds. 
  Full-batch training loss = 0.000009, test loss = 0.218060
  Training set accuracy = 1.000000, Test set accuracy = 0.968900
 epoch 105/500. Took 0.58054 seconds. 
  Full-batch training loss = 0.000009, test loss = 0.218234
  Training set accuracy = 1.000000, Test set accuracy = 0.968900
 epoch 106/500. Took 0.57836 seconds. 
  Full-batch training loss = 0.000008, test loss = 0.218419
  Training set accuracy = 1.000000, Test set accuracy = 0.968900
 epoch 107/500. Took 0.57764 seconds. 
  Full-batch training loss = 0.000008, test loss = 0.218601
  Training set accuracy = 1.000000, Test set accuracy = 0.968900
 epoch 108/500. Took 0.576 seconds. 
  Full-batch training loss = 0.000008, test loss = 0.218777
  Training set accuracy = 1.000000, Test set accuracy = 0.968900
 epoch 109/500. Took 0.57844 seconds. 
  Full-batch training loss = 0.000008, test loss = 0.218955
  Training set accuracy = 1.000000, Test set accuracy = 0.969000
 epoch 110/500. Took 0.57593 seconds. 
  Full-batch training loss = 0.000008, test loss = 0.219132
  Training set accuracy = 1.000000, Test set accuracy = 0.969000
 epoch 111/500. Took 0.575 seconds. 
  Full-batch training loss = 0.000008, test loss = 0.219293
  Training set accuracy = 1.000000, Test set accuracy = 0.969000
 epoch 112/500. Took 0.59726 seconds. 
  Full-batch training loss = 0.000008, test loss = 0.219465
  Training set accuracy = 1.000000, Test set accuracy = 0.969000
 epoch 113/500. Took 0.57719 seconds. 
  Full-batch training loss = 0.000008, test loss = 0.219622
  Training set accuracy = 1.000000, Test set accuracy = 0.969000
 epoch 114/500. Took 0.57033 seconds. 
  Full-batch training loss = 0.000008, test loss = 0.219805
  Training set accuracy = 1.000000, Test set accuracy = 0.969000
 epoch 115/500. Took 0.58937 seconds. 
  Full-batch training loss = 0.000008, test loss = 0.219953
  Training set accuracy = 1.000000, Test set accuracy = 0.969000
 epoch 116/500. Took 0.58351 seconds. 
  Full-batch training loss = 0.000008, test loss = 0.220132
  Training set accuracy = 1.000000, Test set accuracy = 0.969000
 epoch 117/500. Took 0.57586 seconds. 
  Full-batch training loss = 0.000008, test loss = 0.220289
  Training set accuracy = 1.000000, Test set accuracy = 0.969100
 epoch 118/500. Took 0.59802 seconds. 
  Full-batch training loss = 0.000007, test loss = 0.220460
  Training set accuracy = 1.000000, Test set accuracy = 0.969100
 epoch 119/500. Took 0.57139 seconds. 
  Full-batch training loss = 0.000007, test loss = 0.220607
  Training set accuracy = 1.000000, Test set accuracy = 0.969100
 epoch 120/500. Took 0.58 seconds. 
  Full-batch training loss = 0.000007, test loss = 0.220762
  Training set accuracy = 1.000000, Test set accuracy = 0.969100
 epoch 121/500. Took 0.57613 seconds. 
  Full-batch training loss = 0.000007, test loss = 0.220913
  Training set accuracy = 1.000000, Test set accuracy = 0.969100
 epoch 122/500. Took 0.57385 seconds. 
  Full-batch training loss = 0.000007, test loss = 0.221061
  Training set accuracy = 1.000000, Test set accuracy = 0.969100
 epoch 123/500. Took 0.57354 seconds. 
  Full-batch training loss = 0.000007, test loss = 0.221217
  Training set accuracy = 1.000000, Test set accuracy = 0.969100
 epoch 124/500. Took 0.59955 seconds. 
  Full-batch training loss = 0.000007, test loss = 0.221361
  Training set accuracy = 1.000000, Test set accuracy = 0.969100
 epoch 125/500. Took 0.64497 seconds. 
  Full-batch training loss = 0.000007, test loss = 0.221496
  Training set accuracy = 1.000000, Test set accuracy = 0.969100
 epoch 126/500. Took 0.57789 seconds. 
  Full-batch training loss = 0.000007, test loss = 0.221658
  Training set accuracy = 1.000000, Test set accuracy = 0.969100
 epoch 127/500. Took 0.57945 seconds. 
  Full-batch training loss = 0.000007, test loss = 0.221802
  Training set accuracy = 1.000000, Test set accuracy = 0.969100
 epoch 128/500. Took 0.58196 seconds. 
  Full-batch training loss = 0.000007, test loss = 0.221944
  Training set accuracy = 1.000000, Test set accuracy = 0.969100
 epoch 129/500. Took 0.57317 seconds. 
  Full-batch training loss = 0.000007, test loss = 0.222100
  Training set accuracy = 1.000000, Test set accuracy = 0.969100
 epoch 130/500. Took 0.58487 seconds. 
  Full-batch training loss = 0.000007, test loss = 0.222233
  Training set accuracy = 1.000000, Test set accuracy = 0.969100
 epoch 131/500. Took 0.57255 seconds. 
  Full-batch training loss = 0.000007, test loss = 0.222373
  Training set accuracy = 1.000000, Test set accuracy = 0.969100
 epoch 132/500. Took 0.57319 seconds. 
  Full-batch training loss = 0.000007, test loss = 0.222518
  Training set accuracy = 1.000000, Test set accuracy = 0.969100
 epoch 133/500. Took 0.56646 seconds. 
  Full-batch training loss = 0.000006, test loss = 0.222655
  Training set accuracy = 1.000000, Test set accuracy = 0.969100
 epoch 134/500. Took 0.57439 seconds. 
  Full-batch training loss = 0.000006, test loss = 0.222796
  Training set accuracy = 1.000000, Test set accuracy = 0.969100
 epoch 135/500. Took 0.57823 seconds. 
  Full-batch training loss = 0.000006, test loss = 0.222926
  Training set accuracy = 1.000000, Test set accuracy = 0.969100
 epoch 136/500. Took 0.57391 seconds. 
  Full-batch training loss = 0.000006, test loss = 0.223065
  Training set accuracy = 1.000000, Test set accuracy = 0.969100
 epoch 137/500. Took 0.57612 seconds. 
  Full-batch training loss = 0.000006, test loss = 0.223208
  Training set accuracy = 1.000000, Test set accuracy = 0.969100
 epoch 138/500. Took 0.5775 seconds. 
  Full-batch training loss = 0.000006, test loss = 0.223338
  Training set accuracy = 1.000000, Test set accuracy = 0.969100
 epoch 139/500. Took 0.57661 seconds. 
  Full-batch training loss = 0.000006, test loss = 0.223460
  Training set accuracy = 1.000000, Test set accuracy = 0.969100
 epoch 140/500. Took 0.5781 seconds. 
  Full-batch training loss = 0.000006, test loss = 0.223597
  Training set accuracy = 1.000000, Test set accuracy = 0.969100
 epoch 141/500. Took 0.59633 seconds. 
  Full-batch training loss = 0.000006, test loss = 0.223721
  Training set accuracy = 1.000000, Test set accuracy = 0.969200
 epoch 142/500. Took 0.57084 seconds. 
  Full-batch training loss = 0.000006, test loss = 0.223863
  Training set accuracy = 1.000000, Test set accuracy = 0.969200
 epoch 143/500. Took 0.57488 seconds. 
  Full-batch training loss = 0.000006, test loss = 0.223991
  Training set accuracy = 1.000000, Test set accuracy = 0.969100
 epoch 144/500. Took 0.57541 seconds. 
  Full-batch training loss = 0.000006, test loss = 0.224108
  Training set accuracy = 1.000000, Test set accuracy = 0.969200
 epoch 145/500. Took 0.57465 seconds. 
  Full-batch training loss = 0.000006, test loss = 0.224248
  Training set accuracy = 1.000000, Test set accuracy = 0.969200
 epoch 146/500. Took 0.57311 seconds. 
  Full-batch training loss = 0.000006, test loss = 0.224370
  Training set accuracy = 1.000000, Test set accuracy = 0.969200
 epoch 147/500. Took 0.57128 seconds. 
  Full-batch training loss = 0.000006, test loss = 0.224491
  Training set accuracy = 1.000000, Test set accuracy = 0.969200
 epoch 148/500. Took 0.57389 seconds. 
  Full-batch training loss = 0.000006, test loss = 0.224625
  Training set accuracy = 1.000000, Test set accuracy = 0.969200
 epoch 149/500. Took 0.56974 seconds. 
  Full-batch training loss = 0.000006, test loss = 0.224739
  Training set accuracy = 1.000000, Test set accuracy = 0.969200
 epoch 150/500. Took 0.57133 seconds. 
  Full-batch training loss = 0.000006, test loss = 0.224866
  Training set accuracy = 1.000000, Test set accuracy = 0.969200
 epoch 151/500. Took 0.57273 seconds. 
  Full-batch training loss = 0.000006, test loss = 0.224990
  Training set accuracy = 1.000000, Test set accuracy = 0.969200
 epoch 152/500. Took 0.57219 seconds. 
  Full-batch training loss = 0.000006, test loss = 0.225109
  Training set accuracy = 1.000000, Test set accuracy = 0.969200
 epoch 153/500. Took 0.57734 seconds. 
  Full-batch training loss = 0.000005, test loss = 0.225232
  Training set accuracy = 1.000000, Test set accuracy = 0.969200
 epoch 154/500. Took 0.58026 seconds. 
  Full-batch training loss = 0.000005, test loss = 0.225356
  Training set accuracy = 1.000000, Test set accuracy = 0.969200
 epoch 155/500. Took 0.57755 seconds. 
  Full-batch training loss = 0.000005, test loss = 0.225470
  Training set accuracy = 1.000000, Test set accuracy = 0.969200
 epoch 156/500. Took 0.57885 seconds. 
  Full-batch training loss = 0.000005, test loss = 0.225592
  Training set accuracy = 1.000000, Test set accuracy = 0.969200
 epoch 157/500. Took 0.56913 seconds. 
  Full-batch training loss = 0.000005, test loss = 0.225701
  Training set accuracy = 1.000000, Test set accuracy = 0.969200
 epoch 158/500. Took 0.57405 seconds. 
  Full-batch training loss = 0.000005, test loss = 0.225822
  Training set accuracy = 1.000000, Test set accuracy = 0.969200
 epoch 159/500. Took 0.57781 seconds. 
  Full-batch training loss = 0.000005, test loss = 0.225945
  Training set accuracy = 1.000000, Test set accuracy = 0.969200
 epoch 160/500. Took 0.58242 seconds. 
  Full-batch training loss = 0.000005, test loss = 0.226048
  Training set accuracy = 1.000000, Test set accuracy = 0.969200
 epoch 161/500. Took 0.57881 seconds. 
  Full-batch training loss = 0.000005, test loss = 0.226169
  Training set accuracy = 1.000000, Test set accuracy = 0.969200
 epoch 162/500. Took 0.57546 seconds. 
  Full-batch training loss = 0.000005, test loss = 0.226281
  Training set accuracy = 1.000000, Test set accuracy = 0.969200
 epoch 163/500. Took 0.57486 seconds. 
  Full-batch training loss = 0.000005, test loss = 0.226390
  Training set accuracy = 1.000000, Test set accuracy = 0.969200
 epoch 164/500. Took 0.5722 seconds. 
  Full-batch training loss = 0.000005, test loss = 0.226510
  Training set accuracy = 1.000000, Test set accuracy = 0.969200
 epoch 165/500. Took 0.57967 seconds. 
  Full-batch training loss = 0.000005, test loss = 0.226614
  Training set accuracy = 1.000000, Test set accuracy = 0.969200
 epoch 166/500. Took 0.57574 seconds. 
  Full-batch training loss = 0.000005, test loss = 0.226719
  Training set accuracy = 1.000000, Test set accuracy = 0.969200
 epoch 167/500. Took 0.5744 seconds. 
  Full-batch training loss = 0.000005, test loss = 0.226831
  Training set accuracy = 1.000000, Test set accuracy = 0.969300
 epoch 168/500. Took 0.58981 seconds. 
  Full-batch training loss = 0.000005, test loss = 0.226942
  Training set accuracy = 1.000000, Test set accuracy = 0.969300
 epoch 169/500. Took 0.57639 seconds. 
  Full-batch training loss = 0.000005, test loss = 0.227051
  Training set accuracy = 1.000000, Test set accuracy = 0.969300
 epoch 170/500. Took 0.57067 seconds. 
  Full-batch training loss = 0.000005, test loss = 0.227158
  Training set accuracy = 1.000000, Test set accuracy = 0.969300
 epoch 171/500. Took 0.57301 seconds. 
  Full-batch training loss = 0.000005, test loss = 0.227268
  Training set accuracy = 1.000000, Test set accuracy = 0.969200
 epoch 172/500. Took 0.57731 seconds. 
  Full-batch training loss = 0.000005, test loss = 0.227371
  Training set accuracy = 1.000000, Test set accuracy = 0.969200
 epoch 173/500. Took 0.5735 seconds. 
  Full-batch training loss = 0.000005, test loss = 0.227481
  Training set accuracy = 1.000000, Test set accuracy = 0.969200
 epoch 174/500. Took 0.56841 seconds. 
  Full-batch training loss = 0.000005, test loss = 0.227579
  Training set accuracy = 1.000000, Test set accuracy = 0.969200
 epoch 175/500. Took 0.57586 seconds. 
  Full-batch training loss = 0.000005, test loss = 0.227687
  Training set accuracy = 1.000000, Test set accuracy = 0.969200
 epoch 176/500. Took 0.578 seconds. 
  Full-batch training loss = 0.000005, test loss = 0.227787
  Training set accuracy = 1.000000, Test set accuracy = 0.969200
 epoch 177/500. Took 0.56795 seconds. 
  Full-batch training loss = 0.000005, test loss = 0.227891
  Training set accuracy = 1.000000, Test set accuracy = 0.969200
 epoch 178/500. Took 0.59035 seconds. 
  Full-batch training loss = 0.000005, test loss = 0.227991
  Training set accuracy = 1.000000, Test set accuracy = 0.969200
 epoch 179/500. Took 0.57506 seconds. 
  Full-batch training loss = 0.000005, test loss = 0.228093
  Training set accuracy = 1.000000, Test set accuracy = 0.969200
 epoch 180/500. Took 0.57954 seconds. 
  Full-batch training loss = 0.000005, test loss = 0.228194
  Training set accuracy = 1.000000, Test set accuracy = 0.969200
 epoch 181/500. Took 0.57692 seconds. 
  Full-batch training loss = 0.000004, test loss = 0.228291
  Training set accuracy = 1.000000, Test set accuracy = 0.969200
 epoch 182/500. Took 0.57637 seconds. 
  Full-batch training loss = 0.000004, test loss = 0.228390
  Training set accuracy = 1.000000, Test set accuracy = 0.969200
 epoch 183/500. Took 0.5706 seconds. 
  Full-batch training loss = 0.000004, test loss = 0.228494
  Training set accuracy = 1.000000, Test set accuracy = 0.969100
 epoch 184/500. Took 0.57764 seconds. 
  Full-batch training loss = 0.000004, test loss = 0.228590
  Training set accuracy = 1.000000, Test set accuracy = 0.969100
 epoch 185/500. Took 0.58103 seconds. 
  Full-batch training loss = 0.000004, test loss = 0.228689
  Training set accuracy = 1.000000, Test set accuracy = 0.969100
 epoch 186/500. Took 0.57694 seconds. 
  Full-batch training loss = 0.000004, test loss = 0.228787
  Training set accuracy = 1.000000, Test set accuracy = 0.969100
 epoch 187/500. Took 0.58189 seconds. 
  Full-batch training loss = 0.000004, test loss = 0.228885
  Training set accuracy = 1.000000, Test set accuracy = 0.969100
 epoch 188/500. Took 0.57554 seconds. 
  Full-batch training loss = 0.000004, test loss = 0.228974
  Training set accuracy = 1.000000, Test set accuracy = 0.969200
 epoch 189/500. Took 0.58381 seconds. 
  Full-batch training loss = 0.000004, test loss = 0.229070
  Training set accuracy = 1.000000, Test set accuracy = 0.969100
 epoch 190/500. Took 0.57536 seconds. 
  Full-batch training loss = 0.000004, test loss = 0.229169
  Training set accuracy = 1.000000, Test set accuracy = 0.969100
 epoch 191/500. Took 0.5709 seconds. 
  Full-batch training loss = 0.000004, test loss = 0.229255
  Training set accuracy = 1.000000, Test set accuracy = 0.969100
 epoch 192/500. Took 0.57966 seconds. 
  Full-batch training loss = 0.000004, test loss = 0.229354
  Training set accuracy = 1.000000, Test set accuracy = 0.969100
 epoch 193/500. Took 0.57909 seconds. 
  Full-batch training loss = 0.000004, test loss = 0.229445
  Training set accuracy = 1.000000, Test set accuracy = 0.969100
 epoch 194/500. Took 0.57905 seconds. 
  Full-batch training loss = 0.000004, test loss = 0.229537
  Training set accuracy = 1.000000, Test set accuracy = 0.969100
 epoch 195/500. Took 0.5748 seconds. 
  Full-batch training loss = 0.000004, test loss = 0.229621
  Training set accuracy = 1.000000, Test set accuracy = 0.969000
 epoch 196/500. Took 0.57791 seconds. 
  Full-batch training loss = 0.000004, test loss = 0.229722
  Training set accuracy = 1.000000, Test set accuracy = 0.969100
 epoch 197/500. Took 0.58092 seconds. 
  Full-batch training loss = 0.000004, test loss = 0.229809
  Training set accuracy = 1.000000, Test set accuracy = 0.969100
 epoch 198/500. Took 0.57742 seconds. 
  Full-batch training loss = 0.000004, test loss = 0.229902
  Training set accuracy = 1.000000, Test set accuracy = 0.969100
 epoch 199/500. Took 0.57877 seconds. 
  Full-batch training loss = 0.000004, test loss = 0.229990
  Training set accuracy = 1.000000, Test set accuracy = 0.969100
 epoch 200/500. Took 0.57214 seconds. 
  Full-batch training loss = 0.000004, test loss = 0.230083
  Training set accuracy = 1.000000, Test set accuracy = 0.969000
 epoch 201/500. Took 0.58757 seconds. 
  Full-batch training loss = 0.000004, test loss = 0.230173
  Training set accuracy = 1.000000, Test set accuracy = 0.969000
 epoch 202/500. Took 0.57443 seconds. 
  Full-batch training loss = 0.000004, test loss = 0.230260
  Training set accuracy = 1.000000, Test set accuracy = 0.969000
 epoch 203/500. Took 0.57663 seconds. 
  Full-batch training loss = 0.000004, test loss = 0.230345
  Training set accuracy = 1.000000, Test set accuracy = 0.969000
 epoch 204/500. Took 0.56747 seconds. 
  Full-batch training loss = 0.000004, test loss = 0.230429
  Training set accuracy = 1.000000, Test set accuracy = 0.969000
 epoch 205/500. Took 0.57569 seconds. 
  Full-batch training loss = 0.000004, test loss = 0.230520
  Training set accuracy = 1.000000, Test set accuracy = 0.969000
 epoch 206/500. Took 0.59374 seconds. 
  Full-batch training loss = 0.000004, test loss = 0.230605
  Training set accuracy = 1.000000, Test set accuracy = 0.968900
 epoch 207/500. Took 0.57864 seconds. 
  Full-batch training loss = 0.000004, test loss = 0.230693
  Training set accuracy = 1.000000, Test set accuracy = 0.968900
 epoch 208/500. Took 0.57043 seconds. 
  Full-batch training loss = 0.000004, test loss = 0.230785
  Training set accuracy = 1.000000, Test set accuracy = 0.968900
 epoch 209/500. Took 0.57285 seconds. 
  Full-batch training loss = 0.000004, test loss = 0.230868
  Training set accuracy = 1.000000, Test set accuracy = 0.968900
 epoch 210/500. Took 0.57697 seconds. 
  Full-batch training loss = 0.000004, test loss = 0.230950
  Training set accuracy = 1.000000, Test set accuracy = 0.968900
 epoch 211/500. Took 0.57723 seconds. 
  Full-batch training loss = 0.000004, test loss = 0.231035
  Training set accuracy = 1.000000, Test set accuracy = 0.968900
 epoch 212/500. Took 0.57742 seconds. 
  Full-batch training loss = 0.000004, test loss = 0.231119
  Training set accuracy = 1.000000, Test set accuracy = 0.968900
 epoch 213/500. Took 0.57311 seconds. 
  Full-batch training loss = 0.000004, test loss = 0.231208
  Training set accuracy = 1.000000, Test set accuracy = 0.968900
 epoch 214/500. Took 0.57793 seconds. 
  Full-batch training loss = 0.000004, test loss = 0.231290
  Training set accuracy = 1.000000, Test set accuracy = 0.968800
 epoch 215/500. Took 0.5777 seconds. 
  Full-batch training loss = 0.000004, test loss = 0.231378
  Training set accuracy = 1.000000, Test set accuracy = 0.968800
 epoch 216/500. Took 0.58295 seconds. 
  Full-batch training loss = 0.000004, test loss = 0.231453
  Training set accuracy = 1.000000, Test set accuracy = 0.968700
 epoch 217/500. Took 0.57496 seconds. 
  Full-batch training loss = 0.000004, test loss = 0.231537
  Training set accuracy = 1.000000, Test set accuracy = 0.968700
 epoch 218/500. Took 0.57205 seconds. 
  Full-batch training loss = 0.000004, test loss = 0.231615
  Training set accuracy = 1.000000, Test set accuracy = 0.968700
 epoch 219/500. Took 0.56914 seconds. 
  Full-batch training loss = 0.000004, test loss = 0.231699
  Training set accuracy = 1.000000, Test set accuracy = 0.968700
 epoch 220/500. Took 0.58069 seconds. 
  Full-batch training loss = 0.000004, test loss = 0.231783
  Training set accuracy = 1.000000, Test set accuracy = 0.968700
 epoch 221/500. Took 0.57264 seconds. 
  Full-batch training loss = 0.000004, test loss = 0.231863
  Training set accuracy = 1.000000, Test set accuracy = 0.968700
 epoch 222/500. Took 0.57491 seconds. 
  Full-batch training loss = 0.000004, test loss = 0.231943
  Training set accuracy = 1.000000, Test set accuracy = 0.968700
 epoch 223/500. Took 0.57907 seconds. 
  Full-batch training loss = 0.000004, test loss = 0.232024
  Training set accuracy = 1.000000, Test set accuracy = 0.968700
 epoch 224/500. Took 0.59365 seconds. 
  Full-batch training loss = 0.000004, test loss = 0.232103
  Training set accuracy = 1.000000, Test set accuracy = 0.968700
 epoch 225/500. Took 0.5855 seconds. 
  Full-batch training loss = 0.000003, test loss = 0.232179
  Training set accuracy = 1.000000, Test set accuracy = 0.968700
 epoch 226/500. Took 0.57742 seconds. 
  Full-batch training loss = 0.000003, test loss = 0.232260
  Training set accuracy = 1.000000, Test set accuracy = 0.968700
 epoch 227/500. Took 0.57519 seconds. 
  Full-batch training loss = 0.000003, test loss = 0.232342
  Training set accuracy = 1.000000, Test set accuracy = 0.968600
 epoch 228/500. Took 0.58234 seconds. 
  Full-batch training loss = 0.000003, test loss = 0.232416
  Training set accuracy = 1.000000, Test set accuracy = 0.968600
 epoch 229/500. Took 0.58532 seconds. 
  Full-batch training loss = 0.000003, test loss = 0.232496
  Training set accuracy = 1.000000, Test set accuracy = 0.968600
 epoch 230/500. Took 0.57835 seconds. 
  Full-batch training loss = 0.000003, test loss = 0.232564
  Training set accuracy = 1.000000, Test set accuracy = 0.968600
 epoch 231/500. Took 0.57633 seconds. 
  Full-batch training loss = 0.000003, test loss = 0.232644
  Training set accuracy = 1.000000, Test set accuracy = 0.968600
 epoch 232/500. Took 0.57715 seconds. 
  Full-batch training loss = 0.000003, test loss = 0.232731
  Training set accuracy = 1.000000, Test set accuracy = 0.968600
 epoch 233/500. Took 0.57059 seconds. 
  Full-batch training loss = 0.000003, test loss = 0.232803
  Training set accuracy = 1.000000, Test set accuracy = 0.968600
 epoch 234/500. Took 0.58066 seconds. 
  Full-batch training loss = 0.000003, test loss = 0.232875
  Training set accuracy = 1.000000, Test set accuracy = 0.968600
 epoch 235/500. Took 0.57587 seconds. 
  Full-batch training loss = 0.000003, test loss = 0.232956
  Training set accuracy = 1.000000, Test set accuracy = 0.968600
 epoch 236/500. Took 0.57911 seconds. 
  Full-batch training loss = 0.000003, test loss = 0.233027
  Training set accuracy = 1.000000, Test set accuracy = 0.968600
 epoch 237/500. Took 0.57846 seconds. 
  Full-batch training loss = 0.000003, test loss = 0.233109
  Training set accuracy = 1.000000, Test set accuracy = 0.968600
 epoch 238/500. Took 0.59228 seconds. 
  Full-batch training loss = 0.000003, test loss = 0.233183
  Training set accuracy = 1.000000, Test set accuracy = 0.968600
 epoch 239/500. Took 0.57738 seconds. 
  Full-batch training loss = 0.000003, test loss = 0.233257
  Training set accuracy = 1.000000, Test set accuracy = 0.968600
 epoch 240/500. Took 0.57462 seconds. 
  Full-batch training loss = 0.000003, test loss = 0.233333
  Training set accuracy = 1.000000, Test set accuracy = 0.968600
 epoch 241/500. Took 0.57519 seconds. 
  Full-batch training loss = 0.000003, test loss = 0.233403
  Training set accuracy = 1.000000, Test set accuracy = 0.968700
 epoch 242/500. Took 0.57981 seconds. 
  Full-batch training loss = 0.000003, test loss = 0.233478
  Training set accuracy = 1.000000, Test set accuracy = 0.968600
 epoch 243/500. Took 0.5787 seconds. 
  Full-batch training loss = 0.000003, test loss = 0.233549
  Training set accuracy = 1.000000, Test set accuracy = 0.968600
 epoch 244/500. Took 0.57117 seconds. 
  Full-batch training loss = 0.000003, test loss = 0.233623
  Training set accuracy = 1.000000, Test set accuracy = 0.968600
 epoch 245/500. Took 0.57534 seconds. 
  Full-batch training loss = 0.000003, test loss = 0.233696
  Training set accuracy = 1.000000, Test set accuracy = 0.968600
 epoch 246/500. Took 0.5793 seconds. 
  Full-batch training loss = 0.000003, test loss = 0.233776
  Training set accuracy = 1.000000, Test set accuracy = 0.968600
 epoch 247/500. Took 0.57478 seconds. 
  Full-batch training loss = 0.000003, test loss = 0.233840
  Training set accuracy = 1.000000, Test set accuracy = 0.968600
 epoch 248/500. Took 0.59002 seconds. 
  Full-batch training loss = 0.000003, test loss = 0.233907
  Training set accuracy = 1.000000, Test set accuracy = 0.968600
 epoch 249/500. Took 0.56952 seconds. 
  Full-batch training loss = 0.000003, test loss = 0.233986
  Training set accuracy = 1.000000, Test set accuracy = 0.968700
 epoch 250/500. Took 0.57711 seconds. 
  Full-batch training loss = 0.000003, test loss = 0.234055
  Training set accuracy = 1.000000, Test set accuracy = 0.968500
 epoch 251/500. Took 0.56845 seconds. 
  Full-batch training loss = 0.000003, test loss = 0.234127
  Training set accuracy = 1.000000, Test set accuracy = 0.968600
 epoch 252/500. Took 0.58043 seconds. 
  Full-batch training loss = 0.000003, test loss = 0.234201
  Training set accuracy = 1.000000, Test set accuracy = 0.968500
 epoch 253/500. Took 0.57682 seconds. 
  Full-batch training loss = 0.000003, test loss = 0.234270
  Training set accuracy = 1.000000, Test set accuracy = 0.968500
 epoch 254/500. Took 0.57733 seconds. 
  Full-batch training loss = 0.000003, test loss = 0.234341
  Training set accuracy = 1.000000, Test set accuracy = 0.968600
 epoch 255/500. Took 0.57513 seconds. 
  Full-batch training loss = 0.000003, test loss = 0.234408
  Training set accuracy = 1.000000, Test set accuracy = 0.968500
 epoch 256/500. Took 0.57343 seconds. 
  Full-batch training loss = 0.000003, test loss = 0.234477
  Training set accuracy = 1.000000, Test set accuracy = 0.968600
 epoch 257/500. Took 0.58396 seconds. 
  Full-batch training loss = 0.000003, test loss = 0.234541
  Training set accuracy = 1.000000, Test set accuracy = 0.968600
 epoch 258/500. Took 0.57848 seconds. 
  Full-batch training loss = 0.000003, test loss = 0.234612
  Training set accuracy = 1.000000, Test set accuracy = 0.968500
 epoch 259/500. Took 0.58185 seconds. 
  Full-batch training loss = 0.000003, test loss = 0.234681
  Training set accuracy = 1.000000, Test set accuracy = 0.968500
 epoch 260/500. Took 0.57167 seconds. 
  Full-batch training loss = 0.000003, test loss = 0.234750
  Training set accuracy = 1.000000, Test set accuracy = 0.968600
 epoch 261/500. Took 0.57104 seconds. 
  Full-batch training loss = 0.000003, test loss = 0.234817
  Training set accuracy = 1.000000, Test set accuracy = 0.968500
 epoch 262/500. Took 0.57527 seconds. 
  Full-batch training loss = 0.000003, test loss = 0.234884
  Training set accuracy = 1.000000, Test set accuracy = 0.968500
 epoch 263/500. Took 0.57469 seconds. 
  Full-batch training loss = 0.000003, test loss = 0.234957
  Training set accuracy = 1.000000, Test set accuracy = 0.968600
 epoch 264/500. Took 0.5728 seconds. 
  Full-batch training loss = 0.000003, test loss = 0.235018
  Training set accuracy = 1.000000, Test set accuracy = 0.968600
 epoch 265/500. Took 0.57707 seconds. 
  Full-batch training loss = 0.000003, test loss = 0.235093
  Training set accuracy = 1.000000, Test set accuracy = 0.968600
 epoch 266/500. Took 0.581 seconds. 
  Full-batch training loss = 0.000003, test loss = 0.235154
  Training set accuracy = 1.000000, Test set accuracy = 0.968500
 epoch 267/500. Took 0.57234 seconds. 
  Full-batch training loss = 0.000003, test loss = 0.235220
  Training set accuracy = 1.000000, Test set accuracy = 0.968500
 epoch 268/500. Took 0.57902 seconds. 
  Full-batch training loss = 0.000003, test loss = 0.235283
  Training set accuracy = 1.000000, Test set accuracy = 0.968600
 epoch 269/500. Took 0.57025 seconds. 
  Full-batch training loss = 0.000003, test loss = 0.235353
  Training set accuracy = 1.000000, Test set accuracy = 0.968500
 epoch 270/500. Took 0.57163 seconds. 
  Full-batch training loss = 0.000003, test loss = 0.235418
  Training set accuracy = 1.000000, Test set accuracy = 0.968600
 epoch 271/500. Took 0.56889 seconds. 
  Full-batch training loss = 0.000003, test loss = 0.235481
  Training set accuracy = 1.000000, Test set accuracy = 0.968600
 epoch 272/500. Took 0.57837 seconds. 
  Full-batch training loss = 0.000003, test loss = 0.235550
  Training set accuracy = 1.000000, Test set accuracy = 0.968600
 epoch 273/500. Took 0.57931 seconds. 
  Full-batch training loss = 0.000003, test loss = 0.235616
  Training set accuracy = 1.000000, Test set accuracy = 0.968500
 epoch 274/500. Took 0.57609 seconds. 
  Full-batch training loss = 0.000003, test loss = 0.235679
  Training set accuracy = 1.000000, Test set accuracy = 0.968600
 epoch 275/500. Took 0.59352 seconds. 
  Full-batch training loss = 0.000003, test loss = 0.235739
  Training set accuracy = 1.000000, Test set accuracy = 0.968500
 epoch 276/500. Took 0.57402 seconds. 
  Full-batch training loss = 0.000003, test loss = 0.235803
  Training set accuracy = 1.000000, Test set accuracy = 0.968500
 epoch 277/500. Took 0.57813 seconds. 
  Full-batch training loss = 0.000003, test loss = 0.235873
  Training set accuracy = 1.000000, Test set accuracy = 0.968500
 epoch 278/500. Took 0.57289 seconds. 
  Full-batch training loss = 0.000003, test loss = 0.235938
  Training set accuracy = 1.000000, Test set accuracy = 0.968500
 epoch 279/500. Took 0.57495 seconds. 
  Full-batch training loss = 0.000003, test loss = 0.235998
  Training set accuracy = 1.000000, Test set accuracy = 0.968600
 epoch 280/500. Took 0.57266 seconds. 
  Full-batch training loss = 0.000003, test loss = 0.236065
  Training set accuracy = 1.000000, Test set accuracy = 0.968500
 epoch 281/500. Took 0.57427 seconds. 
  Full-batch training loss = 0.000003, test loss = 0.236123
  Training set accuracy = 1.000000, Test set accuracy = 0.968600
 epoch 282/500. Took 0.57728 seconds. 
  Full-batch training loss = 0.000003, test loss = 0.236188
  Training set accuracy = 1.000000, Test set accuracy = 0.968500
 epoch 283/500. Took 0.57107 seconds. 
  Full-batch training loss = 0.000003, test loss = 0.236245
  Training set accuracy = 1.000000, Test set accuracy = 0.968500
 epoch 284/500. Took 0.57326 seconds. 
  Full-batch training loss = 0.000003, test loss = 0.236312
  Training set accuracy = 1.000000, Test set accuracy = 0.968400
 epoch 285/500. Took 0.57533 seconds. 
  Full-batch training loss = 0.000003, test loss = 0.236378
  Training set accuracy = 1.000000, Test set accuracy = 0.968400
 epoch 286/500. Took 0.58615 seconds. 
  Full-batch training loss = 0.000003, test loss = 0.236430
  Training set accuracy = 1.000000, Test set accuracy = 0.968400
 epoch 287/500. Took 0.57846 seconds. 
  Full-batch training loss = 0.000003, test loss = 0.236498
  Training set accuracy = 1.000000, Test set accuracy = 0.968400
 epoch 288/500. Took 0.58024 seconds. 
  Full-batch training loss = 0.000003, test loss = 0.236554
  Training set accuracy = 1.000000, Test set accuracy = 0.968400
 epoch 289/500. Took 0.57292 seconds. 
  Full-batch training loss = 0.000003, test loss = 0.236619
  Training set accuracy = 1.000000, Test set accuracy = 0.968400
 epoch 290/500. Took 0.57274 seconds. 
  Full-batch training loss = 0.000003, test loss = 0.236678
  Training set accuracy = 1.000000, Test set accuracy = 0.968400
 epoch 291/500. Took 0.57503 seconds. 
  Full-batch training loss = 0.000003, test loss = 0.236740
  Training set accuracy = 1.000000, Test set accuracy = 0.968400
 epoch 292/500. Took 0.57038 seconds. 
  Full-batch training loss = 0.000003, test loss = 0.236799
  Training set accuracy = 1.000000, Test set accuracy = 0.968400
 epoch 293/500. Took 0.5791 seconds. 
  Full-batch training loss = 0.000003, test loss = 0.236859
  Training set accuracy = 1.000000, Test set accuracy = 0.968400
 epoch 294/500. Took 0.59421 seconds. 
  Full-batch training loss = 0.000003, test loss = 0.236924
  Training set accuracy = 1.000000, Test set accuracy = 0.968400
 epoch 295/500. Took 0.59443 seconds. 
  Full-batch training loss = 0.000003, test loss = 0.236977
  Training set accuracy = 1.000000, Test set accuracy = 0.968400
 epoch 296/500. Took 0.58561 seconds. 
  Full-batch training loss = 0.000003, test loss = 0.237040
  Training set accuracy = 1.000000, Test set accuracy = 0.968400
 epoch 297/500. Took 0.57934 seconds. 
  Full-batch training loss = 0.000003, test loss = 0.237098
  Training set accuracy = 1.000000, Test set accuracy = 0.968400
 epoch 298/500. Took 0.68659 seconds. 
  Full-batch training loss = 0.000003, test loss = 0.237158
  Training set accuracy = 1.000000, Test set accuracy = 0.968400
 epoch 299/500. Took 0.57912 seconds. 
  Full-batch training loss = 0.000003, test loss = 0.237210
  Training set accuracy = 1.000000, Test set accuracy = 0.968400
 epoch 300/500. Took 0.58676 seconds. 
  Full-batch training loss = 0.000003, test loss = 0.237276
  Training set accuracy = 1.000000, Test set accuracy = 0.968400
 epoch 301/500. Took 0.58126 seconds. 
  Full-batch training loss = 0.000003, test loss = 0.237336
  Training set accuracy = 1.000000, Test set accuracy = 0.968400
 epoch 302/500. Took 0.60954 seconds. 
  Full-batch training loss = 0.000003, test loss = 0.237392
  Training set accuracy = 1.000000, Test set accuracy = 0.968400
 epoch 303/500. Took 0.59901 seconds. 
  Full-batch training loss = 0.000002, test loss = 0.237451
  Training set accuracy = 1.000000, Test set accuracy = 0.968400
 epoch 304/500. Took 0.57553 seconds. 
  Full-batch training loss = 0.000002, test loss = 0.237511
  Training set accuracy = 1.000000, Test set accuracy = 0.968400
 epoch 305/500. Took 0.57798 seconds. 
  Full-batch training loss = 0.000002, test loss = 0.237566
  Training set accuracy = 1.000000, Test set accuracy = 0.968400
 epoch 306/500. Took 0.57687 seconds. 
  Full-batch training loss = 0.000002, test loss = 0.237624
  Training set accuracy = 1.000000, Test set accuracy = 0.968400
 epoch 307/500. Took 0.57744 seconds. 
  Full-batch training loss = 0.000002, test loss = 0.237679
  Training set accuracy = 1.000000, Test set accuracy = 0.968400
 epoch 308/500. Took 0.57259 seconds. 
  Full-batch training loss = 0.000002, test loss = 0.237741
  Training set accuracy = 1.000000, Test set accuracy = 0.968400
 epoch 309/500. Took 0.57945 seconds. 
  Full-batch training loss = 0.000002, test loss = 0.237794
  Training set accuracy = 1.000000, Test set accuracy = 0.968400
 epoch 310/500. Took 0.57212 seconds. 
  Full-batch training loss = 0.000002, test loss = 0.237850
  Training set accuracy = 1.000000, Test set accuracy = 0.968400
 epoch 311/500. Took 0.57698 seconds. 
  Full-batch training loss = 0.000002, test loss = 0.237905
  Training set accuracy = 1.000000, Test set accuracy = 0.968400
 epoch 312/500. Took 0.57887 seconds. 
  Full-batch training loss = 0.000002, test loss = 0.237963
  Training set accuracy = 1.000000, Test set accuracy = 0.968400
 epoch 313/500. Took 0.57377 seconds. 
  Full-batch training loss = 0.000002, test loss = 0.238022
  Training set accuracy = 1.000000, Test set accuracy = 0.968400
 epoch 314/500. Took 0.57914 seconds. 
  Full-batch training loss = 0.000002, test loss = 0.238079
  Training set accuracy = 1.000000, Test set accuracy = 0.968400
 epoch 315/500. Took 0.5786 seconds. 
  Full-batch training loss = 0.000002, test loss = 0.238138
  Training set accuracy = 1.000000, Test set accuracy = 0.968400
 epoch 316/500. Took 0.57403 seconds. 
  Full-batch training loss = 0.000002, test loss = 0.238188
  Training set accuracy = 1.000000, Test set accuracy = 0.968400
 epoch 317/500. Took 0.57089 seconds. 
  Full-batch training loss = 0.000002, test loss = 0.238247
  Training set accuracy = 1.000000, Test set accuracy = 0.968400
 epoch 318/500. Took 0.58946 seconds. 
  Full-batch training loss = 0.000002, test loss = 0.238299
  Training set accuracy = 1.000000, Test set accuracy = 0.968400
 epoch 319/500. Took 0.5636 seconds. 
  Full-batch training loss = 0.000002, test loss = 0.238354
  Training set accuracy = 1.000000, Test set accuracy = 0.968400
 epoch 320/500. Took 0.57551 seconds. 
  Full-batch training loss = 0.000002, test loss = 0.238411
  Training set accuracy = 1.000000, Test set accuracy = 0.968400
 epoch 321/500. Took 0.57813 seconds. 
  Full-batch training loss = 0.000002, test loss = 0.238467
  Training set accuracy = 1.000000, Test set accuracy = 0.968400
 epoch 322/500. Took 0.57829 seconds. 
  Full-batch training loss = 0.000002, test loss = 0.238521
  Training set accuracy = 1.000000, Test set accuracy = 0.968400
 epoch 323/500. Took 0.5764 seconds. 
  Full-batch training loss = 0.000002, test loss = 0.238575
  Training set accuracy = 1.000000, Test set accuracy = 0.968400
 epoch 324/500. Took 0.58206 seconds. 
  Full-batch training loss = 0.000002, test loss = 0.238628
  Training set accuracy = 1.000000, Test set accuracy = 0.968400
 epoch 325/500. Took 0.58183 seconds. 
  Full-batch training loss = 0.000002, test loss = 0.238686
  Training set accuracy = 1.000000, Test set accuracy = 0.968400
 epoch 326/500. Took 0.57968 seconds. 
  Full-batch training loss = 0.000002, test loss = 0.238736
  Training set accuracy = 1.000000, Test set accuracy = 0.968400
 epoch 327/500. Took 0.57872 seconds. 
  Full-batch training loss = 0.000002, test loss = 0.238790
  Training set accuracy = 1.000000, Test set accuracy = 0.968400
 epoch 328/500. Took 0.57393 seconds. 
  Full-batch training loss = 0.000002, test loss = 0.238848
  Training set accuracy = 1.000000, Test set accuracy = 0.968400
 epoch 329/500. Took 0.57085 seconds. 
  Full-batch training loss = 0.000002, test loss = 0.238900
  Training set accuracy = 1.000000, Test set accuracy = 0.968400
 epoch 330/500. Took 0.57249 seconds. 
  Full-batch training loss = 0.000002, test loss = 0.238953
  Training set accuracy = 1.000000, Test set accuracy = 0.968400
 epoch 331/500. Took 0.57585 seconds. 
  Full-batch training loss = 0.000002, test loss = 0.239009
  Training set accuracy = 1.000000, Test set accuracy = 0.968400
 epoch 332/500. Took 0.57411 seconds. 
  Full-batch training loss = 0.000002, test loss = 0.239064
  Training set accuracy = 1.000000, Test set accuracy = 0.968400
 epoch 333/500. Took 0.57695 seconds. 
  Full-batch training loss = 0.000002, test loss = 0.239111
  Training set accuracy = 1.000000, Test set accuracy = 0.968400
 epoch 334/500. Took 0.57429 seconds. 
  Full-batch training loss = 0.000002, test loss = 0.239166
  Training set accuracy = 1.000000, Test set accuracy = 0.968400
 epoch 335/500. Took 0.57755 seconds. 
  Full-batch training loss = 0.000002, test loss = 0.239219
  Training set accuracy = 1.000000, Test set accuracy = 0.968400
 epoch 336/500. Took 0.57708 seconds. 
  Full-batch training loss = 0.000002, test loss = 0.239267
  Training set accuracy = 1.000000, Test set accuracy = 0.968400
 epoch 337/500. Took 0.60586 seconds. 
  Full-batch training loss = 0.000002, test loss = 0.239324
  Training set accuracy = 1.000000, Test set accuracy = 0.968400
 epoch 338/500. Took 0.5804 seconds. 
  Full-batch training loss = 0.000002, test loss = 0.239375
  Training set accuracy = 1.000000, Test set accuracy = 0.968400
 epoch 339/500. Took 0.58013 seconds. 
  Full-batch training loss = 0.000002, test loss = 0.239425
  Training set accuracy = 1.000000, Test set accuracy = 0.968400
 epoch 340/500. Took 0.58001 seconds. 
  Full-batch training loss = 0.000002, test loss = 0.239479
  Training set accuracy = 1.000000, Test set accuracy = 0.968400
 epoch 341/500. Took 0.57305 seconds. 
  Full-batch training loss = 0.000002, test loss = 0.239531
  Training set accuracy = 1.000000, Test set accuracy = 0.968400
 epoch 342/500. Took 0.58099 seconds. 
  Full-batch training loss = 0.000002, test loss = 0.239584
  Training set accuracy = 1.000000, Test set accuracy = 0.968400
 epoch 343/500. Took 0.57441 seconds. 
  Full-batch training loss = 0.000002, test loss = 0.239634
  Training set accuracy = 1.000000, Test set accuracy = 0.968400
 epoch 344/500. Took 0.61441 seconds. 
  Full-batch training loss = 0.000002, test loss = 0.239689
  Training set accuracy = 1.000000, Test set accuracy = 0.968400
 epoch 345/500. Took 0.61404 seconds. 
  Full-batch training loss = 0.000002, test loss = 0.239740
  Training set accuracy = 1.000000, Test set accuracy = 0.968400
 epoch 346/500. Took 0.58707 seconds. 
  Full-batch training loss = 0.000002, test loss = 0.239789
  Training set accuracy = 1.000000, Test set accuracy = 0.968400
 epoch 347/500. Took 0.57886 seconds. 
  Full-batch training loss = 0.000002, test loss = 0.239837
  Training set accuracy = 1.000000, Test set accuracy = 0.968400
 epoch 348/500. Took 0.58072 seconds. 
  Full-batch training loss = 0.000002, test loss = 0.239889
  Training set accuracy = 1.000000, Test set accuracy = 0.968400
 epoch 349/500. Took 0.57448 seconds. 
  Full-batch training loss = 0.000002, test loss = 0.239940
  Training set accuracy = 1.000000, Test set accuracy = 0.968400
 epoch 350/500. Took 0.60605 seconds. 
  Full-batch training loss = 0.000002, test loss = 0.239989
  Training set accuracy = 1.000000, Test set accuracy = 0.968400
 epoch 351/500. Took 0.58423 seconds. 
  Full-batch training loss = 0.000002, test loss = 0.240045
  Training set accuracy = 1.000000, Test set accuracy = 0.968400
 epoch 352/500. Took 0.57862 seconds. 
  Full-batch training loss = 0.000002, test loss = 0.240088
  Training set accuracy = 1.000000, Test set accuracy = 0.968400
 epoch 353/500. Took 0.581 seconds. 
  Full-batch training loss = 0.000002, test loss = 0.240140
  Training set accuracy = 1.000000, Test set accuracy = 0.968400
 epoch 354/500. Took 0.58076 seconds. 
  Full-batch training loss = 0.000002, test loss = 0.240192
  Training set accuracy = 1.000000, Test set accuracy = 0.968400
 epoch 355/500. Took 0.58127 seconds. 
  Full-batch training loss = 0.000002, test loss = 0.240243
  Training set accuracy = 1.000000, Test set accuracy = 0.968400
 epoch 356/500. Took 0.57254 seconds. 
  Full-batch training loss = 0.000002, test loss = 0.240291
  Training set accuracy = 1.000000, Test set accuracy = 0.968400
 epoch 357/500. Took 0.57404 seconds. 
  Full-batch training loss = 0.000002, test loss = 0.240337
  Training set accuracy = 1.000000, Test set accuracy = 0.968400
 epoch 358/500. Took 0.57933 seconds. 
  Full-batch training loss = 0.000002, test loss = 0.240386
  Training set accuracy = 1.000000, Test set accuracy = 0.968400
 epoch 359/500. Took 0.57634 seconds. 
  Full-batch training loss = 0.000002, test loss = 0.240433
  Training set accuracy = 1.000000, Test set accuracy = 0.968400
 epoch 360/500. Took 0.57789 seconds. 
  Full-batch training loss = 0.000002, test loss = 0.240489
  Training set accuracy = 1.000000, Test set accuracy = 0.968400
 epoch 361/500. Took 0.57304 seconds. 
  Full-batch training loss = 0.000002, test loss = 0.240536
  Training set accuracy = 1.000000, Test set accuracy = 0.968400
 epoch 362/500. Took 0.5765 seconds. 
  Full-batch training loss = 0.000002, test loss = 0.240582
  Training set accuracy = 1.000000, Test set accuracy = 0.968400
 epoch 363/500. Took 0.58406 seconds. 
  Full-batch training loss = 0.000002, test loss = 0.240631
  Training set accuracy = 1.000000, Test set accuracy = 0.968400
 epoch 364/500. Took 0.5765 seconds. 
  Full-batch training loss = 0.000002, test loss = 0.240679
  Training set accuracy = 1.000000, Test set accuracy = 0.968400
 epoch 365/500. Took 0.58129 seconds. 
  Full-batch training loss = 0.000002, test loss = 0.240724
  Training set accuracy = 1.000000, Test set accuracy = 0.968400
 epoch 366/500. Took 0.57266 seconds. 
  Full-batch training loss = 0.000002, test loss = 0.240775
  Training set accuracy = 1.000000, Test set accuracy = 0.968400
 epoch 367/500. Took 0.57686 seconds. 
  Full-batch training loss = 0.000002, test loss = 0.240825
  Training set accuracy = 1.000000, Test set accuracy = 0.968400
 epoch 368/500. Took 0.57642 seconds. 
  Full-batch training loss = 0.000002, test loss = 0.240874
  Training set accuracy = 1.000000, Test set accuracy = 0.968400
 epoch 369/500. Took 0.57372 seconds. 
  Full-batch training loss = 0.000002, test loss = 0.240921
  Training set accuracy = 1.000000, Test set accuracy = 0.968400
 epoch 370/500. Took 0.59772 seconds. 
  Full-batch training loss = 0.000002, test loss = 0.240965
  Training set accuracy = 1.000000, Test set accuracy = 0.968400
 epoch 371/500. Took 0.57458 seconds. 
  Full-batch training loss = 0.000002, test loss = 0.241011
  Training set accuracy = 1.000000, Test set accuracy = 0.968400
 epoch 372/500. Took 0.57534 seconds. 
  Full-batch training loss = 0.000002, test loss = 0.241063
  Training set accuracy = 1.000000, Test set accuracy = 0.968400
 epoch 373/500. Took 0.57496 seconds. 
  Full-batch training loss = 0.000002, test loss = 0.241108
  Training set accuracy = 1.000000, Test set accuracy = 0.968400
 epoch 374/500. Took 0.56612 seconds. 
  Full-batch training loss = 0.000002, test loss = 0.241156
  Training set accuracy = 1.000000, Test set accuracy = 0.968400
 epoch 375/500. Took 0.57073 seconds. 
  Full-batch training loss = 0.000002, test loss = 0.241201
  Training set accuracy = 1.000000, Test set accuracy = 0.968400
 epoch 376/500. Took 0.57457 seconds. 
  Full-batch training loss = 0.000002, test loss = 0.241251
  Training set accuracy = 1.000000, Test set accuracy = 0.968400
 epoch 377/500. Took 0.57222 seconds. 
  Full-batch training loss = 0.000002, test loss = 0.241294
  Training set accuracy = 1.000000, Test set accuracy = 0.968400
 epoch 378/500. Took 0.57363 seconds. 
  Full-batch training loss = 0.000002, test loss = 0.241342
  Training set accuracy = 1.000000, Test set accuracy = 0.968400
 epoch 379/500. Took 0.57395 seconds. 
  Full-batch training loss = 0.000002, test loss = 0.241385
  Training set accuracy = 1.000000, Test set accuracy = 0.968400
 epoch 380/500. Took 0.58054 seconds. 
  Full-batch training loss = 0.000002, test loss = 0.241434
  Training set accuracy = 1.000000, Test set accuracy = 0.968400
 epoch 381/500. Took 0.58074 seconds. 
  Full-batch training loss = 0.000002, test loss = 0.241480
  Training set accuracy = 1.000000, Test set accuracy = 0.968400
 epoch 382/500. Took 0.57359 seconds. 
  Full-batch training loss = 0.000002, test loss = 0.241524
  Training set accuracy = 1.000000, Test set accuracy = 0.968400
 epoch 383/500. Took 0.5984 seconds. 
  Full-batch training loss = 0.000002, test loss = 0.241573
  Training set accuracy = 1.000000, Test set accuracy = 0.968400
 epoch 384/500. Took 0.572 seconds. 
  Full-batch training loss = 0.000002, test loss = 0.241614
  Training set accuracy = 1.000000, Test set accuracy = 0.968400
 epoch 385/500. Took 0.57761 seconds. 
  Full-batch training loss = 0.000002, test loss = 0.241658
  Training set accuracy = 1.000000, Test set accuracy = 0.968400
 epoch 386/500. Took 0.5757 seconds. 
  Full-batch training loss = 0.000002, test loss = 0.241702
  Training set accuracy = 1.000000, Test set accuracy = 0.968400
 epoch 387/500. Took 0.57316 seconds. 
  Full-batch training loss = 0.000002, test loss = 0.241754
  Training set accuracy = 1.000000, Test set accuracy = 0.968400
 epoch 388/500. Took 0.57446 seconds. 
  Full-batch training loss = 0.000002, test loss = 0.241800
  Training set accuracy = 1.000000, Test set accuracy = 0.968400
 epoch 389/500. Took 0.57505 seconds. 
  Full-batch training loss = 0.000002, test loss = 0.241843
  Training set accuracy = 1.000000, Test set accuracy = 0.968400
 epoch 390/500. Took 0.5778 seconds. 
  Full-batch training loss = 0.000002, test loss = 0.241883
  Training set accuracy = 1.000000, Test set accuracy = 0.968400
 epoch 391/500. Took 0.57123 seconds. 
  Full-batch training loss = 0.000002, test loss = 0.241932
  Training set accuracy = 1.000000, Test set accuracy = 0.968400
 epoch 392/500. Took 0.56746 seconds. 
  Full-batch training loss = 0.000002, test loss = 0.241976
  Training set accuracy = 1.000000, Test set accuracy = 0.968400
 epoch 393/500. Took 0.57902 seconds. 
  Full-batch training loss = 0.000002, test loss = 0.242020
  Training set accuracy = 1.000000, Test set accuracy = 0.968400
 epoch 394/500. Took 0.57008 seconds. 
  Full-batch training loss = 0.000002, test loss = 0.242068
  Training set accuracy = 1.000000, Test set accuracy = 0.968400
 epoch 395/500. Took 0.58397 seconds. 
  Full-batch training loss = 0.000002, test loss = 0.242110
  Training set accuracy = 1.000000, Test set accuracy = 0.968400
 epoch 396/500. Took 0.57417 seconds. 
  Full-batch training loss = 0.000002, test loss = 0.242154
  Training set accuracy = 1.000000, Test set accuracy = 0.968400
 epoch 397/500. Took 0.57468 seconds. 
  Full-batch training loss = 0.000002, test loss = 0.242195
  Training set accuracy = 1.000000, Test set accuracy = 0.968400
 epoch 398/500. Took 0.57462 seconds. 
  Full-batch training loss = 0.000002, test loss = 0.242241
  Training set accuracy = 1.000000, Test set accuracy = 0.968300
 epoch 399/500. Took 0.5765 seconds. 
  Full-batch training loss = 0.000002, test loss = 0.242287
  Training set accuracy = 1.000000, Test set accuracy = 0.968300
 epoch 400/500. Took 0.5733 seconds. 
  Full-batch training loss = 0.000002, test loss = 0.242328
  Training set accuracy = 1.000000, Test set accuracy = 0.968300
 epoch 401/500. Took 0.58037 seconds. 
  Full-batch training loss = 0.000002, test loss = 0.242375
  Training set accuracy = 1.000000, Test set accuracy = 0.968300
 epoch 402/500. Took 0.57405 seconds. 
  Full-batch training loss = 0.000002, test loss = 0.242415
  Training set accuracy = 1.000000, Test set accuracy = 0.968300
 epoch 403/500. Took 0.57955 seconds. 
  Full-batch training loss = 0.000002, test loss = 0.242461
  Training set accuracy = 1.000000, Test set accuracy = 0.968300
 epoch 404/500. Took 0.57061 seconds. 
  Full-batch training loss = 0.000002, test loss = 0.242503
  Training set accuracy = 1.000000, Test set accuracy = 0.968300
 epoch 405/500. Took 0.57606 seconds. 
  Full-batch training loss = 0.000002, test loss = 0.242547
  Training set accuracy = 1.000000, Test set accuracy = 0.968300
 epoch 406/500. Took 0.58764 seconds. 
  Full-batch training loss = 0.000002, test loss = 0.242589
  Training set accuracy = 1.000000, Test set accuracy = 0.968300
 epoch 407/500. Took 0.57581 seconds. 
  Full-batch training loss = 0.000002, test loss = 0.242632
  Training set accuracy = 1.000000, Test set accuracy = 0.968300
 epoch 408/500. Took 0.57883 seconds. 
  Full-batch training loss = 0.000002, test loss = 0.242674
  Training set accuracy = 1.000000, Test set accuracy = 0.968300
 epoch 409/500. Took 0.57168 seconds. 
  Full-batch training loss = 0.000002, test loss = 0.242717
  Training set accuracy = 1.000000, Test set accuracy = 0.968300
 epoch 410/500. Took 0.57976 seconds. 
  Full-batch training loss = 0.000002, test loss = 0.242760
  Training set accuracy = 1.000000, Test set accuracy = 0.968300
 epoch 411/500. Took 0.57693 seconds. 
  Full-batch training loss = 0.000002, test loss = 0.242803
  Training set accuracy = 1.000000, Test set accuracy = 0.968300
 epoch 412/500. Took 0.58147 seconds. 
  Full-batch training loss = 0.000002, test loss = 0.242845
  Training set accuracy = 1.000000, Test set accuracy = 0.968300
 epoch 413/500. Took 0.57973 seconds. 
  Full-batch training loss = 0.000002, test loss = 0.242890
  Training set accuracy = 1.000000, Test set accuracy = 0.968300
 epoch 414/500. Took 0.57299 seconds. 
  Full-batch training loss = 0.000002, test loss = 0.242931
  Training set accuracy = 1.000000, Test set accuracy = 0.968300
 epoch 415/500. Took 0.57922 seconds. 
  Full-batch training loss = 0.000002, test loss = 0.242971
  Training set accuracy = 1.000000, Test set accuracy = 0.968300
 epoch 416/500. Took 0.58765 seconds. 
  Full-batch training loss = 0.000002, test loss = 0.243016
  Training set accuracy = 1.000000, Test set accuracy = 0.968300
 epoch 417/500. Took 0.57328 seconds. 
  Full-batch training loss = 0.000002, test loss = 0.243057
  Training set accuracy = 1.000000, Test set accuracy = 0.968300
 epoch 418/500. Took 0.56699 seconds. 
  Full-batch training loss = 0.000002, test loss = 0.243098
  Training set accuracy = 1.000000, Test set accuracy = 0.968300
 epoch 419/500. Took 0.57782 seconds. 
  Full-batch training loss = 0.000002, test loss = 0.243136
  Training set accuracy = 1.000000, Test set accuracy = 0.968300
 epoch 420/500. Took 0.57299 seconds. 
  Full-batch training loss = 0.000002, test loss = 0.243182
  Training set accuracy = 1.000000, Test set accuracy = 0.968300
 epoch 421/500. Took 0.57794 seconds. 
  Full-batch training loss = 0.000002, test loss = 0.243224
  Training set accuracy = 1.000000, Test set accuracy = 0.968300
 epoch 422/500. Took 0.57693 seconds. 
  Full-batch training loss = 0.000002, test loss = 0.243264
  Training set accuracy = 1.000000, Test set accuracy = 0.968300
 epoch 423/500. Took 0.5772 seconds. 
  Full-batch training loss = 0.000002, test loss = 0.243307
  Training set accuracy = 1.000000, Test set accuracy = 0.968300
 epoch 424/500. Took 0.57759 seconds. 
  Full-batch training loss = 0.000002, test loss = 0.243346
  Training set accuracy = 1.000000, Test set accuracy = 0.968300
 epoch 425/500. Took 0.58445 seconds. 
  Full-batch training loss = 0.000002, test loss = 0.243390
  Training set accuracy = 1.000000, Test set accuracy = 0.968300
 epoch 426/500. Took 0.5781 seconds. 
  Full-batch training loss = 0.000002, test loss = 0.243431
  Training set accuracy = 1.000000, Test set accuracy = 0.968300
 epoch 427/500. Took 0.57972 seconds. 
  Full-batch training loss = 0.000002, test loss = 0.243469
  Training set accuracy = 1.000000, Test set accuracy = 0.968300
 epoch 428/500. Took 0.57385 seconds. 
  Full-batch training loss = 0.000002, test loss = 0.243511
  Training set accuracy = 1.000000, Test set accuracy = 0.968300
 epoch 429/500. Took 0.57846 seconds. 
  Full-batch training loss = 0.000002, test loss = 0.243553
  Training set accuracy = 1.000000, Test set accuracy = 0.968300
 epoch 430/500. Took 0.57858 seconds. 
  Full-batch training loss = 0.000002, test loss = 0.243594
  Training set accuracy = 1.000000, Test set accuracy = 0.968300
 epoch 431/500. Took 0.57099 seconds. 
  Full-batch training loss = 0.000002, test loss = 0.243633
  Training set accuracy = 1.000000, Test set accuracy = 0.968300
 epoch 432/500. Took 0.5778 seconds. 
  Full-batch training loss = 0.000002, test loss = 0.243673
  Training set accuracy = 1.000000, Test set accuracy = 0.968300
 epoch 433/500. Took 0.57409 seconds. 
  Full-batch training loss = 0.000002, test loss = 0.243717
  Training set accuracy = 1.000000, Test set accuracy = 0.968300
 epoch 434/500. Took 0.57723 seconds. 
  Full-batch training loss = 0.000002, test loss = 0.243754
  Training set accuracy = 1.000000, Test set accuracy = 0.968300
 epoch 435/500. Took 0.57824 seconds. 
  Full-batch training loss = 0.000002, test loss = 0.243796
  Training set accuracy = 1.000000, Test set accuracy = 0.968300
 epoch 436/500. Took 0.5803 seconds. 
  Full-batch training loss = 0.000002, test loss = 0.243837
  Training set accuracy = 1.000000, Test set accuracy = 0.968300
 epoch 437/500. Took 0.57822 seconds. 
  Full-batch training loss = 0.000002, test loss = 0.243876
  Training set accuracy = 1.000000, Test set accuracy = 0.968300
 epoch 438/500. Took 0.58 seconds. 
  Full-batch training loss = 0.000002, test loss = 0.243915
  Training set accuracy = 1.000000, Test set accuracy = 0.968300
 epoch 439/500. Took 0.62173 seconds. 
  Full-batch training loss = 0.000002, test loss = 0.243955
  Training set accuracy = 1.000000, Test set accuracy = 0.968300
 epoch 440/500. Took 0.58775 seconds. 
  Full-batch training loss = 0.000002, test loss = 0.243996
  Training set accuracy = 1.000000, Test set accuracy = 0.968300
 epoch 441/500. Took 0.57383 seconds. 
  Full-batch training loss = 0.000002, test loss = 0.244036
  Training set accuracy = 1.000000, Test set accuracy = 0.968300
 epoch 442/500. Took 0.56982 seconds. 
  Full-batch training loss = 0.000002, test loss = 0.244075
  Training set accuracy = 1.000000, Test set accuracy = 0.968300
 epoch 443/500. Took 0.57179 seconds. 
  Full-batch training loss = 0.000002, test loss = 0.244115
  Training set accuracy = 1.000000, Test set accuracy = 0.968300
 epoch 444/500. Took 0.58176 seconds. 
  Full-batch training loss = 0.000002, test loss = 0.244152
  Training set accuracy = 1.000000, Test set accuracy = 0.968300
 epoch 445/500. Took 0.57673 seconds. 
  Full-batch training loss = 0.000002, test loss = 0.244194
  Training set accuracy = 1.000000, Test set accuracy = 0.968300
 epoch 446/500. Took 0.56795 seconds. 
  Full-batch training loss = 0.000002, test loss = 0.244233
  Training set accuracy = 1.000000, Test set accuracy = 0.968300
 epoch 447/500. Took 0.57708 seconds. 
  Full-batch training loss = 0.000002, test loss = 0.244269
  Training set accuracy = 1.000000, Test set accuracy = 0.968300
 epoch 448/500. Took 0.57348 seconds. 
  Full-batch training loss = 0.000002, test loss = 0.244312
  Training set accuracy = 1.000000, Test set accuracy = 0.968300
 epoch 449/500. Took 0.5695 seconds. 
  Full-batch training loss = 0.000002, test loss = 0.244350
  Training set accuracy = 1.000000, Test set accuracy = 0.968300
 epoch 450/500. Took 0.56826 seconds. 
  Full-batch training loss = 0.000002, test loss = 0.244390
  Training set accuracy = 1.000000, Test set accuracy = 0.968300
 epoch 451/500. Took 0.58199 seconds. 
  Full-batch training loss = 0.000002, test loss = 0.244428
  Training set accuracy = 1.000000, Test set accuracy = 0.968300
 epoch 452/500. Took 0.57472 seconds. 
  Full-batch training loss = 0.000002, test loss = 0.244469
  Training set accuracy = 1.000000, Test set accuracy = 0.968300
 epoch 453/500. Took 0.57305 seconds. 
  Full-batch training loss = 0.000002, test loss = 0.244506
  Training set accuracy = 1.000000, Test set accuracy = 0.968300
 epoch 454/500. Took 0.58622 seconds. 
  Full-batch training loss = 0.000002, test loss = 0.244544
  Training set accuracy = 1.000000, Test set accuracy = 0.968300
 epoch 455/500. Took 0.57485 seconds. 
  Full-batch training loss = 0.000002, test loss = 0.244584
  Training set accuracy = 1.000000, Test set accuracy = 0.968300
 epoch 456/500. Took 0.57234 seconds. 
  Full-batch training loss = 0.000002, test loss = 0.244620
  Training set accuracy = 1.000000, Test set accuracy = 0.968300
 epoch 457/500. Took 0.57571 seconds. 
  Full-batch training loss = 0.000002, test loss = 0.244661
  Training set accuracy = 1.000000, Test set accuracy = 0.968300
 epoch 458/500. Took 0.57872 seconds. 
  Full-batch training loss = 0.000002, test loss = 0.244699
  Training set accuracy = 1.000000, Test set accuracy = 0.968300
 epoch 459/500. Took 0.58208 seconds. 
  Full-batch training loss = 0.000002, test loss = 0.244737
  Training set accuracy = 1.000000, Test set accuracy = 0.968300
 epoch 460/500. Took 0.57983 seconds. 
  Full-batch training loss = 0.000002, test loss = 0.244775
  Training set accuracy = 1.000000, Test set accuracy = 0.968300
 epoch 461/500. Took 0.57695 seconds. 
  Full-batch training loss = 0.000002, test loss = 0.244811
  Training set accuracy = 1.000000, Test set accuracy = 0.968300
 epoch 462/500. Took 0.58044 seconds. 
  Full-batch training loss = 0.000002, test loss = 0.244851
  Training set accuracy = 1.000000, Test set accuracy = 0.968300
 epoch 463/500. Took 0.57931 seconds. 
  Full-batch training loss = 0.000002, test loss = 0.244890
  Training set accuracy = 1.000000, Test set accuracy = 0.968300
 epoch 464/500. Took 0.57512 seconds. 
  Full-batch training loss = 0.000002, test loss = 0.244927
  Training set accuracy = 1.000000, Test set accuracy = 0.968300
 epoch 465/500. Took 0.57604 seconds. 
  Full-batch training loss = 0.000002, test loss = 0.244966
  Training set accuracy = 1.000000, Test set accuracy = 0.968300
 epoch 466/500. Took 0.5799 seconds. 
  Full-batch training loss = 0.000002, test loss = 0.245002
  Training set accuracy = 1.000000, Test set accuracy = 0.968300
 epoch 467/500. Took 0.57459 seconds. 
  Full-batch training loss = 0.000002, test loss = 0.245041
  Training set accuracy = 1.000000, Test set accuracy = 0.968300
 epoch 468/500. Took 0.57403 seconds. 
  Full-batch training loss = 0.000002, test loss = 0.245076
  Training set accuracy = 1.000000, Test set accuracy = 0.968300
 epoch 469/500. Took 0.57407 seconds. 
  Full-batch training loss = 0.000002, test loss = 0.245114
  Training set accuracy = 1.000000, Test set accuracy = 0.968300
 epoch 470/500. Took 0.56941 seconds. 
  Full-batch training loss = 0.000002, test loss = 0.245155
  Training set accuracy = 1.000000, Test set accuracy = 0.968300
 epoch 471/500. Took 0.57226 seconds. 
  Full-batch training loss = 0.000002, test loss = 0.245191
  Training set accuracy = 1.000000, Test set accuracy = 0.968300
 epoch 472/500. Took 0.57363 seconds. 
  Full-batch training loss = 0.000002, test loss = 0.245226
  Training set accuracy = 1.000000, Test set accuracy = 0.968300
 epoch 473/500. Took 0.5783 seconds. 
  Full-batch training loss = 0.000002, test loss = 0.245265
  Training set accuracy = 1.000000, Test set accuracy = 0.968300
 epoch 474/500. Took 0.57535 seconds. 
  Full-batch training loss = 0.000002, test loss = 0.245299
  Training set accuracy = 1.000000, Test set accuracy = 0.968300
 epoch 475/500. Took 0.57185 seconds. 
  Full-batch training loss = 0.000002, test loss = 0.245341
  Training set accuracy = 1.000000, Test set accuracy = 0.968300
 epoch 476/500. Took 0.57738 seconds. 
  Full-batch training loss = 0.000002, test loss = 0.245372
  Training set accuracy = 1.000000, Test set accuracy = 0.968300
 epoch 477/500. Took 0.57536 seconds. 
  Full-batch training loss = 0.000001, test loss = 0.245407
  Training set accuracy = 1.000000, Test set accuracy = 0.968300
 epoch 478/500. Took 0.57444 seconds. 
  Full-batch training loss = 0.000001, test loss = 0.245443
  Training set accuracy = 1.000000, Test set accuracy = 0.968300
 epoch 479/500. Took 0.57625 seconds. 
  Full-batch training loss = 0.000001, test loss = 0.245484
  Training set accuracy = 1.000000, Test set accuracy = 0.968300
 epoch 480/500. Took 0.57452 seconds. 
  Full-batch training loss = 0.000001, test loss = 0.245521
  Training set accuracy = 1.000000, Test set accuracy = 0.968300
 epoch 481/500. Took 0.57723 seconds. 
  Full-batch training loss = 0.000001, test loss = 0.245558
  Training set accuracy = 1.000000, Test set accuracy = 0.968300
 epoch 482/500. Took 0.57823 seconds. 
  Full-batch training loss = 0.000001, test loss = 0.245592
  Training set accuracy = 1.000000, Test set accuracy = 0.968300
 epoch 483/500. Took 0.57932 seconds. 
  Full-batch training loss = 0.000001, test loss = 0.245630
  Training set accuracy = 1.000000, Test set accuracy = 0.968300
 epoch 484/500. Took 0.57192 seconds. 
  Full-batch training loss = 0.000001, test loss = 0.245666
  Training set accuracy = 1.000000, Test set accuracy = 0.968300
 epoch 485/500. Took 0.57352 seconds. 
  Full-batch training loss = 0.000001, test loss = 0.245699
  Training set accuracy = 1.000000, Test set accuracy = 0.968300
 epoch 486/500. Took 0.57579 seconds. 
  Full-batch training loss = 0.000001, test loss = 0.245736
  Training set accuracy = 1.000000, Test set accuracy = 0.968300
 epoch 487/500. Took 0.58426 seconds. 
  Full-batch training loss = 0.000001, test loss = 0.245770
  Training set accuracy = 1.000000, Test set accuracy = 0.968300
 epoch 488/500. Took 0.58267 seconds. 
  Full-batch training loss = 0.000001, test loss = 0.245807
  Training set accuracy = 1.000000, Test set accuracy = 0.968300
 epoch 489/500. Took 0.56972 seconds. 
  Full-batch training loss = 0.000001, test loss = 0.245843
  Training set accuracy = 1.000000, Test set accuracy = 0.968300
 epoch 490/500. Took 0.57795 seconds. 
  Full-batch training loss = 0.000001, test loss = 0.245878
  Training set accuracy = 1.000000, Test set accuracy = 0.968300
 epoch 491/500. Took 0.58166 seconds. 
  Full-batch training loss = 0.000001, test loss = 0.245916
  Training set accuracy = 1.000000, Test set accuracy = 0.968300
 epoch 492/500. Took 0.57823 seconds. 
  Full-batch training loss = 0.000001, test loss = 0.245951
  Training set accuracy = 1.000000, Test set accuracy = 0.968300
 epoch 493/500. Took 0.57482 seconds. 
  Full-batch training loss = 0.000001, test loss = 0.245987
  Training set accuracy = 1.000000, Test set accuracy = 0.968300
 epoch 494/500. Took 0.57493 seconds. 
  Full-batch training loss = 0.000001, test loss = 0.246023
  Training set accuracy = 1.000000, Test set accuracy = 0.968300
 epoch 495/500. Took 0.57731 seconds. 
  Full-batch training loss = 0.000001, test loss = 0.246057
  Training set accuracy = 1.000000, Test set accuracy = 0.968300
 epoch 496/500. Took 0.57497 seconds. 
  Full-batch training loss = 0.000001, test loss = 0.246095
  Training set accuracy = 1.000000, Test set accuracy = 0.968300
 epoch 497/500. Took 0.57534 seconds. 
  Full-batch training loss = 0.000001, test loss = 0.246129
  Training set accuracy = 1.000000, Test set accuracy = 0.968300
 epoch 498/500. Took 0.57096 seconds. 
  Full-batch training loss = 0.000001, test loss = 0.246163
  Training set accuracy = 1.000000, Test set accuracy = 0.968300
 epoch 499/500. Took 0.5757 seconds. 
  Full-batch training loss = 0.000001, test loss = 0.246195
  Training set accuracy = 1.000000, Test set accuracy = 0.968300
 epoch 500/500. Took 0.58245 seconds. 
  Full-batch training loss = 0.000001, test loss = 0.246229
  Training set accuracy = 1.000000, Test set accuracy = 0.968300
Elapsed time is 534.666661 seconds.
End Training
