Loading data set: mnist_uint8.mat
Setting parameters
==========================================================
* ReducedData	10000
* PreTrainRBM	true
	-> Epochs	20
	-> LearningRate	0.20
* Fine-tunning
	-> Epochs	500
	-> LearningRate	0.20
==========================================================
Start Training
Number of training examples: 10000  BatchSize: 100
Number of inputs: 784  Number of outputs: 10
Number of hidden layers: 3 (200  200  200)
Training binary-binary RBM in layer 1 (784  200) with CD1 for 20 epochs
 epoch 1/20. Took 0.54769 seconds. Average reconstruction error is: 29.265
 epoch 2/20. Took 0.54698 seconds. Average reconstruction error is: 17.8899
 epoch 3/20. Took 0.54609 seconds. Average reconstruction error is: 15.6341
 epoch 4/20. Took 0.54761 seconds. Average reconstruction error is: 14.2841
 epoch 5/20. Took 0.54099 seconds. Average reconstruction error is: 13.39
 epoch 6/20. Took 0.5415 seconds. Average reconstruction error is: 12.6257
 epoch 7/20. Took 0.54278 seconds. Average reconstruction error is: 12.0697
 epoch 8/20. Took 0.54453 seconds. Average reconstruction error is: 11.6176
 epoch 9/20. Took 0.54265 seconds. Average reconstruction error is: 11.2632
 epoch 10/20. Took 0.54864 seconds. Average reconstruction error is: 10.9696
 epoch 11/20. Took 0.54441 seconds. Average reconstruction error is: 10.6967
 epoch 12/20. Took 0.54462 seconds. Average reconstruction error is: 10.5245
 epoch 13/20. Took 0.55016 seconds. Average reconstruction error is: 10.346
 epoch 14/20. Took 0.54888 seconds. Average reconstruction error is: 10.2206
 epoch 15/20. Took 0.54481 seconds. Average reconstruction error is: 10.0894
 epoch 16/20. Took 0.54574 seconds. Average reconstruction error is: 9.8973
 epoch 17/20. Took 0.54717 seconds. Average reconstruction error is: 9.8391
 epoch 18/20. Took 0.54386 seconds. Average reconstruction error is: 9.7231
 epoch 19/20. Took 0.54357 seconds. Average reconstruction error is: 9.6096
 epoch 20/20. Took 0.5446 seconds. Average reconstruction error is: 9.5668
Training binary-binary RBM in layer 2 (200  200) with CD1 for 20 epochs
 epoch 1/20. Took 0.19078 seconds. Average reconstruction error is: 13.6293
 epoch 2/20. Took 0.19064 seconds. Average reconstruction error is: 8.0369
 epoch 3/20. Took 0.19152 seconds. Average reconstruction error is: 7.0998
 epoch 4/20. Took 0.19155 seconds. Average reconstruction error is: 6.6666
 epoch 5/20. Took 0.19238 seconds. Average reconstruction error is: 6.387
 epoch 6/20. Took 0.19076 seconds. Average reconstruction error is: 6.1862
 epoch 7/20. Took 0.19187 seconds. Average reconstruction error is: 6.0134
 epoch 8/20. Took 0.19284 seconds. Average reconstruction error is: 5.8969
 epoch 9/20. Took 0.19285 seconds. Average reconstruction error is: 5.7688
 epoch 10/20. Took 0.19283 seconds. Average reconstruction error is: 5.6878
 epoch 11/20. Took 0.1936 seconds. Average reconstruction error is: 5.5719
 epoch 12/20. Took 0.1936 seconds. Average reconstruction error is: 5.5182
 epoch 13/20. Took 0.19221 seconds. Average reconstruction error is: 5.4481
 epoch 14/20. Took 0.19314 seconds. Average reconstruction error is: 5.3724
 epoch 15/20. Took 0.19302 seconds. Average reconstruction error is: 5.3176
 epoch 16/20. Took 0.19211 seconds. Average reconstruction error is: 5.2507
 epoch 17/20. Took 0.19208 seconds. Average reconstruction error is: 5.205
 epoch 18/20. Took 0.19304 seconds. Average reconstruction error is: 5.1655
 epoch 19/20. Took 0.19195 seconds. Average reconstruction error is: 5.1154
 epoch 20/20. Took 0.19385 seconds. Average reconstruction error is: 5.0654
Training binary-binary RBM in layer 3 (200  200) with CD1 for 20 epochs
 epoch 1/20. Took 0.19079 seconds. Average reconstruction error is: 12.2034
 epoch 2/20. Took 0.18994 seconds. Average reconstruction error is: 7.2458
 epoch 3/20. Took 0.19191 seconds. Average reconstruction error is: 6.4453
 epoch 4/20. Took 0.19155 seconds. Average reconstruction error is: 6.0327
 epoch 5/20. Took 0.19227 seconds. Average reconstruction error is: 5.8025
 epoch 6/20. Took 0.19193 seconds. Average reconstruction error is: 5.6599
 epoch 7/20. Took 0.19257 seconds. Average reconstruction error is: 5.5127
 epoch 8/20. Took 0.19281 seconds. Average reconstruction error is: 5.4103
 epoch 9/20. Took 0.19233 seconds. Average reconstruction error is: 5.3447
 epoch 10/20. Took 0.19359 seconds. Average reconstruction error is: 5.2526
 epoch 11/20. Took 0.19313 seconds. Average reconstruction error is: 5.1847
 epoch 12/20. Took 0.19317 seconds. Average reconstruction error is: 5.1213
 epoch 13/20. Took 0.19218 seconds. Average reconstruction error is: 5.078
 epoch 14/20. Took 0.19367 seconds. Average reconstruction error is: 5.0386
 epoch 15/20. Took 0.19123 seconds. Average reconstruction error is: 4.97
 epoch 16/20. Took 0.19309 seconds. Average reconstruction error is: 4.9427
 epoch 17/20. Took 0.19124 seconds. Average reconstruction error is: 4.9077
 epoch 18/20. Took 0.19228 seconds. Average reconstruction error is: 4.855
 epoch 19/20. Took 0.19345 seconds. Average reconstruction error is: 4.8311
 epoch 20/20. Took 0.19114 seconds. Average reconstruction error is: 4.7894
Training NN  (784  200  200  200   10) with BackPropagation for 500 epochs
 epoch 1/500. Took 0.54261 seconds. 
  Full-batch training loss = 0.299173, test loss = 0.288701
  Training set accuracy = 0.916000, Test set accuracy = 0.919000
 epoch 2/500. Took 0.54374 seconds. 
  Full-batch training loss = 0.227716, test loss = 0.232679
  Training set accuracy = 0.937400, Test set accuracy = 0.934300
 epoch 3/500. Took 0.55057 seconds. 
  Full-batch training loss = 0.197314, test loss = 0.208465
  Training set accuracy = 0.947400, Test set accuracy = 0.940400
 epoch 4/500. Took 0.5474 seconds. 
  Full-batch training loss = 0.170898, test loss = 0.199852
  Training set accuracy = 0.953100, Test set accuracy = 0.941900
 epoch 5/500. Took 0.54401 seconds. 
  Full-batch training loss = 0.149515, test loss = 0.184471
  Training set accuracy = 0.961000, Test set accuracy = 0.945900
 epoch 6/500. Took 0.54613 seconds. 
  Full-batch training loss = 0.134038, test loss = 0.177660
  Training set accuracy = 0.966200, Test set accuracy = 0.948300
 epoch 7/500. Took 0.54355 seconds. 
  Full-batch training loss = 0.121764, test loss = 0.175809
  Training set accuracy = 0.969200, Test set accuracy = 0.947600
 epoch 8/500. Took 0.54526 seconds. 
  Full-batch training loss = 0.107548, test loss = 0.165082
  Training set accuracy = 0.973300, Test set accuracy = 0.951200
 epoch 9/500. Took 0.54637 seconds. 
  Full-batch training loss = 0.099273, test loss = 0.164537
  Training set accuracy = 0.976000, Test set accuracy = 0.952800
 epoch 10/500. Took 0.54747 seconds. 
  Full-batch training loss = 0.089696, test loss = 0.159297
  Training set accuracy = 0.978400, Test set accuracy = 0.952800
 epoch 11/500. Took 0.54875 seconds. 
  Full-batch training loss = 0.079765, test loss = 0.156194
  Training set accuracy = 0.982200, Test set accuracy = 0.954200
 epoch 12/500. Took 0.5461 seconds. 
  Full-batch training loss = 0.075142, test loss = 0.159522
  Training set accuracy = 0.982500, Test set accuracy = 0.954300
 epoch 13/500. Took 0.54931 seconds. 
  Full-batch training loss = 0.067655, test loss = 0.154495
  Training set accuracy = 0.985400, Test set accuracy = 0.955400
 epoch 14/500. Took 0.54717 seconds. 
  Full-batch training loss = 0.062782, test loss = 0.152771
  Training set accuracy = 0.986900, Test set accuracy = 0.955600
 epoch 15/500. Took 0.54816 seconds. 
  Full-batch training loss = 0.057559, test loss = 0.153143
  Training set accuracy = 0.987600, Test set accuracy = 0.956600
 epoch 16/500. Took 0.54867 seconds. 
  Full-batch training loss = 0.050566, test loss = 0.149568
  Training set accuracy = 0.990600, Test set accuracy = 0.956400
 epoch 17/500. Took 0.54853 seconds. 
  Full-batch training loss = 0.047009, test loss = 0.150698
  Training set accuracy = 0.991100, Test set accuracy = 0.956700
 epoch 18/500. Took 0.54423 seconds. 
  Full-batch training loss = 0.043562, test loss = 0.149787
  Training set accuracy = 0.991900, Test set accuracy = 0.955700
 epoch 19/500. Took 0.54447 seconds. 
  Full-batch training loss = 0.040238, test loss = 0.146782
  Training set accuracy = 0.992400, Test set accuracy = 0.956900
 epoch 20/500. Took 0.54485 seconds. 
  Full-batch training loss = 0.035576, test loss = 0.144947
  Training set accuracy = 0.993800, Test set accuracy = 0.958800
 epoch 21/500. Took 0.55225 seconds. 
  Full-batch training loss = 0.033829, test loss = 0.146985
  Training set accuracy = 0.994000, Test set accuracy = 0.958900
 epoch 22/500. Took 0.54761 seconds. 
  Full-batch training loss = 0.030210, test loss = 0.145667
  Training set accuracy = 0.995800, Test set accuracy = 0.958700
 epoch 23/500. Took 0.54355 seconds. 
  Full-batch training loss = 0.027462, test loss = 0.145639
  Training set accuracy = 0.996300, Test set accuracy = 0.959400
 epoch 24/500. Took 0.54655 seconds. 
  Full-batch training loss = 0.025310, test loss = 0.144551
  Training set accuracy = 0.997100, Test set accuracy = 0.959500
 epoch 25/500. Took 0.5474 seconds. 
  Full-batch training loss = 0.023642, test loss = 0.144387
  Training set accuracy = 0.997900, Test set accuracy = 0.958800
 epoch 26/500. Took 0.54285 seconds. 
  Full-batch training loss = 0.022177, test loss = 0.143723
  Training set accuracy = 0.997900, Test set accuracy = 0.959300
 epoch 27/500. Took 0.54508 seconds. 
  Full-batch training loss = 0.020360, test loss = 0.144453
  Training set accuracy = 0.998100, Test set accuracy = 0.959200
 epoch 28/500. Took 0.54554 seconds. 
  Full-batch training loss = 0.018684, test loss = 0.145260
  Training set accuracy = 0.998600, Test set accuracy = 0.959600
 epoch 29/500. Took 0.54862 seconds. 
  Full-batch training loss = 0.017860, test loss = 0.145534
  Training set accuracy = 0.998800, Test set accuracy = 0.959200
 epoch 30/500. Took 0.54803 seconds. 
  Full-batch training loss = 0.016450, test loss = 0.146072
  Training set accuracy = 0.998900, Test set accuracy = 0.959700
 epoch 31/500. Took 0.54738 seconds. 
  Full-batch training loss = 0.015897, test loss = 0.145422
  Training set accuracy = 0.998800, Test set accuracy = 0.959700
 epoch 32/500. Took 0.54704 seconds. 
  Full-batch training loss = 0.014382, test loss = 0.146849
  Training set accuracy = 0.998900, Test set accuracy = 0.960000
 epoch 33/500. Took 0.5463 seconds. 
  Full-batch training loss = 0.013437, test loss = 0.146384
  Training set accuracy = 0.999200, Test set accuracy = 0.959800
 epoch 34/500. Took 0.54967 seconds. 
  Full-batch training loss = 0.012843, test loss = 0.147260
  Training set accuracy = 0.999300, Test set accuracy = 0.959700
 epoch 35/500. Took 0.54861 seconds. 
  Full-batch training loss = 0.011922, test loss = 0.147712
  Training set accuracy = 0.999400, Test set accuracy = 0.959800
 epoch 36/500. Took 0.54751 seconds. 
  Full-batch training loss = 0.011362, test loss = 0.146982
  Training set accuracy = 0.999600, Test set accuracy = 0.959700
 epoch 37/500. Took 0.54507 seconds. 
  Full-batch training loss = 0.010793, test loss = 0.148087
  Training set accuracy = 0.999500, Test set accuracy = 0.959500
 epoch 38/500. Took 0.54694 seconds. 
  Full-batch training loss = 0.010210, test loss = 0.147220
  Training set accuracy = 0.999600, Test set accuracy = 0.960100
 epoch 39/500. Took 0.54363 seconds. 
  Full-batch training loss = 0.009709, test loss = 0.148674
  Training set accuracy = 0.999600, Test set accuracy = 0.960100
 epoch 40/500. Took 0.54651 seconds. 
  Full-batch training loss = 0.009190, test loss = 0.148168
  Training set accuracy = 0.999800, Test set accuracy = 0.960500
 epoch 41/500. Took 0.54487 seconds. 
  Full-batch training loss = 0.008676, test loss = 0.147948
  Training set accuracy = 0.999900, Test set accuracy = 0.960300
 epoch 42/500. Took 0.54808 seconds. 
  Full-batch training loss = 0.008411, test loss = 0.148795
  Training set accuracy = 0.999900, Test set accuracy = 0.960000
 epoch 43/500. Took 0.54456 seconds. 
  Full-batch training loss = 0.007998, test loss = 0.148153
  Training set accuracy = 0.999900, Test set accuracy = 0.960600
 epoch 44/500. Took 0.54558 seconds. 
  Full-batch training loss = 0.007743, test loss = 0.148826
  Training set accuracy = 1.000000, Test set accuracy = 0.960000
 epoch 45/500. Took 0.55008 seconds. 
  Full-batch training loss = 0.007266, test loss = 0.149294
  Training set accuracy = 1.000000, Test set accuracy = 0.960800
 epoch 46/500. Took 0.54926 seconds. 
  Full-batch training loss = 0.007040, test loss = 0.149346
  Training set accuracy = 1.000000, Test set accuracy = 0.960400
 epoch 47/500. Took 0.54646 seconds. 
  Full-batch training loss = 0.006704, test loss = 0.150094
  Training set accuracy = 1.000000, Test set accuracy = 0.960900
 epoch 48/500. Took 0.58821 seconds. 
  Full-batch training loss = 0.006424, test loss = 0.150467
  Training set accuracy = 1.000000, Test set accuracy = 0.960700
 epoch 49/500. Took 0.54752 seconds. 
  Full-batch training loss = 0.006248, test loss = 0.150372
  Training set accuracy = 1.000000, Test set accuracy = 0.960400
 epoch 50/500. Took 0.54586 seconds. 
  Full-batch training loss = 0.006012, test loss = 0.151639
  Training set accuracy = 1.000000, Test set accuracy = 0.960600
 epoch 51/500. Took 0.54524 seconds. 
  Full-batch training loss = 0.005804, test loss = 0.152137
  Training set accuracy = 1.000000, Test set accuracy = 0.960600
 epoch 52/500. Took 0.54752 seconds. 
  Full-batch training loss = 0.005571, test loss = 0.151750
  Training set accuracy = 1.000000, Test set accuracy = 0.960800
 epoch 53/500. Took 0.54941 seconds. 
  Full-batch training loss = 0.005375, test loss = 0.152159
  Training set accuracy = 1.000000, Test set accuracy = 0.960700
 epoch 54/500. Took 0.54653 seconds. 
  Full-batch training loss = 0.005222, test loss = 0.151932
  Training set accuracy = 1.000000, Test set accuracy = 0.960800
 epoch 55/500. Took 0.55022 seconds. 
  Full-batch training loss = 0.005029, test loss = 0.152319
  Training set accuracy = 1.000000, Test set accuracy = 0.960800
 epoch 56/500. Took 0.54535 seconds. 
  Full-batch training loss = 0.004883, test loss = 0.152315
  Training set accuracy = 1.000000, Test set accuracy = 0.960800
 epoch 57/500. Took 0.55011 seconds. 
  Full-batch training loss = 0.004731, test loss = 0.153007
  Training set accuracy = 1.000000, Test set accuracy = 0.960800
 epoch 58/500. Took 0.54267 seconds. 
  Full-batch training loss = 0.004588, test loss = 0.153283
  Training set accuracy = 1.000000, Test set accuracy = 0.960500
 epoch 59/500. Took 0.54532 seconds. 
  Full-batch training loss = 0.004467, test loss = 0.153340
  Training set accuracy = 1.000000, Test set accuracy = 0.960600
 epoch 60/500. Took 0.5478 seconds. 
  Full-batch training loss = 0.004355, test loss = 0.153651
  Training set accuracy = 1.000000, Test set accuracy = 0.960400
 epoch 61/500. Took 0.54977 seconds. 
  Full-batch training loss = 0.004213, test loss = 0.154154
  Training set accuracy = 1.000000, Test set accuracy = 0.960900
 epoch 62/500. Took 0.54677 seconds. 
  Full-batch training loss = 0.004103, test loss = 0.154447
  Training set accuracy = 1.000000, Test set accuracy = 0.960700
 epoch 63/500. Took 0.54813 seconds. 
  Full-batch training loss = 0.003992, test loss = 0.154353
  Training set accuracy = 1.000000, Test set accuracy = 0.960800
 epoch 64/500. Took 0.54513 seconds. 
  Full-batch training loss = 0.003906, test loss = 0.154898
  Training set accuracy = 1.000000, Test set accuracy = 0.960400
 epoch 65/500. Took 0.54412 seconds. 
  Full-batch training loss = 0.003782, test loss = 0.154845
  Training set accuracy = 1.000000, Test set accuracy = 0.960700
 epoch 66/500. Took 0.54421 seconds. 
  Full-batch training loss = 0.003714, test loss = 0.155924
  Training set accuracy = 1.000000, Test set accuracy = 0.961100
 epoch 67/500. Took 0.54527 seconds. 
  Full-batch training loss = 0.003599, test loss = 0.155316
  Training set accuracy = 1.000000, Test set accuracy = 0.960800
 epoch 68/500. Took 0.54559 seconds. 
  Full-batch training loss = 0.003522, test loss = 0.155664
  Training set accuracy = 1.000000, Test set accuracy = 0.961000
 epoch 69/500. Took 0.5455 seconds. 
  Full-batch training loss = 0.003432, test loss = 0.156091
  Training set accuracy = 1.000000, Test set accuracy = 0.960700
 epoch 70/500. Took 0.54882 seconds. 
  Full-batch training loss = 0.003360, test loss = 0.156449
  Training set accuracy = 1.000000, Test set accuracy = 0.961000
 epoch 71/500. Took 0.54404 seconds. 
  Full-batch training loss = 0.003288, test loss = 0.156489
  Training set accuracy = 1.000000, Test set accuracy = 0.960600
 epoch 72/500. Took 0.54636 seconds. 
  Full-batch training loss = 0.003217, test loss = 0.156679
  Training set accuracy = 1.000000, Test set accuracy = 0.960800
 epoch 73/500. Took 0.54759 seconds. 
  Full-batch training loss = 0.003135, test loss = 0.156766
  Training set accuracy = 1.000000, Test set accuracy = 0.960800
 epoch 74/500. Took 0.5463 seconds. 
  Full-batch training loss = 0.003079, test loss = 0.157378
  Training set accuracy = 1.000000, Test set accuracy = 0.961100
 epoch 75/500. Took 0.54651 seconds. 
  Full-batch training loss = 0.003004, test loss = 0.157331
  Training set accuracy = 1.000000, Test set accuracy = 0.961000
 epoch 76/500. Took 0.5449 seconds. 
  Full-batch training loss = 0.002943, test loss = 0.157848
  Training set accuracy = 1.000000, Test set accuracy = 0.961200
 epoch 77/500. Took 0.5481 seconds. 
  Full-batch training loss = 0.002884, test loss = 0.157500
  Training set accuracy = 1.000000, Test set accuracy = 0.961100
 epoch 78/500. Took 0.54455 seconds. 
  Full-batch training loss = 0.002822, test loss = 0.157957
  Training set accuracy = 1.000000, Test set accuracy = 0.961100
 epoch 79/500. Took 0.54685 seconds. 
  Full-batch training loss = 0.002764, test loss = 0.158130
  Training set accuracy = 1.000000, Test set accuracy = 0.961200
 epoch 80/500. Took 0.54779 seconds. 
  Full-batch training loss = 0.002718, test loss = 0.158238
  Training set accuracy = 1.000000, Test set accuracy = 0.960800
 epoch 81/500. Took 0.54542 seconds. 
  Full-batch training loss = 0.002665, test loss = 0.158590
  Training set accuracy = 1.000000, Test set accuracy = 0.961000
 epoch 82/500. Took 0.54293 seconds. 
  Full-batch training loss = 0.002615, test loss = 0.158570
  Training set accuracy = 1.000000, Test set accuracy = 0.960700
 epoch 83/500. Took 0.54314 seconds. 
  Full-batch training loss = 0.002566, test loss = 0.158918
  Training set accuracy = 1.000000, Test set accuracy = 0.961200
 epoch 84/500. Took 0.54601 seconds. 
  Full-batch training loss = 0.002515, test loss = 0.159164
  Training set accuracy = 1.000000, Test set accuracy = 0.961400
 epoch 85/500. Took 0.5467 seconds. 
  Full-batch training loss = 0.002471, test loss = 0.159228
  Training set accuracy = 1.000000, Test set accuracy = 0.961300
 epoch 86/500. Took 0.54625 seconds. 
  Full-batch training loss = 0.002443, test loss = 0.159363
  Training set accuracy = 1.000000, Test set accuracy = 0.961700
 epoch 87/500. Took 0.54491 seconds. 
  Full-batch training loss = 0.002384, test loss = 0.159677
  Training set accuracy = 1.000000, Test set accuracy = 0.961500
 epoch 88/500. Took 0.54689 seconds. 
  Full-batch training loss = 0.002349, test loss = 0.159562
  Training set accuracy = 1.000000, Test set accuracy = 0.961100
 epoch 89/500. Took 0.54511 seconds. 
  Full-batch training loss = 0.002309, test loss = 0.160098
  Training set accuracy = 1.000000, Test set accuracy = 0.961400
 epoch 90/500. Took 0.5462 seconds. 
  Full-batch training loss = 0.002264, test loss = 0.160126
  Training set accuracy = 1.000000, Test set accuracy = 0.961500
 epoch 91/500. Took 0.64221 seconds. 
  Full-batch training loss = 0.002229, test loss = 0.160240
  Training set accuracy = 1.000000, Test set accuracy = 0.961700
 epoch 92/500. Took 0.54959 seconds. 
  Full-batch training loss = 0.002189, test loss = 0.160426
  Training set accuracy = 1.000000, Test set accuracy = 0.961400
 epoch 93/500. Took 0.54387 seconds. 
  Full-batch training loss = 0.002159, test loss = 0.160764
  Training set accuracy = 1.000000, Test set accuracy = 0.961600
 epoch 94/500. Took 0.54692 seconds. 
  Full-batch training loss = 0.002119, test loss = 0.160708
  Training set accuracy = 1.000000, Test set accuracy = 0.961400
 epoch 95/500. Took 0.54665 seconds. 
  Full-batch training loss = 0.002087, test loss = 0.161141
  Training set accuracy = 1.000000, Test set accuracy = 0.961600
 epoch 96/500. Took 0.547 seconds. 
  Full-batch training loss = 0.002054, test loss = 0.161190
  Training set accuracy = 1.000000, Test set accuracy = 0.961500
 epoch 97/500. Took 0.55091 seconds. 
  Full-batch training loss = 0.002024, test loss = 0.161411
  Training set accuracy = 1.000000, Test set accuracy = 0.961600
 epoch 98/500. Took 0.54517 seconds. 
  Full-batch training loss = 0.001992, test loss = 0.161381
  Training set accuracy = 1.000000, Test set accuracy = 0.961400
 epoch 99/500. Took 0.5435 seconds. 
  Full-batch training loss = 0.001962, test loss = 0.161402
  Training set accuracy = 1.000000, Test set accuracy = 0.961400
 epoch 100/500. Took 0.54653 seconds. 
  Full-batch training loss = 0.001935, test loss = 0.161969
  Training set accuracy = 1.000000, Test set accuracy = 0.961600
 epoch 101/500. Took 0.54373 seconds. 
  Full-batch training loss = 0.001905, test loss = 0.161899
  Training set accuracy = 1.000000, Test set accuracy = 0.961600
 epoch 102/500. Took 0.54577 seconds. 
  Full-batch training loss = 0.001878, test loss = 0.162037
  Training set accuracy = 1.000000, Test set accuracy = 0.961700
 epoch 103/500. Took 0.54873 seconds. 
  Full-batch training loss = 0.001853, test loss = 0.162307
  Training set accuracy = 1.000000, Test set accuracy = 0.961400
 epoch 104/500. Took 0.54365 seconds. 
  Full-batch training loss = 0.001827, test loss = 0.162347
  Training set accuracy = 1.000000, Test set accuracy = 0.961400
 epoch 105/500. Took 0.54767 seconds. 
  Full-batch training loss = 0.001800, test loss = 0.162611
  Training set accuracy = 1.000000, Test set accuracy = 0.961700
 epoch 106/500. Took 0.54835 seconds. 
  Full-batch training loss = 0.001777, test loss = 0.162443
  Training set accuracy = 1.000000, Test set accuracy = 0.961300
 epoch 107/500. Took 0.54862 seconds. 
  Full-batch training loss = 0.001751, test loss = 0.162859
  Training set accuracy = 1.000000, Test set accuracy = 0.961500
 epoch 108/500. Took 0.54558 seconds. 
  Full-batch training loss = 0.001728, test loss = 0.162931
  Training set accuracy = 1.000000, Test set accuracy = 0.961800
 epoch 109/500. Took 0.54566 seconds. 
  Full-batch training loss = 0.001704, test loss = 0.163106
  Training set accuracy = 1.000000, Test set accuracy = 0.961700
 epoch 110/500. Took 0.54859 seconds. 
  Full-batch training loss = 0.001682, test loss = 0.163335
  Training set accuracy = 1.000000, Test set accuracy = 0.961400
 epoch 111/500. Took 0.5462 seconds. 
  Full-batch training loss = 0.001661, test loss = 0.163493
  Training set accuracy = 1.000000, Test set accuracy = 0.961600
 epoch 112/500. Took 0.54501 seconds. 
  Full-batch training loss = 0.001640, test loss = 0.163590
  Training set accuracy = 1.000000, Test set accuracy = 0.961300
 epoch 113/500. Took 0.54585 seconds. 
  Full-batch training loss = 0.001618, test loss = 0.163638
  Training set accuracy = 1.000000, Test set accuracy = 0.961800
 epoch 114/500. Took 0.54726 seconds. 
  Full-batch training loss = 0.001598, test loss = 0.163712
  Training set accuracy = 1.000000, Test set accuracy = 0.961500
 epoch 115/500. Took 0.54552 seconds. 
  Full-batch training loss = 0.001580, test loss = 0.163824
  Training set accuracy = 1.000000, Test set accuracy = 0.961400
 epoch 116/500. Took 0.54531 seconds. 
  Full-batch training loss = 0.001558, test loss = 0.164028
  Training set accuracy = 1.000000, Test set accuracy = 0.961600
 epoch 117/500. Took 0.55001 seconds. 
  Full-batch training loss = 0.001539, test loss = 0.164322
  Training set accuracy = 1.000000, Test set accuracy = 0.961600
 epoch 118/500. Took 0.54769 seconds. 
  Full-batch training loss = 0.001522, test loss = 0.164302
  Training set accuracy = 1.000000, Test set accuracy = 0.961300
 epoch 119/500. Took 0.54601 seconds. 
  Full-batch training loss = 0.001503, test loss = 0.164573
  Training set accuracy = 1.000000, Test set accuracy = 0.961400
 epoch 120/500. Took 0.54554 seconds. 
  Full-batch training loss = 0.001487, test loss = 0.164793
  Training set accuracy = 1.000000, Test set accuracy = 0.961500
 epoch 121/500. Took 0.54747 seconds. 
  Full-batch training loss = 0.001468, test loss = 0.164738
  Training set accuracy = 1.000000, Test set accuracy = 0.961600
 epoch 122/500. Took 0.55289 seconds. 
  Full-batch training loss = 0.001450, test loss = 0.164953
  Training set accuracy = 1.000000, Test set accuracy = 0.961400
 epoch 123/500. Took 0.54662 seconds. 
  Full-batch training loss = 0.001435, test loss = 0.165062
  Training set accuracy = 1.000000, Test set accuracy = 0.961600
 epoch 124/500. Took 0.54749 seconds. 
  Full-batch training loss = 0.001417, test loss = 0.165122
  Training set accuracy = 1.000000, Test set accuracy = 0.961700
 epoch 125/500. Took 0.54446 seconds. 
  Full-batch training loss = 0.001401, test loss = 0.165362
  Training set accuracy = 1.000000, Test set accuracy = 0.961600
 epoch 126/500. Took 0.54599 seconds. 
  Full-batch training loss = 0.001386, test loss = 0.165414
  Training set accuracy = 1.000000, Test set accuracy = 0.961600
 epoch 127/500. Took 0.54462 seconds. 
  Full-batch training loss = 0.001370, test loss = 0.165436
  Training set accuracy = 1.000000, Test set accuracy = 0.961600
 epoch 128/500. Took 0.54534 seconds. 
  Full-batch training loss = 0.001355, test loss = 0.165675
  Training set accuracy = 1.000000, Test set accuracy = 0.961700
 epoch 129/500. Took 0.54677 seconds. 
  Full-batch training loss = 0.001340, test loss = 0.165761
  Training set accuracy = 1.000000, Test set accuracy = 0.961500
 epoch 130/500. Took 0.54717 seconds. 
  Full-batch training loss = 0.001326, test loss = 0.165963
  Training set accuracy = 1.000000, Test set accuracy = 0.961700
 epoch 131/500. Took 0.54672 seconds. 
  Full-batch training loss = 0.001312, test loss = 0.166064
  Training set accuracy = 1.000000, Test set accuracy = 0.961700
 epoch 132/500. Took 0.54903 seconds. 
  Full-batch training loss = 0.001298, test loss = 0.166089
  Training set accuracy = 1.000000, Test set accuracy = 0.961600
 epoch 133/500. Took 0.54576 seconds. 
  Full-batch training loss = 0.001284, test loss = 0.166204
  Training set accuracy = 1.000000, Test set accuracy = 0.961600
 epoch 134/500. Took 0.54363 seconds. 
  Full-batch training loss = 0.001271, test loss = 0.166341
  Training set accuracy = 1.000000, Test set accuracy = 0.961600
 epoch 135/500. Took 0.5451 seconds. 
  Full-batch training loss = 0.001258, test loss = 0.166513
  Training set accuracy = 1.000000, Test set accuracy = 0.961500
 epoch 136/500. Took 0.54592 seconds. 
  Full-batch training loss = 0.001245, test loss = 0.166493
  Training set accuracy = 1.000000, Test set accuracy = 0.961500
 epoch 137/500. Took 0.54626 seconds. 
  Full-batch training loss = 0.001232, test loss = 0.166733
  Training set accuracy = 1.000000, Test set accuracy = 0.961500
 epoch 138/500. Took 0.54446 seconds. 
  Full-batch training loss = 0.001220, test loss = 0.166845
  Training set accuracy = 1.000000, Test set accuracy = 0.961900
 epoch 139/500. Took 0.54459 seconds. 
  Full-batch training loss = 0.001208, test loss = 0.166745
  Training set accuracy = 1.000000, Test set accuracy = 0.961500
 epoch 140/500. Took 0.54255 seconds. 
  Full-batch training loss = 0.001196, test loss = 0.166990
  Training set accuracy = 1.000000, Test set accuracy = 0.961600
 epoch 141/500. Took 0.54637 seconds. 
  Full-batch training loss = 0.001184, test loss = 0.167106
  Training set accuracy = 1.000000, Test set accuracy = 0.961800
 epoch 142/500. Took 0.54609 seconds. 
  Full-batch training loss = 0.001173, test loss = 0.167120
  Training set accuracy = 1.000000, Test set accuracy = 0.961900
 epoch 143/500. Took 0.54827 seconds. 
  Full-batch training loss = 0.001161, test loss = 0.167401
  Training set accuracy = 1.000000, Test set accuracy = 0.961900
 epoch 144/500. Took 0.5462 seconds. 
  Full-batch training loss = 0.001150, test loss = 0.167450
  Training set accuracy = 1.000000, Test set accuracy = 0.961900
 epoch 145/500. Took 0.54719 seconds. 
  Full-batch training loss = 0.001139, test loss = 0.167598
  Training set accuracy = 1.000000, Test set accuracy = 0.961700
 epoch 146/500. Took 0.54653 seconds. 
  Full-batch training loss = 0.001128, test loss = 0.167699
  Training set accuracy = 1.000000, Test set accuracy = 0.961700
 epoch 147/500. Took 0.54573 seconds. 
  Full-batch training loss = 0.001118, test loss = 0.167779
  Training set accuracy = 1.000000, Test set accuracy = 0.961800
 epoch 148/500. Took 0.54596 seconds. 
  Full-batch training loss = 0.001107, test loss = 0.167848
  Training set accuracy = 1.000000, Test set accuracy = 0.961900
 epoch 149/500. Took 0.54522 seconds. 
  Full-batch training loss = 0.001097, test loss = 0.167981
  Training set accuracy = 1.000000, Test set accuracy = 0.961900
 epoch 150/500. Took 0.54452 seconds. 
  Full-batch training loss = 0.001087, test loss = 0.168046
  Training set accuracy = 1.000000, Test set accuracy = 0.961900
 epoch 151/500. Took 0.54821 seconds. 
  Full-batch training loss = 0.001077, test loss = 0.168170
  Training set accuracy = 1.000000, Test set accuracy = 0.961900
 epoch 152/500. Took 0.55078 seconds. 
  Full-batch training loss = 0.001068, test loss = 0.168260
  Training set accuracy = 1.000000, Test set accuracy = 0.961900
 epoch 153/500. Took 0.54364 seconds. 
  Full-batch training loss = 0.001058, test loss = 0.168344
  Training set accuracy = 1.000000, Test set accuracy = 0.961700
 epoch 154/500. Took 0.54623 seconds. 
  Full-batch training loss = 0.001049, test loss = 0.168585
  Training set accuracy = 1.000000, Test set accuracy = 0.961800
 epoch 155/500. Took 0.54992 seconds. 
  Full-batch training loss = 0.001040, test loss = 0.168654
  Training set accuracy = 1.000000, Test set accuracy = 0.961900
 epoch 156/500. Took 0.54605 seconds. 
  Full-batch training loss = 0.001030, test loss = 0.168729
  Training set accuracy = 1.000000, Test set accuracy = 0.961800
 epoch 157/500. Took 0.54381 seconds. 
  Full-batch training loss = 0.001021, test loss = 0.168733
  Training set accuracy = 1.000000, Test set accuracy = 0.961900
 epoch 158/500. Took 0.54657 seconds. 
  Full-batch training loss = 0.001013, test loss = 0.168982
  Training set accuracy = 1.000000, Test set accuracy = 0.962000
 epoch 159/500. Took 0.54395 seconds. 
  Full-batch training loss = 0.001004, test loss = 0.169051
  Training set accuracy = 1.000000, Test set accuracy = 0.961800
 epoch 160/500. Took 0.54629 seconds. 
  Full-batch training loss = 0.000995, test loss = 0.169052
  Training set accuracy = 1.000000, Test set accuracy = 0.961900
 epoch 161/500. Took 0.54619 seconds. 
  Full-batch training loss = 0.000987, test loss = 0.169140
  Training set accuracy = 1.000000, Test set accuracy = 0.961900
 epoch 162/500. Took 0.54369 seconds. 
  Full-batch training loss = 0.000979, test loss = 0.169273
  Training set accuracy = 1.000000, Test set accuracy = 0.961900
 epoch 163/500. Took 0.54492 seconds. 
  Full-batch training loss = 0.000971, test loss = 0.169467
  Training set accuracy = 1.000000, Test set accuracy = 0.962000
 epoch 164/500. Took 0.54882 seconds. 
  Full-batch training loss = 0.000963, test loss = 0.169447
  Training set accuracy = 1.000000, Test set accuracy = 0.962000
 epoch 165/500. Took 0.54557 seconds. 
  Full-batch training loss = 0.000955, test loss = 0.169498
  Training set accuracy = 1.000000, Test set accuracy = 0.962000
 epoch 166/500. Took 0.54759 seconds. 
  Full-batch training loss = 0.000947, test loss = 0.169697
  Training set accuracy = 1.000000, Test set accuracy = 0.961900
 epoch 167/500. Took 0.54462 seconds. 
  Full-batch training loss = 0.000939, test loss = 0.169756
  Training set accuracy = 1.000000, Test set accuracy = 0.961900
 epoch 168/500. Took 0.54765 seconds. 
  Full-batch training loss = 0.000932, test loss = 0.169810
  Training set accuracy = 1.000000, Test set accuracy = 0.962100
 epoch 169/500. Took 0.54581 seconds. 
  Full-batch training loss = 0.000924, test loss = 0.169909
  Training set accuracy = 1.000000, Test set accuracy = 0.961800
 epoch 170/500. Took 0.54481 seconds. 
  Full-batch training loss = 0.000917, test loss = 0.170025
  Training set accuracy = 1.000000, Test set accuracy = 0.962000
 epoch 171/500. Took 0.5431 seconds. 
  Full-batch training loss = 0.000910, test loss = 0.170145
  Training set accuracy = 1.000000, Test set accuracy = 0.961900
 epoch 172/500. Took 0.549 seconds. 
  Full-batch training loss = 0.000903, test loss = 0.170280
  Training set accuracy = 1.000000, Test set accuracy = 0.961900
 epoch 173/500. Took 0.54702 seconds. 
  Full-batch training loss = 0.000896, test loss = 0.170292
  Training set accuracy = 1.000000, Test set accuracy = 0.962100
 epoch 174/500. Took 0.54574 seconds. 
  Full-batch training loss = 0.000889, test loss = 0.170314
  Training set accuracy = 1.000000, Test set accuracy = 0.962100
 epoch 175/500. Took 0.54717 seconds. 
  Full-batch training loss = 0.000882, test loss = 0.170464
  Training set accuracy = 1.000000, Test set accuracy = 0.962000
 epoch 176/500. Took 0.54644 seconds. 
  Full-batch training loss = 0.000875, test loss = 0.170565
  Training set accuracy = 1.000000, Test set accuracy = 0.962000
 epoch 177/500. Took 0.54718 seconds. 
  Full-batch training loss = 0.000869, test loss = 0.170652
  Training set accuracy = 1.000000, Test set accuracy = 0.962200
 epoch 178/500. Took 0.54751 seconds. 
  Full-batch training loss = 0.000862, test loss = 0.170703
  Training set accuracy = 1.000000, Test set accuracy = 0.962100
 epoch 179/500. Took 0.54588 seconds. 
  Full-batch training loss = 0.000856, test loss = 0.170769
  Training set accuracy = 1.000000, Test set accuracy = 0.962000
 epoch 180/500. Took 0.54546 seconds. 
  Full-batch training loss = 0.000849, test loss = 0.170901
  Training set accuracy = 1.000000, Test set accuracy = 0.962100
 epoch 181/500. Took 0.54888 seconds. 
  Full-batch training loss = 0.000843, test loss = 0.171022
  Training set accuracy = 1.000000, Test set accuracy = 0.962000
 epoch 182/500. Took 0.54582 seconds. 
  Full-batch training loss = 0.000837, test loss = 0.171027
  Training set accuracy = 1.000000, Test set accuracy = 0.962100
 epoch 183/500. Took 0.54354 seconds. 
  Full-batch training loss = 0.000831, test loss = 0.171164
  Training set accuracy = 1.000000, Test set accuracy = 0.962200
 epoch 184/500. Took 0.54286 seconds. 
  Full-batch training loss = 0.000825, test loss = 0.171225
  Training set accuracy = 1.000000, Test set accuracy = 0.962200
 epoch 185/500. Took 0.54421 seconds. 
  Full-batch training loss = 0.000819, test loss = 0.171370
  Training set accuracy = 1.000000, Test set accuracy = 0.962100
 epoch 186/500. Took 0.54539 seconds. 
  Full-batch training loss = 0.000813, test loss = 0.171468
  Training set accuracy = 1.000000, Test set accuracy = 0.962000
 epoch 187/500. Took 0.54433 seconds. 
  Full-batch training loss = 0.000807, test loss = 0.171462
  Training set accuracy = 1.000000, Test set accuracy = 0.962200
 epoch 188/500. Took 0.54488 seconds. 
  Full-batch training loss = 0.000802, test loss = 0.171542
  Training set accuracy = 1.000000, Test set accuracy = 0.962100
 epoch 189/500. Took 0.54755 seconds. 
  Full-batch training loss = 0.000796, test loss = 0.171669
  Training set accuracy = 1.000000, Test set accuracy = 0.962200
 epoch 190/500. Took 0.54455 seconds. 
  Full-batch training loss = 0.000790, test loss = 0.171724
  Training set accuracy = 1.000000, Test set accuracy = 0.962200
 epoch 191/500. Took 0.54626 seconds. 
  Full-batch training loss = 0.000785, test loss = 0.171798
  Training set accuracy = 1.000000, Test set accuracy = 0.962100
 epoch 192/500. Took 0.54792 seconds. 
  Full-batch training loss = 0.000779, test loss = 0.171829
  Training set accuracy = 1.000000, Test set accuracy = 0.962100
 epoch 193/500. Took 0.54598 seconds. 
  Full-batch training loss = 0.000774, test loss = 0.171853
  Training set accuracy = 1.000000, Test set accuracy = 0.962200
 epoch 194/500. Took 0.54887 seconds. 
  Full-batch training loss = 0.000769, test loss = 0.171916
  Training set accuracy = 1.000000, Test set accuracy = 0.962000
 epoch 195/500. Took 0.54696 seconds. 
  Full-batch training loss = 0.000764, test loss = 0.172082
  Training set accuracy = 1.000000, Test set accuracy = 0.962100
 epoch 196/500. Took 0.54736 seconds. 
  Full-batch training loss = 0.000758, test loss = 0.172207
  Training set accuracy = 1.000000, Test set accuracy = 0.962100
 epoch 197/500. Took 0.54686 seconds. 
  Full-batch training loss = 0.000753, test loss = 0.172277
  Training set accuracy = 1.000000, Test set accuracy = 0.962200
 epoch 198/500. Took 0.54615 seconds. 
  Full-batch training loss = 0.000748, test loss = 0.172352
  Training set accuracy = 1.000000, Test set accuracy = 0.962300
 epoch 199/500. Took 0.54446 seconds. 
  Full-batch training loss = 0.000743, test loss = 0.172440
  Training set accuracy = 1.000000, Test set accuracy = 0.962200
 epoch 200/500. Took 0.5455 seconds. 
  Full-batch training loss = 0.000738, test loss = 0.172499
  Training set accuracy = 1.000000, Test set accuracy = 0.962300
 epoch 201/500. Took 0.54246 seconds. 
  Full-batch training loss = 0.000734, test loss = 0.172619
  Training set accuracy = 1.000000, Test set accuracy = 0.962200
 epoch 202/500. Took 0.5465 seconds. 
  Full-batch training loss = 0.000729, test loss = 0.172692
  Training set accuracy = 1.000000, Test set accuracy = 0.962300
 epoch 203/500. Took 0.5434 seconds. 
  Full-batch training loss = 0.000724, test loss = 0.172712
  Training set accuracy = 1.000000, Test set accuracy = 0.962300
 epoch 204/500. Took 0.54594 seconds. 
  Full-batch training loss = 0.000719, test loss = 0.172805
  Training set accuracy = 1.000000, Test set accuracy = 0.962300
 epoch 205/500. Took 0.54346 seconds. 
  Full-batch training loss = 0.000715, test loss = 0.172843
  Training set accuracy = 1.000000, Test set accuracy = 0.962200
 epoch 206/500. Took 0.54743 seconds. 
  Full-batch training loss = 0.000710, test loss = 0.172974
  Training set accuracy = 1.000000, Test set accuracy = 0.962200
 epoch 207/500. Took 0.54653 seconds. 
  Full-batch training loss = 0.000706, test loss = 0.172994
  Training set accuracy = 1.000000, Test set accuracy = 0.962200
 epoch 208/500. Took 0.55045 seconds. 
  Full-batch training loss = 0.000701, test loss = 0.173076
  Training set accuracy = 1.000000, Test set accuracy = 0.962200
 epoch 209/500. Took 0.59099 seconds. 
  Full-batch training loss = 0.000697, test loss = 0.173184
  Training set accuracy = 1.000000, Test set accuracy = 0.962200
 epoch 210/500. Took 0.55018 seconds. 
  Full-batch training loss = 0.000693, test loss = 0.173284
  Training set accuracy = 1.000000, Test set accuracy = 0.962200
 epoch 211/500. Took 0.54545 seconds. 
  Full-batch training loss = 0.000688, test loss = 0.173291
  Training set accuracy = 1.000000, Test set accuracy = 0.962300
 epoch 212/500. Took 0.54362 seconds. 
  Full-batch training loss = 0.000684, test loss = 0.173366
  Training set accuracy = 1.000000, Test set accuracy = 0.962300
 epoch 213/500. Took 0.54636 seconds. 
  Full-batch training loss = 0.000680, test loss = 0.173489
  Training set accuracy = 1.000000, Test set accuracy = 0.962300
 epoch 214/500. Took 0.54991 seconds. 
  Full-batch training loss = 0.000676, test loss = 0.173560
  Training set accuracy = 1.000000, Test set accuracy = 0.962100
 epoch 215/500. Took 0.54232 seconds. 
  Full-batch training loss = 0.000671, test loss = 0.173568
  Training set accuracy = 1.000000, Test set accuracy = 0.962300
 epoch 216/500. Took 0.54428 seconds. 
  Full-batch training loss = 0.000667, test loss = 0.173704
  Training set accuracy = 1.000000, Test set accuracy = 0.962300
 epoch 217/500. Took 0.54453 seconds. 
  Full-batch training loss = 0.000663, test loss = 0.173723
  Training set accuracy = 1.000000, Test set accuracy = 0.962300
 epoch 218/500. Took 0.54558 seconds. 
  Full-batch training loss = 0.000659, test loss = 0.173788
  Training set accuracy = 1.000000, Test set accuracy = 0.962300
 epoch 219/500. Took 0.54572 seconds. 
  Full-batch training loss = 0.000655, test loss = 0.173845
  Training set accuracy = 1.000000, Test set accuracy = 0.962300
 epoch 220/500. Took 0.54718 seconds. 
  Full-batch training loss = 0.000651, test loss = 0.173953
  Training set accuracy = 1.000000, Test set accuracy = 0.962400
 epoch 221/500. Took 0.54494 seconds. 
  Full-batch training loss = 0.000648, test loss = 0.174051
  Training set accuracy = 1.000000, Test set accuracy = 0.962300
 epoch 222/500. Took 0.54498 seconds. 
  Full-batch training loss = 0.000644, test loss = 0.174121
  Training set accuracy = 1.000000, Test set accuracy = 0.962300
 epoch 223/500. Took 0.54552 seconds. 
  Full-batch training loss = 0.000640, test loss = 0.174219
  Training set accuracy = 1.000000, Test set accuracy = 0.962200
 epoch 224/500. Took 0.54309 seconds. 
  Full-batch training loss = 0.000636, test loss = 0.174250
  Training set accuracy = 1.000000, Test set accuracy = 0.962300
 epoch 225/500. Took 0.54439 seconds. 
  Full-batch training loss = 0.000633, test loss = 0.174252
  Training set accuracy = 1.000000, Test set accuracy = 0.962300
 epoch 226/500. Took 0.54367 seconds. 
  Full-batch training loss = 0.000629, test loss = 0.174344
  Training set accuracy = 1.000000, Test set accuracy = 0.962300
 epoch 227/500. Took 0.54673 seconds. 
  Full-batch training loss = 0.000625, test loss = 0.174434
  Training set accuracy = 1.000000, Test set accuracy = 0.962300
 epoch 228/500. Took 0.54578 seconds. 
  Full-batch training loss = 0.000622, test loss = 0.174497
  Training set accuracy = 1.000000, Test set accuracy = 0.962400
 epoch 229/500. Took 0.54533 seconds. 
  Full-batch training loss = 0.000618, test loss = 0.174549
  Training set accuracy = 1.000000, Test set accuracy = 0.962500
 epoch 230/500. Took 0.54508 seconds. 
  Full-batch training loss = 0.000615, test loss = 0.174582
  Training set accuracy = 1.000000, Test set accuracy = 0.962500
 epoch 231/500. Took 0.54454 seconds. 
  Full-batch training loss = 0.000611, test loss = 0.174706
  Training set accuracy = 1.000000, Test set accuracy = 0.962400
 epoch 232/500. Took 0.54819 seconds. 
  Full-batch training loss = 0.000608, test loss = 0.174804
  Training set accuracy = 1.000000, Test set accuracy = 0.962300
 epoch 233/500. Took 0.54455 seconds. 
  Full-batch training loss = 0.000605, test loss = 0.174862
  Training set accuracy = 1.000000, Test set accuracy = 0.962400
 epoch 234/500. Took 0.54691 seconds. 
  Full-batch training loss = 0.000601, test loss = 0.174934
  Training set accuracy = 1.000000, Test set accuracy = 0.962400
 epoch 235/500. Took 0.54587 seconds. 
  Full-batch training loss = 0.000598, test loss = 0.175010
  Training set accuracy = 1.000000, Test set accuracy = 0.962300
 epoch 236/500. Took 0.54622 seconds. 
  Full-batch training loss = 0.000595, test loss = 0.175025
  Training set accuracy = 1.000000, Test set accuracy = 0.962400
 epoch 237/500. Took 0.54338 seconds. 
  Full-batch training loss = 0.000591, test loss = 0.175087
  Training set accuracy = 1.000000, Test set accuracy = 0.962400
 epoch 238/500. Took 0.54612 seconds. 
  Full-batch training loss = 0.000588, test loss = 0.175171
  Training set accuracy = 1.000000, Test set accuracy = 0.962500
 epoch 239/500. Took 0.54672 seconds. 
  Full-batch training loss = 0.000585, test loss = 0.175205
  Training set accuracy = 1.000000, Test set accuracy = 0.962500
 epoch 240/500. Took 0.54716 seconds. 
  Full-batch training loss = 0.000582, test loss = 0.175265
  Training set accuracy = 1.000000, Test set accuracy = 0.962600
 epoch 241/500. Took 0.5465 seconds. 
  Full-batch training loss = 0.000579, test loss = 0.175315
  Training set accuracy = 1.000000, Test set accuracy = 0.962500
 epoch 242/500. Took 0.54702 seconds. 
  Full-batch training loss = 0.000576, test loss = 0.175421
  Training set accuracy = 1.000000, Test set accuracy = 0.962500
 epoch 243/500. Took 0.54756 seconds. 
  Full-batch training loss = 0.000573, test loss = 0.175461
  Training set accuracy = 1.000000, Test set accuracy = 0.962500
 epoch 244/500. Took 0.54885 seconds. 
  Full-batch training loss = 0.000569, test loss = 0.175499
  Training set accuracy = 1.000000, Test set accuracy = 0.962500
 epoch 245/500. Took 0.54814 seconds. 
  Full-batch training loss = 0.000566, test loss = 0.175576
  Training set accuracy = 1.000000, Test set accuracy = 0.962600
 epoch 246/500. Took 0.54715 seconds. 
  Full-batch training loss = 0.000564, test loss = 0.175672
  Training set accuracy = 1.000000, Test set accuracy = 0.962400
 epoch 247/500. Took 0.5444 seconds. 
  Full-batch training loss = 0.000561, test loss = 0.175708
  Training set accuracy = 1.000000, Test set accuracy = 0.962500
 epoch 248/500. Took 0.5455 seconds. 
  Full-batch training loss = 0.000558, test loss = 0.175765
  Training set accuracy = 1.000000, Test set accuracy = 0.962400
 epoch 249/500. Took 0.54611 seconds. 
  Full-batch training loss = 0.000555, test loss = 0.175833
  Training set accuracy = 1.000000, Test set accuracy = 0.962400
 epoch 250/500. Took 0.54612 seconds. 
  Full-batch training loss = 0.000552, test loss = 0.175908
  Training set accuracy = 1.000000, Test set accuracy = 0.962500
 epoch 251/500. Took 0.5476 seconds. 
  Full-batch training loss = 0.000549, test loss = 0.175975
  Training set accuracy = 1.000000, Test set accuracy = 0.962500
 epoch 252/500. Took 0.54736 seconds. 
  Full-batch training loss = 0.000546, test loss = 0.176076
  Training set accuracy = 1.000000, Test set accuracy = 0.962500
 epoch 253/500. Took 0.54307 seconds. 
  Full-batch training loss = 0.000544, test loss = 0.176125
  Training set accuracy = 1.000000, Test set accuracy = 0.962400
 epoch 254/500. Took 0.54592 seconds. 
  Full-batch training loss = 0.000541, test loss = 0.176192
  Training set accuracy = 1.000000, Test set accuracy = 0.962500
 epoch 255/500. Took 0.5444 seconds. 
  Full-batch training loss = 0.000538, test loss = 0.176204
  Training set accuracy = 1.000000, Test set accuracy = 0.962400
 epoch 256/500. Took 0.54609 seconds. 
  Full-batch training loss = 0.000535, test loss = 0.176273
  Training set accuracy = 1.000000, Test set accuracy = 0.962400
 epoch 257/500. Took 0.54417 seconds. 
  Full-batch training loss = 0.000533, test loss = 0.176366
  Training set accuracy = 1.000000, Test set accuracy = 0.962600
 epoch 258/500. Took 0.54626 seconds. 
  Full-batch training loss = 0.000530, test loss = 0.176395
  Training set accuracy = 1.000000, Test set accuracy = 0.962400
 epoch 259/500. Took 0.54953 seconds. 
  Full-batch training loss = 0.000527, test loss = 0.176467
  Training set accuracy = 1.000000, Test set accuracy = 0.962500
 epoch 260/500. Took 0.54875 seconds. 
  Full-batch training loss = 0.000525, test loss = 0.176498
  Training set accuracy = 1.000000, Test set accuracy = 0.962500
 epoch 261/500. Took 0.54708 seconds. 
  Full-batch training loss = 0.000522, test loss = 0.176581
  Training set accuracy = 1.000000, Test set accuracy = 0.962400
 epoch 262/500. Took 0.54509 seconds. 
  Full-batch training loss = 0.000520, test loss = 0.176598
  Training set accuracy = 1.000000, Test set accuracy = 0.962500
 epoch 263/500. Took 0.54678 seconds. 
  Full-batch training loss = 0.000517, test loss = 0.176667
  Training set accuracy = 1.000000, Test set accuracy = 0.962500
 epoch 264/500. Took 0.54878 seconds. 
  Full-batch training loss = 0.000515, test loss = 0.176739
  Training set accuracy = 1.000000, Test set accuracy = 0.962500
 epoch 265/500. Took 0.54357 seconds. 
  Full-batch training loss = 0.000512, test loss = 0.176791
  Training set accuracy = 1.000000, Test set accuracy = 0.962500
 epoch 266/500. Took 0.54582 seconds. 
  Full-batch training loss = 0.000510, test loss = 0.176826
  Training set accuracy = 1.000000, Test set accuracy = 0.962400
 epoch 267/500. Took 0.54838 seconds. 
  Full-batch training loss = 0.000507, test loss = 0.176907
  Training set accuracy = 1.000000, Test set accuracy = 0.962600
 epoch 268/500. Took 0.54253 seconds. 
  Full-batch training loss = 0.000505, test loss = 0.176955
  Training set accuracy = 1.000000, Test set accuracy = 0.962500
 epoch 269/500. Took 0.54803 seconds. 
  Full-batch training loss = 0.000502, test loss = 0.177028
  Training set accuracy = 1.000000, Test set accuracy = 0.962500
 epoch 270/500. Took 0.54649 seconds. 
  Full-batch training loss = 0.000500, test loss = 0.177073
  Training set accuracy = 1.000000, Test set accuracy = 0.962400
 epoch 271/500. Took 0.54459 seconds. 
  Full-batch training loss = 0.000498, test loss = 0.177149
  Training set accuracy = 1.000000, Test set accuracy = 0.962500
 epoch 272/500. Took 0.55465 seconds. 
  Full-batch training loss = 0.000495, test loss = 0.177192
  Training set accuracy = 1.000000, Test set accuracy = 0.962600
 epoch 273/500. Took 0.56054 seconds. 
  Full-batch training loss = 0.000493, test loss = 0.177269
  Training set accuracy = 1.000000, Test set accuracy = 0.962700
 epoch 274/500. Took 0.54393 seconds. 
  Full-batch training loss = 0.000491, test loss = 0.177305
  Training set accuracy = 1.000000, Test set accuracy = 0.962600
 epoch 275/500. Took 0.54941 seconds. 
  Full-batch training loss = 0.000488, test loss = 0.177359
  Training set accuracy = 1.000000, Test set accuracy = 0.962700
 epoch 276/500. Took 0.54465 seconds. 
  Full-batch training loss = 0.000486, test loss = 0.177407
  Training set accuracy = 1.000000, Test set accuracy = 0.962600
 epoch 277/500. Took 0.54724 seconds. 
  Full-batch training loss = 0.000484, test loss = 0.177452
  Training set accuracy = 1.000000, Test set accuracy = 0.962700
 epoch 278/500. Took 0.5474 seconds. 
  Full-batch training loss = 0.000482, test loss = 0.177522
  Training set accuracy = 1.000000, Test set accuracy = 0.962600
 epoch 279/500. Took 0.54965 seconds. 
  Full-batch training loss = 0.000479, test loss = 0.177590
  Training set accuracy = 1.000000, Test set accuracy = 0.962600
 epoch 280/500. Took 0.54675 seconds. 
  Full-batch training loss = 0.000477, test loss = 0.177621
  Training set accuracy = 1.000000, Test set accuracy = 0.962500
 epoch 281/500. Took 0.54759 seconds. 
  Full-batch training loss = 0.000475, test loss = 0.177667
  Training set accuracy = 1.000000, Test set accuracy = 0.962500
 epoch 282/500. Took 0.54751 seconds. 
  Full-batch training loss = 0.000473, test loss = 0.177748
  Training set accuracy = 1.000000, Test set accuracy = 0.962700
 epoch 283/500. Took 0.54504 seconds. 
  Full-batch training loss = 0.000471, test loss = 0.177800
  Training set accuracy = 1.000000, Test set accuracy = 0.962600
 epoch 284/500. Took 0.54653 seconds. 
  Full-batch training loss = 0.000469, test loss = 0.177867
  Training set accuracy = 1.000000, Test set accuracy = 0.962700
 epoch 285/500. Took 0.54392 seconds. 
  Full-batch training loss = 0.000467, test loss = 0.177900
  Training set accuracy = 1.000000, Test set accuracy = 0.962700
 epoch 286/500. Took 0.54424 seconds. 
  Full-batch training loss = 0.000465, test loss = 0.177916
  Training set accuracy = 1.000000, Test set accuracy = 0.962600
 epoch 287/500. Took 0.54406 seconds. 
  Full-batch training loss = 0.000462, test loss = 0.177991
  Training set accuracy = 1.000000, Test set accuracy = 0.962700
 epoch 288/500. Took 0.54979 seconds. 
  Full-batch training loss = 0.000460, test loss = 0.178050
  Training set accuracy = 1.000000, Test set accuracy = 0.962700
 epoch 289/500. Took 0.54512 seconds. 
  Full-batch training loss = 0.000458, test loss = 0.178110
  Training set accuracy = 1.000000, Test set accuracy = 0.962700
 epoch 290/500. Took 0.54758 seconds. 
  Full-batch training loss = 0.000456, test loss = 0.178182
  Training set accuracy = 1.000000, Test set accuracy = 0.962700
 epoch 291/500. Took 0.54248 seconds. 
  Full-batch training loss = 0.000454, test loss = 0.178228
  Training set accuracy = 1.000000, Test set accuracy = 0.962700
 epoch 292/500. Took 0.54382 seconds. 
  Full-batch training loss = 0.000452, test loss = 0.178254
  Training set accuracy = 1.000000, Test set accuracy = 0.962600
 epoch 293/500. Took 0.54513 seconds. 
  Full-batch training loss = 0.000450, test loss = 0.178277
  Training set accuracy = 1.000000, Test set accuracy = 0.962700
 epoch 294/500. Took 0.54991 seconds. 
  Full-batch training loss = 0.000449, test loss = 0.178314
  Training set accuracy = 1.000000, Test set accuracy = 0.962700
 epoch 295/500. Took 0.5482 seconds. 
  Full-batch training loss = 0.000447, test loss = 0.178378
  Training set accuracy = 1.000000, Test set accuracy = 0.962700
 epoch 296/500. Took 0.54579 seconds. 
  Full-batch training loss = 0.000445, test loss = 0.178426
  Training set accuracy = 1.000000, Test set accuracy = 0.962700
 epoch 297/500. Took 0.54283 seconds. 
  Full-batch training loss = 0.000443, test loss = 0.178489
  Training set accuracy = 1.000000, Test set accuracy = 0.962700
 epoch 298/500. Took 0.54339 seconds. 
  Full-batch training loss = 0.000441, test loss = 0.178552
  Training set accuracy = 1.000000, Test set accuracy = 0.962600
 epoch 299/500. Took 0.56873 seconds. 
  Full-batch training loss = 0.000439, test loss = 0.178595
  Training set accuracy = 1.000000, Test set accuracy = 0.962700
 epoch 300/500. Took 0.54448 seconds. 
  Full-batch training loss = 0.000437, test loss = 0.178673
  Training set accuracy = 1.000000, Test set accuracy = 0.962600
 epoch 301/500. Took 0.5473 seconds. 
  Full-batch training loss = 0.000435, test loss = 0.178700
  Training set accuracy = 1.000000, Test set accuracy = 0.962600
 epoch 302/500. Took 0.5475 seconds. 
  Full-batch training loss = 0.000433, test loss = 0.178773
  Training set accuracy = 1.000000, Test set accuracy = 0.962600
 epoch 303/500. Took 0.54613 seconds. 
  Full-batch training loss = 0.000432, test loss = 0.178811
  Training set accuracy = 1.000000, Test set accuracy = 0.962600
 epoch 304/500. Took 0.54925 seconds. 
  Full-batch training loss = 0.000430, test loss = 0.178880
  Training set accuracy = 1.000000, Test set accuracy = 0.962700
 epoch 305/500. Took 0.54641 seconds. 
  Full-batch training loss = 0.000428, test loss = 0.178928
  Training set accuracy = 1.000000, Test set accuracy = 0.962600
 epoch 306/500. Took 0.54423 seconds. 
  Full-batch training loss = 0.000426, test loss = 0.179002
  Training set accuracy = 1.000000, Test set accuracy = 0.962700
 epoch 307/500. Took 0.54513 seconds. 
  Full-batch training loss = 0.000425, test loss = 0.179013
  Training set accuracy = 1.000000, Test set accuracy = 0.962700
 epoch 308/500. Took 0.54745 seconds. 
  Full-batch training loss = 0.000423, test loss = 0.179082
  Training set accuracy = 1.000000, Test set accuracy = 0.962600
 epoch 309/500. Took 0.54489 seconds. 
  Full-batch training loss = 0.000421, test loss = 0.179085
  Training set accuracy = 1.000000, Test set accuracy = 0.962700
 epoch 310/500. Took 0.54499 seconds. 
  Full-batch training loss = 0.000419, test loss = 0.179138
  Training set accuracy = 1.000000, Test set accuracy = 0.962600
 epoch 311/500. Took 0.54653 seconds. 
  Full-batch training loss = 0.000418, test loss = 0.179186
  Training set accuracy = 1.000000, Test set accuracy = 0.962700
 epoch 312/500. Took 0.5456 seconds. 
  Full-batch training loss = 0.000416, test loss = 0.179240
  Training set accuracy = 1.000000, Test set accuracy = 0.962600
 epoch 313/500. Took 0.54581 seconds. 
  Full-batch training loss = 0.000414, test loss = 0.179288
  Training set accuracy = 1.000000, Test set accuracy = 0.962600
 epoch 314/500. Took 0.54789 seconds. 
  Full-batch training loss = 0.000413, test loss = 0.179331
  Training set accuracy = 1.000000, Test set accuracy = 0.962700
 epoch 315/500. Took 0.54424 seconds. 
  Full-batch training loss = 0.000411, test loss = 0.179366
  Training set accuracy = 1.000000, Test set accuracy = 0.962600
 epoch 316/500. Took 0.54526 seconds. 
  Full-batch training loss = 0.000409, test loss = 0.179407
  Training set accuracy = 1.000000, Test set accuracy = 0.962600
 epoch 317/500. Took 0.54794 seconds. 
  Full-batch training loss = 0.000408, test loss = 0.179484
  Training set accuracy = 1.000000, Test set accuracy = 0.962700
 epoch 318/500. Took 0.54858 seconds. 
  Full-batch training loss = 0.000406, test loss = 0.179509
  Training set accuracy = 1.000000, Test set accuracy = 0.962700
 epoch 319/500. Took 0.54754 seconds. 
  Full-batch training loss = 0.000404, test loss = 0.179587
  Training set accuracy = 1.000000, Test set accuracy = 0.962600
 epoch 320/500. Took 0.54772 seconds. 
  Full-batch training loss = 0.000403, test loss = 0.179642
  Training set accuracy = 1.000000, Test set accuracy = 0.962800
 epoch 321/500. Took 0.54623 seconds. 
  Full-batch training loss = 0.000401, test loss = 0.179673
  Training set accuracy = 1.000000, Test set accuracy = 0.962800
 epoch 322/500. Took 0.54439 seconds. 
  Full-batch training loss = 0.000400, test loss = 0.179745
  Training set accuracy = 1.000000, Test set accuracy = 0.962600
 epoch 323/500. Took 0.54869 seconds. 
  Full-batch training loss = 0.000398, test loss = 0.179756
  Training set accuracy = 1.000000, Test set accuracy = 0.962700
 epoch 324/500. Took 0.54432 seconds. 
  Full-batch training loss = 0.000397, test loss = 0.179798
  Training set accuracy = 1.000000, Test set accuracy = 0.962800
 epoch 325/500. Took 0.54354 seconds. 
  Full-batch training loss = 0.000395, test loss = 0.179832
  Training set accuracy = 1.000000, Test set accuracy = 0.962800
 epoch 326/500. Took 0.54371 seconds. 
  Full-batch training loss = 0.000394, test loss = 0.179902
  Training set accuracy = 1.000000, Test set accuracy = 0.962800
 epoch 327/500. Took 0.54751 seconds. 
  Full-batch training loss = 0.000392, test loss = 0.179948
  Training set accuracy = 1.000000, Test set accuracy = 0.962700
 epoch 328/500. Took 0.54629 seconds. 
  Full-batch training loss = 0.000391, test loss = 0.179987
  Training set accuracy = 1.000000, Test set accuracy = 0.962800
 epoch 329/500. Took 0.54631 seconds. 
  Full-batch training loss = 0.000389, test loss = 0.180048
  Training set accuracy = 1.000000, Test set accuracy = 0.962800
 epoch 330/500. Took 0.54623 seconds. 
  Full-batch training loss = 0.000388, test loss = 0.180078
  Training set accuracy = 1.000000, Test set accuracy = 0.962800
 epoch 331/500. Took 0.54583 seconds. 
  Full-batch training loss = 0.000386, test loss = 0.180107
  Training set accuracy = 1.000000, Test set accuracy = 0.962900
 epoch 332/500. Took 0.54523 seconds. 
  Full-batch training loss = 0.000385, test loss = 0.180155
  Training set accuracy = 1.000000, Test set accuracy = 0.962700
 epoch 333/500. Took 0.54788 seconds. 
  Full-batch training loss = 0.000383, test loss = 0.180213
  Training set accuracy = 1.000000, Test set accuracy = 0.962700
 epoch 334/500. Took 0.54176 seconds. 
  Full-batch training loss = 0.000382, test loss = 0.180266
  Training set accuracy = 1.000000, Test set accuracy = 0.962700
 epoch 335/500. Took 0.54549 seconds. 
  Full-batch training loss = 0.000380, test loss = 0.180311
  Training set accuracy = 1.000000, Test set accuracy = 0.962700
 epoch 336/500. Took 0.54808 seconds. 
  Full-batch training loss = 0.000379, test loss = 0.180386
  Training set accuracy = 1.000000, Test set accuracy = 0.962700
 epoch 337/500. Took 0.54903 seconds. 
  Full-batch training loss = 0.000377, test loss = 0.180412
  Training set accuracy = 1.000000, Test set accuracy = 0.962700
 epoch 338/500. Took 0.54559 seconds. 
  Full-batch training loss = 0.000376, test loss = 0.180481
  Training set accuracy = 1.000000, Test set accuracy = 0.962700
 epoch 339/500. Took 0.54661 seconds. 
  Full-batch training loss = 0.000375, test loss = 0.180504
  Training set accuracy = 1.000000, Test set accuracy = 0.962700
 epoch 340/500. Took 0.54393 seconds. 
  Full-batch training loss = 0.000373, test loss = 0.180554
  Training set accuracy = 1.000000, Test set accuracy = 0.962700
 epoch 341/500. Took 0.54619 seconds. 
  Full-batch training loss = 0.000372, test loss = 0.180584
  Training set accuracy = 1.000000, Test set accuracy = 0.962700
 epoch 342/500. Took 0.55003 seconds. 
  Full-batch training loss = 0.000371, test loss = 0.180624
  Training set accuracy = 1.000000, Test set accuracy = 0.962700
 epoch 343/500. Took 0.54826 seconds. 
  Full-batch training loss = 0.000369, test loss = 0.180680
  Training set accuracy = 1.000000, Test set accuracy = 0.962700
 epoch 344/500. Took 0.54753 seconds. 
  Full-batch training loss = 0.000368, test loss = 0.180715
  Training set accuracy = 1.000000, Test set accuracy = 0.962700
 epoch 345/500. Took 0.54635 seconds. 
  Full-batch training loss = 0.000366, test loss = 0.180761
  Training set accuracy = 1.000000, Test set accuracy = 0.962700
 epoch 346/500. Took 0.54684 seconds. 
  Full-batch training loss = 0.000365, test loss = 0.180793
  Training set accuracy = 1.000000, Test set accuracy = 0.962800
 epoch 347/500. Took 0.54687 seconds. 
  Full-batch training loss = 0.000364, test loss = 0.180846
  Training set accuracy = 1.000000, Test set accuracy = 0.962700
 epoch 348/500. Took 0.54379 seconds. 
  Full-batch training loss = 0.000363, test loss = 0.180898
  Training set accuracy = 1.000000, Test set accuracy = 0.962700
 epoch 349/500. Took 0.54441 seconds. 
  Full-batch training loss = 0.000361, test loss = 0.180932
  Training set accuracy = 1.000000, Test set accuracy = 0.962800
 epoch 350/500. Took 0.54847 seconds. 
  Full-batch training loss = 0.000360, test loss = 0.180994
  Training set accuracy = 1.000000, Test set accuracy = 0.962700
 epoch 351/500. Took 0.54374 seconds. 
  Full-batch training loss = 0.000359, test loss = 0.180992
  Training set accuracy = 1.000000, Test set accuracy = 0.962700
 epoch 352/500. Took 0.54986 seconds. 
  Full-batch training loss = 0.000357, test loss = 0.181051
  Training set accuracy = 1.000000, Test set accuracy = 0.962700
 epoch 353/500. Took 0.54404 seconds. 
  Full-batch training loss = 0.000356, test loss = 0.181116
  Training set accuracy = 1.000000, Test set accuracy = 0.962700
 epoch 354/500. Took 0.54669 seconds. 
  Full-batch training loss = 0.000355, test loss = 0.181145
  Training set accuracy = 1.000000, Test set accuracy = 0.962700
 epoch 355/500. Took 0.54399 seconds. 
  Full-batch training loss = 0.000354, test loss = 0.181181
  Training set accuracy = 1.000000, Test set accuracy = 0.962700
 epoch 356/500. Took 0.5443 seconds. 
  Full-batch training loss = 0.000352, test loss = 0.181244
  Training set accuracy = 1.000000, Test set accuracy = 0.962600
 epoch 357/500. Took 0.54513 seconds. 
  Full-batch training loss = 0.000351, test loss = 0.181300
  Training set accuracy = 1.000000, Test set accuracy = 0.962700
 epoch 358/500. Took 0.54645 seconds. 
  Full-batch training loss = 0.000350, test loss = 0.181330
  Training set accuracy = 1.000000, Test set accuracy = 0.962800
 epoch 359/500. Took 0.54689 seconds. 
  Full-batch training loss = 0.000349, test loss = 0.181351
  Training set accuracy = 1.000000, Test set accuracy = 0.962800
 epoch 360/500. Took 0.54556 seconds. 
  Full-batch training loss = 0.000347, test loss = 0.181405
  Training set accuracy = 1.000000, Test set accuracy = 0.962800
 epoch 361/500. Took 0.54719 seconds. 
  Full-batch training loss = 0.000346, test loss = 0.181445
  Training set accuracy = 1.000000, Test set accuracy = 0.962900
 epoch 362/500. Took 0.54848 seconds. 
  Full-batch training loss = 0.000345, test loss = 0.181494
  Training set accuracy = 1.000000, Test set accuracy = 0.962900
 epoch 363/500. Took 0.54808 seconds. 
  Full-batch training loss = 0.000344, test loss = 0.181529
  Training set accuracy = 1.000000, Test set accuracy = 0.962900
 epoch 364/500. Took 0.54832 seconds. 
  Full-batch training loss = 0.000343, test loss = 0.181558
  Training set accuracy = 1.000000, Test set accuracy = 0.962700
 epoch 365/500. Took 0.54845 seconds. 
  Full-batch training loss = 0.000342, test loss = 0.181588
  Training set accuracy = 1.000000, Test set accuracy = 0.962800
 epoch 366/500. Took 0.54527 seconds. 
  Full-batch training loss = 0.000340, test loss = 0.181631
  Training set accuracy = 1.000000, Test set accuracy = 0.962800
 epoch 367/500. Took 0.54458 seconds. 
  Full-batch training loss = 0.000339, test loss = 0.181675
  Training set accuracy = 1.000000, Test set accuracy = 0.962700
 epoch 368/500. Took 0.54777 seconds. 
  Full-batch training loss = 0.000338, test loss = 0.181738
  Training set accuracy = 1.000000, Test set accuracy = 0.962700
 epoch 369/500. Took 0.5482 seconds. 
  Full-batch training loss = 0.000337, test loss = 0.181779
  Training set accuracy = 1.000000, Test set accuracy = 0.962800
 epoch 370/500. Took 0.55014 seconds. 
  Full-batch training loss = 0.000336, test loss = 0.181828
  Training set accuracy = 1.000000, Test set accuracy = 0.962700
 epoch 371/500. Took 0.54834 seconds. 
  Full-batch training loss = 0.000335, test loss = 0.181855
  Training set accuracy = 1.000000, Test set accuracy = 0.962800
 epoch 372/500. Took 0.54591 seconds. 
  Full-batch training loss = 0.000334, test loss = 0.181868
  Training set accuracy = 1.000000, Test set accuracy = 0.962800
 epoch 373/500. Took 0.54475 seconds. 
  Full-batch training loss = 0.000332, test loss = 0.181905
  Training set accuracy = 1.000000, Test set accuracy = 0.962700
 epoch 374/500. Took 0.54941 seconds. 
  Full-batch training loss = 0.000331, test loss = 0.181970
  Training set accuracy = 1.000000, Test set accuracy = 0.962700
 epoch 375/500. Took 0.54574 seconds. 
  Full-batch training loss = 0.000330, test loss = 0.182013
  Training set accuracy = 1.000000, Test set accuracy = 0.962800
 epoch 376/500. Took 0.547 seconds. 
  Full-batch training loss = 0.000329, test loss = 0.182033
  Training set accuracy = 1.000000, Test set accuracy = 0.962800
 epoch 377/500. Took 0.54593 seconds. 
  Full-batch training loss = 0.000328, test loss = 0.182097
  Training set accuracy = 1.000000, Test set accuracy = 0.962800
 epoch 378/500. Took 0.54595 seconds. 
  Full-batch training loss = 0.000327, test loss = 0.182132
  Training set accuracy = 1.000000, Test set accuracy = 0.962700
 epoch 379/500. Took 0.54785 seconds. 
  Full-batch training loss = 0.000326, test loss = 0.182167
  Training set accuracy = 1.000000, Test set accuracy = 0.962700
 epoch 380/500. Took 0.54899 seconds. 
  Full-batch training loss = 0.000325, test loss = 0.182207
  Training set accuracy = 1.000000, Test set accuracy = 0.962700
 epoch 381/500. Took 0.54877 seconds. 
  Full-batch training loss = 0.000324, test loss = 0.182246
  Training set accuracy = 1.000000, Test set accuracy = 0.962700
 epoch 382/500. Took 0.54959 seconds. 
  Full-batch training loss = 0.000323, test loss = 0.182292
  Training set accuracy = 1.000000, Test set accuracy = 0.962800
 epoch 383/500. Took 0.54726 seconds. 
  Full-batch training loss = 0.000322, test loss = 0.182323
  Training set accuracy = 1.000000, Test set accuracy = 0.962800
 epoch 384/500. Took 0.54733 seconds. 
  Full-batch training loss = 0.000321, test loss = 0.182363
  Training set accuracy = 1.000000, Test set accuracy = 0.962800
 epoch 385/500. Took 0.54564 seconds. 
  Full-batch training loss = 0.000320, test loss = 0.182382
  Training set accuracy = 1.000000, Test set accuracy = 0.962800
 epoch 386/500. Took 0.544 seconds. 
  Full-batch training loss = 0.000319, test loss = 0.182427
  Training set accuracy = 1.000000, Test set accuracy = 0.962800
 epoch 387/500. Took 0.54714 seconds. 
  Full-batch training loss = 0.000318, test loss = 0.182483
  Training set accuracy = 1.000000, Test set accuracy = 0.962800
 epoch 388/500. Took 0.54801 seconds. 
  Full-batch training loss = 0.000316, test loss = 0.182502
  Training set accuracy = 1.000000, Test set accuracy = 0.962800
 epoch 389/500. Took 0.54679 seconds. 
  Full-batch training loss = 0.000315, test loss = 0.182577
  Training set accuracy = 1.000000, Test set accuracy = 0.962800
 epoch 390/500. Took 0.54671 seconds. 
  Full-batch training loss = 0.000314, test loss = 0.182587
  Training set accuracy = 1.000000, Test set accuracy = 0.962800
 epoch 391/500. Took 0.54413 seconds. 
  Full-batch training loss = 0.000313, test loss = 0.182634
  Training set accuracy = 1.000000, Test set accuracy = 0.962700
 epoch 392/500. Took 0.5472 seconds. 
  Full-batch training loss = 0.000312, test loss = 0.182671
  Training set accuracy = 1.000000, Test set accuracy = 0.962800
 epoch 393/500. Took 0.54647 seconds. 
  Full-batch training loss = 0.000311, test loss = 0.182702
  Training set accuracy = 1.000000, Test set accuracy = 0.962800
 epoch 394/500. Took 0.54756 seconds. 
  Full-batch training loss = 0.000310, test loss = 0.182748
  Training set accuracy = 1.000000, Test set accuracy = 0.962800
 epoch 395/500. Took 0.54906 seconds. 
  Full-batch training loss = 0.000310, test loss = 0.182807
  Training set accuracy = 1.000000, Test set accuracy = 0.962800
 epoch 396/500. Took 0.54503 seconds. 
  Full-batch training loss = 0.000309, test loss = 0.182822
  Training set accuracy = 1.000000, Test set accuracy = 0.962800
 epoch 397/500. Took 0.54599 seconds. 
  Full-batch training loss = 0.000308, test loss = 0.182866
  Training set accuracy = 1.000000, Test set accuracy = 0.962800
 epoch 398/500. Took 0.54623 seconds. 
  Full-batch training loss = 0.000307, test loss = 0.182892
  Training set accuracy = 1.000000, Test set accuracy = 0.962800
 epoch 399/500. Took 0.55098 seconds. 
  Full-batch training loss = 0.000306, test loss = 0.182921
  Training set accuracy = 1.000000, Test set accuracy = 0.962800
 epoch 400/500. Took 0.57658 seconds. 
  Full-batch training loss = 0.000305, test loss = 0.182951
  Training set accuracy = 1.000000, Test set accuracy = 0.962800
 epoch 401/500. Took 0.54656 seconds. 
  Full-batch training loss = 0.000304, test loss = 0.183016
  Training set accuracy = 1.000000, Test set accuracy = 0.962800
 epoch 402/500. Took 0.54735 seconds. 
  Full-batch training loss = 0.000303, test loss = 0.183052
  Training set accuracy = 1.000000, Test set accuracy = 0.962800
 epoch 403/500. Took 0.54654 seconds. 
  Full-batch training loss = 0.000302, test loss = 0.183106
  Training set accuracy = 1.000000, Test set accuracy = 0.962800
 epoch 404/500. Took 0.54427 seconds. 
  Full-batch training loss = 0.000301, test loss = 0.183135
  Training set accuracy = 1.000000, Test set accuracy = 0.962700
 epoch 405/500. Took 0.54466 seconds. 
  Full-batch training loss = 0.000300, test loss = 0.183157
  Training set accuracy = 1.000000, Test set accuracy = 0.962800
 epoch 406/500. Took 0.54353 seconds. 
  Full-batch training loss = 0.000299, test loss = 0.183193
  Training set accuracy = 1.000000, Test set accuracy = 0.962800
 epoch 407/500. Took 0.54489 seconds. 
  Full-batch training loss = 0.000298, test loss = 0.183222
  Training set accuracy = 1.000000, Test set accuracy = 0.962800
 epoch 408/500. Took 0.54536 seconds. 
  Full-batch training loss = 0.000297, test loss = 0.183246
  Training set accuracy = 1.000000, Test set accuracy = 0.962800
 epoch 409/500. Took 0.54414 seconds. 
  Full-batch training loss = 0.000296, test loss = 0.183281
  Training set accuracy = 1.000000, Test set accuracy = 0.962800
 epoch 410/500. Took 0.54757 seconds. 
  Full-batch training loss = 0.000296, test loss = 0.183316
  Training set accuracy = 1.000000, Test set accuracy = 0.962800
 epoch 411/500. Took 0.54614 seconds. 
  Full-batch training loss = 0.000295, test loss = 0.183349
  Training set accuracy = 1.000000, Test set accuracy = 0.962800
 epoch 412/500. Took 0.54518 seconds. 
  Full-batch training loss = 0.000294, test loss = 0.183403
  Training set accuracy = 1.000000, Test set accuracy = 0.962800
 epoch 413/500. Took 0.5472 seconds. 
  Full-batch training loss = 0.000293, test loss = 0.183446
  Training set accuracy = 1.000000, Test set accuracy = 0.962800
 epoch 414/500. Took 0.54705 seconds. 
  Full-batch training loss = 0.000292, test loss = 0.183487
  Training set accuracy = 1.000000, Test set accuracy = 0.962800
 epoch 415/500. Took 0.54209 seconds. 
  Full-batch training loss = 0.000291, test loss = 0.183514
  Training set accuracy = 1.000000, Test set accuracy = 0.962800
 epoch 416/500. Took 0.54561 seconds. 
  Full-batch training loss = 0.000290, test loss = 0.183587
  Training set accuracy = 1.000000, Test set accuracy = 0.962900
 epoch 417/500. Took 0.54452 seconds. 
  Full-batch training loss = 0.000289, test loss = 0.183608
  Training set accuracy = 1.000000, Test set accuracy = 0.962900
 epoch 418/500. Took 0.54794 seconds. 
  Full-batch training loss = 0.000289, test loss = 0.183641
  Training set accuracy = 1.000000, Test set accuracy = 0.962800
 epoch 419/500. Took 0.54349 seconds. 
  Full-batch training loss = 0.000288, test loss = 0.183669
  Training set accuracy = 1.000000, Test set accuracy = 0.962800
 epoch 420/500. Took 0.54498 seconds. 
  Full-batch training loss = 0.000287, test loss = 0.183688
  Training set accuracy = 1.000000, Test set accuracy = 0.962800
 epoch 421/500. Took 0.54542 seconds. 
  Full-batch training loss = 0.000286, test loss = 0.183732
  Training set accuracy = 1.000000, Test set accuracy = 0.962800
 epoch 422/500. Took 0.54427 seconds. 
  Full-batch training loss = 0.000285, test loss = 0.183784
  Training set accuracy = 1.000000, Test set accuracy = 0.963000
 epoch 423/500. Took 0.54583 seconds. 
  Full-batch training loss = 0.000284, test loss = 0.183821
  Training set accuracy = 1.000000, Test set accuracy = 0.963000
 epoch 424/500. Took 0.54605 seconds. 
  Full-batch training loss = 0.000284, test loss = 0.183855
  Training set accuracy = 1.000000, Test set accuracy = 0.963000
 epoch 425/500. Took 0.5485 seconds. 
  Full-batch training loss = 0.000283, test loss = 0.183899
  Training set accuracy = 1.000000, Test set accuracy = 0.963000
 epoch 426/500. Took 0.54337 seconds. 
  Full-batch training loss = 0.000282, test loss = 0.183933
  Training set accuracy = 1.000000, Test set accuracy = 0.963000
 epoch 427/500. Took 0.54934 seconds. 
  Full-batch training loss = 0.000281, test loss = 0.183951
  Training set accuracy = 1.000000, Test set accuracy = 0.962900
 epoch 428/500. Took 0.54407 seconds. 
  Full-batch training loss = 0.000280, test loss = 0.183984
  Training set accuracy = 1.000000, Test set accuracy = 0.963000
 epoch 429/500. Took 0.54587 seconds. 
  Full-batch training loss = 0.000279, test loss = 0.184007
  Training set accuracy = 1.000000, Test set accuracy = 0.962900
 epoch 430/500. Took 0.54678 seconds. 
  Full-batch training loss = 0.000279, test loss = 0.184042
  Training set accuracy = 1.000000, Test set accuracy = 0.963000
 epoch 431/500. Took 0.5445 seconds. 
  Full-batch training loss = 0.000278, test loss = 0.184093
  Training set accuracy = 1.000000, Test set accuracy = 0.963000
 epoch 432/500. Took 0.54692 seconds. 
  Full-batch training loss = 0.000277, test loss = 0.184107
  Training set accuracy = 1.000000, Test set accuracy = 0.963000
 epoch 433/500. Took 0.55181 seconds. 
  Full-batch training loss = 0.000276, test loss = 0.184159
  Training set accuracy = 1.000000, Test set accuracy = 0.963000
 epoch 434/500. Took 0.54261 seconds. 
  Full-batch training loss = 0.000275, test loss = 0.184185
  Training set accuracy = 1.000000, Test set accuracy = 0.963000
 epoch 435/500. Took 0.54648 seconds. 
  Full-batch training loss = 0.000275, test loss = 0.184236
  Training set accuracy = 1.000000, Test set accuracy = 0.963000
 epoch 436/500. Took 0.54628 seconds. 
  Full-batch training loss = 0.000274, test loss = 0.184268
  Training set accuracy = 1.000000, Test set accuracy = 0.963000
 epoch 437/500. Took 0.5447 seconds. 
  Full-batch training loss = 0.000273, test loss = 0.184294
  Training set accuracy = 1.000000, Test set accuracy = 0.962900
 epoch 438/500. Took 0.54701 seconds. 
  Full-batch training loss = 0.000272, test loss = 0.184337
  Training set accuracy = 1.000000, Test set accuracy = 0.963000
 epoch 439/500. Took 0.54682 seconds. 
  Full-batch training loss = 0.000272, test loss = 0.184358
  Training set accuracy = 1.000000, Test set accuracy = 0.962900
 epoch 440/500. Took 0.54316 seconds. 
  Full-batch training loss = 0.000271, test loss = 0.184392
  Training set accuracy = 1.000000, Test set accuracy = 0.963000
 epoch 441/500. Took 0.54863 seconds. 
  Full-batch training loss = 0.000270, test loss = 0.184432
  Training set accuracy = 1.000000, Test set accuracy = 0.962900
 epoch 442/500. Took 0.54574 seconds. 
  Full-batch training loss = 0.000269, test loss = 0.184462
  Training set accuracy = 1.000000, Test set accuracy = 0.962900
 epoch 443/500. Took 0.54502 seconds. 
  Full-batch training loss = 0.000269, test loss = 0.184514
  Training set accuracy = 1.000000, Test set accuracy = 0.962900
 epoch 444/500. Took 0.54547 seconds. 
  Full-batch training loss = 0.000268, test loss = 0.184525
  Training set accuracy = 1.000000, Test set accuracy = 0.962900
 epoch 445/500. Took 0.54862 seconds. 
  Full-batch training loss = 0.000267, test loss = 0.184566
  Training set accuracy = 1.000000, Test set accuracy = 0.962900
 epoch 446/500. Took 0.55052 seconds. 
  Full-batch training loss = 0.000266, test loss = 0.184609
  Training set accuracy = 1.000000, Test set accuracy = 0.962900
 epoch 447/500. Took 0.547 seconds. 
  Full-batch training loss = 0.000266, test loss = 0.184623
  Training set accuracy = 1.000000, Test set accuracy = 0.962900
 epoch 448/500. Took 0.54524 seconds. 
  Full-batch training loss = 0.000265, test loss = 0.184666
  Training set accuracy = 1.000000, Test set accuracy = 0.962900
 epoch 449/500. Took 0.54631 seconds. 
  Full-batch training loss = 0.000264, test loss = 0.184705
  Training set accuracy = 1.000000, Test set accuracy = 0.962900
 epoch 450/500. Took 0.54723 seconds. 
  Full-batch training loss = 0.000263, test loss = 0.184735
  Training set accuracy = 1.000000, Test set accuracy = 0.962900
 epoch 451/500. Took 0.54822 seconds. 
  Full-batch training loss = 0.000263, test loss = 0.184767
  Training set accuracy = 1.000000, Test set accuracy = 0.962900
 epoch 452/500. Took 0.54502 seconds. 
  Full-batch training loss = 0.000262, test loss = 0.184800
  Training set accuracy = 1.000000, Test set accuracy = 0.962900
 epoch 453/500. Took 0.54579 seconds. 
  Full-batch training loss = 0.000261, test loss = 0.184830
  Training set accuracy = 1.000000, Test set accuracy = 0.962900
 epoch 454/500. Took 0.54655 seconds. 
  Full-batch training loss = 0.000261, test loss = 0.184858
  Training set accuracy = 1.000000, Test set accuracy = 0.962900
 epoch 455/500. Took 0.54693 seconds. 
  Full-batch training loss = 0.000260, test loss = 0.184879
  Training set accuracy = 1.000000, Test set accuracy = 0.962900
 epoch 456/500. Took 0.5448 seconds. 
  Full-batch training loss = 0.000259, test loss = 0.184928
  Training set accuracy = 1.000000, Test set accuracy = 0.962900
 epoch 457/500. Took 0.54615 seconds. 
  Full-batch training loss = 0.000258, test loss = 0.184961
  Training set accuracy = 1.000000, Test set accuracy = 0.962900
 epoch 458/500. Took 0.54592 seconds. 
  Full-batch training loss = 0.000258, test loss = 0.184990
  Training set accuracy = 1.000000, Test set accuracy = 0.962900
 epoch 459/500. Took 0.54533 seconds. 
  Full-batch training loss = 0.000257, test loss = 0.185032
  Training set accuracy = 1.000000, Test set accuracy = 0.962900
 epoch 460/500. Took 0.54523 seconds. 
  Full-batch training loss = 0.000256, test loss = 0.185053
  Training set accuracy = 1.000000, Test set accuracy = 0.962900
 epoch 461/500. Took 0.5457 seconds. 
  Full-batch training loss = 0.000256, test loss = 0.185076
  Training set accuracy = 1.000000, Test set accuracy = 0.962900
 epoch 462/500. Took 0.54644 seconds. 
  Full-batch training loss = 0.000255, test loss = 0.185121
  Training set accuracy = 1.000000, Test set accuracy = 0.962900
 epoch 463/500. Took 0.55329 seconds. 
  Full-batch training loss = 0.000254, test loss = 0.185153
  Training set accuracy = 1.000000, Test set accuracy = 0.962900
 epoch 464/500. Took 0.5709 seconds. 
  Full-batch training loss = 0.000254, test loss = 0.185164
  Training set accuracy = 1.000000, Test set accuracy = 0.962900
 epoch 465/500. Took 0.54434 seconds. 
  Full-batch training loss = 0.000253, test loss = 0.185195
  Training set accuracy = 1.000000, Test set accuracy = 0.962900
 epoch 466/500. Took 0.54418 seconds. 
  Full-batch training loss = 0.000252, test loss = 0.185241
  Training set accuracy = 1.000000, Test set accuracy = 0.962900
 epoch 467/500. Took 0.54744 seconds. 
  Full-batch training loss = 0.000252, test loss = 0.185267
  Training set accuracy = 1.000000, Test set accuracy = 0.962900
 epoch 468/500. Took 0.54969 seconds. 
  Full-batch training loss = 0.000251, test loss = 0.185318
  Training set accuracy = 1.000000, Test set accuracy = 0.962900
 epoch 469/500. Took 0.54708 seconds. 
  Full-batch training loss = 0.000250, test loss = 0.185332
  Training set accuracy = 1.000000, Test set accuracy = 0.962900
 epoch 470/500. Took 0.55036 seconds. 
  Full-batch training loss = 0.000250, test loss = 0.185369
  Training set accuracy = 1.000000, Test set accuracy = 0.962900
 epoch 471/500. Took 0.54791 seconds. 
  Full-batch training loss = 0.000249, test loss = 0.185399
  Training set accuracy = 1.000000, Test set accuracy = 0.962900
 epoch 472/500. Took 0.54538 seconds. 
  Full-batch training loss = 0.000248, test loss = 0.185444
  Training set accuracy = 1.000000, Test set accuracy = 0.962900
 epoch 473/500. Took 0.55352 seconds. 
  Full-batch training loss = 0.000248, test loss = 0.185459
  Training set accuracy = 1.000000, Test set accuracy = 0.962900
 epoch 474/500. Took 0.54824 seconds. 
  Full-batch training loss = 0.000247, test loss = 0.185516
  Training set accuracy = 1.000000, Test set accuracy = 0.962900
 epoch 475/500. Took 0.54813 seconds. 
  Full-batch training loss = 0.000246, test loss = 0.185544
  Training set accuracy = 1.000000, Test set accuracy = 0.962900
 epoch 476/500. Took 0.54592 seconds. 
  Full-batch training loss = 0.000246, test loss = 0.185573
  Training set accuracy = 1.000000, Test set accuracy = 0.962900
 epoch 477/500. Took 0.54519 seconds. 
  Full-batch training loss = 0.000245, test loss = 0.185597
  Training set accuracy = 1.000000, Test set accuracy = 0.962900
 epoch 478/500. Took 0.54781 seconds. 
  Full-batch training loss = 0.000245, test loss = 0.185626
  Training set accuracy = 1.000000, Test set accuracy = 0.962900
 epoch 479/500. Took 0.54529 seconds. 
  Full-batch training loss = 0.000244, test loss = 0.185655
  Training set accuracy = 1.000000, Test set accuracy = 0.962900
 epoch 480/500. Took 0.54713 seconds. 
  Full-batch training loss = 0.000243, test loss = 0.185676
  Training set accuracy = 1.000000, Test set accuracy = 0.962900
 epoch 481/500. Took 0.54929 seconds. 
  Full-batch training loss = 0.000243, test loss = 0.185722
  Training set accuracy = 1.000000, Test set accuracy = 0.962900
 epoch 482/500. Took 0.54793 seconds. 
  Full-batch training loss = 0.000242, test loss = 0.185759
  Training set accuracy = 1.000000, Test set accuracy = 0.962900
 epoch 483/500. Took 0.5463 seconds. 
  Full-batch training loss = 0.000241, test loss = 0.185782
  Training set accuracy = 1.000000, Test set accuracy = 0.962900
 epoch 484/500. Took 0.54478 seconds. 
  Full-batch training loss = 0.000241, test loss = 0.185802
  Training set accuracy = 1.000000, Test set accuracy = 0.962900
 epoch 485/500. Took 0.54346 seconds. 
  Full-batch training loss = 0.000240, test loss = 0.185853
  Training set accuracy = 1.000000, Test set accuracy = 0.962900
 epoch 486/500. Took 0.54448 seconds. 
  Full-batch training loss = 0.000240, test loss = 0.185865
  Training set accuracy = 1.000000, Test set accuracy = 0.962900
 epoch 487/500. Took 0.5467 seconds. 
  Full-batch training loss = 0.000239, test loss = 0.185921
  Training set accuracy = 1.000000, Test set accuracy = 0.962900
 epoch 488/500. Took 0.54668 seconds. 
  Full-batch training loss = 0.000238, test loss = 0.185944
  Training set accuracy = 1.000000, Test set accuracy = 0.962900
 epoch 489/500. Took 0.54429 seconds. 
  Full-batch training loss = 0.000238, test loss = 0.185962
  Training set accuracy = 1.000000, Test set accuracy = 0.962900
 epoch 490/500. Took 0.54536 seconds. 
  Full-batch training loss = 0.000237, test loss = 0.185980
  Training set accuracy = 1.000000, Test set accuracy = 0.962900
 epoch 491/500. Took 0.54562 seconds. 
  Full-batch training loss = 0.000237, test loss = 0.186028
  Training set accuracy = 1.000000, Test set accuracy = 0.962900
 epoch 492/500. Took 0.5455 seconds. 
  Full-batch training loss = 0.000236, test loss = 0.186064
  Training set accuracy = 1.000000, Test set accuracy = 0.962900
 epoch 493/500. Took 0.54385 seconds. 
  Full-batch training loss = 0.000235, test loss = 0.186082
  Training set accuracy = 1.000000, Test set accuracy = 0.962900
 epoch 494/500. Took 0.54241 seconds. 
  Full-batch training loss = 0.000235, test loss = 0.186122
  Training set accuracy = 1.000000, Test set accuracy = 0.962900
 epoch 495/500. Took 0.54597 seconds. 
  Full-batch training loss = 0.000234, test loss = 0.186148
  Training set accuracy = 1.000000, Test set accuracy = 0.962900
 epoch 496/500. Took 0.54367 seconds. 
  Full-batch training loss = 0.000234, test loss = 0.186168
  Training set accuracy = 1.000000, Test set accuracy = 0.962900
 epoch 497/500. Took 0.54222 seconds. 
  Full-batch training loss = 0.000233, test loss = 0.186197
  Training set accuracy = 1.000000, Test set accuracy = 0.962900
 epoch 498/500. Took 0.54795 seconds. 
  Full-batch training loss = 0.000233, test loss = 0.186229
  Training set accuracy = 1.000000, Test set accuracy = 0.962900
 epoch 499/500. Took 0.54327 seconds. 
  Full-batch training loss = 0.000232, test loss = 0.186262
  Training set accuracy = 1.000000, Test set accuracy = 0.962900
 epoch 500/500. Took 0.54871 seconds. 
  Full-batch training loss = 0.000231, test loss = 0.186282
  Training set accuracy = 1.000000, Test set accuracy = 0.962900
Elapsed time is 577.319904 seconds.
End Training
