Number of rules = 4

IF      X0 = { L2 L3 L4 }     X2 = { L2 L3 L4 }     X6 = { L2 L3 L4 }     X8 = { L0 L1 L2 L3 }     X12 = { L2 L3 L4 } THEN Class IS 1   W 0.9762010429441259

IF      X6 = { L1 L2 L3 L4 }     X9 = { L0 L1 } THEN Class IS 2   W 0.5833530598124808

IF      X4 = { L4 } THEN Class IS 2   W 1.0

IF      X2 = { L1 L2 L3 L4 } THEN Class IS 3   W 0.27926657263751764

