Number of rules = 3

IF      X1 = { L1 L2 L3 L4 }     X2 = { L2 L3 L4 }     X3 = { L0 L1 L2 L3 }     X4 = { L0 L1 L2 L3 }     X6 = { L2 L3 L4 }     X12 = { L2 L3 L4 } THEN Class IS 1   W 0.9664497335955339

IF      X6 = { L1 L2 L3 L4 }     X9 = { L0 L1 }     X11 = { L1 L2 L3 L4 } THEN Class IS 2   W 0.5961379329797482

IF      X2 = { L2 L3 L4 }     X11 = { L0 L1 L2 } THEN Class IS 3   W 0.43135354342744303

