Number of rules = 4

IF      X1 = { L1 L2 L3 L4 }     X4 = { L0 L1 L2 }     X6 = { L2 L3 L4 }     X12 = { L2 L3 L4 } THEN Class IS 1   W 0.9660850624867435

IF      X6 = { L1 L2 L3 L4 }     X10 = { L2 L3 L4 }     X12 = { L0 L1 L2 L4 } THEN Class IS 2   W 0.5812454175372919

IF      X6 = { L1 L2 L3 L4 }     X8 = { L0 L2 L3 L4 }     X9 = { L0 L1 L2 L3 }     X11 = { L2 L3 L4 } THEN Class IS 2   W 0.07047725140365216

IF      X3 = { L0 L2 L3 L4 }     X10 = { L0 L1 L4 }     X11 = { L0 L1 L4 } THEN Class IS 3   W 0.8295941615261307

