Number of rules: 160

L4 12.89 13.82 14.75
L2 0.74 2.005 3.2699999999999996
L3 1.8275000000000001 2.295 2.7625
L2 10.6 15.45 20.299999999999997
L2 78.0 99.0 120.0
L3 1.6975 2.415 3.1325
L3 1.5250000000000001 2.71 3.895
L2 0.13 0.2625 0.395
L3 1.2025 1.9949999999999999 2.7875
L2 1.28 4.21 7.140000000000001
L3 0.7875 1.095 1.4024999999999999
L3 1.9525000000000001 2.635 3.3175
L4 985.0 1332.5 1680.0
Class 0 CertaintyDegree 1.0

L4 12.89 13.82 14.75
L2 0.74 2.005 3.2699999999999996
L3 1.8275000000000001 2.295 2.7625
L2 10.6 15.45 20.299999999999997
L2 78.0 99.0 120.0
L3 1.6975 2.415 3.1325
L3 1.5250000000000001 2.71 3.895
L2 0.13 0.2625 0.395
L3 1.2025 1.9949999999999999 2.7875
L2 1.28 4.21 7.140000000000001
L3 0.7875 1.095 1.4024999999999999
L3 1.9525000000000001 2.635 3.3175
L4 985.0 1332.5 1680.0
Class 0 CertaintyDegree 1.0

L4 12.89 13.82 14.75
L2 0.74 2.005 3.2699999999999996
L3 1.8275000000000001 2.295 2.7625
L2 10.6 15.45 20.299999999999997
L2 78.0 99.0 120.0
L3 1.6975 2.415 3.1325
L3 1.5250000000000001 2.71 3.895
L2 0.13 0.2625 0.395
L3 1.2025 1.9949999999999999 2.7875
L2 1.28 4.21 7.140000000000001
L3 0.7875 1.095 1.4024999999999999
L3 1.9525000000000001 2.635 3.3175
L4 985.0 1332.5 1680.0
Class 0 CertaintyDegree 1.0

L4 12.89 13.82 14.75
L2 0.74 2.005 3.2699999999999996
L3 1.8275000000000001 2.295 2.7625
L3 15.45 20.299999999999997 25.15
L2 78.0 99.0 120.0
L3 1.6975 2.415 3.1325
L3 1.5250000000000001 2.71 3.895
L2 0.13 0.2625 0.395
L3 1.2025 1.9949999999999999 2.7875
L2 1.28 4.21 7.140000000000001
L3 0.7875 1.095 1.4024999999999999
L4 2.635 3.3175 4.0
L3 637.5 985.0 1332.5
Class 0 CertaintyDegree 1.0

L4 12.89 13.82 14.75
L2 0.74 2.005 3.2699999999999996
L4 2.295 2.7625 3.23
L3 15.45 20.299999999999997 25.15
L2 78.0 99.0 120.0
L4 2.415 3.1325 3.85
L3 1.5250000000000001 2.71 3.895
L2 0.13 0.2625 0.395
L3 1.2025 1.9949999999999999 2.7875
L3 4.21 7.140000000000001 10.07
L3 0.7875 1.095 1.4024999999999999
L3 1.9525000000000001 2.635 3.3175
L4 985.0 1332.5 1680.0
Class 0 CertaintyDegree 1.0

L4 12.89 13.82 14.75
L2 0.74 2.005 3.2699999999999996
L4 2.295 2.7625 3.23
L3 15.45 20.299999999999997 25.15
L2 78.0 99.0 120.0
L4 2.415 3.1325 3.85
L3 1.5250000000000001 2.71 3.895
L2 0.13 0.2625 0.395
L3 1.2025 1.9949999999999999 2.7875
L3 4.21 7.140000000000001 10.07
L3 0.7875 1.095 1.4024999999999999
L3 1.9525000000000001 2.635 3.3175
L4 985.0 1332.5 1680.0
Class 0 CertaintyDegree 1.0

L4 12.89 13.82 14.75
L2 0.74 2.005 3.2699999999999996
L4 2.295 2.7625 3.23
L3 15.45 20.299999999999997 25.15
L2 78.0 99.0 120.0
L4 2.415 3.1325 3.85
L3 1.5250000000000001 2.71 3.895
L2 0.13 0.2625 0.395
L3 1.2025 1.9949999999999999 2.7875
L3 4.21 7.140000000000001 10.07
L3 0.7875 1.095 1.4024999999999999
L3 1.9525000000000001 2.635 3.3175
L4 985.0 1332.5 1680.0
Class 0 CertaintyDegree 1.0

L3 11.959999999999999 12.89 13.82
L3 2.005 3.2699999999999996 4.535
L3 1.8275000000000001 2.295 2.7625
L3 15.45 20.299999999999997 25.15
L2 78.0 99.0 120.0
L2 0.98 1.6975 2.415
L1 -0.845 0.34 1.5250000000000001
L3 0.2625 0.395 0.5275000000000001
L2 0.41 1.2025 1.9949999999999999
L3 4.21 7.140000000000001 10.07
L1 0.1725 0.48 0.7875
L2 1.27 1.9525000000000001 2.635
L2 290.0 637.5 985.0
Class 2 CertaintyDegree 1.0

L3 11.959999999999999 12.89 13.82
L3 2.005 3.2699999999999996 4.535
L3 1.8275000000000001 2.295 2.7625
L3 15.45 20.299999999999997 25.15
L2 78.0 99.0 120.0
L2 0.98 1.6975 2.415
L1 -0.845 0.34 1.5250000000000001
L3 0.2625 0.395 0.5275000000000001
L2 0.41 1.2025 1.9949999999999999
L3 4.21 7.140000000000001 10.07
L1 0.1725 0.48 0.7875
L2 1.27 1.9525000000000001 2.635
L2 290.0 637.5 985.0
Class 2 CertaintyDegree 1.0

L3 11.959999999999999 12.89 13.82
L3 2.005 3.2699999999999996 4.535
L3 1.8275000000000001 2.295 2.7625
L3 15.45 20.299999999999997 25.15
L2 78.0 99.0 120.0
L2 0.98 1.6975 2.415
L1 -0.845 0.34 1.5250000000000001
L3 0.2625 0.395 0.5275000000000001
L2 0.41 1.2025 1.9949999999999999
L3 4.21 7.140000000000001 10.07
L1 0.1725 0.48 0.7875
L2 1.27 1.9525000000000001 2.635
L2 290.0 637.5 985.0
Class 2 CertaintyDegree 1.0

L3 11.959999999999999 12.89 13.82
L3 2.005 3.2699999999999996 4.535
L3 1.8275000000000001 2.295 2.7625
L3 15.45 20.299999999999997 25.15
L3 99.0 120.0 141.0
L2 0.98 1.6975 2.415
L2 0.34 1.5250000000000001 2.71
L2 0.13 0.2625 0.395
L2 0.41 1.2025 1.9949999999999999
L4 7.140000000000001 10.07 13.0
L1 0.1725 0.48 0.7875
L1 0.5875 1.27 1.9525000000000001
L2 290.0 637.5 985.0
Class 2 CertaintyDegree 1.0

L3 11.959999999999999 12.89 13.82
L3 2.005 3.2699999999999996 4.535
L3 1.8275000000000001 2.295 2.7625
L3 15.45 20.299999999999997 25.15
L3 99.0 120.0 141.0
L2 0.98 1.6975 2.415
L2 0.34 1.5250000000000001 2.71
L2 0.13 0.2625 0.395
L2 0.41 1.2025 1.9949999999999999
L4 7.140000000000001 10.07 13.0
L1 0.1725 0.48 0.7875
L1 0.5875 1.27 1.9525000000000001
L2 290.0 637.5 985.0
Class 2 CertaintyDegree 1.0

L3 11.959999999999999 12.89 13.82
L3 2.005 3.2699999999999996 4.535
L3 1.8275000000000001 2.295 2.7625
L3 15.45 20.299999999999997 25.15
L3 99.0 120.0 141.0
L2 0.98 1.6975 2.415
L2 0.34 1.5250000000000001 2.71
L2 0.13 0.2625 0.395
L2 0.41 1.2025 1.9949999999999999
L4 7.140000000000001 10.07 13.0
L1 0.1725 0.48 0.7875
L1 0.5875 1.27 1.9525000000000001
L2 290.0 637.5 985.0
Class 2 CertaintyDegree 1.0

L2 11.03 11.959999999999999 12.89
L2 0.74 2.005 3.2699999999999996
L3 1.8275000000000001 2.295 2.7625
L3 15.45 20.299999999999997 25.15
L1 57.0 78.0 99.0
L3 1.6975 2.415 3.1325
L3 1.5250000000000001 2.71 3.895
L3 0.2625 0.395 0.5275000000000001
L2 0.41 1.2025 1.9949999999999999
L2 1.28 4.21 7.140000000000001
L2 0.48 0.7875 1.095
L4 2.635 3.3175 4.0
L1 -57.5 290.0 637.5
Class 1 CertaintyDegree 1.0

L2 11.03 11.959999999999999 12.89
L2 0.74 2.005 3.2699999999999996
L3 1.8275000000000001 2.295 2.7625
L3 15.45 20.299999999999997 25.15
L1 57.0 78.0 99.0
L3 1.6975 2.415 3.1325
L3 1.5250000000000001 2.71 3.895
L3 0.2625 0.395 0.5275000000000001
L2 0.41 1.2025 1.9949999999999999
L2 1.28 4.21 7.140000000000001
L2 0.48 0.7875 1.095
L4 2.635 3.3175 4.0
L1 -57.5 290.0 637.5
Class 1 CertaintyDegree 1.0

L2 11.03 11.959999999999999 12.89
L2 0.74 2.005 3.2699999999999996
L3 1.8275000000000001 2.295 2.7625
L3 15.45 20.299999999999997 25.15
L1 57.0 78.0 99.0
L3 1.6975 2.415 3.1325
L3 1.5250000000000001 2.71 3.895
L3 0.2625 0.395 0.5275000000000001
L2 0.41 1.2025 1.9949999999999999
L2 1.28 4.21 7.140000000000001
L2 0.48 0.7875 1.095
L4 2.635 3.3175 4.0
L1 -57.5 290.0 637.5
Class 1 CertaintyDegree 1.0

L2 11.03 11.959999999999999 12.89
L2 0.74 2.005 3.2699999999999996
L3 1.8275000000000001 2.295 2.7625
L3 15.45 20.299999999999997 25.15
L1 57.0 78.0 99.0
L2 0.98 1.6975 2.415
L2 0.34 1.5250000000000001 2.71
L4 0.395 0.5275000000000001 0.66
L3 1.2025 1.9949999999999999 2.7875
L2 1.28 4.21 7.140000000000001
L3 0.7875 1.095 1.4024999999999999
L3 1.9525000000000001 2.635 3.3175
L1 -57.5 290.0 637.5
Class 1 CertaintyDegree 1.0

L2 11.03 11.959999999999999 12.89
L2 0.74 2.005 3.2699999999999996
L3 1.8275000000000001 2.295 2.7625
L3 15.45 20.299999999999997 25.15
L1 57.0 78.0 99.0
L2 0.98 1.6975 2.415
L2 0.34 1.5250000000000001 2.71
L4 0.395 0.5275000000000001 0.66
L3 1.2025 1.9949999999999999 2.7875
L2 1.28 4.21 7.140000000000001
L3 0.7875 1.095 1.4024999999999999
L3 1.9525000000000001 2.635 3.3175
L1 -57.5 290.0 637.5
Class 1 CertaintyDegree 1.0

L2 11.03 11.959999999999999 12.89
L2 0.74 2.005 3.2699999999999996
L3 1.8275000000000001 2.295 2.7625
L3 15.45 20.299999999999997 25.15
L1 57.0 78.0 99.0
L2 0.98 1.6975 2.415
L2 0.34 1.5250000000000001 2.71
L4 0.395 0.5275000000000001 0.66
L3 1.2025 1.9949999999999999 2.7875
L2 1.28 4.21 7.140000000000001
L3 0.7875 1.095 1.4024999999999999
L3 1.9525000000000001 2.635 3.3175
L1 -57.5 290.0 637.5
Class 1 CertaintyDegree 1.0

L4 12.89 13.82 14.75
L2 0.74 2.005 3.2699999999999996
L3 1.8275000000000001 2.295 2.7625
L3 15.45 20.299999999999997 25.15
L2 78.0 99.0 120.0
L3 1.6975 2.415 3.1325
L3 1.5250000000000001 2.71 3.895
L2 0.13 0.2625 0.395
L3 1.2025 1.9949999999999999 2.7875
L2 1.28 4.21 7.140000000000001
L3 0.7875 1.095 1.4024999999999999
L4 2.635 3.3175 4.0
L3 637.5 985.0 1332.5
Class 0 CertaintyDegree 1.0

L4 12.89 13.82 14.75
L2 0.74 2.005 3.2699999999999996
L3 1.8275000000000001 2.295 2.7625
L2 10.6 15.45 20.299999999999997
L2 78.0 99.0 120.0
L4 2.415 3.1325 3.85
L4 2.71 3.895 5.08
L2 0.13 0.2625 0.395
L3 1.2025 1.9949999999999999 2.7875
L3 4.21 7.140000000000001 10.07
L2 0.48 0.7875 1.095
L4 2.635 3.3175 4.0
L3 637.5 985.0 1332.5
Class 0 CertaintyDegree 1.0

L4 12.89 13.82 14.75
L2 0.74 2.005 3.2699999999999996
L3 1.8275000000000001 2.295 2.7625
L2 10.6 15.45 20.299999999999997
L2 78.0 99.0 120.0
L4 2.415 3.1325 3.85
L4 2.71 3.895 5.08
L2 0.13 0.2625 0.395
L3 1.2025 1.9949999999999999 2.7875
L3 4.21 7.140000000000001 10.07
L2 0.48 0.7875 1.095
L4 2.635 3.3175 4.0
L3 637.5 985.0 1332.5
Class 0 CertaintyDegree 1.0

L4 12.89 13.82 14.75
L2 0.74 2.005 3.2699999999999996
L3 1.8275000000000001 2.295 2.7625
L2 10.6 15.45 20.299999999999997
L2 78.0 99.0 120.0
L4 2.415 3.1325 3.85
L4 2.71 3.895 5.08
L2 0.13 0.2625 0.395
L3 1.2025 1.9949999999999999 2.7875
L3 4.21 7.140000000000001 10.07
L2 0.48 0.7875 1.095
L4 2.635 3.3175 4.0
L3 637.5 985.0 1332.5
Class 0 CertaintyDegree 1.0

L4 12.89 13.82 14.75
L2 0.74 2.005 3.2699999999999996
L3 1.8275000000000001 2.295 2.7625
L3 15.45 20.299999999999997 25.15
L2 78.0 99.0 120.0
L3 1.6975 2.415 3.1325
L3 1.5250000000000001 2.71 3.895
L2 0.13 0.2625 0.395
L3 1.2025 1.9949999999999999 2.7875
L2 1.28 4.21 7.140000000000001
L3 0.7875 1.095 1.4024999999999999
L4 2.635 3.3175 4.0
L3 637.5 985.0 1332.5
Class 0 CertaintyDegree 1.0

L2 11.03 11.959999999999999 12.89
L1 -0.5249999999999999 0.74 2.005
L4 2.295 2.7625 3.23
L3 15.45 20.299999999999997 25.15
L2 78.0 99.0 120.0
L3 1.6975 2.415 3.1325
L3 1.5250000000000001 2.71 3.895
L2 0.13 0.2625 0.395
L3 1.2025 1.9949999999999999 2.7875
L2 1.28 4.21 7.140000000000001
L2 0.48 0.7875 1.095
L4 2.635 3.3175 4.0
L2 290.0 637.5 985.0
Class 1 CertaintyDegree 1.0

L2 11.03 11.959999999999999 12.89
L1 -0.5249999999999999 0.74 2.005
L4 2.295 2.7625 3.23
L3 15.45 20.299999999999997 25.15
L2 78.0 99.0 120.0
L3 1.6975 2.415 3.1325
L3 1.5250000000000001 2.71 3.895
L2 0.13 0.2625 0.395
L3 1.2025 1.9949999999999999 2.7875
L2 1.28 4.21 7.140000000000001
L2 0.48 0.7875 1.095
L4 2.635 3.3175 4.0
L2 290.0 637.5 985.0
Class 1 CertaintyDegree 1.0

L2 11.03 11.959999999999999 12.89
L1 -0.5249999999999999 0.74 2.005
L4 2.295 2.7625 3.23
L3 15.45 20.299999999999997 25.15
L2 78.0 99.0 120.0
L3 1.6975 2.415 3.1325
L3 1.5250000000000001 2.71 3.895
L2 0.13 0.2625 0.395
L3 1.2025 1.9949999999999999 2.7875
L2 1.28 4.21 7.140000000000001
L2 0.48 0.7875 1.095
L4 2.635 3.3175 4.0
L2 290.0 637.5 985.0
Class 1 CertaintyDegree 1.0

L4 12.89 13.82 14.75
L2 0.74 2.005 3.2699999999999996
L3 1.8275000000000001 2.295 2.7625
L2 10.6 15.45 20.299999999999997
L3 99.0 120.0 141.0
L4 2.415 3.1325 3.85
L3 1.5250000000000001 2.71 3.895
L2 0.13 0.2625 0.395
L3 1.2025 1.9949999999999999 2.7875
L3 4.21 7.140000000000001 10.07
L2 0.48 0.7875 1.095
L4 2.635 3.3175 4.0
L3 637.5 985.0 1332.5
Class 0 CertaintyDegree 1.0

L4 12.89 13.82 14.75
L2 0.74 2.005 3.2699999999999996
L3 1.8275000000000001 2.295 2.7625
L2 10.6 15.45 20.299999999999997
L3 99.0 120.0 141.0
L4 2.415 3.1325 3.85
L3 1.5250000000000001 2.71 3.895
L2 0.13 0.2625 0.395
L3 1.2025 1.9949999999999999 2.7875
L3 4.21 7.140000000000001 10.07
L2 0.48 0.7875 1.095
L4 2.635 3.3175 4.0
L3 637.5 985.0 1332.5
Class 0 CertaintyDegree 1.0

L4 12.89 13.82 14.75
L2 0.74 2.005 3.2699999999999996
L3 1.8275000000000001 2.295 2.7625
L2 10.6 15.45 20.299999999999997
L3 99.0 120.0 141.0
L4 2.415 3.1325 3.85
L3 1.5250000000000001 2.71 3.895
L2 0.13 0.2625 0.395
L3 1.2025 1.9949999999999999 2.7875
L3 4.21 7.140000000000001 10.07
L2 0.48 0.7875 1.095
L4 2.635 3.3175 4.0
L3 637.5 985.0 1332.5
Class 0 CertaintyDegree 1.0

L3 11.959999999999999 12.89 13.82
L2 0.74 2.005 3.2699999999999996
L4 2.295 2.7625 3.23
L3 15.45 20.299999999999997 25.15
L2 78.0 99.0 120.0
L3 1.6975 2.415 3.1325
L3 1.5250000000000001 2.71 3.895
L2 0.13 0.2625 0.395
L2 0.41 1.2025 1.9949999999999999
L2 1.28 4.21 7.140000000000001
L3 0.7875 1.095 1.4024999999999999
L3 1.9525000000000001 2.635 3.3175
L3 637.5 985.0 1332.5
Class 0 CertaintyDegree 1.0

L4 12.89 13.82 14.75
L4 3.2699999999999996 4.535 5.8
L3 1.8275000000000001 2.295 2.7625
L3 15.45 20.299999999999997 25.15
L2 78.0 99.0 120.0
L2 0.98 1.6975 2.415
L1 -0.845 0.34 1.5250000000000001
L4 0.395 0.5275000000000001 0.66
L2 0.41 1.2025 1.9949999999999999
L2 1.28 4.21 7.140000000000001
L2 0.48 0.7875 1.095
L2 1.27 1.9525000000000001 2.635
L2 290.0 637.5 985.0
Class 2 CertaintyDegree 1.0

L4 12.89 13.82 14.75
L4 3.2699999999999996 4.535 5.8
L3 1.8275000000000001 2.295 2.7625
L3 15.45 20.299999999999997 25.15
L2 78.0 99.0 120.0
L2 0.98 1.6975 2.415
L1 -0.845 0.34 1.5250000000000001
L4 0.395 0.5275000000000001 0.66
L2 0.41 1.2025 1.9949999999999999
L2 1.28 4.21 7.140000000000001
L2 0.48 0.7875 1.095
L2 1.27 1.9525000000000001 2.635
L2 290.0 637.5 985.0
Class 2 CertaintyDegree 1.0

L4 12.89 13.82 14.75
L4 3.2699999999999996 4.535 5.8
L3 1.8275000000000001 2.295 2.7625
L3 15.45 20.299999999999997 25.15
L2 78.0 99.0 120.0
L2 0.98 1.6975 2.415
L1 -0.845 0.34 1.5250000000000001
L4 0.395 0.5275000000000001 0.66
L2 0.41 1.2025 1.9949999999999999
L2 1.28 4.21 7.140000000000001
L2 0.48 0.7875 1.095
L2 1.27 1.9525000000000001 2.635
L2 290.0 637.5 985.0
Class 2 CertaintyDegree 1.0

L4 12.89 13.82 14.75
L2 0.74 2.005 3.2699999999999996
L4 2.295 2.7625 3.23
L2 10.6 15.45 20.299999999999997
L3 99.0 120.0 141.0
L4 2.415 3.1325 3.85
L3 1.5250000000000001 2.71 3.895
L2 0.13 0.2625 0.395
L2 0.41 1.2025 1.9949999999999999
L3 4.21 7.140000000000001 10.07
L4 1.095 1.4024999999999999 1.71
L3 1.9525000000000001 2.635 3.3175
L4 985.0 1332.5 1680.0
Class 0 CertaintyDegree 1.0

L3 11.959999999999999 12.89 13.82
L1 -0.5249999999999999 0.74 2.005
L2 1.36 1.8275000000000001 2.295
L2 10.6 15.45 20.299999999999997
L1 57.0 78.0 99.0
L4 2.415 3.1325 3.85
L3 1.5250000000000001 2.71 3.895
L2 0.13 0.2625 0.395
L3 1.2025 1.9949999999999999 2.7875
L2 1.28 4.21 7.140000000000001
L3 0.7875 1.095 1.4024999999999999
L4 2.635 3.3175 4.0
L2 290.0 637.5 985.0
Class 1 CertaintyDegree 1.0

L3 11.959999999999999 12.89 13.82
L1 -0.5249999999999999 0.74 2.005
L2 1.36 1.8275000000000001 2.295
L2 10.6 15.45 20.299999999999997
L1 57.0 78.0 99.0
L4 2.415 3.1325 3.85
L3 1.5250000000000001 2.71 3.895
L2 0.13 0.2625 0.395
L3 1.2025 1.9949999999999999 2.7875
L2 1.28 4.21 7.140000000000001
L3 0.7875 1.095 1.4024999999999999
L4 2.635 3.3175 4.0
L2 290.0 637.5 985.0
Class 1 CertaintyDegree 1.0

L3 11.959999999999999 12.89 13.82
L1 -0.5249999999999999 0.74 2.005
L2 1.36 1.8275000000000001 2.295
L2 10.6 15.45 20.299999999999997
L1 57.0 78.0 99.0
L4 2.415 3.1325 3.85
L3 1.5250000000000001 2.71 3.895
L2 0.13 0.2625 0.395
L3 1.2025 1.9949999999999999 2.7875
L2 1.28 4.21 7.140000000000001
L3 0.7875 1.095 1.4024999999999999
L4 2.635 3.3175 4.0
L2 290.0 637.5 985.0
Class 1 CertaintyDegree 1.0

L3 11.959999999999999 12.89 13.82
L5 4.535 5.8 7.0649999999999995
L4 2.295 2.7625 3.23
L4 20.299999999999997 25.15 30.0
L2 78.0 99.0 120.0
L2 0.98 1.6975 2.415
L1 -0.845 0.34 1.5250000000000001
L5 0.5275000000000001 0.66 0.7925000000000001
L2 0.41 1.2025 1.9949999999999999
L2 1.28 4.21 7.140000000000001
L2 0.48 0.7875 1.095
L2 1.27 1.9525000000000001 2.635
L2 290.0 637.5 985.0
Class 2 CertaintyDegree 1.0

L3 11.959999999999999 12.89 13.82
L5 4.535 5.8 7.0649999999999995
L4 2.295 2.7625 3.23
L4 20.299999999999997 25.15 30.0
L2 78.0 99.0 120.0
L2 0.98 1.6975 2.415
L1 -0.845 0.34 1.5250000000000001
L5 0.5275000000000001 0.66 0.7925000000000001
L2 0.41 1.2025 1.9949999999999999
L2 1.28 4.21 7.140000000000001
L2 0.48 0.7875 1.095
L2 1.27 1.9525000000000001 2.635
L2 290.0 637.5 985.0
Class 2 CertaintyDegree 1.0

L3 11.959999999999999 12.89 13.82
L5 4.535 5.8 7.0649999999999995
L4 2.295 2.7625 3.23
L4 20.299999999999997 25.15 30.0
L2 78.0 99.0 120.0
L2 0.98 1.6975 2.415
L1 -0.845 0.34 1.5250000000000001
L5 0.5275000000000001 0.66 0.7925000000000001
L2 0.41 1.2025 1.9949999999999999
L2 1.28 4.21 7.140000000000001
L2 0.48 0.7875 1.095
L2 1.27 1.9525000000000001 2.635
L2 290.0 637.5 985.0
Class 2 CertaintyDegree 1.0

L4 12.89 13.82 14.75
L3 2.005 3.2699999999999996 4.535
L3 1.8275000000000001 2.295 2.7625
L3 15.45 20.299999999999997 25.15
L2 78.0 99.0 120.0
L3 1.6975 2.415 3.1325
L3 1.5250000000000001 2.71 3.895
L2 0.13 0.2625 0.395
L2 0.41 1.2025 1.9949999999999999
L2 1.28 4.21 7.140000000000001
L2 0.48 0.7875 1.095
L4 2.635 3.3175 4.0
L3 637.5 985.0 1332.5
Class 0 CertaintyDegree 1.0

L4 12.89 13.82 14.75
L3 2.005 3.2699999999999996 4.535
L3 1.8275000000000001 2.295 2.7625
L3 15.45 20.299999999999997 25.15
L2 78.0 99.0 120.0
L3 1.6975 2.415 3.1325
L3 1.5250000000000001 2.71 3.895
L2 0.13 0.2625 0.395
L2 0.41 1.2025 1.9949999999999999
L2 1.28 4.21 7.140000000000001
L2 0.48 0.7875 1.095
L4 2.635 3.3175 4.0
L3 637.5 985.0 1332.5
Class 0 CertaintyDegree 1.0

L4 12.89 13.82 14.75
L3 2.005 3.2699999999999996 4.535
L3 1.8275000000000001 2.295 2.7625
L3 15.45 20.299999999999997 25.15
L2 78.0 99.0 120.0
L3 1.6975 2.415 3.1325
L3 1.5250000000000001 2.71 3.895
L2 0.13 0.2625 0.395
L2 0.41 1.2025 1.9949999999999999
L2 1.28 4.21 7.140000000000001
L2 0.48 0.7875 1.095
L4 2.635 3.3175 4.0
L3 637.5 985.0 1332.5
Class 0 CertaintyDegree 1.0

L4 12.89 13.82 14.75
L2 0.74 2.005 3.2699999999999996
L4 2.295 2.7625 3.23
L4 20.299999999999997 25.15 30.0
L1 57.0 78.0 99.0
L4 2.415 3.1325 3.85
L3 1.5250000000000001 2.71 3.895
L2 0.13 0.2625 0.395
L3 1.2025 1.9949999999999999 2.7875
L2 1.28 4.21 7.140000000000001
L4 1.095 1.4024999999999999 1.71
L4 2.635 3.3175 4.0
L1 -57.5 290.0 637.5
Class 1 CertaintyDegree 1.0

L4 12.89 13.82 14.75
L2 0.74 2.005 3.2699999999999996
L4 2.295 2.7625 3.23
L4 20.299999999999997 25.15 30.0
L1 57.0 78.0 99.0
L4 2.415 3.1325 3.85
L3 1.5250000000000001 2.71 3.895
L2 0.13 0.2625 0.395
L3 1.2025 1.9949999999999999 2.7875
L2 1.28 4.21 7.140000000000001
L4 1.095 1.4024999999999999 1.71
L4 2.635 3.3175 4.0
L1 -57.5 290.0 637.5
Class 1 CertaintyDegree 1.0

L4 12.89 13.82 14.75
L2 0.74 2.005 3.2699999999999996
L4 2.295 2.7625 3.23
L4 20.299999999999997 25.15 30.0
L1 57.0 78.0 99.0
L4 2.415 3.1325 3.85
L3 1.5250000000000001 2.71 3.895
L2 0.13 0.2625 0.395
L3 1.2025 1.9949999999999999 2.7875
L2 1.28 4.21 7.140000000000001
L4 1.095 1.4024999999999999 1.71
L4 2.635 3.3175 4.0
L1 -57.5 290.0 637.5
Class 1 CertaintyDegree 1.0

L3 11.959999999999999 12.89 13.82
L2 0.74 2.005 3.2699999999999996
L4 2.295 2.7625 3.23
L5 25.15 30.0 34.85
L4 120.0 141.0 162.0
L4 2.415 3.1325 3.85
L3 1.5250000000000001 2.71 3.895
L2 0.13 0.2625 0.395
L3 1.2025 1.9949999999999999 2.7875
L2 1.28 4.21 7.140000000000001
L4 1.095 1.4024999999999999 1.71
L4 2.635 3.3175 4.0
L3 637.5 985.0 1332.5
Class 1 CertaintyDegree 1.0

L3 11.959999999999999 12.89 13.82
L2 0.74 2.005 3.2699999999999996
L4 2.295 2.7625 3.23
L5 25.15 30.0 34.85
L4 120.0 141.0 162.0
L4 2.415 3.1325 3.85
L3 1.5250000000000001 2.71 3.895
L2 0.13 0.2625 0.395
L3 1.2025 1.9949999999999999 2.7875
L2 1.28 4.21 7.140000000000001
L4 1.095 1.4024999999999999 1.71
L4 2.635 3.3175 4.0
L3 637.5 985.0 1332.5
Class 1 CertaintyDegree 1.0

L3 11.959999999999999 12.89 13.82
L2 0.74 2.005 3.2699999999999996
L4 2.295 2.7625 3.23
L5 25.15 30.0 34.85
L4 120.0 141.0 162.0
L4 2.415 3.1325 3.85
L3 1.5250000000000001 2.71 3.895
L2 0.13 0.2625 0.395
L3 1.2025 1.9949999999999999 2.7875
L2 1.28 4.21 7.140000000000001
L4 1.095 1.4024999999999999 1.71
L4 2.635 3.3175 4.0
L3 637.5 985.0 1332.5
Class 1 CertaintyDegree 1.0

L4 12.89 13.82 14.75
L4 3.2699999999999996 4.535 5.8
L3 1.8275000000000001 2.295 2.7625
L3 15.45 20.299999999999997 25.15
L1 57.0 78.0 99.0
L1 0.26249999999999996 0.98 1.6975
L1 -0.845 0.34 1.5250000000000001
L3 0.2625 0.395 0.5275000000000001
L1 -0.3825 0.41 1.2025
L2 1.28 4.21 7.140000000000001
L1 0.1725 0.48 0.7875
L1 0.5875 1.27 1.9525000000000001
L1 -57.5 290.0 637.5
Class 2 CertaintyDegree 1.0

L4 12.89 13.82 14.75
L4 3.2699999999999996 4.535 5.8
L3 1.8275000000000001 2.295 2.7625
L3 15.45 20.299999999999997 25.15
L1 57.0 78.0 99.0
L1 0.26249999999999996 0.98 1.6975
L1 -0.845 0.34 1.5250000000000001
L3 0.2625 0.395 0.5275000000000001
L1 -0.3825 0.41 1.2025
L2 1.28 4.21 7.140000000000001
L1 0.1725 0.48 0.7875
L1 0.5875 1.27 1.9525000000000001
L1 -57.5 290.0 637.5
Class 2 CertaintyDegree 1.0

L4 12.89 13.82 14.75
L4 3.2699999999999996 4.535 5.8
L3 1.8275000000000001 2.295 2.7625
L3 15.45 20.299999999999997 25.15
L1 57.0 78.0 99.0
L1 0.26249999999999996 0.98 1.6975
L1 -0.845 0.34 1.5250000000000001
L3 0.2625 0.395 0.5275000000000001
L1 -0.3825 0.41 1.2025
L2 1.28 4.21 7.140000000000001
L1 0.1725 0.48 0.7875
L1 0.5875 1.27 1.9525000000000001
L1 -57.5 290.0 637.5
Class 2 CertaintyDegree 1.0

L3 11.959999999999999 12.89 13.82
L3 2.005 3.2699999999999996 4.535
L3 1.8275000000000001 2.295 2.7625
L3 15.45 20.299999999999997 25.15
L2 78.0 99.0 120.0
L2 0.98 1.6975 2.415
L1 -0.845 0.34 1.5250000000000001
L5 0.5275000000000001 0.66 0.7925000000000001
L3 1.2025 1.9949999999999999 2.7875
L4 7.140000000000001 10.07 13.0
L1 0.1725 0.48 0.7875
L1 0.5875 1.27 1.9525000000000001
L2 290.0 637.5 985.0
Class 2 CertaintyDegree 1.0

L3 11.959999999999999 12.89 13.82
L3 2.005 3.2699999999999996 4.535
L3 1.8275000000000001 2.295 2.7625
L3 15.45 20.299999999999997 25.15
L2 78.0 99.0 120.0
L2 0.98 1.6975 2.415
L1 -0.845 0.34 1.5250000000000001
L5 0.5275000000000001 0.66 0.7925000000000001
L3 1.2025 1.9949999999999999 2.7875
L4 7.140000000000001 10.07 13.0
L1 0.1725 0.48 0.7875
L1 0.5875 1.27 1.9525000000000001
L2 290.0 637.5 985.0
Class 2 CertaintyDegree 1.0

L3 11.959999999999999 12.89 13.82
L3 2.005 3.2699999999999996 4.535
L3 1.8275000000000001 2.295 2.7625
L3 15.45 20.299999999999997 25.15
L2 78.0 99.0 120.0
L2 0.98 1.6975 2.415
L1 -0.845 0.34 1.5250000000000001
L5 0.5275000000000001 0.66 0.7925000000000001
L3 1.2025 1.9949999999999999 2.7875
L4 7.140000000000001 10.07 13.0
L1 0.1725 0.48 0.7875
L1 0.5875 1.27 1.9525000000000001
L2 290.0 637.5 985.0
Class 2 CertaintyDegree 1.0

L3 11.959999999999999 12.89 13.82
L2 0.74 2.005 3.2699999999999996
L3 1.8275000000000001 2.295 2.7625
L3 15.45 20.299999999999997 25.15
L1 57.0 78.0 99.0
L2 0.98 1.6975 2.415
L2 0.34 1.5250000000000001 2.71
L4 0.395 0.5275000000000001 0.66
L3 1.2025 1.9949999999999999 2.7875
L2 1.28 4.21 7.140000000000001
L3 0.7875 1.095 1.4024999999999999
L2 1.27 1.9525000000000001 2.635
L2 290.0 637.5 985.0
Class 1 CertaintyDegree 1.0

L3 11.959999999999999 12.89 13.82
L2 0.74 2.005 3.2699999999999996
L3 1.8275000000000001 2.295 2.7625
L3 15.45 20.299999999999997 25.15
L1 57.0 78.0 99.0
L2 0.98 1.6975 2.415
L2 0.34 1.5250000000000001 2.71
L4 0.395 0.5275000000000001 0.66
L3 1.2025 1.9949999999999999 2.7875
L2 1.28 4.21 7.140000000000001
L3 0.7875 1.095 1.4024999999999999
L2 1.27 1.9525000000000001 2.635
L2 290.0 637.5 985.0
Class 1 CertaintyDegree 1.0

L2 11.03 11.959999999999999 12.89
L2 0.74 2.005 3.2699999999999996
L3 1.8275000000000001 2.295 2.7625
L3 15.45 20.299999999999997 25.15
L1 57.0 78.0 99.0
L2 0.98 1.6975 2.415
L2 0.34 1.5250000000000001 2.71
L3 0.2625 0.395 0.5275000000000001
L3 1.2025 1.9949999999999999 2.7875
L2 1.28 4.21 7.140000000000001
L3 0.7875 1.095 1.4024999999999999
L4 2.635 3.3175 4.0
L2 290.0 637.5 985.0
Class 1 CertaintyDegree 1.0

L2 11.03 11.959999999999999 12.89
L2 0.74 2.005 3.2699999999999996
L3 1.8275000000000001 2.295 2.7625
L3 15.45 20.299999999999997 25.15
L1 57.0 78.0 99.0
L2 0.98 1.6975 2.415
L2 0.34 1.5250000000000001 2.71
L3 0.2625 0.395 0.5275000000000001
L3 1.2025 1.9949999999999999 2.7875
L2 1.28 4.21 7.140000000000001
L3 0.7875 1.095 1.4024999999999999
L4 2.635 3.3175 4.0
L2 290.0 637.5 985.0
Class 1 CertaintyDegree 1.0

L2 11.03 11.959999999999999 12.89
L2 0.74 2.005 3.2699999999999996
L3 1.8275000000000001 2.295 2.7625
L3 15.45 20.299999999999997 25.15
L1 57.0 78.0 99.0
L2 0.98 1.6975 2.415
L2 0.34 1.5250000000000001 2.71
L3 0.2625 0.395 0.5275000000000001
L3 1.2025 1.9949999999999999 2.7875
L2 1.28 4.21 7.140000000000001
L3 0.7875 1.095 1.4024999999999999
L4 2.635 3.3175 4.0
L2 290.0 637.5 985.0
Class 1 CertaintyDegree 1.0

L5 13.82 14.75 15.68
L2 0.74 2.005 3.2699999999999996
L3 1.8275000000000001 2.295 2.7625
L2 10.6 15.45 20.299999999999997
L2 78.0 99.0 120.0
L3 1.6975 2.415 3.1325
L3 1.5250000000000001 2.71 3.895
L2 0.13 0.2625 0.395
L3 1.2025 1.9949999999999999 2.7875
L2 1.28 4.21 7.140000000000001
L3 0.7875 1.095 1.4024999999999999
L4 2.635 3.3175 4.0
L4 985.0 1332.5 1680.0
Class 0 CertaintyDegree 1.0

L5 13.82 14.75 15.68
L2 0.74 2.005 3.2699999999999996
L3 1.8275000000000001 2.295 2.7625
L2 10.6 15.45 20.299999999999997
L2 78.0 99.0 120.0
L3 1.6975 2.415 3.1325
L3 1.5250000000000001 2.71 3.895
L2 0.13 0.2625 0.395
L3 1.2025 1.9949999999999999 2.7875
L2 1.28 4.21 7.140000000000001
L3 0.7875 1.095 1.4024999999999999
L4 2.635 3.3175 4.0
L4 985.0 1332.5 1680.0
Class 0 CertaintyDegree 1.0

L5 13.82 14.75 15.68
L2 0.74 2.005 3.2699999999999996
L3 1.8275000000000001 2.295 2.7625
L2 10.6 15.45 20.299999999999997
L2 78.0 99.0 120.0
L3 1.6975 2.415 3.1325
L3 1.5250000000000001 2.71 3.895
L2 0.13 0.2625 0.395
L3 1.2025 1.9949999999999999 2.7875
L2 1.28 4.21 7.140000000000001
L3 0.7875 1.095 1.4024999999999999
L4 2.635 3.3175 4.0
L4 985.0 1332.5 1680.0
Class 0 CertaintyDegree 1.0

L2 11.03 11.959999999999999 12.89
L1 -0.5249999999999999 0.74 2.005
L3 1.8275000000000001 2.295 2.7625
L4 20.299999999999997 25.15 30.0
L1 57.0 78.0 99.0
L2 0.98 1.6975 2.415
L2 0.34 1.5250000000000001 2.71
L3 0.2625 0.395 0.5275000000000001
L2 0.41 1.2025 1.9949999999999999
L1 -1.6500000000000001 1.28 4.21
L4 1.095 1.4024999999999999 1.71
L3 1.9525000000000001 2.635 3.3175
L2 290.0 637.5 985.0
Class 1 CertaintyDegree 1.0

L2 11.03 11.959999999999999 12.89
L1 -0.5249999999999999 0.74 2.005
L3 1.8275000000000001 2.295 2.7625
L4 20.299999999999997 25.15 30.0
L1 57.0 78.0 99.0
L2 0.98 1.6975 2.415
L2 0.34 1.5250000000000001 2.71
L3 0.2625 0.395 0.5275000000000001
L2 0.41 1.2025 1.9949999999999999
L1 -1.6500000000000001 1.28 4.21
L4 1.095 1.4024999999999999 1.71
L3 1.9525000000000001 2.635 3.3175
L2 290.0 637.5 985.0
Class 1 CertaintyDegree 1.0

L3 11.959999999999999 12.89 13.82
L2 0.74 2.005 3.2699999999999996
L3 1.8275000000000001 2.295 2.7625
L3 15.45 20.299999999999997 25.15
L1 57.0 78.0 99.0
L2 0.98 1.6975 2.415
L2 0.34 1.5250000000000001 2.71
L4 0.395 0.5275000000000001 0.66
L3 1.2025 1.9949999999999999 2.7875
L2 1.28 4.21 7.140000000000001
L2 0.48 0.7875 1.095
L3 1.9525000000000001 2.635 3.3175
L2 290.0 637.5 985.0
Class 1 CertaintyDegree 1.0

L4 12.89 13.82 14.75
L5 4.535 5.8 7.0649999999999995
L3 1.8275000000000001 2.295 2.7625
L3 15.45 20.299999999999997 25.15
L2 78.0 99.0 120.0
L2 0.98 1.6975 2.415
L1 -0.845 0.34 1.5250000000000001
L4 0.395 0.5275000000000001 0.66
L2 0.41 1.2025 1.9949999999999999
L3 4.21 7.140000000000001 10.07
L2 0.48 0.7875 1.095
L2 1.27 1.9525000000000001 2.635
L2 290.0 637.5 985.0
Class 2 CertaintyDegree 1.0

L4 12.89 13.82 14.75
L5 4.535 5.8 7.0649999999999995
L3 1.8275000000000001 2.295 2.7625
L3 15.45 20.299999999999997 25.15
L2 78.0 99.0 120.0
L2 0.98 1.6975 2.415
L1 -0.845 0.34 1.5250000000000001
L4 0.395 0.5275000000000001 0.66
L2 0.41 1.2025 1.9949999999999999
L3 4.21 7.140000000000001 10.07
L2 0.48 0.7875 1.095
L2 1.27 1.9525000000000001 2.635
L2 290.0 637.5 985.0
Class 2 CertaintyDegree 1.0

L4 12.89 13.82 14.75
L5 4.535 5.8 7.0649999999999995
L3 1.8275000000000001 2.295 2.7625
L3 15.45 20.299999999999997 25.15
L2 78.0 99.0 120.0
L2 0.98 1.6975 2.415
L1 -0.845 0.34 1.5250000000000001
L4 0.395 0.5275000000000001 0.66
L2 0.41 1.2025 1.9949999999999999
L3 4.21 7.140000000000001 10.07
L2 0.48 0.7875 1.095
L2 1.27 1.9525000000000001 2.635
L2 290.0 637.5 985.0
Class 2 CertaintyDegree 1.0

L3 11.959999999999999 12.89 13.82
L4 3.2699999999999996 4.535 5.8
L3 1.8275000000000001 2.295 2.7625
L3 15.45 20.299999999999997 25.15
L1 57.0 78.0 99.0
L2 0.98 1.6975 2.415
L1 -0.845 0.34 1.5250000000000001
L4 0.395 0.5275000000000001 0.66
L2 0.41 1.2025 1.9949999999999999
L3 4.21 7.140000000000001 10.07
L1 0.1725 0.48 0.7875
L2 1.27 1.9525000000000001 2.635
L2 290.0 637.5 985.0
Class 2 CertaintyDegree 1.0

L3 11.959999999999999 12.89 13.82
L4 3.2699999999999996 4.535 5.8
L3 1.8275000000000001 2.295 2.7625
L3 15.45 20.299999999999997 25.15
L1 57.0 78.0 99.0
L2 0.98 1.6975 2.415
L1 -0.845 0.34 1.5250000000000001
L4 0.395 0.5275000000000001 0.66
L2 0.41 1.2025 1.9949999999999999
L3 4.21 7.140000000000001 10.07
L1 0.1725 0.48 0.7875
L2 1.27 1.9525000000000001 2.635
L2 290.0 637.5 985.0
Class 2 CertaintyDegree 1.0

L3 11.959999999999999 12.89 13.82
L4 3.2699999999999996 4.535 5.8
L3 1.8275000000000001 2.295 2.7625
L3 15.45 20.299999999999997 25.15
L1 57.0 78.0 99.0
L2 0.98 1.6975 2.415
L1 -0.845 0.34 1.5250000000000001
L4 0.395 0.5275000000000001 0.66
L2 0.41 1.2025 1.9949999999999999
L3 4.21 7.140000000000001 10.07
L1 0.1725 0.48 0.7875
L2 1.27 1.9525000000000001 2.635
L2 290.0 637.5 985.0
Class 2 CertaintyDegree 1.0

L4 12.89 13.82 14.75
L2 0.74 2.005 3.2699999999999996
L3 1.8275000000000001 2.295 2.7625
L2 10.6 15.45 20.299999999999997
L2 78.0 99.0 120.0
L4 2.415 3.1325 3.85
L4 2.71 3.895 5.08
L2 0.13 0.2625 0.395
L3 1.2025 1.9949999999999999 2.7875
L4 7.140000000000001 10.07 13.0
L3 0.7875 1.095 1.4024999999999999
L4 2.635 3.3175 4.0
L4 985.0 1332.5 1680.0
Class 0 CertaintyDegree 1.0

L4 12.89 13.82 14.75
L2 0.74 2.005 3.2699999999999996
L3 1.8275000000000001 2.295 2.7625
L2 10.6 15.45 20.299999999999997
L2 78.0 99.0 120.0
L4 2.415 3.1325 3.85
L4 2.71 3.895 5.08
L2 0.13 0.2625 0.395
L3 1.2025 1.9949999999999999 2.7875
L4 7.140000000000001 10.07 13.0
L3 0.7875 1.095 1.4024999999999999
L4 2.635 3.3175 4.0
L4 985.0 1332.5 1680.0
Class 0 CertaintyDegree 1.0

L4 12.89 13.82 14.75
L2 0.74 2.005 3.2699999999999996
L3 1.8275000000000001 2.295 2.7625
L2 10.6 15.45 20.299999999999997
L2 78.0 99.0 120.0
L4 2.415 3.1325 3.85
L4 2.71 3.895 5.08
L2 0.13 0.2625 0.395
L3 1.2025 1.9949999999999999 2.7875
L4 7.140000000000001 10.07 13.0
L3 0.7875 1.095 1.4024999999999999
L4 2.635 3.3175 4.0
L4 985.0 1332.5 1680.0
Class 0 CertaintyDegree 1.0

L2 11.03 11.959999999999999 12.89
L1 -0.5249999999999999 0.74 2.005
L2 1.36 1.8275000000000001 2.295
L3 15.45 20.299999999999997 25.15
L1 57.0 78.0 99.0
L3 1.6975 2.415 3.1325
L2 0.34 1.5250000000000001 2.71
L2 0.13 0.2625 0.395
L2 0.41 1.2025 1.9949999999999999
L2 1.28 4.21 7.140000000000001
L3 0.7875 1.095 1.4024999999999999
L4 2.635 3.3175 4.0
L2 290.0 637.5 985.0
Class 1 CertaintyDegree 1.0

L2 11.03 11.959999999999999 12.89
L1 -0.5249999999999999 0.74 2.005
L2 1.36 1.8275000000000001 2.295
L3 15.45 20.299999999999997 25.15
L1 57.0 78.0 99.0
L3 1.6975 2.415 3.1325
L2 0.34 1.5250000000000001 2.71
L2 0.13 0.2625 0.395
L2 0.41 1.2025 1.9949999999999999
L2 1.28 4.21 7.140000000000001
L3 0.7875 1.095 1.4024999999999999
L4 2.635 3.3175 4.0
L2 290.0 637.5 985.0
Class 1 CertaintyDegree 1.0

L2 11.03 11.959999999999999 12.89
L1 -0.5249999999999999 0.74 2.005
L2 1.36 1.8275000000000001 2.295
L3 15.45 20.299999999999997 25.15
L1 57.0 78.0 99.0
L3 1.6975 2.415 3.1325
L2 0.34 1.5250000000000001 2.71
L2 0.13 0.2625 0.395
L2 0.41 1.2025 1.9949999999999999
L2 1.28 4.21 7.140000000000001
L3 0.7875 1.095 1.4024999999999999
L4 2.635 3.3175 4.0
L2 290.0 637.5 985.0
Class 1 CertaintyDegree 1.0

L3 11.959999999999999 12.89 13.82
L1 -0.5249999999999999 0.74 2.005
L3 1.8275000000000001 2.295 2.7625
L3 15.45 20.299999999999997 25.15
L2 78.0 99.0 120.0
L3 1.6975 2.415 3.1325
L2 0.34 1.5250000000000001 2.71
L2 0.13 0.2625 0.395
L2 0.41 1.2025 1.9949999999999999
L1 -1.6500000000000001 1.28 4.21
L3 0.7875 1.095 1.4024999999999999
L4 2.635 3.3175 4.0
L1 -57.5 290.0 637.5
Class 1 CertaintyDegree 1.0

L3 11.959999999999999 12.89 13.82
L1 -0.5249999999999999 0.74 2.005
L3 1.8275000000000001 2.295 2.7625
L3 15.45 20.299999999999997 25.15
L2 78.0 99.0 120.0
L3 1.6975 2.415 3.1325
L2 0.34 1.5250000000000001 2.71
L2 0.13 0.2625 0.395
L2 0.41 1.2025 1.9949999999999999
L1 -1.6500000000000001 1.28 4.21
L3 0.7875 1.095 1.4024999999999999
L4 2.635 3.3175 4.0
L1 -57.5 290.0 637.5
Class 1 CertaintyDegree 1.0

L3 11.959999999999999 12.89 13.82
L1 -0.5249999999999999 0.74 2.005
L3 1.8275000000000001 2.295 2.7625
L3 15.45 20.299999999999997 25.15
L2 78.0 99.0 120.0
L3 1.6975 2.415 3.1325
L2 0.34 1.5250000000000001 2.71
L2 0.13 0.2625 0.395
L2 0.41 1.2025 1.9949999999999999
L1 -1.6500000000000001 1.28 4.21
L3 0.7875 1.095 1.4024999999999999
L4 2.635 3.3175 4.0
L1 -57.5 290.0 637.5
Class 1 CertaintyDegree 1.0

L4 12.89 13.82 14.75
L2 0.74 2.005 3.2699999999999996
L3 1.8275000000000001 2.295 2.7625
L2 10.6 15.45 20.299999999999997
L2 78.0 99.0 120.0
L3 1.6975 2.415 3.1325
L3 1.5250000000000001 2.71 3.895
L2 0.13 0.2625 0.395
L3 1.2025 1.9949999999999999 2.7875
L2 1.28 4.21 7.140000000000001
L3 0.7875 1.095 1.4024999999999999
L5 3.3175 4.0 4.6825
L3 637.5 985.0 1332.5
Class 0 CertaintyDegree 1.0

L4 12.89 13.82 14.75
L2 0.74 2.005 3.2699999999999996
L3 1.8275000000000001 2.295 2.7625
L2 10.6 15.45 20.299999999999997
L2 78.0 99.0 120.0
L3 1.6975 2.415 3.1325
L3 1.5250000000000001 2.71 3.895
L2 0.13 0.2625 0.395
L3 1.2025 1.9949999999999999 2.7875
L2 1.28 4.21 7.140000000000001
L3 0.7875 1.095 1.4024999999999999
L5 3.3175 4.0 4.6825
L3 637.5 985.0 1332.5
Class 0 CertaintyDegree 1.0

L3 11.959999999999999 12.89 13.82
L1 -0.5249999999999999 0.74 2.005
L2 1.36 1.8275000000000001 2.295
L2 10.6 15.45 20.299999999999997
L1 57.0 78.0 99.0
L2 0.98 1.6975 2.415
L2 0.34 1.5250000000000001 2.71
L2 0.13 0.2625 0.395
L2 0.41 1.2025 1.9949999999999999
L2 1.28 4.21 7.140000000000001
L3 0.7875 1.095 1.4024999999999999
L3 1.9525000000000001 2.635 3.3175
L1 -57.5 290.0 637.5
Class 1 CertaintyDegree 1.0

L3 11.959999999999999 12.89 13.82
L1 -0.5249999999999999 0.74 2.005
L2 1.36 1.8275000000000001 2.295
L2 10.6 15.45 20.299999999999997
L1 57.0 78.0 99.0
L2 0.98 1.6975 2.415
L2 0.34 1.5250000000000001 2.71
L2 0.13 0.2625 0.395
L2 0.41 1.2025 1.9949999999999999
L2 1.28 4.21 7.140000000000001
L3 0.7875 1.095 1.4024999999999999
L3 1.9525000000000001 2.635 3.3175
L1 -57.5 290.0 637.5
Class 1 CertaintyDegree 1.0

L3 11.959999999999999 12.89 13.82
L1 -0.5249999999999999 0.74 2.005
L2 1.36 1.8275000000000001 2.295
L2 10.6 15.45 20.299999999999997
L1 57.0 78.0 99.0
L2 0.98 1.6975 2.415
L2 0.34 1.5250000000000001 2.71
L2 0.13 0.2625 0.395
L2 0.41 1.2025 1.9949999999999999
L2 1.28 4.21 7.140000000000001
L3 0.7875 1.095 1.4024999999999999
L3 1.9525000000000001 2.635 3.3175
L1 -57.5 290.0 637.5
Class 1 CertaintyDegree 1.0

L3 11.959999999999999 12.89 13.82
L3 2.005 3.2699999999999996 4.535
L3 1.8275000000000001 2.295 2.7625
L3 15.45 20.299999999999997 25.15
L1 57.0 78.0 99.0
L2 0.98 1.6975 2.415
L1 -0.845 0.34 1.5250000000000001
L3 0.2625 0.395 0.5275000000000001
L2 0.41 1.2025 1.9949999999999999
L4 7.140000000000001 10.07 13.0
L2 0.48 0.7875 1.095
L2 1.27 1.9525000000000001 2.635
L2 290.0 637.5 985.0
Class 2 CertaintyDegree 1.0

L3 11.959999999999999 12.89 13.82
L3 2.005 3.2699999999999996 4.535
L3 1.8275000000000001 2.295 2.7625
L3 15.45 20.299999999999997 25.15
L1 57.0 78.0 99.0
L2 0.98 1.6975 2.415
L1 -0.845 0.34 1.5250000000000001
L3 0.2625 0.395 0.5275000000000001
L2 0.41 1.2025 1.9949999999999999
L4 7.140000000000001 10.07 13.0
L2 0.48 0.7875 1.095
L2 1.27 1.9525000000000001 2.635
L2 290.0 637.5 985.0
Class 2 CertaintyDegree 1.0

L3 11.959999999999999 12.89 13.82
L3 2.005 3.2699999999999996 4.535
L3 1.8275000000000001 2.295 2.7625
L3 15.45 20.299999999999997 25.15
L1 57.0 78.0 99.0
L2 0.98 1.6975 2.415
L1 -0.845 0.34 1.5250000000000001
L3 0.2625 0.395 0.5275000000000001
L2 0.41 1.2025 1.9949999999999999
L4 7.140000000000001 10.07 13.0
L2 0.48 0.7875 1.095
L2 1.27 1.9525000000000001 2.635
L2 290.0 637.5 985.0
Class 2 CertaintyDegree 1.0

L4 12.89 13.82 14.75
L3 2.005 3.2699999999999996 4.535
L3 1.8275000000000001 2.295 2.7625
L3 15.45 20.299999999999997 25.15
L1 57.0 78.0 99.0
L2 0.98 1.6975 2.415
L1 -0.845 0.34 1.5250000000000001
L4 0.395 0.5275000000000001 0.66
L2 0.41 1.2025 1.9949999999999999
L3 4.21 7.140000000000001 10.07
L2 0.48 0.7875 1.095
L2 1.27 1.9525000000000001 2.635
L2 290.0 637.5 985.0
Class 2 CertaintyDegree 1.0

L4 12.89 13.82 14.75
L3 2.005 3.2699999999999996 4.535
L3 1.8275000000000001 2.295 2.7625
L3 15.45 20.299999999999997 25.15
L1 57.0 78.0 99.0
L2 0.98 1.6975 2.415
L1 -0.845 0.34 1.5250000000000001
L4 0.395 0.5275000000000001 0.66
L2 0.41 1.2025 1.9949999999999999
L3 4.21 7.140000000000001 10.07
L2 0.48 0.7875 1.095
L2 1.27 1.9525000000000001 2.635
L2 290.0 637.5 985.0
Class 2 CertaintyDegree 1.0

L3 11.959999999999999 12.89 13.82
L2 0.74 2.005 3.2699999999999996
L5 2.7625 3.23 3.6975
L4 20.299999999999997 25.15 30.0
L3 99.0 120.0 141.0
L3 1.6975 2.415 3.1325
L3 1.5250000000000001 2.71 3.895
L4 0.395 0.5275000000000001 0.66
L3 1.2025 1.9949999999999999 2.7875
L2 1.28 4.21 7.140000000000001
L3 0.7875 1.095 1.4024999999999999
L4 2.635 3.3175 4.0
L3 637.5 985.0 1332.5
Class 0 CertaintyDegree 1.0

L3 11.959999999999999 12.89 13.82
L2 0.74 2.005 3.2699999999999996
L5 2.7625 3.23 3.6975
L4 20.299999999999997 25.15 30.0
L3 99.0 120.0 141.0
L3 1.6975 2.415 3.1325
L3 1.5250000000000001 2.71 3.895
L4 0.395 0.5275000000000001 0.66
L3 1.2025 1.9949999999999999 2.7875
L2 1.28 4.21 7.140000000000001
L3 0.7875 1.095 1.4024999999999999
L4 2.635 3.3175 4.0
L3 637.5 985.0 1332.5
Class 0 CertaintyDegree 1.0

L3 11.959999999999999 12.89 13.82
L2 0.74 2.005 3.2699999999999996
L5 2.7625 3.23 3.6975
L4 20.299999999999997 25.15 30.0
L3 99.0 120.0 141.0
L3 1.6975 2.415 3.1325
L3 1.5250000000000001 2.71 3.895
L4 0.395 0.5275000000000001 0.66
L3 1.2025 1.9949999999999999 2.7875
L2 1.28 4.21 7.140000000000001
L3 0.7875 1.095 1.4024999999999999
L4 2.635 3.3175 4.0
L3 637.5 985.0 1332.5
Class 0 CertaintyDegree 1.0

L4 12.89 13.82 14.75
L2 0.74 2.005 3.2699999999999996
L3 1.8275000000000001 2.295 2.7625
L2 10.6 15.45 20.299999999999997
L2 78.0 99.0 120.0
L4 2.415 3.1325 3.85
L4 2.71 3.895 5.08
L1 -0.0025000000000000022 0.13 0.2625
L3 1.2025 1.9949999999999999 2.7875
L3 4.21 7.140000000000001 10.07
L2 0.48 0.7875 1.095
L3 1.9525000000000001 2.635 3.3175
L4 985.0 1332.5 1680.0
Class 0 CertaintyDegree 1.0

L3 11.959999999999999 12.89 13.82
L3 2.005 3.2699999999999996 4.535
L4 2.295 2.7625 3.23
L3 15.45 20.299999999999997 25.15
L2 78.0 99.0 120.0
L2 0.98 1.6975 2.415
L1 -0.845 0.34 1.5250000000000001
L5 0.5275000000000001 0.66 0.7925000000000001
L2 0.41 1.2025 1.9949999999999999
L2 1.28 4.21 7.140000000000001
L2 0.48 0.7875 1.095
L2 1.27 1.9525000000000001 2.635
L2 290.0 637.5 985.0
Class 2 CertaintyDegree 1.0

L3 11.959999999999999 12.89 13.82
L3 2.005 3.2699999999999996 4.535
L4 2.295 2.7625 3.23
L3 15.45 20.299999999999997 25.15
L2 78.0 99.0 120.0
L2 0.98 1.6975 2.415
L1 -0.845 0.34 1.5250000000000001
L5 0.5275000000000001 0.66 0.7925000000000001
L2 0.41 1.2025 1.9949999999999999
L2 1.28 4.21 7.140000000000001
L2 0.48 0.7875 1.095
L2 1.27 1.9525000000000001 2.635
L2 290.0 637.5 985.0
Class 2 CertaintyDegree 1.0

L3 11.959999999999999 12.89 13.82
L3 2.005 3.2699999999999996 4.535
L4 2.295 2.7625 3.23
L3 15.45 20.299999999999997 25.15
L2 78.0 99.0 120.0
L2 0.98 1.6975 2.415
L1 -0.845 0.34 1.5250000000000001
L5 0.5275000000000001 0.66 0.7925000000000001
L2 0.41 1.2025 1.9949999999999999
L2 1.28 4.21 7.140000000000001
L2 0.48 0.7875 1.095
L2 1.27 1.9525000000000001 2.635
L2 290.0 637.5 985.0
Class 2 CertaintyDegree 1.0

L3 11.959999999999999 12.89 13.82
L5 4.535 5.8 7.0649999999999995
L3 1.8275000000000001 2.295 2.7625
L3 15.45 20.299999999999997 25.15
L1 57.0 78.0 99.0
L3 1.6975 2.415 3.1325
L3 1.5250000000000001 2.71 3.895
L2 0.13 0.2625 0.395
L3 1.2025 1.9949999999999999 2.7875
L1 -1.6500000000000001 1.28 4.21
L2 0.48 0.7875 1.095
L4 2.635 3.3175 4.0
L1 -57.5 290.0 637.5
Class 1 CertaintyDegree 1.0

L3 11.959999999999999 12.89 13.82
L5 4.535 5.8 7.0649999999999995
L3 1.8275000000000001 2.295 2.7625
L3 15.45 20.299999999999997 25.15
L1 57.0 78.0 99.0
L3 1.6975 2.415 3.1325
L3 1.5250000000000001 2.71 3.895
L2 0.13 0.2625 0.395
L3 1.2025 1.9949999999999999 2.7875
L1 -1.6500000000000001 1.28 4.21
L2 0.48 0.7875 1.095
L4 2.635 3.3175 4.0
L1 -57.5 290.0 637.5
Class 1 CertaintyDegree 1.0

L3 11.959999999999999 12.89 13.82
L5 4.535 5.8 7.0649999999999995
L3 1.8275000000000001 2.295 2.7625
L3 15.45 20.299999999999997 25.15
L1 57.0 78.0 99.0
L3 1.6975 2.415 3.1325
L3 1.5250000000000001 2.71 3.895
L2 0.13 0.2625 0.395
L3 1.2025 1.9949999999999999 2.7875
L1 -1.6500000000000001 1.28 4.21
L2 0.48 0.7875 1.095
L4 2.635 3.3175 4.0
L1 -57.5 290.0 637.5
Class 1 CertaintyDegree 1.0

L3 11.959999999999999 12.89 13.82
L2 0.74 2.005 3.2699999999999996
L4 2.295 2.7625 3.23
L3 15.45 20.299999999999997 25.15
L2 78.0 99.0 120.0
L3 1.6975 2.415 3.1325
L3 1.5250000000000001 2.71 3.895
L2 0.13 0.2625 0.395
L2 0.41 1.2025 1.9949999999999999
L2 1.28 4.21 7.140000000000001
L3 0.7875 1.095 1.4024999999999999
L3 1.9525000000000001 2.635 3.3175
L3 637.5 985.0 1332.5
Class 0 CertaintyDegree 1.0

L3 11.959999999999999 12.89 13.82
L2 0.74 2.005 3.2699999999999996
L4 2.295 2.7625 3.23
L4 20.299999999999997 25.15 30.0
L3 99.0 120.0 141.0
L3 1.6975 2.415 3.1325
L2 0.34 1.5250000000000001 2.71
L2 0.13 0.2625 0.395
L2 0.41 1.2025 1.9949999999999999
L3 4.21 7.140000000000001 10.07
L1 0.1725 0.48 0.7875
L1 0.5875 1.27 1.9525000000000001
L1 -57.5 290.0 637.5
Class 2 CertaintyDegree 1.0

L3 11.959999999999999 12.89 13.82
L2 0.74 2.005 3.2699999999999996
L4 2.295 2.7625 3.23
L4 20.299999999999997 25.15 30.0
L3 99.0 120.0 141.0
L3 1.6975 2.415 3.1325
L2 0.34 1.5250000000000001 2.71
L2 0.13 0.2625 0.395
L2 0.41 1.2025 1.9949999999999999
L3 4.21 7.140000000000001 10.07
L1 0.1725 0.48 0.7875
L1 0.5875 1.27 1.9525000000000001
L1 -57.5 290.0 637.5
Class 2 CertaintyDegree 1.0

L3 11.959999999999999 12.89 13.82
L2 0.74 2.005 3.2699999999999996
L4 2.295 2.7625 3.23
L4 20.299999999999997 25.15 30.0
L3 99.0 120.0 141.0
L3 1.6975 2.415 3.1325
L2 0.34 1.5250000000000001 2.71
L2 0.13 0.2625 0.395
L2 0.41 1.2025 1.9949999999999999
L3 4.21 7.140000000000001 10.07
L1 0.1725 0.48 0.7875
L1 0.5875 1.27 1.9525000000000001
L1 -57.5 290.0 637.5
Class 2 CertaintyDegree 1.0

L3 11.959999999999999 12.89 13.82
L2 0.74 2.005 3.2699999999999996
L3 1.8275000000000001 2.295 2.7625
L3 15.45 20.299999999999997 25.15
L5 141.0 162.0 183.0
L3 1.6975 2.415 3.1325
L3 1.5250000000000001 2.71 3.895
L2 0.13 0.2625 0.395
L5 2.7875 3.58 4.3725
L1 -1.6500000000000001 1.28 4.21
L3 0.7875 1.095 1.4024999999999999
L3 1.9525000000000001 2.635 3.3175
L3 637.5 985.0 1332.5
Class 1 CertaintyDegree 1.0

L3 11.959999999999999 12.89 13.82
L2 0.74 2.005 3.2699999999999996
L3 1.8275000000000001 2.295 2.7625
L3 15.45 20.299999999999997 25.15
L5 141.0 162.0 183.0
L3 1.6975 2.415 3.1325
L3 1.5250000000000001 2.71 3.895
L2 0.13 0.2625 0.395
L5 2.7875 3.58 4.3725
L1 -1.6500000000000001 1.28 4.21
L3 0.7875 1.095 1.4024999999999999
L3 1.9525000000000001 2.635 3.3175
L3 637.5 985.0 1332.5
Class 1 CertaintyDegree 1.0

L3 11.959999999999999 12.89 13.82
L2 0.74 2.005 3.2699999999999996
L3 1.8275000000000001 2.295 2.7625
L3 15.45 20.299999999999997 25.15
L5 141.0 162.0 183.0
L3 1.6975 2.415 3.1325
L3 1.5250000000000001 2.71 3.895
L2 0.13 0.2625 0.395
L5 2.7875 3.58 4.3725
L1 -1.6500000000000001 1.28 4.21
L3 0.7875 1.095 1.4024999999999999
L3 1.9525000000000001 2.635 3.3175
L3 637.5 985.0 1332.5
Class 1 CertaintyDegree 1.0

L3 11.959999999999999 12.89 13.82
L1 -0.5249999999999999 0.74 2.005
L3 1.8275000000000001 2.295 2.7625
L2 10.6 15.45 20.299999999999997
L1 57.0 78.0 99.0
L2 0.98 1.6975 2.415
L1 -0.845 0.34 1.5250000000000001
L5 0.5275000000000001 0.66 0.7925000000000001
L2 0.41 1.2025 1.9949999999999999
L2 1.28 4.21 7.140000000000001
L2 0.48 0.7875 1.095
L1 0.5875 1.27 1.9525000000000001
L2 290.0 637.5 985.0
Class 2 CertaintyDegree 1.0

L3 11.959999999999999 12.89 13.82
L1 -0.5249999999999999 0.74 2.005
L3 1.8275000000000001 2.295 2.7625
L2 10.6 15.45 20.299999999999997
L1 57.0 78.0 99.0
L2 0.98 1.6975 2.415
L1 -0.845 0.34 1.5250000000000001
L5 0.5275000000000001 0.66 0.7925000000000001
L2 0.41 1.2025 1.9949999999999999
L2 1.28 4.21 7.140000000000001
L2 0.48 0.7875 1.095
L1 0.5875 1.27 1.9525000000000001
L2 290.0 637.5 985.0
Class 2 CertaintyDegree 1.0

L3 11.959999999999999 12.89 13.82
L1 -0.5249999999999999 0.74 2.005
L3 1.8275000000000001 2.295 2.7625
L2 10.6 15.45 20.299999999999997
L1 57.0 78.0 99.0
L2 0.98 1.6975 2.415
L1 -0.845 0.34 1.5250000000000001
L5 0.5275000000000001 0.66 0.7925000000000001
L2 0.41 1.2025 1.9949999999999999
L2 1.28 4.21 7.140000000000001
L2 0.48 0.7875 1.095
L1 0.5875 1.27 1.9525000000000001
L2 290.0 637.5 985.0
Class 2 CertaintyDegree 1.0

L3 11.959999999999999 12.89 13.82
L1 -0.5249999999999999 0.74 2.005
L3 1.8275000000000001 2.295 2.7625
L3 15.45 20.299999999999997 25.15
L2 78.0 99.0 120.0
L2 0.98 1.6975 2.415
L1 -0.845 0.34 1.5250000000000001
L4 0.395 0.5275000000000001 0.66
L2 0.41 1.2025 1.9949999999999999
L3 4.21 7.140000000000001 10.07
L1 0.1725 0.48 0.7875
L1 0.5875 1.27 1.9525000000000001
L2 290.0 637.5 985.0
Class 2 CertaintyDegree 1.0

L3 11.959999999999999 12.89 13.82
L1 -0.5249999999999999 0.74 2.005
L3 1.8275000000000001 2.295 2.7625
L3 15.45 20.299999999999997 25.15
L2 78.0 99.0 120.0
L2 0.98 1.6975 2.415
L1 -0.845 0.34 1.5250000000000001
L4 0.395 0.5275000000000001 0.66
L2 0.41 1.2025 1.9949999999999999
L3 4.21 7.140000000000001 10.07
L1 0.1725 0.48 0.7875
L1 0.5875 1.27 1.9525000000000001
L2 290.0 637.5 985.0
Class 2 CertaintyDegree 1.0

L3 11.959999999999999 12.89 13.82
L1 -0.5249999999999999 0.74 2.005
L3 1.8275000000000001 2.295 2.7625
L3 15.45 20.299999999999997 25.15
L2 78.0 99.0 120.0
L2 0.98 1.6975 2.415
L1 -0.845 0.34 1.5250000000000001
L4 0.395 0.5275000000000001 0.66
L2 0.41 1.2025 1.9949999999999999
L3 4.21 7.140000000000001 10.07
L1 0.1725 0.48 0.7875
L1 0.5875 1.27 1.9525000000000001
L2 290.0 637.5 985.0
Class 2 CertaintyDegree 1.0

L1 10.1 11.03 11.959999999999999
L2 0.74 2.005 3.2699999999999996
L3 1.8275000000000001 2.295 2.7625
L3 15.45 20.299999999999997 25.15
L1 57.0 78.0 99.0
L3 1.6975 2.415 3.1325
L3 1.5250000000000001 2.71 3.895
L4 0.395 0.5275000000000001 0.66
L3 1.2025 1.9949999999999999 2.7875
L1 -1.6500000000000001 1.28 4.21
L5 1.4024999999999999 1.71 2.0175
L3 1.9525000000000001 2.635 3.3175
L1 -57.5 290.0 637.5
Class 1 CertaintyDegree 1.0

L1 10.1 11.03 11.959999999999999
L2 0.74 2.005 3.2699999999999996
L3 1.8275000000000001 2.295 2.7625
L3 15.45 20.299999999999997 25.15
L1 57.0 78.0 99.0
L3 1.6975 2.415 3.1325
L3 1.5250000000000001 2.71 3.895
L4 0.395 0.5275000000000001 0.66
L3 1.2025 1.9949999999999999 2.7875
L1 -1.6500000000000001 1.28 4.21
L5 1.4024999999999999 1.71 2.0175
L3 1.9525000000000001 2.635 3.3175
L1 -57.5 290.0 637.5
Class 1 CertaintyDegree 1.0

L1 10.1 11.03 11.959999999999999
L2 0.74 2.005 3.2699999999999996
L3 1.8275000000000001 2.295 2.7625
L3 15.45 20.299999999999997 25.15
L1 57.0 78.0 99.0
L3 1.6975 2.415 3.1325
L3 1.5250000000000001 2.71 3.895
L4 0.395 0.5275000000000001 0.66
L3 1.2025 1.9949999999999999 2.7875
L1 -1.6500000000000001 1.28 4.21
L5 1.4024999999999999 1.71 2.0175
L3 1.9525000000000001 2.635 3.3175
L1 -57.5 290.0 637.5
Class 1 CertaintyDegree 1.0

L3 11.959999999999999 12.89 13.82
L3 2.005 3.2699999999999996 4.535
L3 1.8275000000000001 2.295 2.7625
L3 15.45 20.299999999999997 25.15
L2 78.0 99.0 120.0
L1 0.26249999999999996 0.98 1.6975
L2 0.34 1.5250000000000001 2.71
L2 0.13 0.2625 0.395
L2 0.41 1.2025 1.9949999999999999
L2 1.28 4.21 7.140000000000001
L2 0.48 0.7875 1.095
L1 0.5875 1.27 1.9525000000000001
L2 290.0 637.5 985.0
Class 2 CertaintyDegree 1.0

L3 11.959999999999999 12.89 13.82
L3 2.005 3.2699999999999996 4.535
L3 1.8275000000000001 2.295 2.7625
L3 15.45 20.299999999999997 25.15
L2 78.0 99.0 120.0
L1 0.26249999999999996 0.98 1.6975
L2 0.34 1.5250000000000001 2.71
L2 0.13 0.2625 0.395
L2 0.41 1.2025 1.9949999999999999
L2 1.28 4.21 7.140000000000001
L2 0.48 0.7875 1.095
L1 0.5875 1.27 1.9525000000000001
L2 290.0 637.5 985.0
Class 2 CertaintyDegree 1.0

L3 11.959999999999999 12.89 13.82
L3 2.005 3.2699999999999996 4.535
L3 1.8275000000000001 2.295 2.7625
L3 15.45 20.299999999999997 25.15
L2 78.0 99.0 120.0
L1 0.26249999999999996 0.98 1.6975
L2 0.34 1.5250000000000001 2.71
L2 0.13 0.2625 0.395
L2 0.41 1.2025 1.9949999999999999
L2 1.28 4.21 7.140000000000001
L2 0.48 0.7875 1.095
L1 0.5875 1.27 1.9525000000000001
L2 290.0 637.5 985.0
Class 2 CertaintyDegree 1.0

L3 11.959999999999999 12.89 13.82
L3 2.005 3.2699999999999996 4.535
L3 1.8275000000000001 2.295 2.7625
L3 15.45 20.299999999999997 25.15
L2 78.0 99.0 120.0
L2 0.98 1.6975 2.415
L2 0.34 1.5250000000000001 2.71
L1 -0.0025000000000000022 0.13 0.2625
L2 0.41 1.2025 1.9949999999999999
L2 1.28 4.21 7.140000000000001
L2 0.48 0.7875 1.095
L1 0.5875 1.27 1.9525000000000001
L2 290.0 637.5 985.0
Class 2 CertaintyDegree 1.0

L3 11.959999999999999 12.89 13.82
L3 2.005 3.2699999999999996 4.535
L3 1.8275000000000001 2.295 2.7625
L3 15.45 20.299999999999997 25.15
L2 78.0 99.0 120.0
L2 0.98 1.6975 2.415
L2 0.34 1.5250000000000001 2.71
L1 -0.0025000000000000022 0.13 0.2625
L2 0.41 1.2025 1.9949999999999999
L2 1.28 4.21 7.140000000000001
L2 0.48 0.7875 1.095
L1 0.5875 1.27 1.9525000000000001
L2 290.0 637.5 985.0
Class 2 CertaintyDegree 1.0

L3 11.959999999999999 12.89 13.82
L3 2.005 3.2699999999999996 4.535
L3 1.8275000000000001 2.295 2.7625
L3 15.45 20.299999999999997 25.15
L2 78.0 99.0 120.0
L2 0.98 1.6975 2.415
L2 0.34 1.5250000000000001 2.71
L1 -0.0025000000000000022 0.13 0.2625
L2 0.41 1.2025 1.9949999999999999
L2 1.28 4.21 7.140000000000001
L2 0.48 0.7875 1.095
L1 0.5875 1.27 1.9525000000000001
L2 290.0 637.5 985.0
Class 2 CertaintyDegree 1.0

L3 11.959999999999999 12.89 13.82
L2 0.74 2.005 3.2699999999999996
L4 2.295 2.7625 3.23
L3 15.45 20.299999999999997 25.15
L3 99.0 120.0 141.0
L4 2.415 3.1325 3.85
L3 1.5250000000000001 2.71 3.895
L3 0.2625 0.395 0.5275000000000001
L3 1.2025 1.9949999999999999 2.7875
L2 1.28 4.21 7.140000000000001
L3 0.7875 1.095 1.4024999999999999
L3 1.9525000000000001 2.635 3.3175
L2 290.0 637.5 985.0
Class 0 CertaintyDegree 1.0

L3 11.959999999999999 12.89 13.82
L2 0.74 2.005 3.2699999999999996
L4 2.295 2.7625 3.23
L3 15.45 20.299999999999997 25.15
L3 99.0 120.0 141.0
L4 2.415 3.1325 3.85
L3 1.5250000000000001 2.71 3.895
L3 0.2625 0.395 0.5275000000000001
L3 1.2025 1.9949999999999999 2.7875
L2 1.28 4.21 7.140000000000001
L3 0.7875 1.095 1.4024999999999999
L3 1.9525000000000001 2.635 3.3175
L2 290.0 637.5 985.0
Class 0 CertaintyDegree 1.0

L3 11.959999999999999 12.89 13.82
L2 0.74 2.005 3.2699999999999996
L4 2.295 2.7625 3.23
L3 15.45 20.299999999999997 25.15
L3 99.0 120.0 141.0
L4 2.415 3.1325 3.85
L3 1.5250000000000001 2.71 3.895
L3 0.2625 0.395 0.5275000000000001
L3 1.2025 1.9949999999999999 2.7875
L2 1.28 4.21 7.140000000000001
L3 0.7875 1.095 1.4024999999999999
L3 1.9525000000000001 2.635 3.3175
L2 290.0 637.5 985.0
Class 0 CertaintyDegree 1.0

L4 12.89 13.82 14.75
L2 0.74 2.005 3.2699999999999996
L4 2.295 2.7625 3.23
L3 15.45 20.299999999999997 25.15
L2 78.0 99.0 120.0
L3 1.6975 2.415 3.1325
L2 0.34 1.5250000000000001 2.71
L4 0.395 0.5275000000000001 0.66
L3 1.2025 1.9949999999999999 2.7875
L5 10.07 13.0 15.93
L1 0.1725 0.48 0.7875
L2 1.27 1.9525000000000001 2.635
L2 290.0 637.5 985.0
Class 2 CertaintyDegree 1.0

L4 12.89 13.82 14.75
L2 0.74 2.005 3.2699999999999996
L4 2.295 2.7625 3.23
L3 15.45 20.299999999999997 25.15
L2 78.0 99.0 120.0
L3 1.6975 2.415 3.1325
L2 0.34 1.5250000000000001 2.71
L4 0.395 0.5275000000000001 0.66
L3 1.2025 1.9949999999999999 2.7875
L5 10.07 13.0 15.93
L1 0.1725 0.48 0.7875
L2 1.27 1.9525000000000001 2.635
L2 290.0 637.5 985.0
Class 2 CertaintyDegree 1.0

L4 12.89 13.82 14.75
L2 0.74 2.005 3.2699999999999996
L4 2.295 2.7625 3.23
L3 15.45 20.299999999999997 25.15
L2 78.0 99.0 120.0
L3 1.6975 2.415 3.1325
L2 0.34 1.5250000000000001 2.71
L4 0.395 0.5275000000000001 0.66
L3 1.2025 1.9949999999999999 2.7875
L5 10.07 13.0 15.93
L1 0.1725 0.48 0.7875
L2 1.27 1.9525000000000001 2.635
L2 290.0 637.5 985.0
Class 2 CertaintyDegree 1.0

L1 10.1 11.03 11.959999999999999
L3 2.005 3.2699999999999996 4.535
L2 1.36 1.8275000000000001 2.295
L3 15.45 20.299999999999997 25.15
L2 78.0 99.0 120.0
L4 2.415 3.1325 3.85
L3 1.5250000000000001 2.71 3.895
L2 0.13 0.2625 0.395
L5 2.7875 3.58 4.3725
L2 1.28 4.21 7.140000000000001
L2 0.48 0.7875 1.095
L3 1.9525000000000001 2.635 3.3175
L2 290.0 637.5 985.0
Class 1 CertaintyDegree 1.0

L1 10.1 11.03 11.959999999999999
L3 2.005 3.2699999999999996 4.535
L2 1.36 1.8275000000000001 2.295
L3 15.45 20.299999999999997 25.15
L2 78.0 99.0 120.0
L4 2.415 3.1325 3.85
L3 1.5250000000000001 2.71 3.895
L2 0.13 0.2625 0.395
L5 2.7875 3.58 4.3725
L2 1.28 4.21 7.140000000000001
L2 0.48 0.7875 1.095
L3 1.9525000000000001 2.635 3.3175
L2 290.0 637.5 985.0
Class 1 CertaintyDegree 1.0

L1 10.1 11.03 11.959999999999999
L3 2.005 3.2699999999999996 4.535
L2 1.36 1.8275000000000001 2.295
L3 15.45 20.299999999999997 25.15
L2 78.0 99.0 120.0
L4 2.415 3.1325 3.85
L3 1.5250000000000001 2.71 3.895
L2 0.13 0.2625 0.395
L5 2.7875 3.58 4.3725
L2 1.28 4.21 7.140000000000001
L2 0.48 0.7875 1.095
L3 1.9525000000000001 2.635 3.3175
L2 290.0 637.5 985.0
Class 1 CertaintyDegree 1.0

L4 12.89 13.82 14.75
L2 0.74 2.005 3.2699999999999996
L3 1.8275000000000001 2.295 2.7625
L3 15.45 20.299999999999997 25.15
L2 78.0 99.0 120.0
L4 2.415 3.1325 3.85
L3 1.5250000000000001 2.71 3.895
L2 0.13 0.2625 0.395
L3 1.2025 1.9949999999999999 2.7875
L3 4.21 7.140000000000001 10.07
L3 0.7875 1.095 1.4024999999999999
L3 1.9525000000000001 2.635 3.3175
L5 1332.5 1680.0 2027.5
Class 0 CertaintyDegree 1.0

L4 12.89 13.82 14.75
L2 0.74 2.005 3.2699999999999996
L3 1.8275000000000001 2.295 2.7625
L3 15.45 20.299999999999997 25.15
L2 78.0 99.0 120.0
L4 2.415 3.1325 3.85
L3 1.5250000000000001 2.71 3.895
L2 0.13 0.2625 0.395
L3 1.2025 1.9949999999999999 2.7875
L3 4.21 7.140000000000001 10.07
L3 0.7875 1.095 1.4024999999999999
L3 1.9525000000000001 2.635 3.3175
L5 1332.5 1680.0 2027.5
Class 0 CertaintyDegree 1.0

L4 12.89 13.82 14.75
L2 0.74 2.005 3.2699999999999996
L4 2.295 2.7625 3.23
L2 10.6 15.45 20.299999999999997
L3 99.0 120.0 141.0
L3 1.6975 2.415 3.1325
L3 1.5250000000000001 2.71 3.895
L2 0.13 0.2625 0.395
L2 0.41 1.2025 1.9949999999999999
L2 1.28 4.21 7.140000000000001
L3 0.7875 1.095 1.4024999999999999
L4 2.635 3.3175 4.0
L4 985.0 1332.5 1680.0
Class 0 CertaintyDegree 1.0

L4 12.89 13.82 14.75
L2 0.74 2.005 3.2699999999999996
L4 2.295 2.7625 3.23
L2 10.6 15.45 20.299999999999997
L3 99.0 120.0 141.0
L3 1.6975 2.415 3.1325
L3 1.5250000000000001 2.71 3.895
L2 0.13 0.2625 0.395
L2 0.41 1.2025 1.9949999999999999
L2 1.28 4.21 7.140000000000001
L3 0.7875 1.095 1.4024999999999999
L4 2.635 3.3175 4.0
L4 985.0 1332.5 1680.0
Class 0 CertaintyDegree 1.0

L4 12.89 13.82 14.75
L2 0.74 2.005 3.2699999999999996
L4 2.295 2.7625 3.23
L2 10.6 15.45 20.299999999999997
L3 99.0 120.0 141.0
L3 1.6975 2.415 3.1325
L3 1.5250000000000001 2.71 3.895
L2 0.13 0.2625 0.395
L2 0.41 1.2025 1.9949999999999999
L2 1.28 4.21 7.140000000000001
L3 0.7875 1.095 1.4024999999999999
L4 2.635 3.3175 4.0
L4 985.0 1332.5 1680.0
Class 0 CertaintyDegree 1.0

L5 13.82 14.75 15.68
L2 0.74 2.005 3.2699999999999996
L4 2.295 2.7625 3.23
L4 20.299999999999997 25.15 30.0
L2 78.0 99.0 120.0
L4 2.415 3.1325 3.85
L2 0.34 1.5250000000000001 2.71
L4 0.395 0.5275000000000001 0.66
L4 1.9949999999999999 2.7875 3.58
L5 10.07 13.0 15.93
L1 0.1725 0.48 0.7875
L2 1.27 1.9525000000000001 2.635
L2 290.0 637.5 985.0
Class 2 CertaintyDegree 1.0

L5 13.82 14.75 15.68
L2 0.74 2.005 3.2699999999999996
L4 2.295 2.7625 3.23
L4 20.299999999999997 25.15 30.0
L2 78.0 99.0 120.0
L4 2.415 3.1325 3.85
L2 0.34 1.5250000000000001 2.71
L4 0.395 0.5275000000000001 0.66
L4 1.9949999999999999 2.7875 3.58
L5 10.07 13.0 15.93
L1 0.1725 0.48 0.7875
L2 1.27 1.9525000000000001 2.635
L2 290.0 637.5 985.0
Class 2 CertaintyDegree 1.0

L5 13.82 14.75 15.68
L2 0.74 2.005 3.2699999999999996
L4 2.295 2.7625 3.23
L4 20.299999999999997 25.15 30.0
L2 78.0 99.0 120.0
L4 2.415 3.1325 3.85
L2 0.34 1.5250000000000001 2.71
L4 0.395 0.5275000000000001 0.66
L4 1.9949999999999999 2.7875 3.58
L5 10.07 13.0 15.93
L1 0.1725 0.48 0.7875
L2 1.27 1.9525000000000001 2.635
L2 290.0 637.5 985.0
Class 2 CertaintyDegree 1.0

L2 11.03 11.959999999999999 12.89
L3 2.005 3.2699999999999996 4.535
L2 1.36 1.8275000000000001 2.295
L3 15.45 20.299999999999997 25.15
L1 57.0 78.0 99.0
L2 0.98 1.6975 2.415
L2 0.34 1.5250000000000001 2.71
L3 0.2625 0.395 0.5275000000000001
L3 1.2025 1.9949999999999999 2.7875
L1 -1.6500000000000001 1.28 4.21
L2 0.48 0.7875 1.095
L4 2.635 3.3175 4.0
L2 290.0 637.5 985.0
Class 1 CertaintyDegree 1.0

L2 11.03 11.959999999999999 12.89
L3 2.005 3.2699999999999996 4.535
L2 1.36 1.8275000000000001 2.295
L3 15.45 20.299999999999997 25.15
L1 57.0 78.0 99.0
L2 0.98 1.6975 2.415
L2 0.34 1.5250000000000001 2.71
L3 0.2625 0.395 0.5275000000000001
L3 1.2025 1.9949999999999999 2.7875
L1 -1.6500000000000001 1.28 4.21
L2 0.48 0.7875 1.095
L4 2.635 3.3175 4.0
L2 290.0 637.5 985.0
Class 1 CertaintyDegree 1.0

L2 11.03 11.959999999999999 12.89
L3 2.005 3.2699999999999996 4.535
L2 1.36 1.8275000000000001 2.295
L3 15.45 20.299999999999997 25.15
L1 57.0 78.0 99.0
L2 0.98 1.6975 2.415
L2 0.34 1.5250000000000001 2.71
L3 0.2625 0.395 0.5275000000000001
L3 1.2025 1.9949999999999999 2.7875
L1 -1.6500000000000001 1.28 4.21
L2 0.48 0.7875 1.095
L4 2.635 3.3175 4.0
L2 290.0 637.5 985.0
Class 1 CertaintyDegree 1.0

L2 11.03 11.959999999999999 12.89
L3 2.005 3.2699999999999996 4.535
L3 1.8275000000000001 2.295 2.7625
L3 15.45 20.299999999999997 25.15
L1 57.0 78.0 99.0
L3 1.6975 2.415 3.1325
L3 1.5250000000000001 2.71 3.895
L2 0.13 0.2625 0.395
L3 1.2025 1.9949999999999999 2.7875
L1 -1.6500000000000001 1.28 4.21
L3 0.7875 1.095 1.4024999999999999
L4 2.635 3.3175 4.0
L1 -57.5 290.0 637.5
Class 1 CertaintyDegree 1.0

L2 11.03 11.959999999999999 12.89
L3 2.005 3.2699999999999996 4.535
L3 1.8275000000000001 2.295 2.7625
L3 15.45 20.299999999999997 25.15
L1 57.0 78.0 99.0
L3 1.6975 2.415 3.1325
L3 1.5250000000000001 2.71 3.895
L2 0.13 0.2625 0.395
L3 1.2025 1.9949999999999999 2.7875
L1 -1.6500000000000001 1.28 4.21
L3 0.7875 1.095 1.4024999999999999
L4 2.635 3.3175 4.0
L1 -57.5 290.0 637.5
Class 1 CertaintyDegree 1.0

L2 11.03 11.959999999999999 12.89
L3 2.005 3.2699999999999996 4.535
L3 1.8275000000000001 2.295 2.7625
L3 15.45 20.299999999999997 25.15
L1 57.0 78.0 99.0
L3 1.6975 2.415 3.1325
L3 1.5250000000000001 2.71 3.895
L2 0.13 0.2625 0.395
L3 1.2025 1.9949999999999999 2.7875
L1 -1.6500000000000001 1.28 4.21
L3 0.7875 1.095 1.4024999999999999
L4 2.635 3.3175 4.0
L1 -57.5 290.0 637.5
Class 1 CertaintyDegree 1.0

L2 11.03 11.959999999999999 12.89
L4 3.2699999999999996 4.535 5.8
L3 1.8275000000000001 2.295 2.7625
L3 15.45 20.299999999999997 25.15
L1 57.0 78.0 99.0
L3 1.6975 2.415 3.1325
L2 0.34 1.5250000000000001 2.71
L3 0.2625 0.395 0.5275000000000001
L2 0.41 1.2025 1.9949999999999999
L1 -1.6500000000000001 1.28 4.21
L2 0.48 0.7875 1.095
L3 1.9525000000000001 2.635 3.3175
L2 290.0 637.5 985.0
Class 1 CertaintyDegree 1.0

L2 11.03 11.959999999999999 12.89
L4 3.2699999999999996 4.535 5.8
L3 1.8275000000000001 2.295 2.7625
L3 15.45 20.299999999999997 25.15
L1 57.0 78.0 99.0
L3 1.6975 2.415 3.1325
L2 0.34 1.5250000000000001 2.71
L3 0.2625 0.395 0.5275000000000001
L2 0.41 1.2025 1.9949999999999999
L1 -1.6500000000000001 1.28 4.21
L2 0.48 0.7875 1.095
L3 1.9525000000000001 2.635 3.3175
L2 290.0 637.5 985.0
Class 1 CertaintyDegree 1.0

L2 11.03 11.959999999999999 12.89
L4 3.2699999999999996 4.535 5.8
L3 1.8275000000000001 2.295 2.7625
L3 15.45 20.299999999999997 25.15
L1 57.0 78.0 99.0
L3 1.6975 2.415 3.1325
L2 0.34 1.5250000000000001 2.71
L3 0.2625 0.395 0.5275000000000001
L2 0.41 1.2025 1.9949999999999999
L1 -1.6500000000000001 1.28 4.21
L2 0.48 0.7875 1.095
L3 1.9525000000000001 2.635 3.3175
L2 290.0 637.5 985.0
Class 1 CertaintyDegree 1.0

L5 13.82 14.75 15.68
L2 0.74 2.005 3.2699999999999996
L3 1.8275000000000001 2.295 2.7625
L1 5.75 10.6 15.45
L2 78.0 99.0 120.0
L4 2.415 3.1325 3.85
L4 2.71 3.895 5.08
L2 0.13 0.2625 0.395
L4 1.9949999999999999 2.7875 3.58
L3 4.21 7.140000000000001 10.07
L3 0.7875 1.095 1.4024999999999999
L4 2.635 3.3175 4.0
L5 1332.5 1680.0 2027.5
Class 0 CertaintyDegree 1.0

L5 13.82 14.75 15.68
L2 0.74 2.005 3.2699999999999996
L3 1.8275000000000001 2.295 2.7625
L1 5.75 10.6 15.45
L2 78.0 99.0 120.0
L4 2.415 3.1325 3.85
L4 2.71 3.895 5.08
L2 0.13 0.2625 0.395
L4 1.9949999999999999 2.7875 3.58
L3 4.21 7.140000000000001 10.07
L3 0.7875 1.095 1.4024999999999999
L4 2.635 3.3175 4.0
L5 1332.5 1680.0 2027.5
Class 0 CertaintyDegree 1.0

L5 13.82 14.75 15.68
L2 0.74 2.005 3.2699999999999996
L3 1.8275000000000001 2.295 2.7625
L1 5.75 10.6 15.45
L2 78.0 99.0 120.0
L4 2.415 3.1325 3.85
L4 2.71 3.895 5.08
L2 0.13 0.2625 0.395
L4 1.9949999999999999 2.7875 3.58
L3 4.21 7.140000000000001 10.07
L3 0.7875 1.095 1.4024999999999999
L4 2.635 3.3175 4.0
L5 1332.5 1680.0 2027.5
Class 0 CertaintyDegree 1.0

L3 11.959999999999999 12.89 13.82
L4 3.2699999999999996 4.535 5.8
L3 1.8275000000000001 2.295 2.7625
L2 10.6 15.45 20.299999999999997
L2 78.0 99.0 120.0
L3 1.6975 2.415 3.1325
L3 1.5250000000000001 2.71 3.895
L2 0.13 0.2625 0.395
L3 1.2025 1.9949999999999999 2.7875
L2 1.28 4.21 7.140000000000001
L2 0.48 0.7875 1.095
L4 2.635 3.3175 4.0
L2 290.0 637.5 985.0
Class 0 CertaintyDegree 1.0

L3 11.959999999999999 12.89 13.82
L4 3.2699999999999996 4.535 5.8
L3 1.8275000000000001 2.295 2.7625
L2 10.6 15.45 20.299999999999997
L2 78.0 99.0 120.0
L3 1.6975 2.415 3.1325
L3 1.5250000000000001 2.71 3.895
L2 0.13 0.2625 0.395
L3 1.2025 1.9949999999999999 2.7875
L2 1.28 4.21 7.140000000000001
L2 0.48 0.7875 1.095
L4 2.635 3.3175 4.0
L2 290.0 637.5 985.0
Class 0 CertaintyDegree 1.0

L3 11.959999999999999 12.89 13.82
L4 3.2699999999999996 4.535 5.8
L3 1.8275000000000001 2.295 2.7625
L2 10.6 15.45 20.299999999999997
L2 78.0 99.0 120.0
L3 1.6975 2.415 3.1325
L3 1.5250000000000001 2.71 3.895
L2 0.13 0.2625 0.395
L3 1.2025 1.9949999999999999 2.7875
L2 1.28 4.21 7.140000000000001
L2 0.48 0.7875 1.095
L4 2.635 3.3175 4.0
L2 290.0 637.5 985.0
Class 0 CertaintyDegree 1.0

L4 12.89 13.82 14.75
L4 3.2699999999999996 4.535 5.8
L3 1.8275000000000001 2.295 2.7625
L3 15.45 20.299999999999997 25.15
L3 99.0 120.0 141.0
L4 2.415 3.1325 3.85
L3 1.5250000000000001 2.71 3.895
L2 0.13 0.2625 0.395
L2 0.41 1.2025 1.9949999999999999
L2 1.28 4.21 7.140000000000001
L2 0.48 0.7875 1.095
L4 2.635 3.3175 4.0
L3 637.5 985.0 1332.5
Class 0 CertaintyDegree 1.0

L5 13.82 14.75 15.68
L3 2.005 3.2699999999999996 4.535
L3 1.8275000000000001 2.295 2.7625
L2 10.6 15.45 20.299999999999997
L2 78.0 99.0 120.0
L4 2.415 3.1325 3.85
L3 1.5250000000000001 2.71 3.895
L2 0.13 0.2625 0.395
L3 1.2025 1.9949999999999999 2.7875
L2 1.28 4.21 7.140000000000001
L3 0.7875 1.095 1.4024999999999999
L4 2.635 3.3175 4.0
L3 637.5 985.0 1332.5
Class 0 CertaintyDegree 1.0

L5 13.82 14.75 15.68
L3 2.005 3.2699999999999996 4.535
L3 1.8275000000000001 2.295 2.7625
L2 10.6 15.45 20.299999999999997
L2 78.0 99.0 120.0
L4 2.415 3.1325 3.85
L3 1.5250000000000001 2.71 3.895
L2 0.13 0.2625 0.395
L3 1.2025 1.9949999999999999 2.7875
L2 1.28 4.21 7.140000000000001
L3 0.7875 1.095 1.4024999999999999
L4 2.635 3.3175 4.0
L3 637.5 985.0 1332.5
Class 0 CertaintyDegree 1.0

L5 13.82 14.75 15.68
L3 2.005 3.2699999999999996 4.535
L3 1.8275000000000001 2.295 2.7625
L2 10.6 15.45 20.299999999999997
L2 78.0 99.0 120.0
L4 2.415 3.1325 3.85
L3 1.5250000000000001 2.71 3.895
L2 0.13 0.2625 0.395
L3 1.2025 1.9949999999999999 2.7875
L2 1.28 4.21 7.140000000000001
L3 0.7875 1.095 1.4024999999999999
L4 2.635 3.3175 4.0
L3 637.5 985.0 1332.5
Class 0 CertaintyDegree 1.0


%Tra: 73.125 %Tst: 72.22222222222221
Minimun C_R: 0.0 MSE CV_R: 0.0
