Number of rules: 88

L4 12.93 13.879999999999999 14.83
L2 0.74 2.005 3.2699999999999996
L4 2.295 2.7625 3.23
L3 15.45 20.299999999999997 25.15
L3 93.0 116.0 139.0
L4 2.4299999999999997 3.155 3.88
L3 1.5250000000000001 2.71 3.895
L3 0.2625 0.395 0.5275000000000001
L3 1.21 2.0 2.79
L3 4.21 7.140000000000001 10.07
L3 0.7875 1.095 1.4024999999999999
L3 1.9525000000000001 2.635 3.3175
L4 979.0 1329.5 1680.0
Class 0 CertaintyDegree 1.0

L4 12.93 13.879999999999999 14.83
L2 0.74 2.005 3.2699999999999996
L4 2.295 2.7625 3.23
L3 15.45 20.299999999999997 25.15
L3 93.0 116.0 139.0
L4 2.4299999999999997 3.155 3.88
L3 1.5250000000000001 2.71 3.895
L3 0.2625 0.395 0.5275000000000001
L3 1.21 2.0 2.79
L3 4.21 7.140000000000001 10.07
L3 0.7875 1.095 1.4024999999999999
L3 1.9525000000000001 2.635 3.3175
L4 979.0 1329.5 1680.0
Class 0 CertaintyDegree 1.0

L2 11.03 11.98 12.93
L2 0.74 2.005 3.2699999999999996
L3 1.8275000000000001 2.295 2.7625
L3 15.45 20.299999999999997 25.15
L2 70.0 93.0 116.0
L3 1.705 2.4299999999999997 3.155
L3 1.5250000000000001 2.71 3.895
L3 0.2625 0.395 0.5275000000000001
L2 0.42 1.21 2.0
L2 1.28 4.21 7.140000000000001
L2 0.48 0.7875 1.095
L4 2.635 3.3175 4.0
L1 -72.5 278.0 628.5
Class 1 CertaintyDegree 1.0

L2 11.03 11.98 12.93
L2 0.74 2.005 3.2699999999999996
L3 1.8275000000000001 2.295 2.7625
L3 15.45 20.299999999999997 25.15
L2 70.0 93.0 116.0
L3 1.705 2.4299999999999997 3.155
L3 1.5250000000000001 2.71 3.895
L3 0.2625 0.395 0.5275000000000001
L2 0.42 1.21 2.0
L2 1.28 4.21 7.140000000000001
L2 0.48 0.7875 1.095
L4 2.635 3.3175 4.0
L1 -72.5 278.0 628.5
Class 1 CertaintyDegree 1.0

L4 12.93 13.879999999999999 14.83
L3 2.005 3.2699999999999996 4.535
L3 1.8275000000000001 2.295 2.7625
L3 15.45 20.299999999999997 25.15
L2 70.0 93.0 116.0
L2 0.98 1.705 2.4299999999999997
L1 -0.845 0.34 1.5250000000000001
L4 0.395 0.5275000000000001 0.66
L2 0.42 1.21 2.0
L3 4.21 7.140000000000001 10.07
L2 0.48 0.7875 1.095
L2 1.27 1.9525000000000001 2.635
L2 278.0 628.5 979.0
Class 2 CertaintyDegree 1.0

L4 12.93 13.879999999999999 14.83
L2 0.74 2.005 3.2699999999999996
L3 1.8275000000000001 2.295 2.7625
L2 10.6 15.45 20.299999999999997
L3 93.0 116.0 139.0
L4 2.4299999999999997 3.155 3.88
L3 1.5250000000000001 2.71 3.895
L2 0.13 0.2625 0.395
L3 1.21 2.0 2.79
L3 4.21 7.140000000000001 10.07
L2 0.48 0.7875 1.095
L4 2.635 3.3175 4.0
L3 628.5 979.0 1329.5
Class 0 CertaintyDegree 1.0

L3 11.98 12.93 13.879999999999999
L3 2.005 3.2699999999999996 4.535
L3 1.8275000000000001 2.295 2.7625
L3 15.45 20.299999999999997 25.15
L3 93.0 116.0 139.0
L2 0.98 1.705 2.4299999999999997
L2 0.34 1.5250000000000001 2.71
L2 0.13 0.2625 0.395
L2 0.42 1.21 2.0
L4 7.140000000000001 10.07 13.0
L1 0.1725 0.48 0.7875
L1 0.5875 1.27 1.9525000000000001
L2 278.0 628.5 979.0
Class 2 CertaintyDegree 1.0

L3 11.98 12.93 13.879999999999999
L3 2.005 3.2699999999999996 4.535
L3 1.8275000000000001 2.295 2.7625
L3 15.45 20.299999999999997 25.15
L3 93.0 116.0 139.0
L2 0.98 1.705 2.4299999999999997
L2 0.34 1.5250000000000001 2.71
L2 0.13 0.2625 0.395
L2 0.42 1.21 2.0
L4 7.140000000000001 10.07 13.0
L1 0.1725 0.48 0.7875
L1 0.5875 1.27 1.9525000000000001
L2 278.0 628.5 979.0
Class 2 CertaintyDegree 1.0

L2 11.03 11.98 12.93
L2 0.74 2.005 3.2699999999999996
L2 1.36 1.8275000000000001 2.295
L3 15.45 20.299999999999997 25.15
L2 70.0 93.0 116.0
L2 0.98 1.705 2.4299999999999997
L2 0.34 1.5250000000000001 2.71
L2 0.13 0.2625 0.395
L2 0.42 1.21 2.0
L1 -1.6500000000000001 1.28 4.21
L3 0.7875 1.095 1.4024999999999999
L4 2.635 3.3175 4.0
L2 278.0 628.5 979.0
Class 1 CertaintyDegree 1.0

L2 11.03 11.98 12.93
L2 0.74 2.005 3.2699999999999996
L2 1.36 1.8275000000000001 2.295
L3 15.45 20.299999999999997 25.15
L2 70.0 93.0 116.0
L2 0.98 1.705 2.4299999999999997
L2 0.34 1.5250000000000001 2.71
L2 0.13 0.2625 0.395
L2 0.42 1.21 2.0
L1 -1.6500000000000001 1.28 4.21
L3 0.7875 1.095 1.4024999999999999
L4 2.635 3.3175 4.0
L2 278.0 628.5 979.0
Class 1 CertaintyDegree 1.0

L2 11.03 11.98 12.93
L2 0.74 2.005 3.2699999999999996
L3 1.8275000000000001 2.295 2.7625
L3 15.45 20.299999999999997 25.15
L2 70.0 93.0 116.0
L2 0.98 1.705 2.4299999999999997
L2 0.34 1.5250000000000001 2.71
L4 0.395 0.5275000000000001 0.66
L3 1.21 2.0 2.79
L2 1.28 4.21 7.140000000000001
L3 0.7875 1.095 1.4024999999999999
L3 1.9525000000000001 2.635 3.3175
L1 -72.5 278.0 628.5
Class 1 CertaintyDegree 1.0

L2 11.03 11.98 12.93
L2 0.74 2.005 3.2699999999999996
L3 1.8275000000000001 2.295 2.7625
L3 15.45 20.299999999999997 25.15
L2 70.0 93.0 116.0
L2 0.98 1.705 2.4299999999999997
L2 0.34 1.5250000000000001 2.71
L4 0.395 0.5275000000000001 0.66
L3 1.21 2.0 2.79
L2 1.28 4.21 7.140000000000001
L3 0.7875 1.095 1.4024999999999999
L3 1.9525000000000001 2.635 3.3175
L1 -72.5 278.0 628.5
Class 1 CertaintyDegree 1.0

L4 12.93 13.879999999999999 14.83
L3 2.005 3.2699999999999996 4.535
L3 1.8275000000000001 2.295 2.7625
L3 15.45 20.299999999999997 25.15
L2 70.0 93.0 116.0
L2 0.98 1.705 2.4299999999999997
L1 -0.845 0.34 1.5250000000000001
L3 0.2625 0.395 0.5275000000000001
L2 0.42 1.21 2.0
L4 7.140000000000001 10.07 13.0
L2 0.48 0.7875 1.095
L2 1.27 1.9525000000000001 2.635
L2 278.0 628.5 979.0
Class 2 CertaintyDegree 1.0

L4 12.93 13.879999999999999 14.83
L3 2.005 3.2699999999999996 4.535
L3 1.8275000000000001 2.295 2.7625
L3 15.45 20.299999999999997 25.15
L2 70.0 93.0 116.0
L2 0.98 1.705 2.4299999999999997
L1 -0.845 0.34 1.5250000000000001
L3 0.2625 0.395 0.5275000000000001
L2 0.42 1.21 2.0
L4 7.140000000000001 10.07 13.0
L2 0.48 0.7875 1.095
L2 1.27 1.9525000000000001 2.635
L2 278.0 628.5 979.0
Class 2 CertaintyDegree 1.0

L4 12.93 13.879999999999999 14.83
L2 0.74 2.005 3.2699999999999996
L4 2.295 2.7625 3.23
L2 10.6 15.45 20.299999999999997
L2 70.0 93.0 116.0
L3 1.705 2.4299999999999997 3.155
L3 1.5250000000000001 2.71 3.895
L2 0.13 0.2625 0.395
L3 1.21 2.0 2.79
L2 1.28 4.21 7.140000000000001
L3 0.7875 1.095 1.4024999999999999
L4 2.635 3.3175 4.0
L4 979.0 1329.5 1680.0
Class 0 CertaintyDegree 1.0

L4 12.93 13.879999999999999 14.83
L2 0.74 2.005 3.2699999999999996
L4 2.295 2.7625 3.23
L2 10.6 15.45 20.299999999999997
L2 70.0 93.0 116.0
L3 1.705 2.4299999999999997 3.155
L3 1.5250000000000001 2.71 3.895
L2 0.13 0.2625 0.395
L3 1.21 2.0 2.79
L2 1.28 4.21 7.140000000000001
L3 0.7875 1.095 1.4024999999999999
L4 2.635 3.3175 4.0
L4 979.0 1329.5 1680.0
Class 0 CertaintyDegree 1.0

L4 12.93 13.879999999999999 14.83
L2 0.74 2.005 3.2699999999999996
L3 1.8275000000000001 2.295 2.7625
L2 10.6 15.45 20.299999999999997
L2 70.0 93.0 116.0
L4 2.4299999999999997 3.155 3.88
L4 2.71 3.895 5.08
L2 0.13 0.2625 0.395
L3 1.21 2.0 2.79
L3 4.21 7.140000000000001 10.07
L2 0.48 0.7875 1.095
L4 2.635 3.3175 4.0
L3 628.5 979.0 1329.5
Class 0 CertaintyDegree 1.0

L4 12.93 13.879999999999999 14.83
L2 0.74 2.005 3.2699999999999996
L3 1.8275000000000001 2.295 2.7625
L2 10.6 15.45 20.299999999999997
L3 93.0 116.0 139.0
L5 3.155 3.88 4.605
L4 2.71 3.895 5.08
L2 0.13 0.2625 0.395
L3 1.21 2.0 2.79
L3 4.21 7.140000000000001 10.07
L3 0.7875 1.095 1.4024999999999999
L4 2.635 3.3175 4.0
L4 979.0 1329.5 1680.0
Class 0 CertaintyDegree 1.0

L4 12.93 13.879999999999999 14.83
L2 0.74 2.005 3.2699999999999996
L3 1.8275000000000001 2.295 2.7625
L2 10.6 15.45 20.299999999999997
L3 93.0 116.0 139.0
L5 3.155 3.88 4.605
L4 2.71 3.895 5.08
L2 0.13 0.2625 0.395
L3 1.21 2.0 2.79
L3 4.21 7.140000000000001 10.07
L3 0.7875 1.095 1.4024999999999999
L4 2.635 3.3175 4.0
L4 979.0 1329.5 1680.0
Class 0 CertaintyDegree 1.0

L3 11.98 12.93 13.879999999999999
L3 2.005 3.2699999999999996 4.535
L3 1.8275000000000001 2.295 2.7625
L3 15.45 20.299999999999997 25.15
L2 70.0 93.0 116.0
L2 0.98 1.705 2.4299999999999997
L1 -0.845 0.34 1.5250000000000001
L3 0.2625 0.395 0.5275000000000001
L2 0.42 1.21 2.0
L4 7.140000000000001 10.07 13.0
L2 0.48 0.7875 1.095
L2 1.27 1.9525000000000001 2.635
L2 278.0 628.5 979.0
Class 2 CertaintyDegree 1.0

L3 11.98 12.93 13.879999999999999
L3 2.005 3.2699999999999996 4.535
L3 1.8275000000000001 2.295 2.7625
L3 15.45 20.299999999999997 25.15
L2 70.0 93.0 116.0
L2 0.98 1.705 2.4299999999999997
L1 -0.845 0.34 1.5250000000000001
L3 0.2625 0.395 0.5275000000000001
L2 0.42 1.21 2.0
L4 7.140000000000001 10.07 13.0
L2 0.48 0.7875 1.095
L2 1.27 1.9525000000000001 2.635
L2 278.0 628.5 979.0
Class 2 CertaintyDegree 1.0

L4 12.93 13.879999999999999 14.83
L3 2.005 3.2699999999999996 4.535
L4 2.295 2.7625 3.23
L4 20.299999999999997 25.15 30.0
L2 70.0 93.0 116.0
L2 0.98 1.705 2.4299999999999997
L1 -0.845 0.34 1.5250000000000001
L4 0.395 0.5275000000000001 0.66
L1 -0.37000000000000005 0.42 1.21
L2 1.28 4.21 7.140000000000001
L2 0.48 0.7875 1.095
L2 1.27 1.9525000000000001 2.635
L2 278.0 628.5 979.0
Class 2 CertaintyDegree 1.0

L4 12.93 13.879999999999999 14.83
L3 2.005 3.2699999999999996 4.535
L4 2.295 2.7625 3.23
L4 20.299999999999997 25.15 30.0
L2 70.0 93.0 116.0
L2 0.98 1.705 2.4299999999999997
L1 -0.845 0.34 1.5250000000000001
L4 0.395 0.5275000000000001 0.66
L1 -0.37000000000000005 0.42 1.21
L2 1.28 4.21 7.140000000000001
L2 0.48 0.7875 1.095
L2 1.27 1.9525000000000001 2.635
L2 278.0 628.5 979.0
Class 2 CertaintyDegree 1.0

L3 11.98 12.93 13.879999999999999
L1 -0.5249999999999999 0.74 2.005
L3 1.8275000000000001 2.295 2.7625
L2 10.6 15.45 20.299999999999997
L3 93.0 116.0 139.0
L3 1.705 2.4299999999999997 3.155
L2 0.34 1.5250000000000001 2.71
L4 0.395 0.5275000000000001 0.66
L1 -0.37000000000000005 0.42 1.21
L2 1.28 4.21 7.140000000000001
L3 0.7875 1.095 1.4024999999999999
L2 1.27 1.9525000000000001 2.635
L2 278.0 628.5 979.0
Class 1 CertaintyDegree 1.0

L3 11.98 12.93 13.879999999999999
L1 -0.5249999999999999 0.74 2.005
L3 1.8275000000000001 2.295 2.7625
L2 10.6 15.45 20.299999999999997
L3 93.0 116.0 139.0
L3 1.705 2.4299999999999997 3.155
L2 0.34 1.5250000000000001 2.71
L4 0.395 0.5275000000000001 0.66
L1 -0.37000000000000005 0.42 1.21
L2 1.28 4.21 7.140000000000001
L3 0.7875 1.095 1.4024999999999999
L2 1.27 1.9525000000000001 2.635
L2 278.0 628.5 979.0
Class 1 CertaintyDegree 1.0

L3 11.98 12.93 13.879999999999999
L1 -0.5249999999999999 0.74 2.005
L3 1.8275000000000001 2.295 2.7625
L2 10.6 15.45 20.299999999999997
L3 93.0 116.0 139.0
L3 1.705 2.4299999999999997 3.155
L2 0.34 1.5250000000000001 2.71
L4 0.395 0.5275000000000001 0.66
L1 -0.37000000000000005 0.42 1.21
L2 1.28 4.21 7.140000000000001
L3 0.7875 1.095 1.4024999999999999
L2 1.27 1.9525000000000001 2.635
L2 278.0 628.5 979.0
Class 1 CertaintyDegree 1.0

L4 12.93 13.879999999999999 14.83
L2 0.74 2.005 3.2699999999999996
L3 1.8275000000000001 2.295 2.7625
L2 10.6 15.45 20.299999999999997
L2 70.0 93.0 116.0
L3 1.705 2.4299999999999997 3.155
L3 1.5250000000000001 2.71 3.895
L2 0.13 0.2625 0.395
L2 0.42 1.21 2.0
L2 1.28 4.21 7.140000000000001
L3 0.7875 1.095 1.4024999999999999
L3 1.9525000000000001 2.635 3.3175
L4 979.0 1329.5 1680.0
Class 0 CertaintyDegree 1.0

L4 12.93 13.879999999999999 14.83
L2 0.74 2.005 3.2699999999999996
L4 2.295 2.7625 3.23
L4 20.299999999999997 25.15 30.0
L2 70.0 93.0 116.0
L4 2.4299999999999997 3.155 3.88
L3 1.5250000000000001 2.71 3.895
L2 0.13 0.2625 0.395
L3 1.21 2.0 2.79
L2 1.28 4.21 7.140000000000001
L4 1.095 1.4024999999999999 1.71
L4 2.635 3.3175 4.0
L1 -72.5 278.0 628.5
Class 1 CertaintyDegree 1.0

L4 12.93 13.879999999999999 14.83
L2 0.74 2.005 3.2699999999999996
L4 2.295 2.7625 3.23
L4 20.299999999999997 25.15 30.0
L2 70.0 93.0 116.0
L4 2.4299999999999997 3.155 3.88
L3 1.5250000000000001 2.71 3.895
L2 0.13 0.2625 0.395
L3 1.21 2.0 2.79
L2 1.28 4.21 7.140000000000001
L4 1.095 1.4024999999999999 1.71
L4 2.635 3.3175 4.0
L1 -72.5 278.0 628.5
Class 1 CertaintyDegree 1.0

L3 11.98 12.93 13.879999999999999
L2 0.74 2.005 3.2699999999999996
L4 2.295 2.7625 3.23
L5 25.15 30.0 34.85
L4 116.0 139.0 162.0
L4 2.4299999999999997 3.155 3.88
L3 1.5250000000000001 2.71 3.895
L2 0.13 0.2625 0.395
L3 1.21 2.0 2.79
L2 1.28 4.21 7.140000000000001
L4 1.095 1.4024999999999999 1.71
L4 2.635 3.3175 4.0
L3 628.5 979.0 1329.5
Class 1 CertaintyDegree 1.0

L3 11.98 12.93 13.879999999999999
L2 0.74 2.005 3.2699999999999996
L4 2.295 2.7625 3.23
L5 25.15 30.0 34.85
L4 116.0 139.0 162.0
L4 2.4299999999999997 3.155 3.88
L3 1.5250000000000001 2.71 3.895
L2 0.13 0.2625 0.395
L3 1.21 2.0 2.79
L2 1.28 4.21 7.140000000000001
L4 1.095 1.4024999999999999 1.71
L4 2.635 3.3175 4.0
L3 628.5 979.0 1329.5
Class 1 CertaintyDegree 1.0

L3 11.98 12.93 13.879999999999999
L2 0.74 2.005 3.2699999999999996
L4 2.295 2.7625 3.23
L5 25.15 30.0 34.85
L4 116.0 139.0 162.0
L4 2.4299999999999997 3.155 3.88
L3 1.5250000000000001 2.71 3.895
L2 0.13 0.2625 0.395
L3 1.21 2.0 2.79
L2 1.28 4.21 7.140000000000001
L4 1.095 1.4024999999999999 1.71
L4 2.635 3.3175 4.0
L3 628.5 979.0 1329.5
Class 1 CertaintyDegree 1.0

L4 12.93 13.879999999999999 14.83
L2 0.74 2.005 3.2699999999999996
L3 1.8275000000000001 2.295 2.7625
L2 10.6 15.45 20.299999999999997
L2 70.0 93.0 116.0
L3 1.705 2.4299999999999997 3.155
L3 1.5250000000000001 2.71 3.895
L2 0.13 0.2625 0.395
L3 1.21 2.0 2.79
L2 1.28 4.21 7.140000000000001
L3 0.7875 1.095 1.4024999999999999
L5 3.3175 4.0 4.6825
L3 628.5 979.0 1329.5
Class 0 CertaintyDegree 1.0

L4 12.93 13.879999999999999 14.83
L2 0.74 2.005 3.2699999999999996
L3 1.8275000000000001 2.295 2.7625
L2 10.6 15.45 20.299999999999997
L2 70.0 93.0 116.0
L3 1.705 2.4299999999999997 3.155
L3 1.5250000000000001 2.71 3.895
L2 0.13 0.2625 0.395
L3 1.21 2.0 2.79
L2 1.28 4.21 7.140000000000001
L3 0.7875 1.095 1.4024999999999999
L5 3.3175 4.0 4.6825
L3 628.5 979.0 1329.5
Class 0 CertaintyDegree 1.0

L3 11.98 12.93 13.879999999999999
L3 2.005 3.2699999999999996 4.535
L3 1.8275000000000001 2.295 2.7625
L3 15.45 20.299999999999997 25.15
L3 93.0 116.0 139.0
L2 0.98 1.705 2.4299999999999997
L1 -0.845 0.34 1.5250000000000001
L3 0.2625 0.395 0.5275000000000001
L2 0.42 1.21 2.0
L2 1.28 4.21 7.140000000000001
L2 0.48 0.7875 1.095
L2 1.27 1.9525000000000001 2.635
L2 278.0 628.5 979.0
Class 2 CertaintyDegree 1.0

L3 11.98 12.93 13.879999999999999
L3 2.005 3.2699999999999996 4.535
L3 1.8275000000000001 2.295 2.7625
L3 15.45 20.299999999999997 25.15
L3 93.0 116.0 139.0
L2 0.98 1.705 2.4299999999999997
L1 -0.845 0.34 1.5250000000000001
L3 0.2625 0.395 0.5275000000000001
L2 0.42 1.21 2.0
L2 1.28 4.21 7.140000000000001
L2 0.48 0.7875 1.095
L2 1.27 1.9525000000000001 2.635
L2 278.0 628.5 979.0
Class 2 CertaintyDegree 1.0

L4 12.93 13.879999999999999 14.83
L4 3.2699999999999996 4.535 5.8
L3 1.8275000000000001 2.295 2.7625
L3 15.45 20.299999999999997 25.15
L2 70.0 93.0 116.0
L1 0.255 0.98 1.705
L1 -0.845 0.34 1.5250000000000001
L4 0.395 0.5275000000000001 0.66
L2 0.42 1.21 2.0
L3 4.21 7.140000000000001 10.07
L2 0.48 0.7875 1.095
L2 1.27 1.9525000000000001 2.635
L2 278.0 628.5 979.0
Class 2 CertaintyDegree 1.0

L2 11.03 11.98 12.93
L1 -0.5249999999999999 0.74 2.005
L1 0.8925000000000001 1.36 1.8275000000000001
L1 5.75 10.6 15.45
L2 70.0 93.0 116.0
L2 0.98 1.705 2.4299999999999997
L1 -0.845 0.34 1.5250000000000001
L2 0.13 0.2625 0.395
L1 -0.37000000000000005 0.42 1.21
L1 -1.6500000000000001 1.28 4.21
L3 0.7875 1.095 1.4024999999999999
L2 1.27 1.9525000000000001 2.635
L2 278.0 628.5 979.0
Class 1 CertaintyDegree 1.0

L2 11.03 11.98 12.93
L1 -0.5249999999999999 0.74 2.005
L1 0.8925000000000001 1.36 1.8275000000000001
L1 5.75 10.6 15.45
L2 70.0 93.0 116.0
L2 0.98 1.705 2.4299999999999997
L1 -0.845 0.34 1.5250000000000001
L2 0.13 0.2625 0.395
L1 -0.37000000000000005 0.42 1.21
L1 -1.6500000000000001 1.28 4.21
L3 0.7875 1.095 1.4024999999999999
L2 1.27 1.9525000000000001 2.635
L2 278.0 628.5 979.0
Class 1 CertaintyDegree 1.0

L2 11.03 11.98 12.93
L1 -0.5249999999999999 0.74 2.005
L1 0.8925000000000001 1.36 1.8275000000000001
L1 5.75 10.6 15.45
L2 70.0 93.0 116.0
L2 0.98 1.705 2.4299999999999997
L1 -0.845 0.34 1.5250000000000001
L2 0.13 0.2625 0.395
L1 -0.37000000000000005 0.42 1.21
L1 -1.6500000000000001 1.28 4.21
L3 0.7875 1.095 1.4024999999999999
L2 1.27 1.9525000000000001 2.635
L2 278.0 628.5 979.0
Class 1 CertaintyDegree 1.0

L2 11.03 11.98 12.93
L1 -0.5249999999999999 0.74 2.005
L3 1.8275000000000001 2.295 2.7625
L3 15.45 20.299999999999997 25.15
L2 70.0 93.0 116.0
L5 3.155 3.88 4.605
L4 2.71 3.895 5.08
L2 0.13 0.2625 0.395
L3 1.21 2.0 2.79
L2 1.28 4.21 7.140000000000001
L3 0.7875 1.095 1.4024999999999999
L3 1.9525000000000001 2.635 3.3175
L2 278.0 628.5 979.0
Class 1 CertaintyDegree 1.0

L3 11.98 12.93 13.879999999999999
L1 -0.5249999999999999 0.74 2.005
L2 1.36 1.8275000000000001 2.295
L2 10.6 15.45 20.299999999999997
L1 47.0 70.0 93.0
L4 2.4299999999999997 3.155 3.88
L3 1.5250000000000001 2.71 3.895
L2 0.13 0.2625 0.395
L3 1.21 2.0 2.79
L2 1.28 4.21 7.140000000000001
L3 0.7875 1.095 1.4024999999999999
L4 2.635 3.3175 4.0
L2 278.0 628.5 979.0
Class 1 CertaintyDegree 1.0

L3 11.98 12.93 13.879999999999999
L1 -0.5249999999999999 0.74 2.005
L2 1.36 1.8275000000000001 2.295
L2 10.6 15.45 20.299999999999997
L1 47.0 70.0 93.0
L4 2.4299999999999997 3.155 3.88
L3 1.5250000000000001 2.71 3.895
L2 0.13 0.2625 0.395
L3 1.21 2.0 2.79
L2 1.28 4.21 7.140000000000001
L3 0.7875 1.095 1.4024999999999999
L4 2.635 3.3175 4.0
L2 278.0 628.5 979.0
Class 1 CertaintyDegree 1.0

L4 12.93 13.879999999999999 14.83
L4 3.2699999999999996 4.535 5.8
L3 1.8275000000000001 2.295 2.7625
L3 15.45 20.299999999999997 25.15
L2 70.0 93.0 116.0
L2 0.98 1.705 2.4299999999999997
L1 -0.845 0.34 1.5250000000000001
L4 0.395 0.5275000000000001 0.66
L2 0.42 1.21 2.0
L2 1.28 4.21 7.140000000000001
L2 0.48 0.7875 1.095
L2 1.27 1.9525000000000001 2.635
L2 278.0 628.5 979.0
Class 2 CertaintyDegree 1.0

L4 12.93 13.879999999999999 14.83
L4 3.2699999999999996 4.535 5.8
L3 1.8275000000000001 2.295 2.7625
L3 15.45 20.299999999999997 25.15
L2 70.0 93.0 116.0
L2 0.98 1.705 2.4299999999999997
L1 -0.845 0.34 1.5250000000000001
L4 0.395 0.5275000000000001 0.66
L2 0.42 1.21 2.0
L2 1.28 4.21 7.140000000000001
L2 0.48 0.7875 1.095
L2 1.27 1.9525000000000001 2.635
L2 278.0 628.5 979.0
Class 2 CertaintyDegree 1.0

L3 11.98 12.93 13.879999999999999
L5 4.535 5.8 7.0649999999999995
L4 2.295 2.7625 3.23
L4 20.299999999999997 25.15 30.0
L2 70.0 93.0 116.0
L2 0.98 1.705 2.4299999999999997
L1 -0.845 0.34 1.5250000000000001
L5 0.5275000000000001 0.66 0.7925000000000001
L2 0.42 1.21 2.0
L2 1.28 4.21 7.140000000000001
L2 0.48 0.7875 1.095
L2 1.27 1.9525000000000001 2.635
L2 278.0 628.5 979.0
Class 2 CertaintyDegree 1.0

L3 11.98 12.93 13.879999999999999
L3 2.005 3.2699999999999996 4.535
L3 1.8275000000000001 2.295 2.7625
L3 15.45 20.299999999999997 25.15
L3 93.0 116.0 139.0
L2 0.98 1.705 2.4299999999999997
L1 -0.845 0.34 1.5250000000000001
L3 0.2625 0.395 0.5275000000000001
L2 0.42 1.21 2.0
L2 1.28 4.21 7.140000000000001
L2 0.48 0.7875 1.095
L2 1.27 1.9525000000000001 2.635
L2 278.0 628.5 979.0
Class 2 CertaintyDegree 1.0

L3 11.98 12.93 13.879999999999999
L2 0.74 2.005 3.2699999999999996
L5 2.7625 3.23 3.6975
L4 20.299999999999997 25.15 30.0
L3 93.0 116.0 139.0
L3 1.705 2.4299999999999997 3.155
L3 1.5250000000000001 2.71 3.895
L4 0.395 0.5275000000000001 0.66
L3 1.21 2.0 2.79
L2 1.28 4.21 7.140000000000001
L3 0.7875 1.095 1.4024999999999999
L4 2.635 3.3175 4.0
L3 628.5 979.0 1329.5
Class 0 CertaintyDegree 1.0

L3 11.98 12.93 13.879999999999999
L2 0.74 2.005 3.2699999999999996
L5 2.7625 3.23 3.6975
L4 20.299999999999997 25.15 30.0
L3 93.0 116.0 139.0
L3 1.705 2.4299999999999997 3.155
L3 1.5250000000000001 2.71 3.895
L4 0.395 0.5275000000000001 0.66
L3 1.21 2.0 2.79
L2 1.28 4.21 7.140000000000001
L3 0.7875 1.095 1.4024999999999999
L4 2.635 3.3175 4.0
L3 628.5 979.0 1329.5
Class 0 CertaintyDegree 1.0

L2 11.03 11.98 12.93
L2 0.74 2.005 3.2699999999999996
L3 1.8275000000000001 2.295 2.7625
L3 15.45 20.299999999999997 25.15
L2 70.0 93.0 116.0
L1 0.255 0.98 1.705
L2 0.34 1.5250000000000001 2.71
L3 0.2625 0.395 0.5275000000000001
L2 0.42 1.21 2.0
L2 1.28 4.21 7.140000000000001
L2 0.48 0.7875 1.095
L2 1.27 1.9525000000000001 2.635
L3 628.5 979.0 1329.5
Class 1 CertaintyDegree 1.0

L4 12.93 13.879999999999999 14.83
L4 3.2699999999999996 4.535 5.8
L3 1.8275000000000001 2.295 2.7625
L3 15.45 20.299999999999997 25.15
L1 47.0 70.0 93.0
L1 0.255 0.98 1.705
L1 -0.845 0.34 1.5250000000000001
L3 0.2625 0.395 0.5275000000000001
L1 -0.37000000000000005 0.42 1.21
L2 1.28 4.21 7.140000000000001
L1 0.1725 0.48 0.7875
L1 0.5875 1.27 1.9525000000000001
L1 -72.5 278.0 628.5
Class 2 CertaintyDegree 1.0

L4 12.93 13.879999999999999 14.83
L4 3.2699999999999996 4.535 5.8
L3 1.8275000000000001 2.295 2.7625
L3 15.45 20.299999999999997 25.15
L1 47.0 70.0 93.0
L1 0.255 0.98 1.705
L1 -0.845 0.34 1.5250000000000001
L3 0.2625 0.395 0.5275000000000001
L1 -0.37000000000000005 0.42 1.21
L2 1.28 4.21 7.140000000000001
L1 0.1725 0.48 0.7875
L1 0.5875 1.27 1.9525000000000001
L1 -72.5 278.0 628.5
Class 2 CertaintyDegree 1.0

L4 12.93 13.879999999999999 14.83
L2 0.74 2.005 3.2699999999999996
L4 2.295 2.7625 3.23
L3 15.45 20.299999999999997 25.15
L2 70.0 93.0 116.0
L3 1.705 2.4299999999999997 3.155
L2 0.34 1.5250000000000001 2.71
L4 0.395 0.5275000000000001 0.66
L3 1.21 2.0 2.79
L5 10.07 13.0 15.93
L1 0.1725 0.48 0.7875
L2 1.27 1.9525000000000001 2.635
L2 278.0 628.5 979.0
Class 2 CertaintyDegree 1.0

L4 12.93 13.879999999999999 14.83
L2 0.74 2.005 3.2699999999999996
L4 2.295 2.7625 3.23
L3 15.45 20.299999999999997 25.15
L2 70.0 93.0 116.0
L3 1.705 2.4299999999999997 3.155
L2 0.34 1.5250000000000001 2.71
L4 0.395 0.5275000000000001 0.66
L3 1.21 2.0 2.79
L5 10.07 13.0 15.93
L1 0.1725 0.48 0.7875
L2 1.27 1.9525000000000001 2.635
L2 278.0 628.5 979.0
Class 2 CertaintyDegree 1.0

L2 11.03 11.98 12.93
L2 0.74 2.005 3.2699999999999996
L2 1.36 1.8275000000000001 2.295
L2 10.6 15.45 20.299999999999997
L2 70.0 93.0 116.0
L2 0.98 1.705 2.4299999999999997
L2 0.34 1.5250000000000001 2.71
L3 0.2625 0.395 0.5275000000000001
L2 0.42 1.21 2.0
L2 1.28 4.21 7.140000000000001
L3 0.7875 1.095 1.4024999999999999
L2 1.27 1.9525000000000001 2.635
L1 -72.5 278.0 628.5
Class 1 CertaintyDegree 1.0

L3 11.98 12.93 13.879999999999999
L2 0.74 2.005 3.2699999999999996
L4 2.295 2.7625 3.23
L4 20.299999999999997 25.15 30.0
L3 93.0 116.0 139.0
L3 1.705 2.4299999999999997 3.155
L2 0.34 1.5250000000000001 2.71
L2 0.13 0.2625 0.395
L2 0.42 1.21 2.0
L3 4.21 7.140000000000001 10.07
L1 0.1725 0.48 0.7875
L1 0.5875 1.27 1.9525000000000001
L1 -72.5 278.0 628.5
Class 2 CertaintyDegree 1.0

L3 11.98 12.93 13.879999999999999
L2 0.74 2.005 3.2699999999999996
L4 2.295 2.7625 3.23
L4 20.299999999999997 25.15 30.0
L3 93.0 116.0 139.0
L3 1.705 2.4299999999999997 3.155
L2 0.34 1.5250000000000001 2.71
L2 0.13 0.2625 0.395
L2 0.42 1.21 2.0
L3 4.21 7.140000000000001 10.07
L1 0.1725 0.48 0.7875
L1 0.5875 1.27 1.9525000000000001
L1 -72.5 278.0 628.5
Class 2 CertaintyDegree 1.0

L3 11.98 12.93 13.879999999999999
L2 0.74 2.005 3.2699999999999996
L4 2.295 2.7625 3.23
L4 20.299999999999997 25.15 30.0
L3 93.0 116.0 139.0
L3 1.705 2.4299999999999997 3.155
L2 0.34 1.5250000000000001 2.71
L2 0.13 0.2625 0.395
L2 0.42 1.21 2.0
L3 4.21 7.140000000000001 10.07
L1 0.1725 0.48 0.7875
L1 0.5875 1.27 1.9525000000000001
L1 -72.5 278.0 628.5
Class 2 CertaintyDegree 1.0

L4 12.93 13.879999999999999 14.83
L2 0.74 2.005 3.2699999999999996
L3 1.8275000000000001 2.295 2.7625
L4 20.299999999999997 25.15 30.0
L2 70.0 93.0 116.0
L2 0.98 1.705 2.4299999999999997
L2 0.34 1.5250000000000001 2.71
L2 0.13 0.2625 0.395
L2 0.42 1.21 2.0
L2 1.28 4.21 7.140000000000001
L3 0.7875 1.095 1.4024999999999999
L3 1.9525000000000001 2.635 3.3175
L2 278.0 628.5 979.0
Class 1 CertaintyDegree 1.0

L4 12.93 13.879999999999999 14.83
L2 0.74 2.005 3.2699999999999996
L3 1.8275000000000001 2.295 2.7625
L4 20.299999999999997 25.15 30.0
L2 70.0 93.0 116.0
L2 0.98 1.705 2.4299999999999997
L2 0.34 1.5250000000000001 2.71
L2 0.13 0.2625 0.395
L2 0.42 1.21 2.0
L2 1.28 4.21 7.140000000000001
L3 0.7875 1.095 1.4024999999999999
L3 1.9525000000000001 2.635 3.3175
L2 278.0 628.5 979.0
Class 1 CertaintyDegree 1.0

L3 11.98 12.93 13.879999999999999
L3 2.005 3.2699999999999996 4.535
L4 2.295 2.7625 3.23
L3 15.45 20.299999999999997 25.15
L3 93.0 116.0 139.0
L2 0.98 1.705 2.4299999999999997
L1 -0.845 0.34 1.5250000000000001
L5 0.5275000000000001 0.66 0.7925000000000001
L2 0.42 1.21 2.0
L2 1.28 4.21 7.140000000000001
L2 0.48 0.7875 1.095
L2 1.27 1.9525000000000001 2.635
L2 278.0 628.5 979.0
Class 2 CertaintyDegree 1.0

L3 11.98 12.93 13.879999999999999
L3 2.005 3.2699999999999996 4.535
L4 2.295 2.7625 3.23
L3 15.45 20.299999999999997 25.15
L3 93.0 116.0 139.0
L2 0.98 1.705 2.4299999999999997
L1 -0.845 0.34 1.5250000000000001
L5 0.5275000000000001 0.66 0.7925000000000001
L2 0.42 1.21 2.0
L2 1.28 4.21 7.140000000000001
L2 0.48 0.7875 1.095
L2 1.27 1.9525000000000001 2.635
L2 278.0 628.5 979.0
Class 2 CertaintyDegree 1.0

L2 11.03 11.98 12.93
L2 0.74 2.005 3.2699999999999996
L4 2.295 2.7625 3.23
L4 20.299999999999997 25.15 30.0
L2 70.0 93.0 116.0
L2 0.98 1.705 2.4299999999999997
L2 0.34 1.5250000000000001 2.71
L3 0.2625 0.395 0.5275000000000001
L2 0.42 1.21 2.0
L1 -1.6500000000000001 1.28 4.21
L4 1.095 1.4024999999999999 1.71
L4 2.635 3.3175 4.0
L2 278.0 628.5 979.0
Class 1 CertaintyDegree 1.0

L3 11.98 12.93 13.879999999999999
L5 4.535 5.8 7.0649999999999995
L3 1.8275000000000001 2.295 2.7625
L3 15.45 20.299999999999997 25.15
L2 70.0 93.0 116.0
L3 1.705 2.4299999999999997 3.155
L3 1.5250000000000001 2.71 3.895
L2 0.13 0.2625 0.395
L3 1.21 2.0 2.79
L1 -1.6500000000000001 1.28 4.21
L2 0.48 0.7875 1.095
L4 2.635 3.3175 4.0
L1 -72.5 278.0 628.5
Class 1 CertaintyDegree 1.0

L3 11.98 12.93 13.879999999999999
L2 0.74 2.005 3.2699999999999996
L3 1.8275000000000001 2.295 2.7625
L3 15.45 20.299999999999997 25.15
L1 47.0 70.0 93.0
L2 0.98 1.705 2.4299999999999997
L2 0.34 1.5250000000000001 2.71
L4 0.395 0.5275000000000001 0.66
L3 1.21 2.0 2.79
L2 1.28 4.21 7.140000000000001
L3 0.7875 1.095 1.4024999999999999
L2 1.27 1.9525000000000001 2.635
L2 278.0 628.5 979.0
Class 1 CertaintyDegree 1.0

L1 10.079999999999998 11.03 11.98
L3 2.005 3.2699999999999996 4.535
L2 1.36 1.8275000000000001 2.295
L3 15.45 20.299999999999997 25.15
L3 93.0 116.0 139.0
L4 2.4299999999999997 3.155 3.88
L3 1.5250000000000001 2.71 3.895
L2 0.13 0.2625 0.395
L5 2.79 3.58 4.37
L2 1.28 4.21 7.140000000000001
L2 0.48 0.7875 1.095
L3 1.9525000000000001 2.635 3.3175
L2 278.0 628.5 979.0
Class 1 CertaintyDegree 1.0

L1 10.079999999999998 11.03 11.98
L3 2.005 3.2699999999999996 4.535
L2 1.36 1.8275000000000001 2.295
L3 15.45 20.299999999999997 25.15
L3 93.0 116.0 139.0
L4 2.4299999999999997 3.155 3.88
L3 1.5250000000000001 2.71 3.895
L2 0.13 0.2625 0.395
L5 2.79 3.58 4.37
L2 1.28 4.21 7.140000000000001
L2 0.48 0.7875 1.095
L3 1.9525000000000001 2.635 3.3175
L2 278.0 628.5 979.0
Class 1 CertaintyDegree 1.0

L1 10.079999999999998 11.03 11.98
L3 2.005 3.2699999999999996 4.535
L2 1.36 1.8275000000000001 2.295
L3 15.45 20.299999999999997 25.15
L3 93.0 116.0 139.0
L4 2.4299999999999997 3.155 3.88
L3 1.5250000000000001 2.71 3.895
L2 0.13 0.2625 0.395
L5 2.79 3.58 4.37
L2 1.28 4.21 7.140000000000001
L2 0.48 0.7875 1.095
L3 1.9525000000000001 2.635 3.3175
L2 278.0 628.5 979.0
Class 1 CertaintyDegree 1.0

L3 11.98 12.93 13.879999999999999
L3 2.005 3.2699999999999996 4.535
L3 1.8275000000000001 2.295 2.7625
L4 20.299999999999997 25.15 30.0
L2 70.0 93.0 116.0
L4 2.4299999999999997 3.155 3.88
L3 1.5250000000000001 2.71 3.895
L3 0.2625 0.395 0.5275000000000001
L3 1.21 2.0 2.79
L1 -1.6500000000000001 1.28 4.21
L3 0.7875 1.095 1.4024999999999999
L4 2.635 3.3175 4.0
L2 278.0 628.5 979.0
Class 1 CertaintyDegree 1.0

L1 10.079999999999998 11.03 11.98
L2 0.74 2.005 3.2699999999999996
L3 1.8275000000000001 2.295 2.7625
L3 15.45 20.299999999999997 25.15
L2 70.0 93.0 116.0
L3 1.705 2.4299999999999997 3.155
L3 1.5250000000000001 2.71 3.895
L4 0.395 0.5275000000000001 0.66
L3 1.21 2.0 2.79
L1 -1.6500000000000001 1.28 4.21
L5 1.4024999999999999 1.71 2.0175
L3 1.9525000000000001 2.635 3.3175
L1 -72.5 278.0 628.5
Class 1 CertaintyDegree 1.0

L1 10.079999999999998 11.03 11.98
L2 0.74 2.005 3.2699999999999996
L3 1.8275000000000001 2.295 2.7625
L3 15.45 20.299999999999997 25.15
L2 70.0 93.0 116.0
L3 1.705 2.4299999999999997 3.155
L3 1.5250000000000001 2.71 3.895
L4 0.395 0.5275000000000001 0.66
L3 1.21 2.0 2.79
L1 -1.6500000000000001 1.28 4.21
L5 1.4024999999999999 1.71 2.0175
L3 1.9525000000000001 2.635 3.3175
L1 -72.5 278.0 628.5
Class 1 CertaintyDegree 1.0

L2 11.03 11.98 12.93
L2 0.74 2.005 3.2699999999999996
L3 1.8275000000000001 2.295 2.7625
L3 15.45 20.299999999999997 25.15
L2 70.0 93.0 116.0
L4 2.4299999999999997 3.155 3.88
L3 1.5250000000000001 2.71 3.895
L1 -0.0025000000000000022 0.13 0.2625
L2 0.42 1.21 2.0
L2 1.28 4.21 7.140000000000001
L3 0.7875 1.095 1.4024999999999999
L3 1.9525000000000001 2.635 3.3175
L1 -72.5 278.0 628.5
Class 1 CertaintyDegree 1.0

L3 11.98 12.93 13.879999999999999
L3 2.005 3.2699999999999996 4.535
L3 1.8275000000000001 2.295 2.7625
L3 15.45 20.299999999999997 25.15
L2 70.0 93.0 116.0
L1 0.255 0.98 1.705
L2 0.34 1.5250000000000001 2.71
L2 0.13 0.2625 0.395
L2 0.42 1.21 2.0
L2 1.28 4.21 7.140000000000001
L2 0.48 0.7875 1.095
L1 0.5875 1.27 1.9525000000000001
L2 278.0 628.5 979.0
Class 2 CertaintyDegree 1.0

L3 11.98 12.93 13.879999999999999
L3 2.005 3.2699999999999996 4.535
L3 1.8275000000000001 2.295 2.7625
L3 15.45 20.299999999999997 25.15
L2 70.0 93.0 116.0
L1 0.255 0.98 1.705
L2 0.34 1.5250000000000001 2.71
L2 0.13 0.2625 0.395
L2 0.42 1.21 2.0
L2 1.28 4.21 7.140000000000001
L2 0.48 0.7875 1.095
L1 0.5875 1.27 1.9525000000000001
L2 278.0 628.5 979.0
Class 2 CertaintyDegree 1.0

L2 11.03 11.98 12.93
L3 2.005 3.2699999999999996 4.535
L2 1.36 1.8275000000000001 2.295
L3 15.45 20.299999999999997 25.15
L2 70.0 93.0 116.0
L2 0.98 1.705 2.4299999999999997
L2 0.34 1.5250000000000001 2.71
L3 0.2625 0.395 0.5275000000000001
L3 1.21 2.0 2.79
L1 -1.6500000000000001 1.28 4.21
L2 0.48 0.7875 1.095
L4 2.635 3.3175 4.0
L2 278.0 628.5 979.0
Class 1 CertaintyDegree 1.0

L2 11.03 11.98 12.93
L4 3.2699999999999996 4.535 5.8
L3 1.8275000000000001 2.295 2.7625
L3 15.45 20.299999999999997 25.15
L1 47.0 70.0 93.0
L3 1.705 2.4299999999999997 3.155
L2 0.34 1.5250000000000001 2.71
L3 0.2625 0.395 0.5275000000000001
L2 0.42 1.21 2.0
L1 -1.6500000000000001 1.28 4.21
L2 0.48 0.7875 1.095
L3 1.9525000000000001 2.635 3.3175
L2 278.0 628.5 979.0
Class 1 CertaintyDegree 1.0

L2 11.03 11.98 12.93
L4 3.2699999999999996 4.535 5.8
L3 1.8275000000000001 2.295 2.7625
L3 15.45 20.299999999999997 25.15
L1 47.0 70.0 93.0
L3 1.705 2.4299999999999997 3.155
L2 0.34 1.5250000000000001 2.71
L3 0.2625 0.395 0.5275000000000001
L2 0.42 1.21 2.0
L1 -1.6500000000000001 1.28 4.21
L2 0.48 0.7875 1.095
L3 1.9525000000000001 2.635 3.3175
L2 278.0 628.5 979.0
Class 1 CertaintyDegree 1.0

L2 11.03 11.98 12.93
L3 2.005 3.2699999999999996 4.535
L3 1.8275000000000001 2.295 2.7625
L3 15.45 20.299999999999997 25.15
L2 70.0 93.0 116.0
L3 1.705 2.4299999999999997 3.155
L3 1.5250000000000001 2.71 3.895
L2 0.13 0.2625 0.395
L3 1.21 2.0 2.79
L1 -1.6500000000000001 1.28 4.21
L3 0.7875 1.095 1.4024999999999999
L4 2.635 3.3175 4.0
L1 -72.5 278.0 628.5
Class 1 CertaintyDegree 1.0

L3 11.98 12.93 13.879999999999999
L1 -0.5249999999999999 0.74 2.005
L2 1.36 1.8275000000000001 2.295
L2 10.6 15.45 20.299999999999997
L1 47.0 70.0 93.0
L4 2.4299999999999997 3.155 3.88
L3 1.5250000000000001 2.71 3.895
L2 0.13 0.2625 0.395
L3 1.21 2.0 2.79
L2 1.28 4.21 7.140000000000001
L3 0.7875 1.095 1.4024999999999999
L4 2.635 3.3175 4.0
L2 278.0 628.5 979.0
Class 1 CertaintyDegree 1.0

L2 11.03 11.98 12.93
L2 0.74 2.005 3.2699999999999996
L5 2.7625 3.23 3.6975
L5 25.15 30.0 34.85
L3 93.0 116.0 139.0
L4 2.4299999999999997 3.155 3.88
L5 3.895 5.08 6.265000000000001
L4 0.395 0.5275000000000001 0.66
L3 1.21 2.0 2.79
L3 4.21 7.140000000000001 10.07
L2 0.48 0.7875 1.095
L5 3.3175 4.0 4.6825
L2 278.0 628.5 979.0
Class 1 CertaintyDegree 1.0

L2 11.03 11.98 12.93
L2 0.74 2.005 3.2699999999999996
L5 2.7625 3.23 3.6975
L5 25.15 30.0 34.85
L3 93.0 116.0 139.0
L4 2.4299999999999997 3.155 3.88
L5 3.895 5.08 6.265000000000001
L4 0.395 0.5275000000000001 0.66
L3 1.21 2.0 2.79
L3 4.21 7.140000000000001 10.07
L2 0.48 0.7875 1.095
L5 3.3175 4.0 4.6825
L2 278.0 628.5 979.0
Class 1 CertaintyDegree 1.0

L4 12.93 13.879999999999999 14.83
L2 0.74 2.005 3.2699999999999996
L3 1.8275000000000001 2.295 2.7625
L2 10.6 15.45 20.299999999999997
L3 93.0 116.0 139.0
L4 2.4299999999999997 3.155 3.88
L4 2.71 3.895 5.08
L2 0.13 0.2625 0.395
L3 1.21 2.0 2.79
L4 7.140000000000001 10.07 13.0
L3 0.7875 1.095 1.4024999999999999
L3 1.9525000000000001 2.635 3.3175
L5 1329.5 1680.0 2030.5
Class 0 CertaintyDegree 1.0

L4 12.93 13.879999999999999 14.83
L2 0.74 2.005 3.2699999999999996
L3 1.8275000000000001 2.295 2.7625
L2 10.6 15.45 20.299999999999997
L3 93.0 116.0 139.0
L4 2.4299999999999997 3.155 3.88
L4 2.71 3.895 5.08
L2 0.13 0.2625 0.395
L3 1.21 2.0 2.79
L4 7.140000000000001 10.07 13.0
L3 0.7875 1.095 1.4024999999999999
L3 1.9525000000000001 2.635 3.3175
L5 1329.5 1680.0 2030.5
Class 0 CertaintyDegree 1.0

L3 11.98 12.93 13.879999999999999
L3 2.005 3.2699999999999996 4.535
L3 1.8275000000000001 2.295 2.7625
L3 15.45 20.299999999999997 25.15
L3 93.0 116.0 139.0
L2 0.98 1.705 2.4299999999999997
L2 0.34 1.5250000000000001 2.71
L1 -0.0025000000000000022 0.13 0.2625
L2 0.42 1.21 2.0
L2 1.28 4.21 7.140000000000001
L2 0.48 0.7875 1.095
L1 0.5875 1.27 1.9525000000000001
L2 278.0 628.5 979.0
Class 2 CertaintyDegree 1.0

L3 11.98 12.93 13.879999999999999
L3 2.005 3.2699999999999996 4.535
L3 1.8275000000000001 2.295 2.7625
L3 15.45 20.299999999999997 25.15
L3 93.0 116.0 139.0
L2 0.98 1.705 2.4299999999999997
L2 0.34 1.5250000000000001 2.71
L1 -0.0025000000000000022 0.13 0.2625
L2 0.42 1.21 2.0
L2 1.28 4.21 7.140000000000001
L2 0.48 0.7875 1.095
L1 0.5875 1.27 1.9525000000000001
L2 278.0 628.5 979.0
Class 2 CertaintyDegree 1.0

L3 11.98 12.93 13.879999999999999
L2 0.74 2.005 3.2699999999999996
L3 1.8275000000000001 2.295 2.7625
L3 15.45 20.299999999999997 25.15
L3 93.0 116.0 139.0
L2 0.98 1.705 2.4299999999999997
L1 -0.845 0.34 1.5250000000000001
L4 0.395 0.5275000000000001 0.66
L2 0.42 1.21 2.0
L4 7.140000000000001 10.07 13.0
L1 0.1725 0.48 0.7875
L2 1.27 1.9525000000000001 2.635
L3 628.5 979.0 1329.5
Class 2 CertaintyDegree 1.0

L2 11.03 11.98 12.93
L2 0.74 2.005 3.2699999999999996
L4 2.295 2.7625 3.23
L3 15.45 20.299999999999997 25.15
L4 116.0 139.0 162.0
L2 0.98 1.705 2.4299999999999997
L2 0.34 1.5250000000000001 2.71
L1 -0.0025000000000000022 0.13 0.2625
L2 0.42 1.21 2.0
L1 -1.6500000000000001 1.28 4.21
L3 0.7875 1.095 1.4024999999999999
L2 1.27 1.9525000000000001 2.635
L2 278.0 628.5 979.0
Class 1 CertaintyDegree 1.0

L2 11.03 11.98 12.93
L2 0.74 2.005 3.2699999999999996
L4 2.295 2.7625 3.23
L3 15.45 20.299999999999997 25.15
L4 116.0 139.0 162.0
L2 0.98 1.705 2.4299999999999997
L2 0.34 1.5250000000000001 2.71
L1 -0.0025000000000000022 0.13 0.2625
L2 0.42 1.21 2.0
L1 -1.6500000000000001 1.28 4.21
L3 0.7875 1.095 1.4024999999999999
L2 1.27 1.9525000000000001 2.635
L2 278.0 628.5 979.0
Class 1 CertaintyDegree 1.0




Minimum of C_R: 0.0 Minimum covering degree: 0.0
Average covering degree: 0.5585256729693492 %Tra: 71.25 %Tst: 50.0
