Initial Data Base: 

  Variable 1:
    Label 1: (6.45E7,8.0E7,9.55E7)
    Label 2: (8.0E7,9.55E7,1.11E8)
    Label 3: (9.55E7,1.11E8,1.265E8)
    Label 4: (1.11E8,1.265E8,1.42E8)
    Label 5: (1.265E8,1.42E8,1.575E8)

  Variable 2:
    Label 1: (-752500.0,90000.0,932500.0)
    Label 2: (90000.0,932500.0,1775000.0)
    Label 3: (932500.0,1775000.0,2617500.0)
    Label 4: (1775000.0,2617500.0,3460000.0)
    Label 5: (2617500.0,3460000.0,4302500.0)

  Variable 3:
    Label 1: (-4150000.0,0.0,4150000.0)
    Label 2: (0.0,4150000.0,8300000.0)
    Label 3: (4150000.0,8300000.0,1.245E7)
    Label 4: (8300000.0,1.245E7,1.66E7)
    Label 5: (1.245E7,1.66E7,2.075E7)

  Variable 4:
    Label 1: (9737500.0,9870000.0,1.00025E7)
    Label 2: (9870000.0,1.00025E7,1.0135E7)
    Label 3: (1.00025E7,1.0135E7,1.02675E7)
    Label 4: (1.0135E7,1.02675E7,1.04E7)
    Label 5: (1.02675E7,1.04E7,1.05325E7)

  Variable 5:
    Label 1: (1.2E7,3.8E7,6.4E7)
    Label 2: (3.8E7,6.4E7,9.0E7)
    Label 3: (6.4E7,9.0E7,1.16E8)
    Label 4: (9.0E7,1.16E8,1.42E8)
    Label 5: (1.16E8,1.42E8,1.68E8)

  Variable 6:
    Label 1: (-6.975E8,2.0E7,7.375E8)
    Label 2: (2.0E7,7.375E8,1.455E9)
    Label 3: (7.375E8,1.455E9,2.1725E9)
    Label 4: (1.455E9,2.1725E9,2.89E9)
    Label 5: (2.1725E9,2.89E9,3.6075E9)

  Variable 7:
    Label 1: (-1.57E8,6000000.0,1.69E8)
    Label 2: (6000000.0,1.69E8,3.32E8)
    Label 3: (1.69E8,3.32E8,4.95E8)
    Label 4: (3.32E8,4.95E8,6.58E8)
    Label 5: (4.95E8,6.58E8,8.21E8)

  Variable 8:
    Label 1: (50000.0,2200000.0,4350000.0)
    Label 2: (2200000.0,4350000.0,6500000.0)
    Label 3: (4350000.0,6500000.0,8650000.0)
    Label 4: (6500000.0,8650000.0,1.08E7)
    Label 5: (8650000.0,1.08E7,1.295E7)

  Variable 9:
    Label 1: (-9.875E8,9.0E7,1.1675E9)
    Label 2: (9.0E7,1.1675E9,2.245E9)
    Label 3: (1.1675E9,2.245E9,3.3225E9)
    Label 4: (2.245E9,3.3225E9,4.4E9)
    Label 5: (3.3225E9,4.4E9,5.4775E9)

  Variable 10:
    Label 1: (-1750000.0,800000.0,3350000.0)
    Label 2: (800000.0,3350000.0,5900000.0)
    Label 3: (3350000.0,5900000.0,8450000.0)
    Label 4: (5900000.0,8450000.0,1.1E7)
    Label 5: (8450000.0,1.1E7,1.355E7)

  Variable 11:
    Label 1: (2.445E7,2.72E7,2.995E7)
    Label 2: (2.72E7,2.995E7,3.27E7)
    Label 3: (2.995E7,3.27E7,3.545E7)
    Label 4: (3.27E7,3.545E7,3.82E7)
    Label 5: (3.545E7,3.82E7,4.095E7)

  Variable 12:
    Label 1: (1.5E7,3.0E7,4.5E7)
    Label 2: (3.0E7,4.5E7,6.0E7)
    Label 3: (4.5E7,6.0E7,7.5E7)
    Label 4: (6.0E7,7.5E7,9.0E7)
    Label 5: (7.5E7,9.0E7,1.05E8)


