==========================================================
  Architecture is 500 500 500 // 3 layer x 500 neuron
----------------------------------------------------------
Execution 227/270
----------------------------------------------------------
* ReducedData	10000
* PreTrainRBM	true
	-> Epochs	100
	-> LearningRate	0.20
* Fine-tunning
	-> Epochs	200
	-> LearningRate	0.10
==========================================================
Start Training
Number of training examples: 10000  BatchSize: 100
Number of inputs: 784  Number of outputs: 10
Number of hidden layers: 3 (500  500  500)
Training binary-binary RBM in layer 1 (784  500) with CD1 for 100 epochs
 epoch 1/100. Took 1.0732 seconds. Average reconstruction error is: 27.6549
 epoch 2/100. Took 1.0908 seconds. Average reconstruction error is: 16.2062
 epoch 3/100. Took 1.0784 seconds. Average reconstruction error is: 13.92
 epoch 4/100. Took 1.0794 seconds. Average reconstruction error is: 12.6332
 epoch 5/100. Took 1.0681 seconds. Average reconstruction error is: 11.7058
 epoch 6/100. Took 1.079 seconds. Average reconstruction error is: 11.0682
 epoch 7/100. Took 1.0698 seconds. Average reconstruction error is: 10.5383
 epoch 8/100. Took 1.079 seconds. Average reconstruction error is: 10.2093
 epoch 9/100. Took 1.0722 seconds. Average reconstruction error is: 9.8967
 epoch 10/100. Took 1.0747 seconds. Average reconstruction error is: 9.679
 epoch 11/100. Took 1.076 seconds. Average reconstruction error is: 9.5256
 epoch 12/100. Took 1.0819 seconds. Average reconstruction error is: 9.3582
 epoch 13/100. Took 1.072 seconds. Average reconstruction error is: 9.197
 epoch 14/100. Took 1.0792 seconds. Average reconstruction error is: 9.094
 epoch 15/100. Took 1.0745 seconds. Average reconstruction error is: 8.9553
 epoch 16/100. Took 1.0718 seconds. Average reconstruction error is: 8.8593
 epoch 17/100. Took 1.0841 seconds. Average reconstruction error is: 8.7889
 epoch 18/100. Took 1.0786 seconds. Average reconstruction error is: 8.7413
 epoch 19/100. Took 1.0779 seconds. Average reconstruction error is: 8.6894
 epoch 20/100. Took 1.0828 seconds. Average reconstruction error is: 8.6352
 epoch 21/100. Took 1.0786 seconds. Average reconstruction error is: 8.5706
 epoch 22/100. Took 1.1091 seconds. Average reconstruction error is: 8.4857
 epoch 23/100. Took 1.1579 seconds. Average reconstruction error is: 8.4138
 epoch 24/100. Took 1.1659 seconds. Average reconstruction error is: 8.3995
 epoch 25/100. Took 1.1518 seconds. Average reconstruction error is: 8.3214
 epoch 26/100. Took 1.1366 seconds. Average reconstruction error is: 8.3204
 epoch 27/100. Took 1.1535 seconds. Average reconstruction error is: 8.2445
 epoch 28/100. Took 1.123 seconds. Average reconstruction error is: 8.2248
 epoch 29/100. Took 1.1189 seconds. Average reconstruction error is: 8.1984
 epoch 30/100. Took 1.0768 seconds. Average reconstruction error is: 8.1536
 epoch 31/100. Took 1.1415 seconds. Average reconstruction error is: 8.1573
 epoch 32/100. Took 1.1935 seconds. Average reconstruction error is: 8.0864
 epoch 33/100. Took 1.1278 seconds. Average reconstruction error is: 8.0728
 epoch 34/100. Took 1.1658 seconds. Average reconstruction error is: 8.0925
 epoch 35/100. Took 1.1279 seconds. Average reconstruction error is: 8.0764
 epoch 36/100. Took 1.0802 seconds. Average reconstruction error is: 7.9846
 epoch 37/100. Took 1.0868 seconds. Average reconstruction error is: 7.9927
 epoch 38/100. Took 1.0802 seconds. Average reconstruction error is: 7.9584
 epoch 39/100. Took 1.0862 seconds. Average reconstruction error is: 7.9376
 epoch 40/100. Took 1.0753 seconds. Average reconstruction error is: 7.9364
 epoch 41/100. Took 1.0699 seconds. Average reconstruction error is: 7.9366
 epoch 42/100. Took 1.0756 seconds. Average reconstruction error is: 7.8951
 epoch 43/100. Took 1.1086 seconds. Average reconstruction error is: 7.9387
 epoch 44/100. Took 1.1002 seconds. Average reconstruction error is: 7.8985
 epoch 45/100. Took 1.0919 seconds. Average reconstruction error is: 7.8685
 epoch 46/100. Took 1.0779 seconds. Average reconstruction error is: 7.8334
 epoch 47/100. Took 1.0766 seconds. Average reconstruction error is: 7.7955
 epoch 48/100. Took 1.0724 seconds. Average reconstruction error is: 7.8049
 epoch 49/100. Took 1.0729 seconds. Average reconstruction error is: 7.7764
 epoch 50/100. Took 1.0767 seconds. Average reconstruction error is: 7.774
 epoch 51/100. Took 1.0771 seconds. Average reconstruction error is: 7.7326
 epoch 52/100. Took 1.0757 seconds. Average reconstruction error is: 7.7273
 epoch 53/100. Took 1.0757 seconds. Average reconstruction error is: 7.7237
 epoch 54/100. Took 1.1273 seconds. Average reconstruction error is: 7.7471
 epoch 55/100. Took 1.1036 seconds. Average reconstruction error is: 7.6788
 epoch 56/100. Took 1.1392 seconds. Average reconstruction error is: 7.6926
 epoch 57/100. Took 1.1075 seconds. Average reconstruction error is: 7.6333
 epoch 58/100. Took 1.1038 seconds. Average reconstruction error is: 7.6273
 epoch 59/100. Took 1.1288 seconds. Average reconstruction error is: 7.6637
 epoch 60/100. Took 1.137 seconds. Average reconstruction error is: 7.6564
 epoch 61/100. Took 1.0753 seconds. Average reconstruction error is: 7.6835
 epoch 62/100. Took 1.0926 seconds. Average reconstruction error is: 7.6001
 epoch 63/100. Took 1.0969 seconds. Average reconstruction error is: 7.6094
 epoch 64/100. Took 1.0869 seconds. Average reconstruction error is: 7.591
 epoch 65/100. Took 1.1375 seconds. Average reconstruction error is: 7.5887
 epoch 66/100. Took 1.1711 seconds. Average reconstruction error is: 7.6004
 epoch 67/100. Took 1.1644 seconds. Average reconstruction error is: 7.6003
 epoch 68/100. Took 1.1058 seconds. Average reconstruction error is: 7.5974
 epoch 69/100. Took 1.1023 seconds. Average reconstruction error is: 7.5687
 epoch 70/100. Took 1.0669 seconds. Average reconstruction error is: 7.535
 epoch 71/100. Took 1.0969 seconds. Average reconstruction error is: 7.5428
 epoch 72/100. Took 1.1013 seconds. Average reconstruction error is: 7.5431
 epoch 73/100. Took 1.1277 seconds. Average reconstruction error is: 7.5559
 epoch 74/100. Took 1.1104 seconds. Average reconstruction error is: 7.5388
 epoch 75/100. Took 1.1196 seconds. Average reconstruction error is: 7.517
 epoch 76/100. Took 1.0986 seconds. Average reconstruction error is: 7.5212
 epoch 77/100. Took 1.1173 seconds. Average reconstruction error is: 7.4762
 epoch 78/100. Took 1.1342 seconds. Average reconstruction error is: 7.5058
 epoch 79/100. Took 1.1484 seconds. Average reconstruction error is: 7.4649
 epoch 80/100. Took 1.1179 seconds. Average reconstruction error is: 7.4801
 epoch 81/100. Took 1.1056 seconds. Average reconstruction error is: 7.4984
 epoch 82/100. Took 1.1057 seconds. Average reconstruction error is: 7.4689
 epoch 83/100. Took 1.1455 seconds. Average reconstruction error is: 7.4539
 epoch 84/100. Took 1.1651 seconds. Average reconstruction error is: 7.4444
 epoch 85/100. Took 1.1378 seconds. Average reconstruction error is: 7.4881
 epoch 86/100. Took 1.1235 seconds. Average reconstruction error is: 7.436
 epoch 87/100. Took 1.1438 seconds. Average reconstruction error is: 7.4356
 epoch 88/100. Took 1.0923 seconds. Average reconstruction error is: 7.44
 epoch 89/100. Took 1.0755 seconds. Average reconstruction error is: 7.4268
 epoch 90/100. Took 1.0878 seconds. Average reconstruction error is: 7.4148
 epoch 91/100. Took 1.0832 seconds. Average reconstruction error is: 7.4283
 epoch 92/100. Took 1.0965 seconds. Average reconstruction error is: 7.421
 epoch 93/100. Took 1.1054 seconds. Average reconstruction error is: 7.4246
 epoch 94/100. Took 1.0765 seconds. Average reconstruction error is: 7.4083
 epoch 95/100. Took 1.0944 seconds. Average reconstruction error is: 7.3849
 epoch 96/100. Took 1.0825 seconds. Average reconstruction error is: 7.3812
 epoch 97/100. Took 1.0772 seconds. Average reconstruction error is: 7.3789
 epoch 98/100. Took 1.0824 seconds. Average reconstruction error is: 7.3831
 epoch 99/100. Took 1.0772 seconds. Average reconstruction error is: 7.3919
 epoch 100/100. Took 1.0765 seconds. Average reconstruction error is: 7.3482
Training binary-binary RBM in layer 2 (500  500) with CD1 for 100 epochs
 epoch 1/100. Took 0.74932 seconds. Average reconstruction error is: 20.7984
 epoch 2/100. Took 0.74664 seconds. Average reconstruction error is: 12.0872
 epoch 3/100. Took 0.74335 seconds. Average reconstruction error is: 10.7059
 epoch 4/100. Took 0.74358 seconds. Average reconstruction error is: 10.0652
 epoch 5/100. Took 0.75033 seconds. Average reconstruction error is: 9.5841
 epoch 6/100. Took 0.75243 seconds. Average reconstruction error is: 9.2334
 epoch 7/100. Took 0.74495 seconds. Average reconstruction error is: 8.8862
 epoch 8/100. Took 0.74802 seconds. Average reconstruction error is: 8.6676
 epoch 9/100. Took 0.7537 seconds. Average reconstruction error is: 8.4979
 epoch 10/100. Took 0.75473 seconds. Average reconstruction error is: 8.2395
 epoch 11/100. Took 0.75107 seconds. Average reconstruction error is: 8.106
 epoch 12/100. Took 0.75102 seconds. Average reconstruction error is: 7.9937
 epoch 13/100. Took 0.75112 seconds. Average reconstruction error is: 7.8387
 epoch 14/100. Took 0.79184 seconds. Average reconstruction error is: 7.7043
 epoch 15/100. Took 0.76808 seconds. Average reconstruction error is: 7.5878
 epoch 16/100. Took 0.74782 seconds. Average reconstruction error is: 7.4978
 epoch 17/100. Took 0.78786 seconds. Average reconstruction error is: 7.4004
 epoch 18/100. Took 0.75218 seconds. Average reconstruction error is: 7.3169
 epoch 19/100. Took 0.74731 seconds. Average reconstruction error is: 7.234
 epoch 20/100. Took 0.75218 seconds. Average reconstruction error is: 7.1553
 epoch 21/100. Took 0.75198 seconds. Average reconstruction error is: 7.0622
 epoch 22/100. Took 0.75472 seconds. Average reconstruction error is: 7.0161
 epoch 23/100. Took 0.74482 seconds. Average reconstruction error is: 6.9512
 epoch 24/100. Took 0.74895 seconds. Average reconstruction error is: 6.8943
 epoch 25/100. Took 0.74653 seconds. Average reconstruction error is: 6.8592
 epoch 26/100. Took 0.7476 seconds. Average reconstruction error is: 6.8134
 epoch 27/100. Took 0.77493 seconds. Average reconstruction error is: 6.7274
 epoch 28/100. Took 0.7538 seconds. Average reconstruction error is: 6.6875
 epoch 29/100. Took 0.75234 seconds. Average reconstruction error is: 6.6416
 epoch 30/100. Took 0.75038 seconds. Average reconstruction error is: 6.5914
 epoch 31/100. Took 0.74092 seconds. Average reconstruction error is: 6.5279
 epoch 32/100. Took 0.74752 seconds. Average reconstruction error is: 6.5041
 epoch 33/100. Took 0.74968 seconds. Average reconstruction error is: 6.4417
 epoch 34/100. Took 0.75507 seconds. Average reconstruction error is: 6.4133
 epoch 35/100. Took 0.74813 seconds. Average reconstruction error is: 6.3518
 epoch 36/100. Took 0.74371 seconds. Average reconstruction error is: 6.3483
 epoch 37/100. Took 0.79589 seconds. Average reconstruction error is: 6.2759
 epoch 38/100. Took 0.79403 seconds. Average reconstruction error is: 6.2416
 epoch 39/100. Took 0.80347 seconds. Average reconstruction error is: 6.2179
 epoch 40/100. Took 0.77806 seconds. Average reconstruction error is: 6.1519
 epoch 41/100. Took 0.74434 seconds. Average reconstruction error is: 6.1253
 epoch 42/100. Took 0.77861 seconds. Average reconstruction error is: 6.1019
 epoch 43/100. Took 0.76859 seconds. Average reconstruction error is: 6.0823
 epoch 44/100. Took 0.75207 seconds. Average reconstruction error is: 6.0431
 epoch 45/100. Took 0.75267 seconds. Average reconstruction error is: 6.0275
 epoch 46/100. Took 0.75237 seconds. Average reconstruction error is: 6.0104
 epoch 47/100. Took 0.75032 seconds. Average reconstruction error is: 6.0033
 epoch 48/100. Took 0.75066 seconds. Average reconstruction error is: 5.9716
 epoch 49/100. Took 0.75973 seconds. Average reconstruction error is: 5.9463
 epoch 50/100. Took 0.75434 seconds. Average reconstruction error is: 5.9271
 epoch 51/100. Took 0.75351 seconds. Average reconstruction error is: 5.9036
 epoch 52/100. Took 0.75085 seconds. Average reconstruction error is: 5.8952
 epoch 53/100. Took 0.75095 seconds. Average reconstruction error is: 5.8682
 epoch 54/100. Took 0.74724 seconds. Average reconstruction error is: 5.8635
 epoch 55/100. Took 0.75582 seconds. Average reconstruction error is: 5.8358
 epoch 56/100. Took 0.75311 seconds. Average reconstruction error is: 5.8108
 epoch 57/100. Took 0.75562 seconds. Average reconstruction error is: 5.8048
 epoch 58/100. Took 0.75176 seconds. Average reconstruction error is: 5.7673
 epoch 59/100. Took 0.75141 seconds. Average reconstruction error is: 5.7818
 epoch 60/100. Took 0.76655 seconds. Average reconstruction error is: 5.7425
 epoch 61/100. Took 0.75225 seconds. Average reconstruction error is: 5.7214
 epoch 62/100. Took 0.74779 seconds. Average reconstruction error is: 5.7433
 epoch 63/100. Took 0.75559 seconds. Average reconstruction error is: 5.6987
 epoch 64/100. Took 0.76361 seconds. Average reconstruction error is: 5.6863
 epoch 65/100. Took 0.75048 seconds. Average reconstruction error is: 5.6663
 epoch 66/100. Took 0.75196 seconds. Average reconstruction error is: 5.6746
 epoch 67/100. Took 0.7673 seconds. Average reconstruction error is: 5.6491
 epoch 68/100. Took 0.74855 seconds. Average reconstruction error is: 5.6359
 epoch 69/100. Took 0.75556 seconds. Average reconstruction error is: 5.623
 epoch 70/100. Took 0.75141 seconds. Average reconstruction error is: 5.6058
 epoch 71/100. Took 0.76109 seconds. Average reconstruction error is: 5.584
 epoch 72/100. Took 0.76154 seconds. Average reconstruction error is: 5.5893
 epoch 73/100. Took 0.75905 seconds. Average reconstruction error is: 5.5689
 epoch 74/100. Took 0.74854 seconds. Average reconstruction error is: 5.5771
 epoch 75/100. Took 0.75581 seconds. Average reconstruction error is: 5.5317
 epoch 76/100. Took 0.74886 seconds. Average reconstruction error is: 5.5556
 epoch 77/100. Took 0.75012 seconds. Average reconstruction error is: 5.5439
 epoch 78/100. Took 0.75309 seconds. Average reconstruction error is: 5.54
 epoch 79/100. Took 0.74847 seconds. Average reconstruction error is: 5.5149
 epoch 80/100. Took 0.76073 seconds. Average reconstruction error is: 5.482
 epoch 81/100. Took 0.75645 seconds. Average reconstruction error is: 5.4706
 epoch 82/100. Took 0.75167 seconds. Average reconstruction error is: 5.4829
 epoch 83/100. Took 0.75994 seconds. Average reconstruction error is: 5.4531
 epoch 84/100. Took 0.75542 seconds. Average reconstruction error is: 5.4526
 epoch 85/100. Took 0.75636 seconds. Average reconstruction error is: 5.4139
 epoch 86/100. Took 0.75415 seconds. Average reconstruction error is: 5.4285
 epoch 87/100. Took 0.75153 seconds. Average reconstruction error is: 5.3959
 epoch 88/100. Took 0.75202 seconds. Average reconstruction error is: 5.3813
 epoch 89/100. Took 0.75292 seconds. Average reconstruction error is: 5.3847
 epoch 90/100. Took 0.75398 seconds. Average reconstruction error is: 5.3844
 epoch 91/100. Took 0.75891 seconds. Average reconstruction error is: 5.384
 epoch 92/100. Took 0.75622 seconds. Average reconstruction error is: 5.3704
 epoch 93/100. Took 0.75864 seconds. Average reconstruction error is: 5.3379
 epoch 94/100. Took 0.7524 seconds. Average reconstruction error is: 5.3297
 epoch 95/100. Took 0.74586 seconds. Average reconstruction error is: 5.3156
 epoch 96/100. Took 0.74764 seconds. Average reconstruction error is: 5.3252
 epoch 97/100. Took 0.74982 seconds. Average reconstruction error is: 5.3491
 epoch 98/100. Took 0.74824 seconds. Average reconstruction error is: 5.3165
 epoch 99/100. Took 0.75147 seconds. Average reconstruction error is: 5.3098
 epoch 100/100. Took 0.74684 seconds. Average reconstruction error is: 5.3269
Training binary-binary RBM in layer 3 (500  500) with CD1 for 100 epochs
 epoch 1/100. Took 0.74603 seconds. Average reconstruction error is: 14.1821
 epoch 2/100. Took 0.74416 seconds. Average reconstruction error is: 7.1605
 epoch 3/100. Took 0.74017 seconds. Average reconstruction error is: 6.1757
 epoch 4/100. Took 0.74674 seconds. Average reconstruction error is: 5.6995
 epoch 5/100. Took 0.7499 seconds. Average reconstruction error is: 5.3748
 epoch 6/100. Took 0.7419 seconds. Average reconstruction error is: 5.1599
 epoch 7/100. Took 0.74916 seconds. Average reconstruction error is: 5.0137
 epoch 8/100. Took 0.74421 seconds. Average reconstruction error is: 4.8841
 epoch 9/100. Took 0.74156 seconds. Average reconstruction error is: 4.7702
 epoch 10/100. Took 0.74764 seconds. Average reconstruction error is: 4.7125
 epoch 11/100. Took 0.7412 seconds. Average reconstruction error is: 4.6231
 epoch 12/100. Took 0.73955 seconds. Average reconstruction error is: 4.5845
 epoch 13/100. Took 0.74819 seconds. Average reconstruction error is: 4.5471
 epoch 14/100. Took 0.74253 seconds. Average reconstruction error is: 4.501
 epoch 15/100. Took 0.74052 seconds. Average reconstruction error is: 4.4461
 epoch 16/100. Took 0.74287 seconds. Average reconstruction error is: 4.4241
 epoch 17/100. Took 0.74578 seconds. Average reconstruction error is: 4.3629
 epoch 18/100. Took 0.74422 seconds. Average reconstruction error is: 4.3251
 epoch 19/100. Took 0.74916 seconds. Average reconstruction error is: 4.3244
 epoch 20/100. Took 0.74402 seconds. Average reconstruction error is: 4.2872
 epoch 21/100. Took 0.74971 seconds. Average reconstruction error is: 4.2524
 epoch 22/100. Took 0.74173 seconds. Average reconstruction error is: 4.2403
 epoch 23/100. Took 0.74125 seconds. Average reconstruction error is: 4.2086
 epoch 24/100. Took 0.74688 seconds. Average reconstruction error is: 4.2221
 epoch 25/100. Took 0.7464 seconds. Average reconstruction error is: 4.1868
 epoch 26/100. Took 0.74833 seconds. Average reconstruction error is: 4.1335
 epoch 27/100. Took 0.74381 seconds. Average reconstruction error is: 4.1327
 epoch 28/100. Took 0.74155 seconds. Average reconstruction error is: 4.0897
 epoch 29/100. Took 0.74758 seconds. Average reconstruction error is: 4.0924
 epoch 30/100. Took 0.74225 seconds. Average reconstruction error is: 4.0783
 epoch 31/100. Took 0.74695 seconds. Average reconstruction error is: 4.0447
 epoch 32/100. Took 0.75593 seconds. Average reconstruction error is: 4.027
 epoch 33/100. Took 0.74837 seconds. Average reconstruction error is: 4.0157
 epoch 34/100. Took 0.75198 seconds. Average reconstruction error is: 4.0154
 epoch 35/100. Took 0.74595 seconds. Average reconstruction error is: 3.9777
 epoch 36/100. Took 0.747 seconds. Average reconstruction error is: 3.9652
 epoch 37/100. Took 0.74284 seconds. Average reconstruction error is: 3.9447
 epoch 38/100. Took 0.75131 seconds. Average reconstruction error is: 3.9274
 epoch 39/100. Took 0.75449 seconds. Average reconstruction error is: 3.9079
 epoch 40/100. Took 0.74264 seconds. Average reconstruction error is: 3.9512
 epoch 41/100. Took 0.74423 seconds. Average reconstruction error is: 3.9269
 epoch 42/100. Took 0.74685 seconds. Average reconstruction error is: 3.8986
 epoch 43/100. Took 0.74371 seconds. Average reconstruction error is: 3.9308
 epoch 44/100. Took 0.74582 seconds. Average reconstruction error is: 3.888
 epoch 45/100. Took 0.75067 seconds. Average reconstruction error is: 3.9099
 epoch 46/100. Took 0.74921 seconds. Average reconstruction error is: 3.8583
 epoch 47/100. Took 0.74112 seconds. Average reconstruction error is: 3.8765
 epoch 48/100. Took 0.74277 seconds. Average reconstruction error is: 3.8483
 epoch 49/100. Took 0.74566 seconds. Average reconstruction error is: 3.8544
 epoch 50/100. Took 0.74234 seconds. Average reconstruction error is: 3.8125
 epoch 51/100. Took 0.74737 seconds. Average reconstruction error is: 3.8232
 epoch 52/100. Took 0.74292 seconds. Average reconstruction error is: 3.7964
 epoch 53/100. Took 0.7509 seconds. Average reconstruction error is: 3.7964
 epoch 54/100. Took 0.74444 seconds. Average reconstruction error is: 3.8078
 epoch 55/100. Took 0.7462 seconds. Average reconstruction error is: 3.8146
 epoch 56/100. Took 0.74635 seconds. Average reconstruction error is: 3.7991
 epoch 57/100. Took 0.74193 seconds. Average reconstruction error is: 3.791
 epoch 58/100. Took 0.74093 seconds. Average reconstruction error is: 3.7755
 epoch 59/100. Took 0.753 seconds. Average reconstruction error is: 3.7703
 epoch 60/100. Took 0.75156 seconds. Average reconstruction error is: 3.7372
 epoch 61/100. Took 0.74672 seconds. Average reconstruction error is: 3.7589
 epoch 62/100. Took 0.748 seconds. Average reconstruction error is: 3.763
 epoch 63/100. Took 0.74727 seconds. Average reconstruction error is: 3.7307
 epoch 64/100. Took 0.74411 seconds. Average reconstruction error is: 3.7361
 epoch 65/100. Took 0.7489 seconds. Average reconstruction error is: 3.699
 epoch 66/100. Took 0.74597 seconds. Average reconstruction error is: 3.7041
 epoch 67/100. Took 0.74801 seconds. Average reconstruction error is: 3.7144
 epoch 68/100. Took 0.74609 seconds. Average reconstruction error is: 3.7275
 epoch 69/100. Took 0.74858 seconds. Average reconstruction error is: 3.6926
 epoch 70/100. Took 0.74639 seconds. Average reconstruction error is: 3.6815
 epoch 71/100. Took 0.74678 seconds. Average reconstruction error is: 3.7212
 epoch 72/100. Took 0.74792 seconds. Average reconstruction error is: 3.6819
 epoch 73/100. Took 0.75156 seconds. Average reconstruction error is: 3.6648
 epoch 74/100. Took 0.7556 seconds. Average reconstruction error is: 3.701
 epoch 75/100. Took 0.74459 seconds. Average reconstruction error is: 3.6624
 epoch 76/100. Took 0.74546 seconds. Average reconstruction error is: 3.6715
 epoch 77/100. Took 0.74921 seconds. Average reconstruction error is: 3.6645
 epoch 78/100. Took 0.743 seconds. Average reconstruction error is: 3.6439
 epoch 79/100. Took 0.74498 seconds. Average reconstruction error is: 3.6571
 epoch 80/100. Took 0.73936 seconds. Average reconstruction error is: 3.6439
 epoch 81/100. Took 0.74113 seconds. Average reconstruction error is: 3.6349
 epoch 82/100. Took 0.74796 seconds. Average reconstruction error is: 3.6391
 epoch 83/100. Took 0.74619 seconds. Average reconstruction error is: 3.634
 epoch 84/100. Took 0.7503 seconds. Average reconstruction error is: 3.6223
 epoch 85/100. Took 0.78951 seconds. Average reconstruction error is: 3.6116
 epoch 86/100. Took 0.74694 seconds. Average reconstruction error is: 3.6161
 epoch 87/100. Took 0.74746 seconds. Average reconstruction error is: 3.629
 epoch 88/100. Took 0.74627 seconds. Average reconstruction error is: 3.5937
 epoch 89/100. Took 0.74502 seconds. Average reconstruction error is: 3.6225
 epoch 90/100. Took 0.74795 seconds. Average reconstruction error is: 3.6051
 epoch 91/100. Took 0.74958 seconds. Average reconstruction error is: 3.5994
 epoch 92/100. Took 0.74552 seconds. Average reconstruction error is: 3.599
 epoch 93/100. Took 0.75052 seconds. Average reconstruction error is: 3.5986
 epoch 94/100. Took 0.7439 seconds. Average reconstruction error is: 3.5681
 epoch 95/100. Took 0.74939 seconds. Average reconstruction error is: 3.5719
 epoch 96/100. Took 0.74792 seconds. Average reconstruction error is: 3.5895
 epoch 97/100. Took 0.74369 seconds. Average reconstruction error is: 3.5757
 epoch 98/100. Took 0.74228 seconds. Average reconstruction error is: 3.5851
 epoch 99/100. Took 0.74469 seconds. Average reconstruction error is: 3.56
 epoch 100/100. Took 0.74313 seconds. Average reconstruction error is: 3.5694
Training NN  (784  500  500  500   10) with BackPropagation for 200 epochs
 epoch 1/200. Took 1.7554 seconds. 
  Full-batch training loss = 0.314035, test loss = 0.316091
  Training set accuracy = 0.915400, Test set accuracy = 0.915500
 epoch 2/200. Took 1.7487 seconds. 
  Full-batch training loss = 0.261822, test loss = 0.274552
  Training set accuracy = 0.925800, Test set accuracy = 0.924900
 epoch 3/200. Took 1.757 seconds. 
  Full-batch training loss = 0.209854, test loss = 0.227159
  Training set accuracy = 0.942300, Test set accuracy = 0.936700
 epoch 4/200. Took 1.7793 seconds. 
  Full-batch training loss = 0.185702, test loss = 0.212953
  Training set accuracy = 0.950300, Test set accuracy = 0.938800
 epoch 5/200. Took 1.765 seconds. 
  Full-batch training loss = 0.171593, test loss = 0.202162
  Training set accuracy = 0.952700, Test set accuracy = 0.941400
 epoch 6/200. Took 1.7428 seconds. 
  Full-batch training loss = 0.156296, test loss = 0.191610
  Training set accuracy = 0.958800, Test set accuracy = 0.945400
 epoch 7/200. Took 1.7561 seconds. 
  Full-batch training loss = 0.141360, test loss = 0.182334
  Training set accuracy = 0.962100, Test set accuracy = 0.946500
 epoch 8/200. Took 1.7575 seconds. 
  Full-batch training loss = 0.131289, test loss = 0.178801
  Training set accuracy = 0.965500, Test set accuracy = 0.946700
 epoch 9/200. Took 1.8205 seconds. 
  Full-batch training loss = 0.121285, test loss = 0.171505
  Training set accuracy = 0.969500, Test set accuracy = 0.949800
 epoch 10/200. Took 1.7574 seconds. 
  Full-batch training loss = 0.111374, test loss = 0.167101
  Training set accuracy = 0.972100, Test set accuracy = 0.950600
 epoch 11/200. Took 1.7516 seconds. 
  Full-batch training loss = 0.105249, test loss = 0.164420
  Training set accuracy = 0.973600, Test set accuracy = 0.950600
 epoch 12/200. Took 1.763 seconds. 
  Full-batch training loss = 0.096646, test loss = 0.160399
  Training set accuracy = 0.977300, Test set accuracy = 0.952500
 epoch 13/200. Took 1.7464 seconds. 
  Full-batch training loss = 0.092230, test loss = 0.158007
  Training set accuracy = 0.977700, Test set accuracy = 0.952600
 epoch 14/200. Took 1.7582 seconds. 
  Full-batch training loss = 0.086975, test loss = 0.157166
  Training set accuracy = 0.980200, Test set accuracy = 0.953200
 epoch 15/200. Took 1.7623 seconds. 
  Full-batch training loss = 0.080327, test loss = 0.153152
  Training set accuracy = 0.982700, Test set accuracy = 0.954700
 epoch 16/200. Took 1.7726 seconds. 
  Full-batch training loss = 0.075644, test loss = 0.150047
  Training set accuracy = 0.984000, Test set accuracy = 0.955800
 epoch 17/200. Took 1.7666 seconds. 
  Full-batch training loss = 0.072059, test loss = 0.150571
  Training set accuracy = 0.985100, Test set accuracy = 0.955100
 epoch 18/200. Took 1.7614 seconds. 
  Full-batch training loss = 0.068292, test loss = 0.148080
  Training set accuracy = 0.986200, Test set accuracy = 0.956500
 epoch 19/200. Took 1.7662 seconds. 
  Full-batch training loss = 0.064825, test loss = 0.146067
  Training set accuracy = 0.987800, Test set accuracy = 0.956200
 epoch 20/200. Took 1.7611 seconds. 
  Full-batch training loss = 0.060452, test loss = 0.146661
  Training set accuracy = 0.987600, Test set accuracy = 0.956500
 epoch 21/200. Took 1.7625 seconds. 
  Full-batch training loss = 0.057380, test loss = 0.143575
  Training set accuracy = 0.988900, Test set accuracy = 0.958700
 epoch 22/200. Took 1.7592 seconds. 
  Full-batch training loss = 0.053790, test loss = 0.142427
  Training set accuracy = 0.990200, Test set accuracy = 0.958200
 epoch 23/200. Took 1.7524 seconds. 
  Full-batch training loss = 0.052069, test loss = 0.142671
  Training set accuracy = 0.990800, Test set accuracy = 0.959900
 epoch 24/200. Took 1.8164 seconds. 
  Full-batch training loss = 0.049653, test loss = 0.142981
  Training set accuracy = 0.991100, Test set accuracy = 0.959100
 epoch 25/200. Took 1.9097 seconds. 
  Full-batch training loss = 0.047225, test loss = 0.140832
  Training set accuracy = 0.991500, Test set accuracy = 0.959800
 epoch 26/200. Took 1.801 seconds. 
  Full-batch training loss = 0.044022, test loss = 0.141098
  Training set accuracy = 0.992900, Test set accuracy = 0.959100
 epoch 27/200. Took 1.7597 seconds. 
  Full-batch training loss = 0.042100, test loss = 0.140901
  Training set accuracy = 0.993700, Test set accuracy = 0.957600
 epoch 28/200. Took 1.7543 seconds. 
  Full-batch training loss = 0.040921, test loss = 0.141040
  Training set accuracy = 0.993500, Test set accuracy = 0.959800
 epoch 29/200. Took 1.7491 seconds. 
  Full-batch training loss = 0.037623, test loss = 0.139145
  Training set accuracy = 0.994800, Test set accuracy = 0.959700
 epoch 30/200. Took 1.7327 seconds. 
  Full-batch training loss = 0.036802, test loss = 0.141495
  Training set accuracy = 0.995300, Test set accuracy = 0.959000
 epoch 31/200. Took 1.8057 seconds. 
  Full-batch training loss = 0.034840, test loss = 0.139954
  Training set accuracy = 0.995300, Test set accuracy = 0.959500
 epoch 32/200. Took 1.79 seconds. 
  Full-batch training loss = 0.033018, test loss = 0.138489
  Training set accuracy = 0.996000, Test set accuracy = 0.959100
 epoch 33/200. Took 1.7561 seconds. 
  Full-batch training loss = 0.031159, test loss = 0.137231
  Training set accuracy = 0.996200, Test set accuracy = 0.959100
 epoch 34/200. Took 1.7709 seconds. 
  Full-batch training loss = 0.029857, test loss = 0.137221
  Training set accuracy = 0.996300, Test set accuracy = 0.959800
 epoch 35/200. Took 1.7769 seconds. 
  Full-batch training loss = 0.028418, test loss = 0.137889
  Training set accuracy = 0.996600, Test set accuracy = 0.959400
 epoch 36/200. Took 1.7428 seconds. 
  Full-batch training loss = 0.027407, test loss = 0.138193
  Training set accuracy = 0.996900, Test set accuracy = 0.959400
 epoch 37/200. Took 1.7525 seconds. 
  Full-batch training loss = 0.026188, test loss = 0.136652
  Training set accuracy = 0.997600, Test set accuracy = 0.960300
 epoch 38/200. Took 1.7551 seconds. 
  Full-batch training loss = 0.025241, test loss = 0.138599
  Training set accuracy = 0.997500, Test set accuracy = 0.959600
 epoch 39/200. Took 1.7318 seconds. 
  Full-batch training loss = 0.023983, test loss = 0.136737
  Training set accuracy = 0.997900, Test set accuracy = 0.960200
 epoch 40/200. Took 1.753 seconds. 
  Full-batch training loss = 0.022995, test loss = 0.137671
  Training set accuracy = 0.997700, Test set accuracy = 0.960000
 epoch 41/200. Took 1.7424 seconds. 
  Full-batch training loss = 0.021987, test loss = 0.138296
  Training set accuracy = 0.997900, Test set accuracy = 0.960500
 epoch 42/200. Took 1.7561 seconds. 
  Full-batch training loss = 0.021264, test loss = 0.138005
  Training set accuracy = 0.998000, Test set accuracy = 0.960400
 epoch 43/200. Took 1.7319 seconds. 
  Full-batch training loss = 0.020302, test loss = 0.137829
  Training set accuracy = 0.998200, Test set accuracy = 0.959500
 epoch 44/200. Took 1.8844 seconds. 
  Full-batch training loss = 0.019363, test loss = 0.137219
  Training set accuracy = 0.998600, Test set accuracy = 0.959900
 epoch 45/200. Took 1.8658 seconds. 
  Full-batch training loss = 0.018677, test loss = 0.137785
  Training set accuracy = 0.998600, Test set accuracy = 0.960100
 epoch 46/200. Took 1.7679 seconds. 
  Full-batch training loss = 0.017906, test loss = 0.137253
  Training set accuracy = 0.998700, Test set accuracy = 0.959800
 epoch 47/200. Took 1.7565 seconds. 
  Full-batch training loss = 0.017445, test loss = 0.137316
  Training set accuracy = 0.998700, Test set accuracy = 0.959300
 epoch 48/200. Took 1.7364 seconds. 
  Full-batch training loss = 0.016700, test loss = 0.137793
  Training set accuracy = 0.998900, Test set accuracy = 0.959800
 epoch 49/200. Took 1.7504 seconds. 
  Full-batch training loss = 0.016135, test loss = 0.137734
  Training set accuracy = 0.999000, Test set accuracy = 0.959800
 epoch 50/200. Took 1.7331 seconds. 
  Full-batch training loss = 0.015500, test loss = 0.138274
  Training set accuracy = 0.999000, Test set accuracy = 0.960200
 epoch 51/200. Took 1.7376 seconds. 
  Full-batch training loss = 0.014969, test loss = 0.138238
  Training set accuracy = 0.999000, Test set accuracy = 0.960000
 epoch 52/200. Took 1.7532 seconds. 
  Full-batch training loss = 0.014540, test loss = 0.138370
  Training set accuracy = 0.999100, Test set accuracy = 0.960200
 epoch 53/200. Took 1.7216 seconds. 
  Full-batch training loss = 0.014075, test loss = 0.138737
  Training set accuracy = 0.999100, Test set accuracy = 0.960300
 epoch 54/200. Took 1.749 seconds. 
  Full-batch training loss = 0.013650, test loss = 0.138774
  Training set accuracy = 0.999200, Test set accuracy = 0.960000
 epoch 55/200. Took 1.7403 seconds. 
  Full-batch training loss = 0.013140, test loss = 0.138780
  Training set accuracy = 0.999200, Test set accuracy = 0.960600
 epoch 56/200. Took 1.7685 seconds. 
  Full-batch training loss = 0.012818, test loss = 0.139039
  Training set accuracy = 0.999400, Test set accuracy = 0.960900
 epoch 57/200. Took 1.7581 seconds. 
  Full-batch training loss = 0.012440, test loss = 0.138715
  Training set accuracy = 0.999500, Test set accuracy = 0.960700
 epoch 58/200. Took 1.7548 seconds. 
  Full-batch training loss = 0.012015, test loss = 0.139366
  Training set accuracy = 0.999500, Test set accuracy = 0.960400
 epoch 59/200. Took 1.7627 seconds. 
  Full-batch training loss = 0.011720, test loss = 0.139928
  Training set accuracy = 0.999600, Test set accuracy = 0.960500
 epoch 60/200. Took 1.7839 seconds. 
  Full-batch training loss = 0.011255, test loss = 0.139236
  Training set accuracy = 0.999700, Test set accuracy = 0.960500
 epoch 61/200. Took 1.8588 seconds. 
  Full-batch training loss = 0.010978, test loss = 0.139451
  Training set accuracy = 0.999700, Test set accuracy = 0.961000
 epoch 62/200. Took 1.8419 seconds. 
  Full-batch training loss = 0.010700, test loss = 0.140108
  Training set accuracy = 0.999800, Test set accuracy = 0.960400
 epoch 63/200. Took 1.7471 seconds. 
  Full-batch training loss = 0.010391, test loss = 0.139795
  Training set accuracy = 0.999900, Test set accuracy = 0.960700
 epoch 64/200. Took 1.7703 seconds. 
  Full-batch training loss = 0.010078, test loss = 0.139757
  Training set accuracy = 0.999800, Test set accuracy = 0.960600
 epoch 65/200. Took 1.8154 seconds. 
  Full-batch training loss = 0.009857, test loss = 0.140432
  Training set accuracy = 0.999800, Test set accuracy = 0.960500
 epoch 66/200. Took 1.7592 seconds. 
  Full-batch training loss = 0.009594, test loss = 0.140139
  Training set accuracy = 0.999800, Test set accuracy = 0.960500
 epoch 67/200. Took 1.7524 seconds. 
  Full-batch training loss = 0.009418, test loss = 0.140855
  Training set accuracy = 0.999800, Test set accuracy = 0.961400
 epoch 68/200. Took 1.8091 seconds. 
  Full-batch training loss = 0.009143, test loss = 0.140908
  Training set accuracy = 0.999800, Test set accuracy = 0.961100
 epoch 69/200. Took 1.7687 seconds. 
  Full-batch training loss = 0.008903, test loss = 0.140356
  Training set accuracy = 1.000000, Test set accuracy = 0.960000
 epoch 70/200. Took 1.7525 seconds. 
  Full-batch training loss = 0.008673, test loss = 0.140188
  Training set accuracy = 1.000000, Test set accuracy = 0.960900
 epoch 71/200. Took 1.7482 seconds. 
  Full-batch training loss = 0.008477, test loss = 0.141186
  Training set accuracy = 0.999900, Test set accuracy = 0.960200
 epoch 72/200. Took 1.7489 seconds. 
  Full-batch training loss = 0.008303, test loss = 0.141628
  Training set accuracy = 0.999900, Test set accuracy = 0.961100
 epoch 73/200. Took 1.7357 seconds. 
  Full-batch training loss = 0.008129, test loss = 0.141405
  Training set accuracy = 0.999900, Test set accuracy = 0.960800
 epoch 74/200. Took 1.7539 seconds. 
  Full-batch training loss = 0.007923, test loss = 0.141335
  Training set accuracy = 0.999900, Test set accuracy = 0.960900
 epoch 75/200. Took 1.7985 seconds. 
  Full-batch training loss = 0.007755, test loss = 0.141367
  Training set accuracy = 1.000000, Test set accuracy = 0.961500
 epoch 76/200. Took 1.8577 seconds. 
  Full-batch training loss = 0.007568, test loss = 0.141313
  Training set accuracy = 1.000000, Test set accuracy = 0.961000
 epoch 77/200. Took 1.883 seconds. 
  Full-batch training loss = 0.007413, test loss = 0.141835
  Training set accuracy = 1.000000, Test set accuracy = 0.961100
 epoch 78/200. Took 1.8199 seconds. 
  Full-batch training loss = 0.007333, test loss = 0.141265
  Training set accuracy = 1.000000, Test set accuracy = 0.962000
 epoch 79/200. Took 1.8038 seconds. 
  Full-batch training loss = 0.007101, test loss = 0.141762
  Training set accuracy = 1.000000, Test set accuracy = 0.960800
 epoch 80/200. Took 1.7496 seconds. 
  Full-batch training loss = 0.006966, test loss = 0.142275
  Training set accuracy = 1.000000, Test set accuracy = 0.961400
 epoch 81/200. Took 1.7562 seconds. 
  Full-batch training loss = 0.006822, test loss = 0.141822
  Training set accuracy = 1.000000, Test set accuracy = 0.961200
 epoch 82/200. Took 1.7273 seconds. 
  Full-batch training loss = 0.006687, test loss = 0.142180
  Training set accuracy = 1.000000, Test set accuracy = 0.960700
 epoch 83/200. Took 1.7495 seconds. 
  Full-batch training loss = 0.006547, test loss = 0.142092
  Training set accuracy = 1.000000, Test set accuracy = 0.961100
 epoch 84/200. Took 1.7605 seconds. 
  Full-batch training loss = 0.006431, test loss = 0.142566
  Training set accuracy = 1.000000, Test set accuracy = 0.961600
 epoch 85/200. Took 1.7455 seconds. 
  Full-batch training loss = 0.006303, test loss = 0.142714
  Training set accuracy = 1.000000, Test set accuracy = 0.961000
 epoch 86/200. Took 1.7375 seconds. 
  Full-batch training loss = 0.006192, test loss = 0.142717
  Training set accuracy = 1.000000, Test set accuracy = 0.961100
 epoch 87/200. Took 1.7472 seconds. 
  Full-batch training loss = 0.006066, test loss = 0.142648
  Training set accuracy = 1.000000, Test set accuracy = 0.961100
 epoch 88/200. Took 1.7166 seconds. 
  Full-batch training loss = 0.005955, test loss = 0.142763
  Training set accuracy = 1.000000, Test set accuracy = 0.960800
 epoch 89/200. Took 1.7289 seconds. 
  Full-batch training loss = 0.005848, test loss = 0.143333
  Training set accuracy = 1.000000, Test set accuracy = 0.961000
 epoch 90/200. Took 1.7429 seconds. 
  Full-batch training loss = 0.005749, test loss = 0.143383
  Training set accuracy = 1.000000, Test set accuracy = 0.961400
 epoch 91/200. Took 1.7367 seconds. 
  Full-batch training loss = 0.005645, test loss = 0.143174
  Training set accuracy = 1.000000, Test set accuracy = 0.961400
 epoch 92/200. Took 1.7334 seconds. 
  Full-batch training loss = 0.005554, test loss = 0.143452
  Training set accuracy = 1.000000, Test set accuracy = 0.961600
 epoch 93/200. Took 1.7403 seconds. 
  Full-batch training loss = 0.005454, test loss = 0.143702
  Training set accuracy = 1.000000, Test set accuracy = 0.961500
 epoch 94/200. Took 1.7503 seconds. 
  Full-batch training loss = 0.005367, test loss = 0.143816
  Training set accuracy = 1.000000, Test set accuracy = 0.961400
 epoch 95/200. Took 1.7408 seconds. 
  Full-batch training loss = 0.005277, test loss = 0.143741
  Training set accuracy = 1.000000, Test set accuracy = 0.961700
 epoch 96/200. Took 1.7494 seconds. 
  Full-batch training loss = 0.005184, test loss = 0.143936
  Training set accuracy = 1.000000, Test set accuracy = 0.961300
 epoch 97/200. Took 1.7337 seconds. 
  Full-batch training loss = 0.005100, test loss = 0.144100
  Training set accuracy = 1.000000, Test set accuracy = 0.961500
 epoch 98/200. Took 1.7468 seconds. 
  Full-batch training loss = 0.005027, test loss = 0.144184
  Training set accuracy = 1.000000, Test set accuracy = 0.962100
 epoch 99/200. Took 1.7849 seconds. 
  Full-batch training loss = 0.004939, test loss = 0.144197
  Training set accuracy = 1.000000, Test set accuracy = 0.961800
 epoch 100/200. Took 1.8697 seconds. 
  Full-batch training loss = 0.004872, test loss = 0.144400
  Training set accuracy = 1.000000, Test set accuracy = 0.962000
 epoch 101/200. Took 1.7647 seconds. 
  Full-batch training loss = 0.004799, test loss = 0.144394
  Training set accuracy = 1.000000, Test set accuracy = 0.962000
 epoch 102/200. Took 1.7482 seconds. 
  Full-batch training loss = 0.004714, test loss = 0.144440
  Training set accuracy = 1.000000, Test set accuracy = 0.961900
 epoch 103/200. Took 1.7598 seconds. 
  Full-batch training loss = 0.004646, test loss = 0.144662
  Training set accuracy = 1.000000, Test set accuracy = 0.961800
 epoch 104/200. Took 1.7516 seconds. 
  Full-batch training loss = 0.004577, test loss = 0.144629
  Training set accuracy = 1.000000, Test set accuracy = 0.962000
 epoch 105/200. Took 1.7438 seconds. 
  Full-batch training loss = 0.004507, test loss = 0.144917
  Training set accuracy = 1.000000, Test set accuracy = 0.962200
 epoch 106/200. Took 1.7396 seconds. 
  Full-batch training loss = 0.004442, test loss = 0.144754
  Training set accuracy = 1.000000, Test set accuracy = 0.962400
 epoch 107/200. Took 1.8458 seconds. 
  Full-batch training loss = 0.004378, test loss = 0.144871
  Training set accuracy = 1.000000, Test set accuracy = 0.962100
 epoch 108/200. Took 1.7619 seconds. 
  Full-batch training loss = 0.004319, test loss = 0.145271
  Training set accuracy = 1.000000, Test set accuracy = 0.962200
 epoch 109/200. Took 1.7361 seconds. 
  Full-batch training loss = 0.004255, test loss = 0.145464
  Training set accuracy = 1.000000, Test set accuracy = 0.962200
 epoch 110/200. Took 1.7603 seconds. 
  Full-batch training loss = 0.004201, test loss = 0.145219
  Training set accuracy = 1.000000, Test set accuracy = 0.962200
 epoch 111/200. Took 1.7596 seconds. 
  Full-batch training loss = 0.004154, test loss = 0.145701
  Training set accuracy = 1.000000, Test set accuracy = 0.962300
 epoch 112/200. Took 1.7426 seconds. 
  Full-batch training loss = 0.004081, test loss = 0.145499
  Training set accuracy = 1.000000, Test set accuracy = 0.962300
 epoch 113/200. Took 1.8158 seconds. 
  Full-batch training loss = 0.004025, test loss = 0.145888
  Training set accuracy = 1.000000, Test set accuracy = 0.962600
 epoch 114/200. Took 1.7393 seconds. 
  Full-batch training loss = 0.003974, test loss = 0.145852
  Training set accuracy = 1.000000, Test set accuracy = 0.962700
 epoch 115/200. Took 1.7486 seconds. 
  Full-batch training loss = 0.003919, test loss = 0.145985
  Training set accuracy = 1.000000, Test set accuracy = 0.962400
 epoch 116/200. Took 1.7748 seconds. 
  Full-batch training loss = 0.003873, test loss = 0.145639
  Training set accuracy = 1.000000, Test set accuracy = 0.962400
 epoch 117/200. Took 1.7471 seconds. 
  Full-batch training loss = 0.003820, test loss = 0.146310
  Training set accuracy = 1.000000, Test set accuracy = 0.962500
 epoch 118/200. Took 1.7363 seconds. 
  Full-batch training loss = 0.003779, test loss = 0.146732
  Training set accuracy = 1.000000, Test set accuracy = 0.962600
 epoch 119/200. Took 1.7467 seconds. 
  Full-batch training loss = 0.003725, test loss = 0.146279
  Training set accuracy = 1.000000, Test set accuracy = 0.962800
 epoch 120/200. Took 1.8803 seconds. 
  Full-batch training loss = 0.003674, test loss = 0.146414
  Training set accuracy = 1.000000, Test set accuracy = 0.962600
 epoch 121/200. Took 1.8129 seconds. 
  Full-batch training loss = 0.003631, test loss = 0.146299
  Training set accuracy = 1.000000, Test set accuracy = 0.962800
 epoch 122/200. Took 1.7604 seconds. 
  Full-batch training loss = 0.003584, test loss = 0.146464
  Training set accuracy = 1.000000, Test set accuracy = 0.962500
 epoch 123/200. Took 1.8648 seconds. 
  Full-batch training loss = 0.003544, test loss = 0.146507
  Training set accuracy = 1.000000, Test set accuracy = 0.962800
 epoch 124/200. Took 2.0452 seconds. 
  Full-batch training loss = 0.003499, test loss = 0.146906
  Training set accuracy = 1.000000, Test set accuracy = 0.962600
 epoch 125/200. Took 1.8933 seconds. 
  Full-batch training loss = 0.003455, test loss = 0.146824
  Training set accuracy = 1.000000, Test set accuracy = 0.962600
 epoch 126/200. Took 2.122 seconds. 
  Full-batch training loss = 0.003415, test loss = 0.146984
  Training set accuracy = 1.000000, Test set accuracy = 0.962500
 epoch 127/200. Took 1.7892 seconds. 
  Full-batch training loss = 0.003375, test loss = 0.146938
  Training set accuracy = 1.000000, Test set accuracy = 0.962800
 epoch 128/200. Took 1.9671 seconds. 
  Full-batch training loss = 0.003337, test loss = 0.147065
  Training set accuracy = 1.000000, Test set accuracy = 0.962900
 epoch 129/200. Took 1.8002 seconds. 
  Full-batch training loss = 0.003296, test loss = 0.147230
  Training set accuracy = 1.000000, Test set accuracy = 0.962700
 epoch 130/200. Took 1.7807 seconds. 
  Full-batch training loss = 0.003260, test loss = 0.147250
  Training set accuracy = 1.000000, Test set accuracy = 0.962800
 epoch 131/200. Took 1.8202 seconds. 
  Full-batch training loss = 0.003222, test loss = 0.147324
  Training set accuracy = 1.000000, Test set accuracy = 0.962800
 epoch 132/200. Took 1.8268 seconds. 
  Full-batch training loss = 0.003185, test loss = 0.147563
  Training set accuracy = 1.000000, Test set accuracy = 0.962600
 epoch 133/200. Took 1.8873 seconds. 
  Full-batch training loss = 0.003150, test loss = 0.147635
  Training set accuracy = 1.000000, Test set accuracy = 0.962700
 epoch 134/200. Took 1.7982 seconds. 
  Full-batch training loss = 0.003116, test loss = 0.147822
  Training set accuracy = 1.000000, Test set accuracy = 0.962800
 epoch 135/200. Took 1.9552 seconds. 
  Full-batch training loss = 0.003082, test loss = 0.147869
  Training set accuracy = 1.000000, Test set accuracy = 0.962900
 epoch 136/200. Took 1.8009 seconds. 
  Full-batch training loss = 0.003048, test loss = 0.147840
  Training set accuracy = 1.000000, Test set accuracy = 0.962800
 epoch 137/200. Took 1.7795 seconds. 
  Full-batch training loss = 0.003016, test loss = 0.148008
  Training set accuracy = 1.000000, Test set accuracy = 0.962700
 epoch 138/200. Took 1.8449 seconds. 
  Full-batch training loss = 0.002985, test loss = 0.148015
  Training set accuracy = 1.000000, Test set accuracy = 0.962900
 epoch 139/200. Took 1.7543 seconds. 
  Full-batch training loss = 0.002951, test loss = 0.148081
  Training set accuracy = 1.000000, Test set accuracy = 0.962900
 epoch 140/200. Took 1.7542 seconds. 
  Full-batch training loss = 0.002922, test loss = 0.148460
  Training set accuracy = 1.000000, Test set accuracy = 0.962700
 epoch 141/200. Took 1.8566 seconds. 
  Full-batch training loss = 0.002890, test loss = 0.148443
  Training set accuracy = 1.000000, Test set accuracy = 0.962500
 epoch 142/200. Took 1.8792 seconds. 
  Full-batch training loss = 0.002862, test loss = 0.148277
  Training set accuracy = 1.000000, Test set accuracy = 0.963100
 epoch 143/200. Took 1.78 seconds. 
  Full-batch training loss = 0.002833, test loss = 0.148390
  Training set accuracy = 1.000000, Test set accuracy = 0.962900
 epoch 144/200. Took 1.8688 seconds. 
  Full-batch training loss = 0.002807, test loss = 0.148368
  Training set accuracy = 1.000000, Test set accuracy = 0.962900
 epoch 145/200. Took 1.8661 seconds. 
  Full-batch training loss = 0.002776, test loss = 0.148657
  Training set accuracy = 1.000000, Test set accuracy = 0.962800
 epoch 146/200. Took 1.8383 seconds. 
  Full-batch training loss = 0.002747, test loss = 0.148732
  Training set accuracy = 1.000000, Test set accuracy = 0.963000
 epoch 147/200. Took 1.8192 seconds. 
  Full-batch training loss = 0.002719, test loss = 0.148808
  Training set accuracy = 1.000000, Test set accuracy = 0.962800
 epoch 148/200. Took 1.8936 seconds. 
  Full-batch training loss = 0.002693, test loss = 0.148998
  Training set accuracy = 1.000000, Test set accuracy = 0.962800
 epoch 149/200. Took 1.8379 seconds. 
  Full-batch training loss = 0.002666, test loss = 0.148893
  Training set accuracy = 1.000000, Test set accuracy = 0.962900
 epoch 150/200. Took 1.7643 seconds. 
  Full-batch training loss = 0.002642, test loss = 0.149094
  Training set accuracy = 1.000000, Test set accuracy = 0.963100
 epoch 151/200. Took 1.7641 seconds. 
  Full-batch training loss = 0.002617, test loss = 0.149275
  Training set accuracy = 1.000000, Test set accuracy = 0.963200
 epoch 152/200. Took 1.7543 seconds. 
  Full-batch training loss = 0.002590, test loss = 0.149264
  Training set accuracy = 1.000000, Test set accuracy = 0.962900
 epoch 153/200. Took 1.8467 seconds. 
  Full-batch training loss = 0.002567, test loss = 0.149405
  Training set accuracy = 1.000000, Test set accuracy = 0.963000
 epoch 154/200. Took 1.7742 seconds. 
  Full-batch training loss = 0.002542, test loss = 0.149405
  Training set accuracy = 1.000000, Test set accuracy = 0.963100
 epoch 155/200. Took 1.7899 seconds. 
  Full-batch training loss = 0.002520, test loss = 0.149392
  Training set accuracy = 1.000000, Test set accuracy = 0.963100
 epoch 156/200. Took 1.7604 seconds. 
  Full-batch training loss = 0.002496, test loss = 0.149595
  Training set accuracy = 1.000000, Test set accuracy = 0.963200
 epoch 157/200. Took 1.7594 seconds. 
  Full-batch training loss = 0.002472, test loss = 0.149598
  Training set accuracy = 1.000000, Test set accuracy = 0.963200
 epoch 158/200. Took 1.7831 seconds. 
  Full-batch training loss = 0.002450, test loss = 0.149812
  Training set accuracy = 1.000000, Test set accuracy = 0.963200
 epoch 159/200. Took 1.7649 seconds. 
  Full-batch training loss = 0.002428, test loss = 0.149737
  Training set accuracy = 1.000000, Test set accuracy = 0.963200
 epoch 160/200. Took 1.785 seconds. 
  Full-batch training loss = 0.002406, test loss = 0.149819
  Training set accuracy = 1.000000, Test set accuracy = 0.963200
 epoch 161/200. Took 1.7584 seconds. 
  Full-batch training loss = 0.002385, test loss = 0.150077
  Training set accuracy = 1.000000, Test set accuracy = 0.963100
 epoch 162/200. Took 1.7868 seconds. 
  Full-batch training loss = 0.002365, test loss = 0.149971
  Training set accuracy = 1.000000, Test set accuracy = 0.963300
 epoch 163/200. Took 1.7847 seconds. 
  Full-batch training loss = 0.002343, test loss = 0.150013
  Training set accuracy = 1.000000, Test set accuracy = 0.963500
 epoch 164/200. Took 1.8103 seconds. 
  Full-batch training loss = 0.002322, test loss = 0.150158
  Training set accuracy = 1.000000, Test set accuracy = 0.963100
 epoch 165/200. Took 1.785 seconds. 
  Full-batch training loss = 0.002302, test loss = 0.150215
  Training set accuracy = 1.000000, Test set accuracy = 0.963400
 epoch 166/200. Took 1.7713 seconds. 
  Full-batch training loss = 0.002282, test loss = 0.150422
  Training set accuracy = 1.000000, Test set accuracy = 0.963200
 epoch 167/200. Took 1.7941 seconds. 
  Full-batch training loss = 0.002262, test loss = 0.150394
  Training set accuracy = 1.000000, Test set accuracy = 0.963400
 epoch 168/200. Took 1.7667 seconds. 
  Full-batch training loss = 0.002243, test loss = 0.150478
  Training set accuracy = 1.000000, Test set accuracy = 0.963400
 epoch 169/200. Took 1.7927 seconds. 
  Full-batch training loss = 0.002225, test loss = 0.150557
  Training set accuracy = 1.000000, Test set accuracy = 0.963400
 epoch 170/200. Took 1.7651 seconds. 
  Full-batch training loss = 0.002207, test loss = 0.150616
  Training set accuracy = 1.000000, Test set accuracy = 0.963400
 epoch 171/200. Took 1.7688 seconds. 
  Full-batch training loss = 0.002188, test loss = 0.150696
  Training set accuracy = 1.000000, Test set accuracy = 0.963300
 epoch 172/200. Took 1.7495 seconds. 
  Full-batch training loss = 0.002170, test loss = 0.150845
  Training set accuracy = 1.000000, Test set accuracy = 0.963400
 epoch 173/200. Took 1.7629 seconds. 
  Full-batch training loss = 0.002152, test loss = 0.150859
  Training set accuracy = 1.000000, Test set accuracy = 0.963300
 epoch 174/200. Took 1.7594 seconds. 
  Full-batch training loss = 0.002134, test loss = 0.150983
  Training set accuracy = 1.000000, Test set accuracy = 0.963400
 epoch 175/200. Took 1.7646 seconds. 
  Full-batch training loss = 0.002117, test loss = 0.151123
  Training set accuracy = 1.000000, Test set accuracy = 0.963400
 epoch 176/200. Took 1.7625 seconds. 
  Full-batch training loss = 0.002100, test loss = 0.151154
  Training set accuracy = 1.000000, Test set accuracy = 0.963300
 epoch 177/200. Took 1.7592 seconds. 
  Full-batch training loss = 0.002083, test loss = 0.151146
  Training set accuracy = 1.000000, Test set accuracy = 0.963500
 epoch 178/200. Took 1.8022 seconds. 
  Full-batch training loss = 0.002067, test loss = 0.151240
  Training set accuracy = 1.000000, Test set accuracy = 0.963400
 epoch 179/200. Took 1.7566 seconds. 
  Full-batch training loss = 0.002051, test loss = 0.151264
  Training set accuracy = 1.000000, Test set accuracy = 0.963400
 epoch 180/200. Took 1.736 seconds. 
  Full-batch training loss = 0.002035, test loss = 0.151382
  Training set accuracy = 1.000000, Test set accuracy = 0.963300
 epoch 181/200. Took 1.7472 seconds. 
  Full-batch training loss = 0.002018, test loss = 0.151441
  Training set accuracy = 1.000000, Test set accuracy = 0.963300
 epoch 182/200. Took 1.7807 seconds. 
  Full-batch training loss = 0.002003, test loss = 0.151570
  Training set accuracy = 1.000000, Test set accuracy = 0.963400
 epoch 183/200. Took 1.7665 seconds. 
  Full-batch training loss = 0.001988, test loss = 0.151493
  Training set accuracy = 1.000000, Test set accuracy = 0.963300
 epoch 184/200. Took 1.7685 seconds. 
  Full-batch training loss = 0.001973, test loss = 0.151521
  Training set accuracy = 1.000000, Test set accuracy = 0.963400
 epoch 185/200. Took 1.8706 seconds. 
  Full-batch training loss = 0.001958, test loss = 0.151658
  Training set accuracy = 1.000000, Test set accuracy = 0.963400
 epoch 186/200. Took 1.7778 seconds. 
  Full-batch training loss = 0.001943, test loss = 0.151718
  Training set accuracy = 1.000000, Test set accuracy = 0.963400
 epoch 187/200. Took 1.7704 seconds. 
  Full-batch training loss = 0.001928, test loss = 0.151932
  Training set accuracy = 1.000000, Test set accuracy = 0.963500
 epoch 188/200. Took 1.7727 seconds. 
  Full-batch training loss = 0.001914, test loss = 0.151853
  Training set accuracy = 1.000000, Test set accuracy = 0.963400
 epoch 189/200. Took 1.7648 seconds. 
  Full-batch training loss = 0.001900, test loss = 0.151924
  Training set accuracy = 1.000000, Test set accuracy = 0.963400
 epoch 190/200. Took 1.762 seconds. 
  Full-batch training loss = 0.001886, test loss = 0.152121
  Training set accuracy = 1.000000, Test set accuracy = 0.963500
 epoch 191/200. Took 1.7582 seconds. 
  Full-batch training loss = 0.001872, test loss = 0.152141
  Training set accuracy = 1.000000, Test set accuracy = 0.963400
 epoch 192/200. Took 1.7572 seconds. 
  Full-batch training loss = 0.001859, test loss = 0.152313
  Training set accuracy = 1.000000, Test set accuracy = 0.963400
 epoch 193/200. Took 1.7646 seconds. 
  Full-batch training loss = 0.001845, test loss = 0.152329
  Training set accuracy = 1.000000, Test set accuracy = 0.963600
 epoch 194/200. Took 1.7658 seconds. 
  Full-batch training loss = 0.001831, test loss = 0.152276
  Training set accuracy = 1.000000, Test set accuracy = 0.963500
 epoch 195/200. Took 1.7675 seconds. 
  Full-batch training loss = 0.001819, test loss = 0.152400
  Training set accuracy = 1.000000, Test set accuracy = 0.963500
 epoch 196/200. Took 1.768 seconds. 
  Full-batch training loss = 0.001806, test loss = 0.152483
  Training set accuracy = 1.000000, Test set accuracy = 0.963500
 epoch 197/200. Took 1.7571 seconds. 
  Full-batch training loss = 0.001793, test loss = 0.152473
  Training set accuracy = 1.000000, Test set accuracy = 0.963500
 epoch 198/200. Took 1.7542 seconds. 
  Full-batch training loss = 0.001781, test loss = 0.152639
  Training set accuracy = 1.000000, Test set accuracy = 0.963800
 epoch 199/200. Took 1.7732 seconds. 
  Full-batch training loss = 0.001768, test loss = 0.152729
  Training set accuracy = 1.000000, Test set accuracy = 0.963700
 epoch 200/200. Took 1.7733 seconds. 
  Full-batch training loss = 0.001755, test loss = 0.152719
  Training set accuracy = 1.000000, Test set accuracy = 0.963500
Elapsed time is 900.109758 seconds.
End Training
