==========================================================
  Architecture is 500 500 500 // 3 layer x 500 neuron
----------------------------------------------------------
Execution 156/270
----------------------------------------------------------
* ReducedData	5000
* PreTrainRBM	true
	-> Epochs	50
	-> LearningRate	0.05
* Fine-tunning
	-> Epochs	500
	-> LearningRate	0.20
==========================================================
Start Training
Number of training examples: 5000  BatchSize: 100
Number of inputs: 784  Number of outputs: 10
Number of hidden layers: 3 (500  500  500)
Training binary-binary RBM in layer 1 (784  500) with CD1 for 50 epochs
 epoch 1/50. Took 0.5468 seconds. Average reconstruction error is: 37.9156
 epoch 2/50. Took 0.54411 seconds. Average reconstruction error is: 20.5481
 epoch 3/50. Took 0.53868 seconds. Average reconstruction error is: 16.5596
 epoch 4/50. Took 0.54664 seconds. Average reconstruction error is: 14.6028
 epoch 5/50. Took 0.54427 seconds. Average reconstruction error is: 13.319
 epoch 6/50. Took 0.54169 seconds. Average reconstruction error is: 12.4243
 epoch 7/50. Took 0.53947 seconds. Average reconstruction error is: 11.7425
 epoch 8/50. Took 0.53902 seconds. Average reconstruction error is: 11.2203
 epoch 9/50. Took 0.54752 seconds. Average reconstruction error is: 10.7497
 epoch 10/50. Took 0.5444 seconds. Average reconstruction error is: 10.3801
 epoch 11/50. Took 0.55098 seconds. Average reconstruction error is: 10.053
 epoch 12/50. Took 0.55192 seconds. Average reconstruction error is: 9.8035
 epoch 13/50. Took 0.5567 seconds. Average reconstruction error is: 9.5067
 epoch 14/50. Took 0.55533 seconds. Average reconstruction error is: 9.2732
 epoch 15/50. Took 0.54415 seconds. Average reconstruction error is: 9.1313
 epoch 16/50. Took 0.56199 seconds. Average reconstruction error is: 8.9474
 epoch 17/50. Took 0.54642 seconds. Average reconstruction error is: 8.808
 epoch 18/50. Took 0.5511 seconds. Average reconstruction error is: 8.6726
 epoch 19/50. Took 0.5446 seconds. Average reconstruction error is: 8.4876
 epoch 20/50. Took 0.55172 seconds. Average reconstruction error is: 8.3746
 epoch 21/50. Took 0.54195 seconds. Average reconstruction error is: 8.2573
 epoch 22/50. Took 0.551 seconds. Average reconstruction error is: 8.1938
 epoch 23/50. Took 0.56679 seconds. Average reconstruction error is: 8.1479
 epoch 24/50. Took 0.55478 seconds. Average reconstruction error is: 8.0417
 epoch 25/50. Took 0.54393 seconds. Average reconstruction error is: 7.9293
 epoch 26/50. Took 0.54641 seconds. Average reconstruction error is: 7.8718
 epoch 27/50. Took 0.54055 seconds. Average reconstruction error is: 7.8584
 epoch 28/50. Took 0.53953 seconds. Average reconstruction error is: 7.8024
 epoch 29/50. Took 0.54516 seconds. Average reconstruction error is: 7.7449
 epoch 30/50. Took 0.54396 seconds. Average reconstruction error is: 7.7061
 epoch 31/50. Took 0.54755 seconds. Average reconstruction error is: 7.611
 epoch 32/50. Took 0.54603 seconds. Average reconstruction error is: 7.5822
 epoch 33/50. Took 0.54081 seconds. Average reconstruction error is: 7.5345
 epoch 34/50. Took 0.54625 seconds. Average reconstruction error is: 7.5027
 epoch 35/50. Took 0.55404 seconds. Average reconstruction error is: 7.4853
 epoch 36/50. Took 0.55116 seconds. Average reconstruction error is: 7.4474
 epoch 37/50. Took 0.5475 seconds. Average reconstruction error is: 7.3995
 epoch 38/50. Took 0.55094 seconds. Average reconstruction error is: 7.3718
 epoch 39/50. Took 0.54705 seconds. Average reconstruction error is: 7.3895
 epoch 40/50. Took 0.54992 seconds. Average reconstruction error is: 7.3293
 epoch 41/50. Took 0.54403 seconds. Average reconstruction error is: 7.2895
 epoch 42/50. Took 0.54668 seconds. Average reconstruction error is: 7.2626
 epoch 43/50. Took 0.54146 seconds. Average reconstruction error is: 7.2232
 epoch 44/50. Took 0.5585 seconds. Average reconstruction error is: 7.2341
 epoch 45/50. Took 0.55162 seconds. Average reconstruction error is: 7.1707
 epoch 46/50. Took 0.5491 seconds. Average reconstruction error is: 7.1697
 epoch 47/50. Took 0.54722 seconds. Average reconstruction error is: 7.1538
 epoch 48/50. Took 0.53896 seconds. Average reconstruction error is: 7.135
 epoch 49/50. Took 0.54865 seconds. Average reconstruction error is: 7.0859
 epoch 50/50. Took 0.54956 seconds. Average reconstruction error is: 7.0629
Training binary-binary RBM in layer 2 (500  500) with CD1 for 50 epochs
 epoch 1/50. Took 0.37385 seconds. Average reconstruction error is: 39.948
 epoch 2/50. Took 0.37794 seconds. Average reconstruction error is: 22.2474
 epoch 3/50. Took 0.38019 seconds. Average reconstruction error is: 17.7323
 epoch 4/50. Took 0.38204 seconds. Average reconstruction error is: 15.6285
 epoch 5/50. Took 0.37776 seconds. Average reconstruction error is: 14.2923
 epoch 6/50. Took 0.38004 seconds. Average reconstruction error is: 13.4383
 epoch 7/50. Took 0.38187 seconds. Average reconstruction error is: 12.7364
 epoch 8/50. Took 0.37723 seconds. Average reconstruction error is: 12.3072
 epoch 9/50. Took 0.38193 seconds. Average reconstruction error is: 11.9315
 epoch 10/50. Took 0.38185 seconds. Average reconstruction error is: 11.6449
 epoch 11/50. Took 0.37894 seconds. Average reconstruction error is: 11.4079
 epoch 12/50. Took 0.38333 seconds. Average reconstruction error is: 11.1105
 epoch 13/50. Took 0.376 seconds. Average reconstruction error is: 10.9669
 epoch 14/50. Took 0.37909 seconds. Average reconstruction error is: 10.8324
 epoch 15/50. Took 0.38141 seconds. Average reconstruction error is: 10.7194
 epoch 16/50. Took 0.38566 seconds. Average reconstruction error is: 10.5616
 epoch 17/50. Took 0.38103 seconds. Average reconstruction error is: 10.4874
 epoch 18/50. Took 0.38007 seconds. Average reconstruction error is: 10.3508
 epoch 19/50. Took 0.38523 seconds. Average reconstruction error is: 10.2732
 epoch 20/50. Took 0.38561 seconds. Average reconstruction error is: 10.1366
 epoch 21/50. Took 0.38364 seconds. Average reconstruction error is: 10.0448
 epoch 22/50. Took 0.37678 seconds. Average reconstruction error is: 10.019
 epoch 23/50. Took 0.38037 seconds. Average reconstruction error is: 9.95
 epoch 24/50. Took 0.38149 seconds. Average reconstruction error is: 9.8655
 epoch 25/50. Took 0.3853 seconds. Average reconstruction error is: 9.8013
 epoch 26/50. Took 0.38358 seconds. Average reconstruction error is: 9.7215
 epoch 27/50. Took 0.38233 seconds. Average reconstruction error is: 9.6404
 epoch 28/50. Took 0.38317 seconds. Average reconstruction error is: 9.608
 epoch 29/50. Took 0.38535 seconds. Average reconstruction error is: 9.5706
 epoch 30/50. Took 0.38547 seconds. Average reconstruction error is: 9.5229
 epoch 31/50. Took 0.38248 seconds. Average reconstruction error is: 9.4178
 epoch 32/50. Took 0.38309 seconds. Average reconstruction error is: 9.4533
 epoch 33/50. Took 0.38257 seconds. Average reconstruction error is: 9.3539
 epoch 34/50. Took 0.38067 seconds. Average reconstruction error is: 9.2505
 epoch 35/50. Took 0.3813 seconds. Average reconstruction error is: 9.2696
 epoch 36/50. Took 0.37597 seconds. Average reconstruction error is: 9.2234
 epoch 37/50. Took 0.38219 seconds. Average reconstruction error is: 9.1519
 epoch 38/50. Took 0.38187 seconds. Average reconstruction error is: 9.0948
 epoch 39/50. Took 0.38179 seconds. Average reconstruction error is: 9.0419
 epoch 40/50. Took 0.37993 seconds. Average reconstruction error is: 9.0247
 epoch 41/50. Took 0.38492 seconds. Average reconstruction error is: 8.9645
 epoch 42/50. Took 0.38379 seconds. Average reconstruction error is: 8.9538
 epoch 43/50. Took 0.38464 seconds. Average reconstruction error is: 8.8791
 epoch 44/50. Took 0.38115 seconds. Average reconstruction error is: 8.8034
 epoch 45/50. Took 0.38292 seconds. Average reconstruction error is: 8.8167
 epoch 46/50. Took 0.3809 seconds. Average reconstruction error is: 8.7748
 epoch 47/50. Took 0.37969 seconds. Average reconstruction error is: 8.743
 epoch 48/50. Took 0.38319 seconds. Average reconstruction error is: 8.7092
 epoch 49/50. Took 0.38132 seconds. Average reconstruction error is: 8.6665
 epoch 50/50. Took 0.37916 seconds. Average reconstruction error is: 8.6413
Training binary-binary RBM in layer 3 (500  500) with CD1 for 50 epochs
 epoch 1/50. Took 0.38288 seconds. Average reconstruction error is: 31.3626
 epoch 2/50. Took 0.37798 seconds. Average reconstruction error is: 15.8592
 epoch 3/50. Took 0.38311 seconds. Average reconstruction error is: 12.4244
 epoch 4/50. Took 0.38112 seconds. Average reconstruction error is: 10.7002
 epoch 5/50. Took 0.38541 seconds. Average reconstruction error is: 9.6399
 epoch 6/50. Took 0.38557 seconds. Average reconstruction error is: 9.0139
 epoch 7/50. Took 0.3828 seconds. Average reconstruction error is: 8.5475
 epoch 8/50. Took 0.38738 seconds. Average reconstruction error is: 8.2396
 epoch 9/50. Took 0.38286 seconds. Average reconstruction error is: 7.9442
 epoch 10/50. Took 0.38712 seconds. Average reconstruction error is: 7.7662
 epoch 11/50. Took 0.37865 seconds. Average reconstruction error is: 7.6037
 epoch 12/50. Took 0.38065 seconds. Average reconstruction error is: 7.481
 epoch 13/50. Took 0.37841 seconds. Average reconstruction error is: 7.3309
 epoch 14/50. Took 0.37949 seconds. Average reconstruction error is: 7.224
 epoch 15/50. Took 0.37976 seconds. Average reconstruction error is: 7.2453
 epoch 16/50. Took 0.38159 seconds. Average reconstruction error is: 7.103
 epoch 17/50. Took 0.38048 seconds. Average reconstruction error is: 7.0307
 epoch 18/50. Took 0.38623 seconds. Average reconstruction error is: 6.9518
 epoch 19/50. Took 0.37868 seconds. Average reconstruction error is: 6.9748
 epoch 20/50. Took 0.38532 seconds. Average reconstruction error is: 6.889
 epoch 21/50. Took 0.38093 seconds. Average reconstruction error is: 6.7967
 epoch 22/50. Took 0.3846 seconds. Average reconstruction error is: 6.8046
 epoch 23/50. Took 0.37971 seconds. Average reconstruction error is: 6.7735
 epoch 24/50. Took 0.38465 seconds. Average reconstruction error is: 6.7216
 epoch 25/50. Took 0.38424 seconds. Average reconstruction error is: 6.6938
 epoch 26/50. Took 0.38381 seconds. Average reconstruction error is: 6.6952
 epoch 27/50. Took 0.38273 seconds. Average reconstruction error is: 6.702
 epoch 28/50. Took 0.38222 seconds. Average reconstruction error is: 6.6624
 epoch 29/50. Took 0.38002 seconds. Average reconstruction error is: 6.6633
 epoch 30/50. Took 0.38291 seconds. Average reconstruction error is: 6.6467
 epoch 31/50. Took 0.37619 seconds. Average reconstruction error is: 6.634
 epoch 32/50. Took 0.3851 seconds. Average reconstruction error is: 6.5836
 epoch 33/50. Took 0.37778 seconds. Average reconstruction error is: 6.5526
 epoch 34/50. Took 0.38157 seconds. Average reconstruction error is: 6.5429
 epoch 35/50. Took 0.38204 seconds. Average reconstruction error is: 6.5633
 epoch 36/50. Took 0.37778 seconds. Average reconstruction error is: 6.5193
 epoch 37/50. Took 0.385 seconds. Average reconstruction error is: 6.4912
 epoch 38/50. Took 0.38475 seconds. Average reconstruction error is: 6.5059
 epoch 39/50. Took 0.38659 seconds. Average reconstruction error is: 6.4636
 epoch 40/50. Took 0.3859 seconds. Average reconstruction error is: 6.4282
 epoch 41/50. Took 0.38601 seconds. Average reconstruction error is: 6.4171
 epoch 42/50. Took 0.38308 seconds. Average reconstruction error is: 6.422
 epoch 43/50. Took 0.38115 seconds. Average reconstruction error is: 6.4067
 epoch 44/50. Took 0.37831 seconds. Average reconstruction error is: 6.4072
 epoch 45/50. Took 0.37907 seconds. Average reconstruction error is: 6.412
 epoch 46/50. Took 0.3803 seconds. Average reconstruction error is: 6.3987
 epoch 47/50. Took 0.38451 seconds. Average reconstruction error is: 6.3745
 epoch 48/50. Took 0.38079 seconds. Average reconstruction error is: 6.386
 epoch 49/50. Took 0.38128 seconds. Average reconstruction error is: 6.3777
 epoch 50/50. Took 0.37993 seconds. Average reconstruction error is: 6.3566
Training NN  (784  500  500  500   10) with BackPropagation for 500 epochs
 epoch 1/500. Took 0.85769 seconds. 
  Full-batch training loss = 0.274878, test loss = 0.306220
  Training set accuracy = 0.918800, Test set accuracy = 0.911300
 epoch 2/500. Took 0.87486 seconds. 
  Full-batch training loss = 0.229341, test loss = 0.287261
  Training set accuracy = 0.927400, Test set accuracy = 0.912600
 epoch 3/500. Took 0.88 seconds. 
  Full-batch training loss = 0.166859, test loss = 0.237658
  Training set accuracy = 0.952800, Test set accuracy = 0.928200
 epoch 4/500. Took 0.87451 seconds. 
  Full-batch training loss = 0.135530, test loss = 0.218479
  Training set accuracy = 0.962600, Test set accuracy = 0.933600
 epoch 5/500. Took 0.87068 seconds. 
  Full-batch training loss = 0.113077, test loss = 0.205642
  Training set accuracy = 0.971000, Test set accuracy = 0.938600
 epoch 6/500. Took 0.88386 seconds. 
  Full-batch training loss = 0.104549, test loss = 0.210449
  Training set accuracy = 0.973200, Test set accuracy = 0.936800
 epoch 7/500. Took 0.87219 seconds. 
  Full-batch training loss = 0.088573, test loss = 0.201618
  Training set accuracy = 0.977400, Test set accuracy = 0.941900
 epoch 8/500. Took 0.86895 seconds. 
  Full-batch training loss = 0.072384, test loss = 0.192352
  Training set accuracy = 0.986200, Test set accuracy = 0.944400
 epoch 9/500. Took 0.87846 seconds. 
  Full-batch training loss = 0.062818, test loss = 0.185604
  Training set accuracy = 0.988800, Test set accuracy = 0.944200
 epoch 10/500. Took 0.88962 seconds. 
  Full-batch training loss = 0.054739, test loss = 0.184751
  Training set accuracy = 0.990600, Test set accuracy = 0.944700
 epoch 11/500. Took 0.87444 seconds. 
  Full-batch training loss = 0.049119, test loss = 0.186832
  Training set accuracy = 0.991600, Test set accuracy = 0.945500
 epoch 12/500. Took 0.86872 seconds. 
  Full-batch training loss = 0.039428, test loss = 0.178282
  Training set accuracy = 0.994600, Test set accuracy = 0.947800
 epoch 13/500. Took 0.87341 seconds. 
  Full-batch training loss = 0.036353, test loss = 0.184186
  Training set accuracy = 0.996400, Test set accuracy = 0.948300
 epoch 14/500. Took 0.87617 seconds. 
  Full-batch training loss = 0.036158, test loss = 0.182590
  Training set accuracy = 0.995000, Test set accuracy = 0.946400
 epoch 15/500. Took 0.86631 seconds. 
  Full-batch training loss = 0.028841, test loss = 0.178788
  Training set accuracy = 0.997600, Test set accuracy = 0.949600
 epoch 16/500. Took 0.86595 seconds. 
  Full-batch training loss = 0.024865, test loss = 0.176224
  Training set accuracy = 0.998800, Test set accuracy = 0.950200
 epoch 17/500. Took 0.8697 seconds. 
  Full-batch training loss = 0.024648, test loss = 0.179861
  Training set accuracy = 0.998600, Test set accuracy = 0.948200
 epoch 18/500. Took 0.87435 seconds. 
  Full-batch training loss = 0.022325, test loss = 0.179254
  Training set accuracy = 0.998800, Test set accuracy = 0.949900
 epoch 19/500. Took 0.88064 seconds. 
  Full-batch training loss = 0.019360, test loss = 0.178783
  Training set accuracy = 0.999000, Test set accuracy = 0.948800
 epoch 20/500. Took 0.87729 seconds. 
  Full-batch training loss = 0.016973, test loss = 0.177805
  Training set accuracy = 0.999200, Test set accuracy = 0.950500
 epoch 21/500. Took 0.88092 seconds. 
  Full-batch training loss = 0.015534, test loss = 0.177567
  Training set accuracy = 0.999800, Test set accuracy = 0.951100
 epoch 22/500. Took 0.87255 seconds. 
  Full-batch training loss = 0.014938, test loss = 0.178236
  Training set accuracy = 0.999600, Test set accuracy = 0.949500
 epoch 23/500. Took 0.86387 seconds. 
  Full-batch training loss = 0.014329, test loss = 0.182857
  Training set accuracy = 0.999600, Test set accuracy = 0.949700
 epoch 24/500. Took 0.86634 seconds. 
  Full-batch training loss = 0.012563, test loss = 0.178723
  Training set accuracy = 1.000000, Test set accuracy = 0.950600
 epoch 25/500. Took 0.86559 seconds. 
  Full-batch training loss = 0.012279, test loss = 0.179144
  Training set accuracy = 1.000000, Test set accuracy = 0.950900
 epoch 26/500. Took 0.87487 seconds. 
  Full-batch training loss = 0.011515, test loss = 0.178293
  Training set accuracy = 0.999800, Test set accuracy = 0.950700
 epoch 27/500. Took 0.86528 seconds. 
  Full-batch training loss = 0.010799, test loss = 0.179799
  Training set accuracy = 1.000000, Test set accuracy = 0.950300
 epoch 28/500. Took 0.8567 seconds. 
  Full-batch training loss = 0.010161, test loss = 0.181636
  Training set accuracy = 1.000000, Test set accuracy = 0.950000
 epoch 29/500. Took 0.86278 seconds. 
  Full-batch training loss = 0.009201, test loss = 0.181101
  Training set accuracy = 1.000000, Test set accuracy = 0.951000
 epoch 30/500. Took 0.86853 seconds. 
  Full-batch training loss = 0.008729, test loss = 0.181140
  Training set accuracy = 1.000000, Test set accuracy = 0.951900
 epoch 31/500. Took 0.8675 seconds. 
  Full-batch training loss = 0.008390, test loss = 0.182693
  Training set accuracy = 1.000000, Test set accuracy = 0.951100
 epoch 32/500. Took 0.87374 seconds. 
  Full-batch training loss = 0.008018, test loss = 0.181969
  Training set accuracy = 1.000000, Test set accuracy = 0.951400
 epoch 33/500. Took 0.87279 seconds. 
  Full-batch training loss = 0.007556, test loss = 0.182562
  Training set accuracy = 1.000000, Test set accuracy = 0.950800
 epoch 34/500. Took 0.86628 seconds. 
  Full-batch training loss = 0.007179, test loss = 0.182100
  Training set accuracy = 1.000000, Test set accuracy = 0.951000
 epoch 35/500. Took 0.86326 seconds. 
  Full-batch training loss = 0.006875, test loss = 0.183138
  Training set accuracy = 1.000000, Test set accuracy = 0.952000
 epoch 36/500. Took 0.8617 seconds. 
  Full-batch training loss = 0.006556, test loss = 0.183718
  Training set accuracy = 1.000000, Test set accuracy = 0.951200
 epoch 37/500. Took 0.85692 seconds. 
  Full-batch training loss = 0.006357, test loss = 0.184505
  Training set accuracy = 1.000000, Test set accuracy = 0.952400
 epoch 38/500. Took 0.87841 seconds. 
  Full-batch training loss = 0.006053, test loss = 0.183692
  Training set accuracy = 1.000000, Test set accuracy = 0.952000
 epoch 39/500. Took 0.86946 seconds. 
  Full-batch training loss = 0.005856, test loss = 0.184289
  Training set accuracy = 1.000000, Test set accuracy = 0.951700
 epoch 40/500. Took 0.86952 seconds. 
  Full-batch training loss = 0.005606, test loss = 0.184846
  Training set accuracy = 1.000000, Test set accuracy = 0.952100
 epoch 41/500. Took 0.87503 seconds. 
  Full-batch training loss = 0.005556, test loss = 0.185911
  Training set accuracy = 1.000000, Test set accuracy = 0.951800
 epoch 42/500. Took 0.87129 seconds. 
  Full-batch training loss = 0.005231, test loss = 0.186118
  Training set accuracy = 1.000000, Test set accuracy = 0.951800
 epoch 43/500. Took 0.8764 seconds. 
  Full-batch training loss = 0.005130, test loss = 0.186137
  Training set accuracy = 1.000000, Test set accuracy = 0.951600
 epoch 44/500. Took 0.86932 seconds. 
  Full-batch training loss = 0.004854, test loss = 0.185530
  Training set accuracy = 1.000000, Test set accuracy = 0.952200
 epoch 45/500. Took 0.86119 seconds. 
  Full-batch training loss = 0.004710, test loss = 0.186817
  Training set accuracy = 1.000000, Test set accuracy = 0.952500
 epoch 46/500. Took 0.89876 seconds. 
  Full-batch training loss = 0.004581, test loss = 0.186469
  Training set accuracy = 1.000000, Test set accuracy = 0.951800
 epoch 47/500. Took 0.86953 seconds. 
  Full-batch training loss = 0.004440, test loss = 0.187190
  Training set accuracy = 1.000000, Test set accuracy = 0.951800
 epoch 48/500. Took 0.86719 seconds. 
  Full-batch training loss = 0.004307, test loss = 0.187610
  Training set accuracy = 1.000000, Test set accuracy = 0.952100
 epoch 49/500. Took 0.87957 seconds. 
  Full-batch training loss = 0.004177, test loss = 0.187729
  Training set accuracy = 1.000000, Test set accuracy = 0.952900
 epoch 50/500. Took 0.87606 seconds. 
  Full-batch training loss = 0.004035, test loss = 0.187981
  Training set accuracy = 1.000000, Test set accuracy = 0.951900
 epoch 51/500. Took 0.86275 seconds. 
  Full-batch training loss = 0.003947, test loss = 0.187872
  Training set accuracy = 1.000000, Test set accuracy = 0.951900
 epoch 52/500. Took 0.86162 seconds. 
  Full-batch training loss = 0.003834, test loss = 0.188486
  Training set accuracy = 1.000000, Test set accuracy = 0.952200
 epoch 53/500. Took 0.87742 seconds. 
  Full-batch training loss = 0.003726, test loss = 0.188840
  Training set accuracy = 1.000000, Test set accuracy = 0.951900
 epoch 54/500. Took 0.87357 seconds. 
  Full-batch training loss = 0.003643, test loss = 0.188894
  Training set accuracy = 1.000000, Test set accuracy = 0.952300
 epoch 55/500. Took 0.86561 seconds. 
  Full-batch training loss = 0.003547, test loss = 0.189024
  Training set accuracy = 1.000000, Test set accuracy = 0.952300
 epoch 56/500. Took 0.86834 seconds. 
  Full-batch training loss = 0.003463, test loss = 0.190166
  Training set accuracy = 1.000000, Test set accuracy = 0.952900
 epoch 57/500. Took 0.85857 seconds. 
  Full-batch training loss = 0.003365, test loss = 0.189887
  Training set accuracy = 1.000000, Test set accuracy = 0.952400
 epoch 58/500. Took 0.865 seconds. 
  Full-batch training loss = 0.003294, test loss = 0.190506
  Training set accuracy = 1.000000, Test set accuracy = 0.953300
 epoch 59/500. Took 0.86354 seconds. 
  Full-batch training loss = 0.003199, test loss = 0.190284
  Training set accuracy = 1.000000, Test set accuracy = 0.952600
 epoch 60/500. Took 0.86813 seconds. 
  Full-batch training loss = 0.003131, test loss = 0.190259
  Training set accuracy = 1.000000, Test set accuracy = 0.952100
 epoch 61/500. Took 0.87104 seconds. 
  Full-batch training loss = 0.003089, test loss = 0.191243
  Training set accuracy = 1.000000, Test set accuracy = 0.953200
 epoch 62/500. Took 0.86049 seconds. 
  Full-batch training loss = 0.003004, test loss = 0.191184
  Training set accuracy = 1.000000, Test set accuracy = 0.951900
 epoch 63/500. Took 0.86563 seconds. 
  Full-batch training loss = 0.002943, test loss = 0.192038
  Training set accuracy = 1.000000, Test set accuracy = 0.953400
 epoch 64/500. Took 0.87361 seconds. 
  Full-batch training loss = 0.002875, test loss = 0.191919
  Training set accuracy = 1.000000, Test set accuracy = 0.953000
 epoch 65/500. Took 0.86373 seconds. 
  Full-batch training loss = 0.002806, test loss = 0.192386
  Training set accuracy = 1.000000, Test set accuracy = 0.953100
 epoch 66/500. Took 0.8738 seconds. 
  Full-batch training loss = 0.002750, test loss = 0.191813
  Training set accuracy = 1.000000, Test set accuracy = 0.952500
 epoch 67/500. Took 0.85837 seconds. 
  Full-batch training loss = 0.002683, test loss = 0.192339
  Training set accuracy = 1.000000, Test set accuracy = 0.952800
 epoch 68/500. Took 0.85597 seconds. 
  Full-batch training loss = 0.002632, test loss = 0.192620
  Training set accuracy = 1.000000, Test set accuracy = 0.952600
 epoch 69/500. Took 0.87619 seconds. 
  Full-batch training loss = 0.002586, test loss = 0.192681
  Training set accuracy = 1.000000, Test set accuracy = 0.952300
 epoch 70/500. Took 0.87107 seconds. 
  Full-batch training loss = 0.002538, test loss = 0.192464
  Training set accuracy = 1.000000, Test set accuracy = 0.952500
 epoch 71/500. Took 0.85667 seconds. 
  Full-batch training loss = 0.002511, test loss = 0.193471
  Training set accuracy = 1.000000, Test set accuracy = 0.952900
 epoch 72/500. Took 0.8765 seconds. 
  Full-batch training loss = 0.002450, test loss = 0.193696
  Training set accuracy = 1.000000, Test set accuracy = 0.953300
 epoch 73/500. Took 0.86237 seconds. 
  Full-batch training loss = 0.002395, test loss = 0.193682
  Training set accuracy = 1.000000, Test set accuracy = 0.953000
 epoch 74/500. Took 0.87716 seconds. 
  Full-batch training loss = 0.002349, test loss = 0.193714
  Training set accuracy = 1.000000, Test set accuracy = 0.952900
 epoch 75/500. Took 0.87033 seconds. 
  Full-batch training loss = 0.002318, test loss = 0.194030
  Training set accuracy = 1.000000, Test set accuracy = 0.953700
 epoch 76/500. Took 0.87837 seconds. 
  Full-batch training loss = 0.002282, test loss = 0.194072
  Training set accuracy = 1.000000, Test set accuracy = 0.952600
 epoch 77/500. Took 0.87484 seconds. 
  Full-batch training loss = 0.002229, test loss = 0.194466
  Training set accuracy = 1.000000, Test set accuracy = 0.953100
 epoch 78/500. Took 0.87882 seconds. 
  Full-batch training loss = 0.002192, test loss = 0.194811
  Training set accuracy = 1.000000, Test set accuracy = 0.953300
 epoch 79/500. Took 0.86624 seconds. 
  Full-batch training loss = 0.002157, test loss = 0.194907
  Training set accuracy = 1.000000, Test set accuracy = 0.953200
 epoch 80/500. Took 0.87294 seconds. 
  Full-batch training loss = 0.002123, test loss = 0.195007
  Training set accuracy = 1.000000, Test set accuracy = 0.952500
 epoch 81/500. Took 0.87494 seconds. 
  Full-batch training loss = 0.002088, test loss = 0.195154
  Training set accuracy = 1.000000, Test set accuracy = 0.952800
 epoch 82/500. Took 0.88108 seconds. 
  Full-batch training loss = 0.002054, test loss = 0.195798
  Training set accuracy = 1.000000, Test set accuracy = 0.953500
 epoch 83/500. Took 0.86827 seconds. 
  Full-batch training loss = 0.002021, test loss = 0.195766
  Training set accuracy = 1.000000, Test set accuracy = 0.953100
 epoch 84/500. Took 0.86474 seconds. 
  Full-batch training loss = 0.001984, test loss = 0.195870
  Training set accuracy = 1.000000, Test set accuracy = 0.953300
 epoch 85/500. Took 0.87644 seconds. 
  Full-batch training loss = 0.001956, test loss = 0.195946
  Training set accuracy = 1.000000, Test set accuracy = 0.953400
 epoch 86/500. Took 0.87736 seconds. 
  Full-batch training loss = 0.001927, test loss = 0.196343
  Training set accuracy = 1.000000, Test set accuracy = 0.953200
 epoch 87/500. Took 0.8716 seconds. 
  Full-batch training loss = 0.001903, test loss = 0.196301
  Training set accuracy = 1.000000, Test set accuracy = 0.952800
 epoch 88/500. Took 0.86548 seconds. 
  Full-batch training loss = 0.001866, test loss = 0.196626
  Training set accuracy = 1.000000, Test set accuracy = 0.953200
 epoch 89/500. Took 0.8633 seconds. 
  Full-batch training loss = 0.001839, test loss = 0.196759
  Training set accuracy = 1.000000, Test set accuracy = 0.952800
 epoch 90/500. Took 0.86996 seconds. 
  Full-batch training loss = 0.001813, test loss = 0.197163
  Training set accuracy = 1.000000, Test set accuracy = 0.953300
 epoch 91/500. Took 0.86268 seconds. 
  Full-batch training loss = 0.001788, test loss = 0.197102
  Training set accuracy = 1.000000, Test set accuracy = 0.953500
 epoch 92/500. Took 0.87274 seconds. 
  Full-batch training loss = 0.001765, test loss = 0.197237
  Training set accuracy = 1.000000, Test set accuracy = 0.953600
 epoch 93/500. Took 0.87012 seconds. 
  Full-batch training loss = 0.001738, test loss = 0.197492
  Training set accuracy = 1.000000, Test set accuracy = 0.953000
 epoch 94/500. Took 0.86459 seconds. 
  Full-batch training loss = 0.001715, test loss = 0.197707
  Training set accuracy = 1.000000, Test set accuracy = 0.953100
 epoch 95/500. Took 0.86947 seconds. 
  Full-batch training loss = 0.001689, test loss = 0.198089
  Training set accuracy = 1.000000, Test set accuracy = 0.953400
 epoch 96/500. Took 0.87492 seconds. 
  Full-batch training loss = 0.001666, test loss = 0.198015
  Training set accuracy = 1.000000, Test set accuracy = 0.953200
 epoch 97/500. Took 0.86647 seconds. 
  Full-batch training loss = 0.001643, test loss = 0.198236
  Training set accuracy = 1.000000, Test set accuracy = 0.953400
 epoch 98/500. Took 0.8738 seconds. 
  Full-batch training loss = 0.001622, test loss = 0.198471
  Training set accuracy = 1.000000, Test set accuracy = 0.953500
 epoch 99/500. Took 0.86359 seconds. 
  Full-batch training loss = 0.001602, test loss = 0.198562
  Training set accuracy = 1.000000, Test set accuracy = 0.953600
 epoch 100/500. Took 0.87716 seconds. 
  Full-batch training loss = 0.001581, test loss = 0.198849
  Training set accuracy = 1.000000, Test set accuracy = 0.953200
 epoch 101/500. Took 0.85807 seconds. 
  Full-batch training loss = 0.001563, test loss = 0.199122
  Training set accuracy = 1.000000, Test set accuracy = 0.953800
 epoch 102/500. Took 0.85496 seconds. 
  Full-batch training loss = 0.001541, test loss = 0.198966
  Training set accuracy = 1.000000, Test set accuracy = 0.953800
 epoch 103/500. Took 0.87408 seconds. 
  Full-batch training loss = 0.001523, test loss = 0.198876
  Training set accuracy = 1.000000, Test set accuracy = 0.953400
 epoch 104/500. Took 0.87108 seconds. 
  Full-batch training loss = 0.001500, test loss = 0.199233
  Training set accuracy = 1.000000, Test set accuracy = 0.953300
 epoch 105/500. Took 0.87124 seconds. 
  Full-batch training loss = 0.001482, test loss = 0.199485
  Training set accuracy = 1.000000, Test set accuracy = 0.953600
 epoch 106/500. Took 0.86437 seconds. 
  Full-batch training loss = 0.001470, test loss = 0.199773
  Training set accuracy = 1.000000, Test set accuracy = 0.954100
 epoch 107/500. Took 0.87131 seconds. 
  Full-batch training loss = 0.001447, test loss = 0.199633
  Training set accuracy = 1.000000, Test set accuracy = 0.953200
 epoch 108/500. Took 0.86798 seconds. 
  Full-batch training loss = 0.001431, test loss = 0.199810
  Training set accuracy = 1.000000, Test set accuracy = 0.953500
 epoch 109/500. Took 0.87457 seconds. 
  Full-batch training loss = 0.001413, test loss = 0.199918
  Training set accuracy = 1.000000, Test set accuracy = 0.953600
 epoch 110/500. Took 0.86471 seconds. 
  Full-batch training loss = 0.001396, test loss = 0.200165
  Training set accuracy = 1.000000, Test set accuracy = 0.953400
 epoch 111/500. Took 0.87526 seconds. 
  Full-batch training loss = 0.001380, test loss = 0.200385
  Training set accuracy = 1.000000, Test set accuracy = 0.953800
 epoch 112/500. Took 0.86574 seconds. 
  Full-batch training loss = 0.001365, test loss = 0.200333
  Training set accuracy = 1.000000, Test set accuracy = 0.953800
 epoch 113/500. Took 0.86653 seconds. 
  Full-batch training loss = 0.001348, test loss = 0.200622
  Training set accuracy = 1.000000, Test set accuracy = 0.953700
 epoch 114/500. Took 0.86852 seconds. 
  Full-batch training loss = 0.001333, test loss = 0.200635
  Training set accuracy = 1.000000, Test set accuracy = 0.953900
 epoch 115/500. Took 0.86762 seconds. 
  Full-batch training loss = 0.001318, test loss = 0.200854
  Training set accuracy = 1.000000, Test set accuracy = 0.953700
 epoch 116/500. Took 0.87238 seconds. 
  Full-batch training loss = 0.001305, test loss = 0.201353
  Training set accuracy = 1.000000, Test set accuracy = 0.954200
 epoch 117/500. Took 0.86304 seconds. 
  Full-batch training loss = 0.001290, test loss = 0.201226
  Training set accuracy = 1.000000, Test set accuracy = 0.953800
 epoch 118/500. Took 0.88357 seconds. 
  Full-batch training loss = 0.001276, test loss = 0.201199
  Training set accuracy = 1.000000, Test set accuracy = 0.953400
 epoch 119/500. Took 0.86816 seconds. 
  Full-batch training loss = 0.001262, test loss = 0.201393
  Training set accuracy = 1.000000, Test set accuracy = 0.953900
 epoch 120/500. Took 0.86522 seconds. 
  Full-batch training loss = 0.001249, test loss = 0.201834
  Training set accuracy = 1.000000, Test set accuracy = 0.954000
 epoch 121/500. Took 0.87208 seconds. 
  Full-batch training loss = 0.001236, test loss = 0.201726
  Training set accuracy = 1.000000, Test set accuracy = 0.953500
 epoch 122/500. Took 0.87869 seconds. 
  Full-batch training loss = 0.001224, test loss = 0.202100
  Training set accuracy = 1.000000, Test set accuracy = 0.954300
 epoch 123/500. Took 0.86532 seconds. 
  Full-batch training loss = 0.001212, test loss = 0.202200
  Training set accuracy = 1.000000, Test set accuracy = 0.953700
 epoch 124/500. Took 0.87668 seconds. 
  Full-batch training loss = 0.001197, test loss = 0.202252
  Training set accuracy = 1.000000, Test set accuracy = 0.953900
 epoch 125/500. Took 0.86437 seconds. 
  Full-batch training loss = 0.001186, test loss = 0.202291
  Training set accuracy = 1.000000, Test set accuracy = 0.953800
 epoch 126/500. Took 0.87182 seconds. 
  Full-batch training loss = 0.001173, test loss = 0.202563
  Training set accuracy = 1.000000, Test set accuracy = 0.953900
 epoch 127/500. Took 0.86393 seconds. 
  Full-batch training loss = 0.001163, test loss = 0.202734
  Training set accuracy = 1.000000, Test set accuracy = 0.954200
 epoch 128/500. Took 0.869 seconds. 
  Full-batch training loss = 0.001151, test loss = 0.202634
  Training set accuracy = 1.000000, Test set accuracy = 0.953600
 epoch 129/500. Took 0.86151 seconds. 
  Full-batch training loss = 0.001138, test loss = 0.202771
  Training set accuracy = 1.000000, Test set accuracy = 0.953800
 epoch 130/500. Took 0.88124 seconds. 
  Full-batch training loss = 0.001128, test loss = 0.203138
  Training set accuracy = 1.000000, Test set accuracy = 0.954000
 epoch 131/500. Took 0.86561 seconds. 
  Full-batch training loss = 0.001117, test loss = 0.202958
  Training set accuracy = 1.000000, Test set accuracy = 0.953600
 epoch 132/500. Took 0.88354 seconds. 
  Full-batch training loss = 0.001106, test loss = 0.203233
  Training set accuracy = 1.000000, Test set accuracy = 0.954000
 epoch 133/500. Took 0.85508 seconds. 
  Full-batch training loss = 0.001095, test loss = 0.203383
  Training set accuracy = 1.000000, Test set accuracy = 0.954300
 epoch 134/500. Took 0.87871 seconds. 
  Full-batch training loss = 0.001085, test loss = 0.203562
  Training set accuracy = 1.000000, Test set accuracy = 0.954100
 epoch 135/500. Took 0.86379 seconds. 
  Full-batch training loss = 0.001075, test loss = 0.203583
  Training set accuracy = 1.000000, Test set accuracy = 0.954100
 epoch 136/500. Took 0.86758 seconds. 
  Full-batch training loss = 0.001065, test loss = 0.203694
  Training set accuracy = 1.000000, Test set accuracy = 0.954300
 epoch 137/500. Took 0.86776 seconds. 
  Full-batch training loss = 0.001055, test loss = 0.203936
  Training set accuracy = 1.000000, Test set accuracy = 0.954200
 epoch 138/500. Took 0.87519 seconds. 
  Full-batch training loss = 0.001045, test loss = 0.203909
  Training set accuracy = 1.000000, Test set accuracy = 0.953900
 epoch 139/500. Took 0.86873 seconds. 
  Full-batch training loss = 0.001035, test loss = 0.204096
  Training set accuracy = 1.000000, Test set accuracy = 0.954000
 epoch 140/500. Took 0.85854 seconds. 
  Full-batch training loss = 0.001026, test loss = 0.204228
  Training set accuracy = 1.000000, Test set accuracy = 0.954100
 epoch 141/500. Took 0.87117 seconds. 
  Full-batch training loss = 0.001017, test loss = 0.204201
  Training set accuracy = 1.000000, Test set accuracy = 0.954200
 epoch 142/500. Took 0.884 seconds. 
  Full-batch training loss = 0.001008, test loss = 0.204347
  Training set accuracy = 1.000000, Test set accuracy = 0.954200
 epoch 143/500. Took 0.86321 seconds. 
  Full-batch training loss = 0.000999, test loss = 0.204576
  Training set accuracy = 1.000000, Test set accuracy = 0.954700
 epoch 144/500. Took 0.87213 seconds. 
  Full-batch training loss = 0.000990, test loss = 0.204590
  Training set accuracy = 1.000000, Test set accuracy = 0.954100
 epoch 145/500. Took 0.86687 seconds. 
  Full-batch training loss = 0.000982, test loss = 0.204884
  Training set accuracy = 1.000000, Test set accuracy = 0.954400
 epoch 146/500. Took 0.85788 seconds. 
  Full-batch training loss = 0.000973, test loss = 0.204761
  Training set accuracy = 1.000000, Test set accuracy = 0.954100
 epoch 147/500. Took 0.87143 seconds. 
  Full-batch training loss = 0.000965, test loss = 0.204922
  Training set accuracy = 1.000000, Test set accuracy = 0.954000
 epoch 148/500. Took 0.8716 seconds. 
  Full-batch training loss = 0.000957, test loss = 0.205109
  Training set accuracy = 1.000000, Test set accuracy = 0.954400
 epoch 149/500. Took 0.88282 seconds. 
  Full-batch training loss = 0.000949, test loss = 0.205181
  Training set accuracy = 1.000000, Test set accuracy = 0.954300
 epoch 150/500. Took 0.87073 seconds. 
  Full-batch training loss = 0.000941, test loss = 0.205298
  Training set accuracy = 1.000000, Test set accuracy = 0.954100
 epoch 151/500. Took 0.8693 seconds. 
  Full-batch training loss = 0.000933, test loss = 0.205517
  Training set accuracy = 1.000000, Test set accuracy = 0.954200
 epoch 152/500. Took 0.8735 seconds. 
  Full-batch training loss = 0.000925, test loss = 0.205529
  Training set accuracy = 1.000000, Test set accuracy = 0.954500
 epoch 153/500. Took 0.88029 seconds. 
  Full-batch training loss = 0.000918, test loss = 0.205745
  Training set accuracy = 1.000000, Test set accuracy = 0.954300
 epoch 154/500. Took 0.87312 seconds. 
  Full-batch training loss = 0.000911, test loss = 0.205781
  Training set accuracy = 1.000000, Test set accuracy = 0.954300
 epoch 155/500. Took 0.9113 seconds. 
  Full-batch training loss = 0.000903, test loss = 0.205915
  Training set accuracy = 1.000000, Test set accuracy = 0.954600
 epoch 156/500. Took 0.86808 seconds. 
  Full-batch training loss = 0.000895, test loss = 0.205923
  Training set accuracy = 1.000000, Test set accuracy = 0.954600
 epoch 157/500. Took 0.87502 seconds. 
  Full-batch training loss = 0.000888, test loss = 0.206111
  Training set accuracy = 1.000000, Test set accuracy = 0.954500
 epoch 158/500. Took 0.87124 seconds. 
  Full-batch training loss = 0.000881, test loss = 0.206276
  Training set accuracy = 1.000000, Test set accuracy = 0.954700
 epoch 159/500. Took 0.88054 seconds. 
  Full-batch training loss = 0.000874, test loss = 0.206300
  Training set accuracy = 1.000000, Test set accuracy = 0.954200
 epoch 160/500. Took 0.86447 seconds. 
  Full-batch training loss = 0.000868, test loss = 0.206529
  Training set accuracy = 1.000000, Test set accuracy = 0.954500
 epoch 161/500. Took 0.86786 seconds. 
  Full-batch training loss = 0.000861, test loss = 0.206406
  Training set accuracy = 1.000000, Test set accuracy = 0.954100
 epoch 162/500. Took 0.87666 seconds. 
  Full-batch training loss = 0.000854, test loss = 0.206597
  Training set accuracy = 1.000000, Test set accuracy = 0.954300
 epoch 163/500. Took 0.87731 seconds. 
  Full-batch training loss = 0.000848, test loss = 0.206831
  Training set accuracy = 1.000000, Test set accuracy = 0.954500
 epoch 164/500. Took 0.86518 seconds. 
  Full-batch training loss = 0.000841, test loss = 0.206725
  Training set accuracy = 1.000000, Test set accuracy = 0.954200
 epoch 165/500. Took 0.86572 seconds. 
  Full-batch training loss = 0.000835, test loss = 0.206846
  Training set accuracy = 1.000000, Test set accuracy = 0.954600
 epoch 166/500. Took 0.87341 seconds. 
  Full-batch training loss = 0.000829, test loss = 0.206772
  Training set accuracy = 1.000000, Test set accuracy = 0.954000
 epoch 167/500. Took 0.87038 seconds. 
  Full-batch training loss = 0.000822, test loss = 0.207010
  Training set accuracy = 1.000000, Test set accuracy = 0.954300
 epoch 168/500. Took 0.87279 seconds. 
  Full-batch training loss = 0.000816, test loss = 0.207141
  Training set accuracy = 1.000000, Test set accuracy = 0.954200
 epoch 169/500. Took 0.88551 seconds. 
  Full-batch training loss = 0.000810, test loss = 0.207160
  Training set accuracy = 1.000000, Test set accuracy = 0.954100
 epoch 170/500. Took 0.87136 seconds. 
  Full-batch training loss = 0.000804, test loss = 0.207461
  Training set accuracy = 1.000000, Test set accuracy = 0.954500
 epoch 171/500. Took 0.86747 seconds. 
  Full-batch training loss = 0.000798, test loss = 0.207434
  Training set accuracy = 1.000000, Test set accuracy = 0.954300
 epoch 172/500. Took 0.86255 seconds. 
  Full-batch training loss = 0.000793, test loss = 0.207515
  Training set accuracy = 1.000000, Test set accuracy = 0.954200
 epoch 173/500. Took 0.85837 seconds. 
  Full-batch training loss = 0.000787, test loss = 0.207707
  Training set accuracy = 1.000000, Test set accuracy = 0.954500
 epoch 174/500. Took 0.87607 seconds. 
  Full-batch training loss = 0.000781, test loss = 0.207784
  Training set accuracy = 1.000000, Test set accuracy = 0.954300
 epoch 175/500. Took 0.8673 seconds. 
  Full-batch training loss = 0.000775, test loss = 0.207951
  Training set accuracy = 1.000000, Test set accuracy = 0.954500
 epoch 176/500. Took 0.86947 seconds. 
  Full-batch training loss = 0.000770, test loss = 0.208008
  Training set accuracy = 1.000000, Test set accuracy = 0.954400
 epoch 177/500. Took 0.86579 seconds. 
  Full-batch training loss = 0.000765, test loss = 0.208166
  Training set accuracy = 1.000000, Test set accuracy = 0.954600
 epoch 178/500. Took 0.87604 seconds. 
  Full-batch training loss = 0.000759, test loss = 0.208160
  Training set accuracy = 1.000000, Test set accuracy = 0.954400
 epoch 179/500. Took 0.88175 seconds. 
  Full-batch training loss = 0.000754, test loss = 0.208233
  Training set accuracy = 1.000000, Test set accuracy = 0.954400
 epoch 180/500. Took 0.86573 seconds. 
  Full-batch training loss = 0.000749, test loss = 0.208353
  Training set accuracy = 1.000000, Test set accuracy = 0.954500
 epoch 181/500. Took 0.87464 seconds. 
  Full-batch training loss = 0.000744, test loss = 0.208394
  Training set accuracy = 1.000000, Test set accuracy = 0.954500
 epoch 182/500. Took 0.86964 seconds. 
  Full-batch training loss = 0.000739, test loss = 0.208489
  Training set accuracy = 1.000000, Test set accuracy = 0.954500
 epoch 183/500. Took 0.86494 seconds. 
  Full-batch training loss = 0.000734, test loss = 0.208570
  Training set accuracy = 1.000000, Test set accuracy = 0.954300
 epoch 184/500. Took 0.87033 seconds. 
  Full-batch training loss = 0.000729, test loss = 0.208735
  Training set accuracy = 1.000000, Test set accuracy = 0.954500
 epoch 185/500. Took 0.87966 seconds. 
  Full-batch training loss = 0.000724, test loss = 0.208929
  Training set accuracy = 1.000000, Test set accuracy = 0.954500
 epoch 186/500. Took 0.86946 seconds. 
  Full-batch training loss = 0.000719, test loss = 0.208839
  Training set accuracy = 1.000000, Test set accuracy = 0.954300
 epoch 187/500. Took 0.8659 seconds. 
  Full-batch training loss = 0.000714, test loss = 0.208905
  Training set accuracy = 1.000000, Test set accuracy = 0.954400
 epoch 188/500. Took 0.89953 seconds. 
  Full-batch training loss = 0.000709, test loss = 0.209018
  Training set accuracy = 1.000000, Test set accuracy = 0.954500
 epoch 189/500. Took 0.86894 seconds. 
  Full-batch training loss = 0.000705, test loss = 0.209220
  Training set accuracy = 1.000000, Test set accuracy = 0.954600
 epoch 190/500. Took 0.87361 seconds. 
  Full-batch training loss = 0.000700, test loss = 0.209313
  Training set accuracy = 1.000000, Test set accuracy = 0.954500
 epoch 191/500. Took 0.87142 seconds. 
  Full-batch training loss = 0.000696, test loss = 0.209264
  Training set accuracy = 1.000000, Test set accuracy = 0.954300
 epoch 192/500. Took 0.85956 seconds. 
  Full-batch training loss = 0.000691, test loss = 0.209363
  Training set accuracy = 1.000000, Test set accuracy = 0.954500
 epoch 193/500. Took 0.86654 seconds. 
  Full-batch training loss = 0.000687, test loss = 0.209508
  Training set accuracy = 1.000000, Test set accuracy = 0.954500
 epoch 194/500. Took 0.87149 seconds. 
  Full-batch training loss = 0.000682, test loss = 0.209523
  Training set accuracy = 1.000000, Test set accuracy = 0.954500
 epoch 195/500. Took 0.87646 seconds. 
  Full-batch training loss = 0.000678, test loss = 0.209714
  Training set accuracy = 1.000000, Test set accuracy = 0.954600
 epoch 196/500. Took 0.8649 seconds. 
  Full-batch training loss = 0.000674, test loss = 0.209739
  Training set accuracy = 1.000000, Test set accuracy = 0.954500
 epoch 197/500. Took 0.87232 seconds. 
  Full-batch training loss = 0.000670, test loss = 0.209812
  Training set accuracy = 1.000000, Test set accuracy = 0.954500
 epoch 198/500. Took 0.87575 seconds. 
  Full-batch training loss = 0.000665, test loss = 0.209932
  Training set accuracy = 1.000000, Test set accuracy = 0.954500
 epoch 199/500. Took 0.87203 seconds. 
  Full-batch training loss = 0.000661, test loss = 0.210024
  Training set accuracy = 1.000000, Test set accuracy = 0.954500
 epoch 200/500. Took 0.87738 seconds. 
  Full-batch training loss = 0.000657, test loss = 0.210181
  Training set accuracy = 1.000000, Test set accuracy = 0.954400
 epoch 201/500. Took 0.86827 seconds. 
  Full-batch training loss = 0.000653, test loss = 0.210166
  Training set accuracy = 1.000000, Test set accuracy = 0.954400
 epoch 202/500. Took 0.87081 seconds. 
  Full-batch training loss = 0.000649, test loss = 0.210336
  Training set accuracy = 1.000000, Test set accuracy = 0.954600
 epoch 203/500. Took 0.86909 seconds. 
  Full-batch training loss = 0.000645, test loss = 0.210367
  Training set accuracy = 1.000000, Test set accuracy = 0.954600
 epoch 204/500. Took 0.86777 seconds. 
  Full-batch training loss = 0.000641, test loss = 0.210398
  Training set accuracy = 1.000000, Test set accuracy = 0.954400
 epoch 205/500. Took 0.87252 seconds. 
  Full-batch training loss = 0.000637, test loss = 0.210418
  Training set accuracy = 1.000000, Test set accuracy = 0.954400
 epoch 206/500. Took 0.87644 seconds. 
  Full-batch training loss = 0.000633, test loss = 0.210559
  Training set accuracy = 1.000000, Test set accuracy = 0.954500
 epoch 207/500. Took 0.88047 seconds. 
  Full-batch training loss = 0.000630, test loss = 0.210688
  Training set accuracy = 1.000000, Test set accuracy = 0.954500
 epoch 208/500. Took 0.87045 seconds. 
  Full-batch training loss = 0.000626, test loss = 0.210667
  Training set accuracy = 1.000000, Test set accuracy = 0.954500
 epoch 209/500. Took 0.86592 seconds. 
  Full-batch training loss = 0.000622, test loss = 0.210738
  Training set accuracy = 1.000000, Test set accuracy = 0.954500
 epoch 210/500. Took 0.8722 seconds. 
  Full-batch training loss = 0.000619, test loss = 0.210814
  Training set accuracy = 1.000000, Test set accuracy = 0.954600
 epoch 211/500. Took 0.86366 seconds. 
  Full-batch training loss = 0.000615, test loss = 0.210858
  Training set accuracy = 1.000000, Test set accuracy = 0.954500
 epoch 212/500. Took 0.87058 seconds. 
  Full-batch training loss = 0.000611, test loss = 0.211019
  Training set accuracy = 1.000000, Test set accuracy = 0.954500
 epoch 213/500. Took 0.86694 seconds. 
  Full-batch training loss = 0.000608, test loss = 0.211157
  Training set accuracy = 1.000000, Test set accuracy = 0.954500
 epoch 214/500. Took 0.8722 seconds. 
  Full-batch training loss = 0.000604, test loss = 0.211171
  Training set accuracy = 1.000000, Test set accuracy = 0.954600
 epoch 215/500. Took 0.86771 seconds. 
  Full-batch training loss = 0.000601, test loss = 0.211185
  Training set accuracy = 1.000000, Test set accuracy = 0.954600
 epoch 216/500. Took 0.86165 seconds. 
  Full-batch training loss = 0.000598, test loss = 0.211265
  Training set accuracy = 1.000000, Test set accuracy = 0.954600
 epoch 217/500. Took 0.86317 seconds. 
  Full-batch training loss = 0.000594, test loss = 0.211358
  Training set accuracy = 1.000000, Test set accuracy = 0.954400
 epoch 218/500. Took 0.85654 seconds. 
  Full-batch training loss = 0.000591, test loss = 0.211530
  Training set accuracy = 1.000000, Test set accuracy = 0.954500
 epoch 219/500. Took 0.87574 seconds. 
  Full-batch training loss = 0.000588, test loss = 0.211677
  Training set accuracy = 1.000000, Test set accuracy = 0.954500
 epoch 220/500. Took 0.87749 seconds. 
  Full-batch training loss = 0.000584, test loss = 0.211731
  Training set accuracy = 1.000000, Test set accuracy = 0.954500
 epoch 221/500. Took 0.86723 seconds. 
  Full-batch training loss = 0.000581, test loss = 0.211798
  Training set accuracy = 1.000000, Test set accuracy = 0.954600
 epoch 222/500. Took 0.86981 seconds. 
  Full-batch training loss = 0.000578, test loss = 0.211839
  Training set accuracy = 1.000000, Test set accuracy = 0.954500
 epoch 223/500. Took 0.86148 seconds. 
  Full-batch training loss = 0.000574, test loss = 0.211892
  Training set accuracy = 1.000000, Test set accuracy = 0.954600
 epoch 224/500. Took 0.86352 seconds. 
  Full-batch training loss = 0.000571, test loss = 0.212038
  Training set accuracy = 1.000000, Test set accuracy = 0.954600
 epoch 225/500. Took 0.86987 seconds. 
  Full-batch training loss = 0.000568, test loss = 0.212135
  Training set accuracy = 1.000000, Test set accuracy = 0.954600
 epoch 226/500. Took 0.88726 seconds. 
  Full-batch training loss = 0.000565, test loss = 0.212135
  Training set accuracy = 1.000000, Test set accuracy = 0.954600
 epoch 227/500. Took 0.86052 seconds. 
  Full-batch training loss = 0.000562, test loss = 0.212156
  Training set accuracy = 1.000000, Test set accuracy = 0.954700
 epoch 228/500. Took 0.87853 seconds. 
  Full-batch training loss = 0.000559, test loss = 0.212259
  Training set accuracy = 1.000000, Test set accuracy = 0.954600
 epoch 229/500. Took 0.8577 seconds. 
  Full-batch training loss = 0.000556, test loss = 0.212269
  Training set accuracy = 1.000000, Test set accuracy = 0.954700
 epoch 230/500. Took 0.86788 seconds. 
  Full-batch training loss = 0.000553, test loss = 0.212439
  Training set accuracy = 1.000000, Test set accuracy = 0.954600
 epoch 231/500. Took 0.87372 seconds. 
  Full-batch training loss = 0.000550, test loss = 0.212522
  Training set accuracy = 1.000000, Test set accuracy = 0.954500
 epoch 232/500. Took 0.86586 seconds. 
  Full-batch training loss = 0.000547, test loss = 0.212610
  Training set accuracy = 1.000000, Test set accuracy = 0.954600
 epoch 233/500. Took 0.87161 seconds. 
  Full-batch training loss = 0.000544, test loss = 0.212565
  Training set accuracy = 1.000000, Test set accuracy = 0.954800
 epoch 234/500. Took 0.86608 seconds. 
  Full-batch training loss = 0.000541, test loss = 0.212740
  Training set accuracy = 1.000000, Test set accuracy = 0.954800
 epoch 235/500. Took 0.86439 seconds. 
  Full-batch training loss = 0.000539, test loss = 0.212785
  Training set accuracy = 1.000000, Test set accuracy = 0.954800
 epoch 236/500. Took 0.8696 seconds. 
  Full-batch training loss = 0.000536, test loss = 0.212826
  Training set accuracy = 1.000000, Test set accuracy = 0.954700
 epoch 237/500. Took 0.86707 seconds. 
  Full-batch training loss = 0.000533, test loss = 0.212885
  Training set accuracy = 1.000000, Test set accuracy = 0.954800
 epoch 238/500. Took 0.86762 seconds. 
  Full-batch training loss = 0.000530, test loss = 0.212979
  Training set accuracy = 1.000000, Test set accuracy = 0.954800
 epoch 239/500. Took 0.86881 seconds. 
  Full-batch training loss = 0.000528, test loss = 0.212984
  Training set accuracy = 1.000000, Test set accuracy = 0.954800
 epoch 240/500. Took 0.88008 seconds. 
  Full-batch training loss = 0.000525, test loss = 0.213157
  Training set accuracy = 1.000000, Test set accuracy = 0.954600
 epoch 241/500. Took 0.87061 seconds. 
  Full-batch training loss = 0.000522, test loss = 0.213199
  Training set accuracy = 1.000000, Test set accuracy = 0.954800
 epoch 242/500. Took 0.86834 seconds. 
  Full-batch training loss = 0.000520, test loss = 0.213212
  Training set accuracy = 1.000000, Test set accuracy = 0.954800
 epoch 243/500. Took 0.86434 seconds. 
  Full-batch training loss = 0.000517, test loss = 0.213299
  Training set accuracy = 1.000000, Test set accuracy = 0.954900
 epoch 244/500. Took 0.87277 seconds. 
  Full-batch training loss = 0.000514, test loss = 0.213433
  Training set accuracy = 1.000000, Test set accuracy = 0.954700
 epoch 245/500. Took 0.87836 seconds. 
  Full-batch training loss = 0.000512, test loss = 0.213507
  Training set accuracy = 1.000000, Test set accuracy = 0.954800
 epoch 246/500. Took 0.87578 seconds. 
  Full-batch training loss = 0.000509, test loss = 0.213606
  Training set accuracy = 1.000000, Test set accuracy = 0.954900
 epoch 247/500. Took 0.86744 seconds. 
  Full-batch training loss = 0.000507, test loss = 0.213663
  Training set accuracy = 1.000000, Test set accuracy = 0.954700
 epoch 248/500. Took 0.86759 seconds. 
  Full-batch training loss = 0.000504, test loss = 0.213636
  Training set accuracy = 1.000000, Test set accuracy = 0.954800
 epoch 249/500. Took 0.87987 seconds. 
  Full-batch training loss = 0.000502, test loss = 0.213671
  Training set accuracy = 1.000000, Test set accuracy = 0.954900
 epoch 250/500. Took 0.87771 seconds. 
  Full-batch training loss = 0.000499, test loss = 0.213837
  Training set accuracy = 1.000000, Test set accuracy = 0.954600
 epoch 251/500. Took 0.86313 seconds. 
  Full-batch training loss = 0.000497, test loss = 0.213894
  Training set accuracy = 1.000000, Test set accuracy = 0.954700
 epoch 252/500. Took 0.87101 seconds. 
  Full-batch training loss = 0.000495, test loss = 0.213918
  Training set accuracy = 1.000000, Test set accuracy = 0.954700
 epoch 253/500. Took 0.86426 seconds. 
  Full-batch training loss = 0.000492, test loss = 0.213981
  Training set accuracy = 1.000000, Test set accuracy = 0.954600
 epoch 254/500. Took 0.87223 seconds. 
  Full-batch training loss = 0.000490, test loss = 0.214100
  Training set accuracy = 1.000000, Test set accuracy = 0.954800
 epoch 255/500. Took 0.87231 seconds. 
  Full-batch training loss = 0.000487, test loss = 0.214152
  Training set accuracy = 1.000000, Test set accuracy = 0.954700
 epoch 256/500. Took 0.86758 seconds. 
  Full-batch training loss = 0.000485, test loss = 0.214212
  Training set accuracy = 1.000000, Test set accuracy = 0.954900
 epoch 257/500. Took 0.87181 seconds. 
  Full-batch training loss = 0.000483, test loss = 0.214211
  Training set accuracy = 1.000000, Test set accuracy = 0.954800
 epoch 258/500. Took 0.86269 seconds. 
  Full-batch training loss = 0.000481, test loss = 0.214327
  Training set accuracy = 1.000000, Test set accuracy = 0.954700
 epoch 259/500. Took 0.87253 seconds. 
  Full-batch training loss = 0.000478, test loss = 0.214409
  Training set accuracy = 1.000000, Test set accuracy = 0.954600
 epoch 260/500. Took 0.86538 seconds. 
  Full-batch training loss = 0.000476, test loss = 0.214505
  Training set accuracy = 1.000000, Test set accuracy = 0.954600
 epoch 261/500. Took 0.87483 seconds. 
  Full-batch training loss = 0.000474, test loss = 0.214547
  Training set accuracy = 1.000000, Test set accuracy = 0.954800
 epoch 262/500. Took 0.87068 seconds. 
  Full-batch training loss = 0.000472, test loss = 0.214569
  Training set accuracy = 1.000000, Test set accuracy = 0.954700
 epoch 263/500. Took 0.87189 seconds. 
  Full-batch training loss = 0.000469, test loss = 0.214649
  Training set accuracy = 1.000000, Test set accuracy = 0.954900
 epoch 264/500. Took 0.86813 seconds. 
  Full-batch training loss = 0.000467, test loss = 0.214711
  Training set accuracy = 1.000000, Test set accuracy = 0.954600
 epoch 265/500. Took 0.86607 seconds. 
  Full-batch training loss = 0.000465, test loss = 0.214708
  Training set accuracy = 1.000000, Test set accuracy = 0.954700
 epoch 266/500. Took 0.87298 seconds. 
  Full-batch training loss = 0.000463, test loss = 0.214811
  Training set accuracy = 1.000000, Test set accuracy = 0.954800
 epoch 267/500. Took 0.88196 seconds. 
  Full-batch training loss = 0.000461, test loss = 0.214889
  Training set accuracy = 1.000000, Test set accuracy = 0.954800
 epoch 268/500. Took 0.87829 seconds. 
  Full-batch training loss = 0.000459, test loss = 0.214924
  Training set accuracy = 1.000000, Test set accuracy = 0.954800
 epoch 269/500. Took 0.86547 seconds. 
  Full-batch training loss = 0.000457, test loss = 0.215002
  Training set accuracy = 1.000000, Test set accuracy = 0.954800
 epoch 270/500. Took 0.87206 seconds. 
  Full-batch training loss = 0.000455, test loss = 0.215090
  Training set accuracy = 1.000000, Test set accuracy = 0.954900
 epoch 271/500. Took 0.86504 seconds. 
  Full-batch training loss = 0.000453, test loss = 0.215178
  Training set accuracy = 1.000000, Test set accuracy = 0.954700
 epoch 272/500. Took 0.86768 seconds. 
  Full-batch training loss = 0.000451, test loss = 0.215255
  Training set accuracy = 1.000000, Test set accuracy = 0.954700
 epoch 273/500. Took 0.86884 seconds. 
  Full-batch training loss = 0.000449, test loss = 0.215264
  Training set accuracy = 1.000000, Test set accuracy = 0.954800
 epoch 274/500. Took 0.87533 seconds. 
  Full-batch training loss = 0.000447, test loss = 0.215309
  Training set accuracy = 1.000000, Test set accuracy = 0.954800
 epoch 275/500. Took 0.87461 seconds. 
  Full-batch training loss = 0.000445, test loss = 0.215335
  Training set accuracy = 1.000000, Test set accuracy = 0.954800
 epoch 276/500. Took 0.86353 seconds. 
  Full-batch training loss = 0.000443, test loss = 0.215412
  Training set accuracy = 1.000000, Test set accuracy = 0.954800
 epoch 277/500. Took 0.87375 seconds. 
  Full-batch training loss = 0.000441, test loss = 0.215542
  Training set accuracy = 1.000000, Test set accuracy = 0.954900
 epoch 278/500. Took 0.86592 seconds. 
  Full-batch training loss = 0.000439, test loss = 0.215641
  Training set accuracy = 1.000000, Test set accuracy = 0.954800
 epoch 279/500. Took 0.87308 seconds. 
  Full-batch training loss = 0.000437, test loss = 0.215657
  Training set accuracy = 1.000000, Test set accuracy = 0.954900
 epoch 280/500. Took 0.86618 seconds. 
  Full-batch training loss = 0.000435, test loss = 0.215687
  Training set accuracy = 1.000000, Test set accuracy = 0.954700
 epoch 281/500. Took 0.86109 seconds. 
  Full-batch training loss = 0.000433, test loss = 0.215688
  Training set accuracy = 1.000000, Test set accuracy = 0.954800
 epoch 282/500. Took 0.86913 seconds. 
  Full-batch training loss = 0.000431, test loss = 0.215744
  Training set accuracy = 1.000000, Test set accuracy = 0.954800
 epoch 283/500. Took 0.8822 seconds. 
  Full-batch training loss = 0.000429, test loss = 0.215830
  Training set accuracy = 1.000000, Test set accuracy = 0.954700
 epoch 284/500. Took 0.8597 seconds. 
  Full-batch training loss = 0.000427, test loss = 0.215901
  Training set accuracy = 1.000000, Test set accuracy = 0.954800
 epoch 285/500. Took 0.87217 seconds. 
  Full-batch training loss = 0.000426, test loss = 0.216001
  Training set accuracy = 1.000000, Test set accuracy = 0.954800
 epoch 286/500. Took 0.87707 seconds. 
  Full-batch training loss = 0.000424, test loss = 0.216087
  Training set accuracy = 1.000000, Test set accuracy = 0.954800
 epoch 287/500. Took 0.86322 seconds. 
  Full-batch training loss = 0.000422, test loss = 0.216147
  Training set accuracy = 1.000000, Test set accuracy = 0.954800
 epoch 288/500. Took 0.87041 seconds. 
  Full-batch training loss = 0.000420, test loss = 0.216213
  Training set accuracy = 1.000000, Test set accuracy = 0.954800
 epoch 289/500. Took 0.873 seconds. 
  Full-batch training loss = 0.000419, test loss = 0.216204
  Training set accuracy = 1.000000, Test set accuracy = 0.954800
 epoch 290/500. Took 0.86756 seconds. 
  Full-batch training loss = 0.000417, test loss = 0.216261
  Training set accuracy = 1.000000, Test set accuracy = 0.954800
 epoch 291/500. Took 0.86296 seconds. 
  Full-batch training loss = 0.000415, test loss = 0.216329
  Training set accuracy = 1.000000, Test set accuracy = 0.954800
 epoch 292/500. Took 0.87343 seconds. 
  Full-batch training loss = 0.000413, test loss = 0.216378
  Training set accuracy = 1.000000, Test set accuracy = 0.954800
 epoch 293/500. Took 0.8702 seconds. 
  Full-batch training loss = 0.000412, test loss = 0.216405
  Training set accuracy = 1.000000, Test set accuracy = 0.954800
 epoch 294/500. Took 0.86203 seconds. 
  Full-batch training loss = 0.000410, test loss = 0.216523
  Training set accuracy = 1.000000, Test set accuracy = 0.954800
 epoch 295/500. Took 0.88152 seconds. 
  Full-batch training loss = 0.000408, test loss = 0.216525
  Training set accuracy = 1.000000, Test set accuracy = 0.954800
 epoch 296/500. Took 0.8717 seconds. 
  Full-batch training loss = 0.000407, test loss = 0.216577
  Training set accuracy = 1.000000, Test set accuracy = 0.954800
 epoch 297/500. Took 0.86375 seconds. 
  Full-batch training loss = 0.000405, test loss = 0.216662
  Training set accuracy = 1.000000, Test set accuracy = 0.954800
 epoch 298/500. Took 0.86966 seconds. 
  Full-batch training loss = 0.000403, test loss = 0.216700
  Training set accuracy = 1.000000, Test set accuracy = 0.954800
 epoch 299/500. Took 0.8687 seconds. 
  Full-batch training loss = 0.000402, test loss = 0.216753
  Training set accuracy = 1.000000, Test set accuracy = 0.954700
 epoch 300/500. Took 0.86565 seconds. 
  Full-batch training loss = 0.000400, test loss = 0.216846
  Training set accuracy = 1.000000, Test set accuracy = 0.954700
 epoch 301/500. Took 0.87769 seconds. 
  Full-batch training loss = 0.000398, test loss = 0.216943
  Training set accuracy = 1.000000, Test set accuracy = 0.954800
 epoch 302/500. Took 0.86651 seconds. 
  Full-batch training loss = 0.000397, test loss = 0.217003
  Training set accuracy = 1.000000, Test set accuracy = 0.954800
 epoch 303/500. Took 0.86928 seconds. 
  Full-batch training loss = 0.000395, test loss = 0.217002
  Training set accuracy = 1.000000, Test set accuracy = 0.954700
 epoch 304/500. Took 0.8647 seconds. 
  Full-batch training loss = 0.000394, test loss = 0.217056
  Training set accuracy = 1.000000, Test set accuracy = 0.954900
 epoch 305/500. Took 0.86933 seconds. 
  Full-batch training loss = 0.000392, test loss = 0.217090
  Training set accuracy = 1.000000, Test set accuracy = 0.954800
 epoch 306/500. Took 0.87925 seconds. 
  Full-batch training loss = 0.000390, test loss = 0.217166
  Training set accuracy = 1.000000, Test set accuracy = 0.954800
 epoch 307/500. Took 0.87946 seconds. 
  Full-batch training loss = 0.000389, test loss = 0.217175
  Training set accuracy = 1.000000, Test set accuracy = 0.954800
 epoch 308/500. Took 0.86939 seconds. 
  Full-batch training loss = 0.000387, test loss = 0.217279
  Training set accuracy = 1.000000, Test set accuracy = 0.954900
 epoch 309/500. Took 0.87328 seconds. 
  Full-batch training loss = 0.000386, test loss = 0.217317
  Training set accuracy = 1.000000, Test set accuracy = 0.954900
 epoch 310/500. Took 0.87076 seconds. 
  Full-batch training loss = 0.000384, test loss = 0.217421
  Training set accuracy = 1.000000, Test set accuracy = 0.954800
 epoch 311/500. Took 0.85935 seconds. 
  Full-batch training loss = 0.000383, test loss = 0.217431
  Training set accuracy = 1.000000, Test set accuracy = 0.954800
 epoch 312/500. Took 0.87204 seconds. 
  Full-batch training loss = 0.000381, test loss = 0.217544
  Training set accuracy = 1.000000, Test set accuracy = 0.954700
 epoch 313/500. Took 0.86393 seconds. 
  Full-batch training loss = 0.000380, test loss = 0.217533
  Training set accuracy = 1.000000, Test set accuracy = 0.954700
 epoch 314/500. Took 0.86565 seconds. 
  Full-batch training loss = 0.000378, test loss = 0.217592
  Training set accuracy = 1.000000, Test set accuracy = 0.954700
 epoch 315/500. Took 0.87272 seconds. 
  Full-batch training loss = 0.000377, test loss = 0.217662
  Training set accuracy = 1.000000, Test set accuracy = 0.954900
 epoch 316/500. Took 0.86694 seconds. 
  Full-batch training loss = 0.000376, test loss = 0.217717
  Training set accuracy = 1.000000, Test set accuracy = 0.954800
 epoch 317/500. Took 0.86156 seconds. 
  Full-batch training loss = 0.000374, test loss = 0.217775
  Training set accuracy = 1.000000, Test set accuracy = 0.954700
 epoch 318/500. Took 0.87002 seconds. 
  Full-batch training loss = 0.000373, test loss = 0.217808
  Training set accuracy = 1.000000, Test set accuracy = 0.954800
 epoch 319/500. Took 0.86192 seconds. 
  Full-batch training loss = 0.000371, test loss = 0.217856
  Training set accuracy = 1.000000, Test set accuracy = 0.954800
 epoch 320/500. Took 0.87248 seconds. 
  Full-batch training loss = 0.000370, test loss = 0.217894
  Training set accuracy = 1.000000, Test set accuracy = 0.954800
 epoch 321/500. Took 0.86721 seconds. 
  Full-batch training loss = 0.000369, test loss = 0.217976
  Training set accuracy = 1.000000, Test set accuracy = 0.954800
 epoch 322/500. Took 0.86719 seconds. 
  Full-batch training loss = 0.000367, test loss = 0.218007
  Training set accuracy = 1.000000, Test set accuracy = 0.954700
 epoch 323/500. Took 0.86828 seconds. 
  Full-batch training loss = 0.000366, test loss = 0.218011
  Training set accuracy = 1.000000, Test set accuracy = 0.954700
 epoch 324/500. Took 0.86557 seconds. 
  Full-batch training loss = 0.000364, test loss = 0.218084
  Training set accuracy = 1.000000, Test set accuracy = 0.954700
 epoch 325/500. Took 0.86762 seconds. 
  Full-batch training loss = 0.000363, test loss = 0.218151
  Training set accuracy = 1.000000, Test set accuracy = 0.954800
 epoch 326/500. Took 0.87246 seconds. 
  Full-batch training loss = 0.000362, test loss = 0.218157
  Training set accuracy = 1.000000, Test set accuracy = 0.954700
 epoch 327/500. Took 0.86276 seconds. 
  Full-batch training loss = 0.000360, test loss = 0.218275
  Training set accuracy = 1.000000, Test set accuracy = 0.954800
 epoch 328/500. Took 0.86387 seconds. 
  Full-batch training loss = 0.000359, test loss = 0.218296
  Training set accuracy = 1.000000, Test set accuracy = 0.954700
 epoch 329/500. Took 0.87871 seconds. 
  Full-batch training loss = 0.000358, test loss = 0.218335
  Training set accuracy = 1.000000, Test set accuracy = 0.954800
 epoch 330/500. Took 0.87697 seconds. 
  Full-batch training loss = 0.000356, test loss = 0.218461
  Training set accuracy = 1.000000, Test set accuracy = 0.954800
 epoch 331/500. Took 0.86276 seconds. 
  Full-batch training loss = 0.000355, test loss = 0.218487
  Training set accuracy = 1.000000, Test set accuracy = 0.954800
 epoch 332/500. Took 0.87371 seconds. 
  Full-batch training loss = 0.000354, test loss = 0.218499
  Training set accuracy = 1.000000, Test set accuracy = 0.954700
 epoch 333/500. Took 0.87463 seconds. 
  Full-batch training loss = 0.000353, test loss = 0.218567
  Training set accuracy = 1.000000, Test set accuracy = 0.954800
 epoch 334/500. Took 0.86604 seconds. 
  Full-batch training loss = 0.000351, test loss = 0.218613
  Training set accuracy = 1.000000, Test set accuracy = 0.954800
 epoch 335/500. Took 0.86494 seconds. 
  Full-batch training loss = 0.000350, test loss = 0.218646
  Training set accuracy = 1.000000, Test set accuracy = 0.954700
 epoch 336/500. Took 0.85718 seconds. 
  Full-batch training loss = 0.000349, test loss = 0.218746
  Training set accuracy = 1.000000, Test set accuracy = 0.954800
 epoch 337/500. Took 0.85332 seconds. 
  Full-batch training loss = 0.000347, test loss = 0.218742
  Training set accuracy = 1.000000, Test set accuracy = 0.954800
 epoch 338/500. Took 0.87231 seconds. 
  Full-batch training loss = 0.000346, test loss = 0.218782
  Training set accuracy = 1.000000, Test set accuracy = 0.954700
 epoch 339/500. Took 0.86125 seconds. 
  Full-batch training loss = 0.000345, test loss = 0.218843
  Training set accuracy = 1.000000, Test set accuracy = 0.954700
 epoch 340/500. Took 0.871 seconds. 
  Full-batch training loss = 0.000344, test loss = 0.218908
  Training set accuracy = 1.000000, Test set accuracy = 0.954700
 epoch 341/500. Took 0.87226 seconds. 
  Full-batch training loss = 0.000343, test loss = 0.218918
  Training set accuracy = 1.000000, Test set accuracy = 0.954800
 epoch 342/500. Took 0.87228 seconds. 
  Full-batch training loss = 0.000341, test loss = 0.219015
  Training set accuracy = 1.000000, Test set accuracy = 0.954800
 epoch 343/500. Took 0.86038 seconds. 
  Full-batch training loss = 0.000340, test loss = 0.219049
  Training set accuracy = 1.000000, Test set accuracy = 0.954700
 epoch 344/500. Took 0.8748 seconds. 
  Full-batch training loss = 0.000339, test loss = 0.219099
  Training set accuracy = 1.000000, Test set accuracy = 0.954700
 epoch 345/500. Took 0.86439 seconds. 
  Full-batch training loss = 0.000338, test loss = 0.219153
  Training set accuracy = 1.000000, Test set accuracy = 0.954800
 epoch 346/500. Took 0.8767 seconds. 
  Full-batch training loss = 0.000337, test loss = 0.219191
  Training set accuracy = 1.000000, Test set accuracy = 0.954800
 epoch 347/500. Took 0.87764 seconds. 
  Full-batch training loss = 0.000335, test loss = 0.219245
  Training set accuracy = 1.000000, Test set accuracy = 0.954800
 epoch 348/500. Took 0.86969 seconds. 
  Full-batch training loss = 0.000334, test loss = 0.219295
  Training set accuracy = 1.000000, Test set accuracy = 0.954700
 epoch 349/500. Took 0.87618 seconds. 
  Full-batch training loss = 0.000333, test loss = 0.219358
  Training set accuracy = 1.000000, Test set accuracy = 0.954700
 epoch 350/500. Took 0.87663 seconds. 
  Full-batch training loss = 0.000332, test loss = 0.219379
  Training set accuracy = 1.000000, Test set accuracy = 0.954800
 epoch 351/500. Took 0.86941 seconds. 
  Full-batch training loss = 0.000331, test loss = 0.219446
  Training set accuracy = 1.000000, Test set accuracy = 0.954700
 epoch 352/500. Took 0.85316 seconds. 
  Full-batch training loss = 0.000330, test loss = 0.219522
  Training set accuracy = 1.000000, Test set accuracy = 0.954700
 epoch 353/500. Took 0.86251 seconds. 
  Full-batch training loss = 0.000329, test loss = 0.219521
  Training set accuracy = 1.000000, Test set accuracy = 0.954700
 epoch 354/500. Took 0.88119 seconds. 
  Full-batch training loss = 0.000327, test loss = 0.219585
  Training set accuracy = 1.000000, Test set accuracy = 0.954800
 epoch 355/500. Took 0.86575 seconds. 
  Full-batch training loss = 0.000326, test loss = 0.219612
  Training set accuracy = 1.000000, Test set accuracy = 0.954800
 epoch 356/500. Took 0.87524 seconds. 
  Full-batch training loss = 0.000325, test loss = 0.219691
  Training set accuracy = 1.000000, Test set accuracy = 0.954800
 epoch 357/500. Took 0.86036 seconds. 
  Full-batch training loss = 0.000324, test loss = 0.219703
  Training set accuracy = 1.000000, Test set accuracy = 0.954800
 epoch 358/500. Took 0.879 seconds. 
  Full-batch training loss = 0.000323, test loss = 0.219770
  Training set accuracy = 1.000000, Test set accuracy = 0.954800
 epoch 359/500. Took 0.88332 seconds. 
  Full-batch training loss = 0.000322, test loss = 0.219863
  Training set accuracy = 1.000000, Test set accuracy = 0.954800
 epoch 360/500. Took 0.86783 seconds. 
  Full-batch training loss = 0.000321, test loss = 0.219846
  Training set accuracy = 1.000000, Test set accuracy = 0.954700
 epoch 361/500. Took 0.86027 seconds. 
  Full-batch training loss = 0.000320, test loss = 0.219880
  Training set accuracy = 1.000000, Test set accuracy = 0.954800
 epoch 362/500. Took 0.86829 seconds. 
  Full-batch training loss = 0.000319, test loss = 0.219973
  Training set accuracy = 1.000000, Test set accuracy = 0.954800
 epoch 363/500. Took 0.86707 seconds. 
  Full-batch training loss = 0.000318, test loss = 0.219998
  Training set accuracy = 1.000000, Test set accuracy = 0.954800
 epoch 364/500. Took 0.8738 seconds. 
  Full-batch training loss = 0.000317, test loss = 0.220053
  Training set accuracy = 1.000000, Test set accuracy = 0.954700
 epoch 365/500. Took 0.91926 seconds. 
  Full-batch training loss = 0.000316, test loss = 0.220158
  Training set accuracy = 1.000000, Test set accuracy = 0.954700
 epoch 366/500. Took 0.87146 seconds. 
  Full-batch training loss = 0.000315, test loss = 0.220128
  Training set accuracy = 1.000000, Test set accuracy = 0.954800
 epoch 367/500. Took 0.86335 seconds. 
  Full-batch training loss = 0.000314, test loss = 0.220175
  Training set accuracy = 1.000000, Test set accuracy = 0.954800
 epoch 368/500. Took 0.85661 seconds. 
  Full-batch training loss = 0.000313, test loss = 0.220184
  Training set accuracy = 1.000000, Test set accuracy = 0.954800
 epoch 369/500. Took 0.86615 seconds. 
  Full-batch training loss = 0.000312, test loss = 0.220284
  Training set accuracy = 1.000000, Test set accuracy = 0.954800
 epoch 370/500. Took 0.86802 seconds. 
  Full-batch training loss = 0.000311, test loss = 0.220330
  Training set accuracy = 1.000000, Test set accuracy = 0.954800
 epoch 371/500. Took 0.86238 seconds. 
  Full-batch training loss = 0.000309, test loss = 0.220355
  Training set accuracy = 1.000000, Test set accuracy = 0.954800
 epoch 372/500. Took 0.85387 seconds. 
  Full-batch training loss = 0.000308, test loss = 0.220421
  Training set accuracy = 1.000000, Test set accuracy = 0.954800
 epoch 373/500. Took 0.86394 seconds. 
  Full-batch training loss = 0.000308, test loss = 0.220462
  Training set accuracy = 1.000000, Test set accuracy = 0.954800
 epoch 374/500. Took 0.86558 seconds. 
  Full-batch training loss = 0.000307, test loss = 0.220498
  Training set accuracy = 1.000000, Test set accuracy = 0.954800
 epoch 375/500. Took 0.8618 seconds. 
  Full-batch training loss = 0.000306, test loss = 0.220583
  Training set accuracy = 1.000000, Test set accuracy = 0.954800
 epoch 376/500. Took 0.87746 seconds. 
  Full-batch training loss = 0.000305, test loss = 0.220619
  Training set accuracy = 1.000000, Test set accuracy = 0.954800
 epoch 377/500. Took 0.86841 seconds. 
  Full-batch training loss = 0.000304, test loss = 0.220675
  Training set accuracy = 1.000000, Test set accuracy = 0.954800
 epoch 378/500. Took 0.86379 seconds. 
  Full-batch training loss = 0.000303, test loss = 0.220710
  Training set accuracy = 1.000000, Test set accuracy = 0.954800
 epoch 379/500. Took 0.86315 seconds. 
  Full-batch training loss = 0.000302, test loss = 0.220750
  Training set accuracy = 1.000000, Test set accuracy = 0.954800
 epoch 380/500. Took 0.8756 seconds. 
  Full-batch training loss = 0.000301, test loss = 0.220741
  Training set accuracy = 1.000000, Test set accuracy = 0.954800
 epoch 381/500. Took 0.86749 seconds. 
  Full-batch training loss = 0.000300, test loss = 0.220820
  Training set accuracy = 1.000000, Test set accuracy = 0.954800
 epoch 382/500. Took 0.8626 seconds. 
  Full-batch training loss = 0.000299, test loss = 0.220889
  Training set accuracy = 1.000000, Test set accuracy = 0.954800
 epoch 383/500. Took 0.8687 seconds. 
  Full-batch training loss = 0.000298, test loss = 0.220946
  Training set accuracy = 1.000000, Test set accuracy = 0.954800
 epoch 384/500. Took 0.86579 seconds. 
  Full-batch training loss = 0.000297, test loss = 0.220990
  Training set accuracy = 1.000000, Test set accuracy = 0.954800
 epoch 385/500. Took 0.84952 seconds. 
  Full-batch training loss = 0.000296, test loss = 0.220980
  Training set accuracy = 1.000000, Test set accuracy = 0.954800
 epoch 386/500. Took 0.86398 seconds. 
  Full-batch training loss = 0.000295, test loss = 0.221057
  Training set accuracy = 1.000000, Test set accuracy = 0.954800
 epoch 387/500. Took 0.85935 seconds. 
  Full-batch training loss = 0.000294, test loss = 0.221061
  Training set accuracy = 1.000000, Test set accuracy = 0.954800
 epoch 388/500. Took 0.86941 seconds. 
  Full-batch training loss = 0.000293, test loss = 0.221150
  Training set accuracy = 1.000000, Test set accuracy = 0.954800
 epoch 389/500. Took 0.86301 seconds. 
  Full-batch training loss = 0.000292, test loss = 0.221152
  Training set accuracy = 1.000000, Test set accuracy = 0.954800
 epoch 390/500. Took 0.87435 seconds. 
  Full-batch training loss = 0.000291, test loss = 0.221210
  Training set accuracy = 1.000000, Test set accuracy = 0.954800
 epoch 391/500. Took 0.85835 seconds. 
  Full-batch training loss = 0.000291, test loss = 0.221262
  Training set accuracy = 1.000000, Test set accuracy = 0.954800
 epoch 392/500. Took 0.85686 seconds. 
  Full-batch training loss = 0.000290, test loss = 0.221270
  Training set accuracy = 1.000000, Test set accuracy = 0.954800
 epoch 393/500. Took 0.8636 seconds. 
  Full-batch training loss = 0.000289, test loss = 0.221360
  Training set accuracy = 1.000000, Test set accuracy = 0.954800
 epoch 394/500. Took 0.85882 seconds. 
  Full-batch training loss = 0.000288, test loss = 0.221367
  Training set accuracy = 1.000000, Test set accuracy = 0.954800
 epoch 395/500. Took 0.8711 seconds. 
  Full-batch training loss = 0.000287, test loss = 0.221441
  Training set accuracy = 1.000000, Test set accuracy = 0.954800
 epoch 396/500. Took 0.87312 seconds. 
  Full-batch training loss = 0.000286, test loss = 0.221453
  Training set accuracy = 1.000000, Test set accuracy = 0.954800
 epoch 397/500. Took 0.86198 seconds. 
  Full-batch training loss = 0.000285, test loss = 0.221495
  Training set accuracy = 1.000000, Test set accuracy = 0.954800
 epoch 398/500. Took 0.86189 seconds. 
  Full-batch training loss = 0.000284, test loss = 0.221532
  Training set accuracy = 1.000000, Test set accuracy = 0.954800
 epoch 399/500. Took 0.86735 seconds. 
  Full-batch training loss = 0.000284, test loss = 0.221582
  Training set accuracy = 1.000000, Test set accuracy = 0.954800
 epoch 400/500. Took 0.86048 seconds. 
  Full-batch training loss = 0.000283, test loss = 0.221619
  Training set accuracy = 1.000000, Test set accuracy = 0.954700
 epoch 401/500. Took 0.8599 seconds. 
  Full-batch training loss = 0.000282, test loss = 0.221655
  Training set accuracy = 1.000000, Test set accuracy = 0.954900
 epoch 402/500. Took 0.8651 seconds. 
  Full-batch training loss = 0.000281, test loss = 0.221697
  Training set accuracy = 1.000000, Test set accuracy = 0.954800
 epoch 403/500. Took 0.86417 seconds. 
  Full-batch training loss = 0.000280, test loss = 0.221746
  Training set accuracy = 1.000000, Test set accuracy = 0.954800
 epoch 404/500. Took 0.86221 seconds. 
  Full-batch training loss = 0.000279, test loss = 0.221768
  Training set accuracy = 1.000000, Test set accuracy = 0.954900
 epoch 405/500. Took 0.87071 seconds. 
  Full-batch training loss = 0.000279, test loss = 0.221790
  Training set accuracy = 1.000000, Test set accuracy = 0.954800
 epoch 406/500. Took 0.86273 seconds. 
  Full-batch training loss = 0.000278, test loss = 0.221874
  Training set accuracy = 1.000000, Test set accuracy = 0.954800
 epoch 407/500. Took 0.86858 seconds. 
  Full-batch training loss = 0.000277, test loss = 0.221917
  Training set accuracy = 1.000000, Test set accuracy = 0.954800
 epoch 408/500. Took 0.86858 seconds. 
  Full-batch training loss = 0.000276, test loss = 0.221952
  Training set accuracy = 1.000000, Test set accuracy = 0.954900
 epoch 409/500. Took 0.86521 seconds. 
  Full-batch training loss = 0.000275, test loss = 0.221997
  Training set accuracy = 1.000000, Test set accuracy = 0.954800
 epoch 410/500. Took 0.8591 seconds. 
  Full-batch training loss = 0.000275, test loss = 0.222043
  Training set accuracy = 1.000000, Test set accuracy = 0.954900
 epoch 411/500. Took 0.86328 seconds. 
  Full-batch training loss = 0.000274, test loss = 0.222050
  Training set accuracy = 1.000000, Test set accuracy = 0.954800
 epoch 412/500. Took 0.86404 seconds. 
  Full-batch training loss = 0.000273, test loss = 0.222097
  Training set accuracy = 1.000000, Test set accuracy = 0.954800
 epoch 413/500. Took 0.88456 seconds. 
  Full-batch training loss = 0.000272, test loss = 0.222144
  Training set accuracy = 1.000000, Test set accuracy = 0.954800
 epoch 414/500. Took 0.86553 seconds. 
  Full-batch training loss = 0.000271, test loss = 0.222221
  Training set accuracy = 1.000000, Test set accuracy = 0.954800
 epoch 415/500. Took 0.86318 seconds. 
  Full-batch training loss = 0.000271, test loss = 0.222230
  Training set accuracy = 1.000000, Test set accuracy = 0.954800
 epoch 416/500. Took 0.86106 seconds. 
  Full-batch training loss = 0.000270, test loss = 0.222264
  Training set accuracy = 1.000000, Test set accuracy = 0.954700
 epoch 417/500. Took 0.86069 seconds. 
  Full-batch training loss = 0.000269, test loss = 0.222298
  Training set accuracy = 1.000000, Test set accuracy = 0.954700
 epoch 418/500. Took 0.86528 seconds. 
  Full-batch training loss = 0.000268, test loss = 0.222329
  Training set accuracy = 1.000000, Test set accuracy = 0.954900
 epoch 419/500. Took 0.8652 seconds. 
  Full-batch training loss = 0.000267, test loss = 0.222406
  Training set accuracy = 1.000000, Test set accuracy = 0.954700
 epoch 420/500. Took 0.87432 seconds. 
  Full-batch training loss = 0.000267, test loss = 0.222449
  Training set accuracy = 1.000000, Test set accuracy = 0.954800
 epoch 421/500. Took 0.86021 seconds. 
  Full-batch training loss = 0.000266, test loss = 0.222469
  Training set accuracy = 1.000000, Test set accuracy = 0.954900
 epoch 422/500. Took 0.87111 seconds. 
  Full-batch training loss = 0.000265, test loss = 0.222512
  Training set accuracy = 1.000000, Test set accuracy = 0.954800
 epoch 423/500. Took 0.85422 seconds. 
  Full-batch training loss = 0.000264, test loss = 0.222551
  Training set accuracy = 1.000000, Test set accuracy = 0.954900
 epoch 424/500. Took 0.88005 seconds. 
  Full-batch training loss = 0.000264, test loss = 0.222589
  Training set accuracy = 1.000000, Test set accuracy = 0.954700
 epoch 425/500. Took 0.86338 seconds. 
  Full-batch training loss = 0.000263, test loss = 0.222687
  Training set accuracy = 1.000000, Test set accuracy = 0.954600
 epoch 426/500. Took 0.86766 seconds. 
  Full-batch training loss = 0.000262, test loss = 0.222659
  Training set accuracy = 1.000000, Test set accuracy = 0.954700
 epoch 427/500. Took 0.8611 seconds. 
  Full-batch training loss = 0.000262, test loss = 0.222724
  Training set accuracy = 1.000000, Test set accuracy = 0.954800
 epoch 428/500. Took 0.85912 seconds. 
  Full-batch training loss = 0.000261, test loss = 0.222741
  Training set accuracy = 1.000000, Test set accuracy = 0.954800
 epoch 429/500. Took 0.86723 seconds. 
  Full-batch training loss = 0.000260, test loss = 0.222793
  Training set accuracy = 1.000000, Test set accuracy = 0.954800
 epoch 430/500. Took 0.8788 seconds. 
  Full-batch training loss = 0.000259, test loss = 0.222839
  Training set accuracy = 1.000000, Test set accuracy = 0.954800
 epoch 431/500. Took 0.87495 seconds. 
  Full-batch training loss = 0.000259, test loss = 0.222846
  Training set accuracy = 1.000000, Test set accuracy = 0.954700
 epoch 432/500. Took 0.86901 seconds. 
  Full-batch training loss = 0.000258, test loss = 0.222900
  Training set accuracy = 1.000000, Test set accuracy = 0.954900
 epoch 433/500. Took 0.8705 seconds. 
  Full-batch training loss = 0.000257, test loss = 0.222946
  Training set accuracy = 1.000000, Test set accuracy = 0.954900
 epoch 434/500. Took 0.87644 seconds. 
  Full-batch training loss = 0.000256, test loss = 0.223030
  Training set accuracy = 1.000000, Test set accuracy = 0.954900
 epoch 435/500. Took 0.86347 seconds. 
  Full-batch training loss = 0.000256, test loss = 0.223036
  Training set accuracy = 1.000000, Test set accuracy = 0.954900
 epoch 436/500. Took 0.86926 seconds. 
  Full-batch training loss = 0.000255, test loss = 0.223062
  Training set accuracy = 1.000000, Test set accuracy = 0.954800
 epoch 437/500. Took 0.8584 seconds. 
  Full-batch training loss = 0.000254, test loss = 0.223103
  Training set accuracy = 1.000000, Test set accuracy = 0.954800
 epoch 438/500. Took 0.8769 seconds. 
  Full-batch training loss = 0.000254, test loss = 0.223132
  Training set accuracy = 1.000000, Test set accuracy = 0.954800
 epoch 439/500. Took 0.87124 seconds. 
  Full-batch training loss = 0.000253, test loss = 0.223148
  Training set accuracy = 1.000000, Test set accuracy = 0.955000
 epoch 440/500. Took 0.8619 seconds. 
  Full-batch training loss = 0.000252, test loss = 0.223210
  Training set accuracy = 1.000000, Test set accuracy = 0.954700
 epoch 441/500. Took 0.8619 seconds. 
  Full-batch training loss = 0.000252, test loss = 0.223258
  Training set accuracy = 1.000000, Test set accuracy = 0.954800
 epoch 442/500. Took 0.87175 seconds. 
  Full-batch training loss = 0.000251, test loss = 0.223281
  Training set accuracy = 1.000000, Test set accuracy = 0.954900
 epoch 443/500. Took 0.87044 seconds. 
  Full-batch training loss = 0.000250, test loss = 0.223298
  Training set accuracy = 1.000000, Test set accuracy = 0.954900
 epoch 444/500. Took 0.8717 seconds. 
  Full-batch training loss = 0.000250, test loss = 0.223343
  Training set accuracy = 1.000000, Test set accuracy = 0.954800
 epoch 445/500. Took 0.88009 seconds. 
  Full-batch training loss = 0.000249, test loss = 0.223364
  Training set accuracy = 1.000000, Test set accuracy = 0.955000
 epoch 446/500. Took 0.87825 seconds. 
  Full-batch training loss = 0.000248, test loss = 0.223446
  Training set accuracy = 1.000000, Test set accuracy = 0.954900
 epoch 447/500. Took 0.86586 seconds. 
  Full-batch training loss = 0.000248, test loss = 0.223446
  Training set accuracy = 1.000000, Test set accuracy = 0.954900
 epoch 448/500. Took 0.88127 seconds. 
  Full-batch training loss = 0.000247, test loss = 0.223521
  Training set accuracy = 1.000000, Test set accuracy = 0.954900
 epoch 449/500. Took 0.87377 seconds. 
  Full-batch training loss = 0.000246, test loss = 0.223545
  Training set accuracy = 1.000000, Test set accuracy = 0.954900
 epoch 450/500. Took 0.87511 seconds. 
  Full-batch training loss = 0.000246, test loss = 0.223556
  Training set accuracy = 1.000000, Test set accuracy = 0.954900
 epoch 451/500. Took 0.86527 seconds. 
  Full-batch training loss = 0.000245, test loss = 0.223617
  Training set accuracy = 1.000000, Test set accuracy = 0.955100
 epoch 452/500. Took 0.8699 seconds. 
  Full-batch training loss = 0.000244, test loss = 0.223624
  Training set accuracy = 1.000000, Test set accuracy = 0.955200
 epoch 453/500. Took 0.85706 seconds. 
  Full-batch training loss = 0.000244, test loss = 0.223670
  Training set accuracy = 1.000000, Test set accuracy = 0.954900
 epoch 454/500. Took 0.87064 seconds. 
  Full-batch training loss = 0.000243, test loss = 0.223716
  Training set accuracy = 1.000000, Test set accuracy = 0.955000
 epoch 455/500. Took 0.8712 seconds. 
  Full-batch training loss = 0.000242, test loss = 0.223711
  Training set accuracy = 1.000000, Test set accuracy = 0.955100
 epoch 456/500. Took 0.86029 seconds. 
  Full-batch training loss = 0.000242, test loss = 0.223819
  Training set accuracy = 1.000000, Test set accuracy = 0.955000
 epoch 457/500. Took 0.87296 seconds. 
  Full-batch training loss = 0.000241, test loss = 0.223832
  Training set accuracy = 1.000000, Test set accuracy = 0.955000
 epoch 458/500. Took 0.87137 seconds. 
  Full-batch training loss = 0.000241, test loss = 0.223905
  Training set accuracy = 1.000000, Test set accuracy = 0.954800
 epoch 459/500. Took 0.85251 seconds. 
  Full-batch training loss = 0.000240, test loss = 0.223949
  Training set accuracy = 1.000000, Test set accuracy = 0.955000
 epoch 460/500. Took 0.8686 seconds. 
  Full-batch training loss = 0.000239, test loss = 0.223971
  Training set accuracy = 1.000000, Test set accuracy = 0.954800
 epoch 461/500. Took 0.86339 seconds. 
  Full-batch training loss = 0.000239, test loss = 0.223981
  Training set accuracy = 1.000000, Test set accuracy = 0.954900
 epoch 462/500. Took 0.86898 seconds. 
  Full-batch training loss = 0.000238, test loss = 0.223989
  Training set accuracy = 1.000000, Test set accuracy = 0.955000
 epoch 463/500. Took 0.85518 seconds. 
  Full-batch training loss = 0.000237, test loss = 0.224062
  Training set accuracy = 1.000000, Test set accuracy = 0.955000
 epoch 464/500. Took 0.86183 seconds. 
  Full-batch training loss = 0.000237, test loss = 0.224098
  Training set accuracy = 1.000000, Test set accuracy = 0.954800
 epoch 465/500. Took 0.86499 seconds. 
  Full-batch training loss = 0.000236, test loss = 0.224103
  Training set accuracy = 1.000000, Test set accuracy = 0.955000
 epoch 466/500. Took 0.87662 seconds. 
  Full-batch training loss = 0.000236, test loss = 0.224192
  Training set accuracy = 1.000000, Test set accuracy = 0.954900
 epoch 467/500. Took 0.86479 seconds. 
  Full-batch training loss = 0.000235, test loss = 0.224204
  Training set accuracy = 1.000000, Test set accuracy = 0.954900
 epoch 468/500. Took 0.86988 seconds. 
  Full-batch training loss = 0.000234, test loss = 0.224240
  Training set accuracy = 1.000000, Test set accuracy = 0.954900
 epoch 469/500. Took 0.8617 seconds. 
  Full-batch training loss = 0.000234, test loss = 0.224256
  Training set accuracy = 1.000000, Test set accuracy = 0.954900
 epoch 470/500. Took 0.87262 seconds. 
  Full-batch training loss = 0.000233, test loss = 0.224299
  Training set accuracy = 1.000000, Test set accuracy = 0.955000
 epoch 471/500. Took 0.8646 seconds. 
  Full-batch training loss = 0.000233, test loss = 0.224358
  Training set accuracy = 1.000000, Test set accuracy = 0.954900
 epoch 472/500. Took 0.86612 seconds. 
  Full-batch training loss = 0.000232, test loss = 0.224370
  Training set accuracy = 1.000000, Test set accuracy = 0.955000
 epoch 473/500. Took 0.87055 seconds. 
  Full-batch training loss = 0.000231, test loss = 0.224398
  Training set accuracy = 1.000000, Test set accuracy = 0.955000
 epoch 474/500. Took 0.86602 seconds. 
  Full-batch training loss = 0.000231, test loss = 0.224442
  Training set accuracy = 1.000000, Test set accuracy = 0.955000
 epoch 475/500. Took 0.8623 seconds. 
  Full-batch training loss = 0.000230, test loss = 0.224433
  Training set accuracy = 1.000000, Test set accuracy = 0.955000
 epoch 476/500. Took 0.86576 seconds. 
  Full-batch training loss = 0.000230, test loss = 0.224548
  Training set accuracy = 1.000000, Test set accuracy = 0.954900
 epoch 477/500. Took 0.86648 seconds. 
  Full-batch training loss = 0.000229, test loss = 0.224550
  Training set accuracy = 1.000000, Test set accuracy = 0.955000
 epoch 478/500. Took 0.87836 seconds. 
  Full-batch training loss = 0.000229, test loss = 0.224569
  Training set accuracy = 1.000000, Test set accuracy = 0.955000
 epoch 479/500. Took 0.87013 seconds. 
  Full-batch training loss = 0.000228, test loss = 0.224603
  Training set accuracy = 1.000000, Test set accuracy = 0.955000
 epoch 480/500. Took 0.87185 seconds. 
  Full-batch training loss = 0.000227, test loss = 0.224647
  Training set accuracy = 1.000000, Test set accuracy = 0.955000
 epoch 481/500. Took 0.86488 seconds. 
  Full-batch training loss = 0.000227, test loss = 0.224670
  Training set accuracy = 1.000000, Test set accuracy = 0.955100
 epoch 482/500. Took 0.86952 seconds. 
  Full-batch training loss = 0.000226, test loss = 0.224750
  Training set accuracy = 1.000000, Test set accuracy = 0.955000
 epoch 483/500. Took 0.88123 seconds. 
  Full-batch training loss = 0.000226, test loss = 0.224714
  Training set accuracy = 1.000000, Test set accuracy = 0.955000
 epoch 484/500. Took 0.86386 seconds. 
  Full-batch training loss = 0.000225, test loss = 0.224777
  Training set accuracy = 1.000000, Test set accuracy = 0.955000
 epoch 485/500. Took 0.87553 seconds. 
  Full-batch training loss = 0.000225, test loss = 0.224767
  Training set accuracy = 1.000000, Test set accuracy = 0.955100
 epoch 486/500. Took 0.88117 seconds. 
  Full-batch training loss = 0.000224, test loss = 0.224878
  Training set accuracy = 1.000000, Test set accuracy = 0.955000
 epoch 487/500. Took 0.8788 seconds. 
  Full-batch training loss = 0.000224, test loss = 0.224861
  Training set accuracy = 1.000000, Test set accuracy = 0.955000
 epoch 488/500. Took 0.87963 seconds. 
  Full-batch training loss = 0.000223, test loss = 0.224885
  Training set accuracy = 1.000000, Test set accuracy = 0.955000
 epoch 489/500. Took 0.86344 seconds. 
  Full-batch training loss = 0.000222, test loss = 0.224942
  Training set accuracy = 1.000000, Test set accuracy = 0.955000
 epoch 490/500. Took 0.87721 seconds. 
  Full-batch training loss = 0.000222, test loss = 0.224997
  Training set accuracy = 1.000000, Test set accuracy = 0.955000
 epoch 491/500. Took 0.86833 seconds. 
  Full-batch training loss = 0.000221, test loss = 0.225048
  Training set accuracy = 1.000000, Test set accuracy = 0.955000
 epoch 492/500. Took 0.86235 seconds. 
  Full-batch training loss = 0.000221, test loss = 0.225083
  Training set accuracy = 1.000000, Test set accuracy = 0.955000
 epoch 493/500. Took 0.86733 seconds. 
  Full-batch training loss = 0.000220, test loss = 0.225117
  Training set accuracy = 1.000000, Test set accuracy = 0.955000
 epoch 494/500. Took 0.87532 seconds. 
  Full-batch training loss = 0.000220, test loss = 0.225136
  Training set accuracy = 1.000000, Test set accuracy = 0.955000
 epoch 495/500. Took 0.876 seconds. 
  Full-batch training loss = 0.000219, test loss = 0.225153
  Training set accuracy = 1.000000, Test set accuracy = 0.955000
 epoch 496/500. Took 0.86277 seconds. 
  Full-batch training loss = 0.000219, test loss = 0.225204
  Training set accuracy = 1.000000, Test set accuracy = 0.955100
 epoch 497/500. Took 0.86848 seconds. 
  Full-batch training loss = 0.000218, test loss = 0.225220
  Training set accuracy = 1.000000, Test set accuracy = 0.955000
 epoch 498/500. Took 0.87641 seconds. 
  Full-batch training loss = 0.000218, test loss = 0.225271
  Training set accuracy = 1.000000, Test set accuracy = 0.955000
 epoch 499/500. Took 0.8588 seconds. 
  Full-batch training loss = 0.000217, test loss = 0.225318
  Training set accuracy = 1.000000, Test set accuracy = 0.955100
 epoch 500/500. Took 0.86588 seconds. 
  Full-batch training loss = 0.000217, test loss = 0.225315
  Training set accuracy = 1.000000, Test set accuracy = 0.955100
Elapsed time is 1046.441979 seconds.
End Training
