==========================================================
  Architecture is 500 500 500 // 3 layer x 500 neuron
----------------------------------------------------------
Execution 17/270
----------------------------------------------------------
* ReducedData	2000
* PreTrainRBM	true
	-> Epochs	100
	-> LearningRate	0.20
* Fine-tunning
	-> Epochs	100
	-> LearningRate	0.10
==========================================================
Start Training
Number of training examples: 2000  BatchSize: 100
Number of inputs: 784  Number of outputs: 10
Number of hidden layers: 3 (500  500  500)
Training binary-binary RBM in layer 1 (784  500) with CD1 for 100 epochs
 epoch 1/100. Took 0.19126 seconds. Average reconstruction error is: 49.712
 epoch 2/100. Took 0.19172 seconds. Average reconstruction error is: 26.1975
 epoch 3/100. Took 0.19168 seconds. Average reconstruction error is: 21.7948
 epoch 4/100. Took 0.18994 seconds. Average reconstruction error is: 19.3399
 epoch 5/100. Took 0.19189 seconds. Average reconstruction error is: 17.8461
 epoch 6/100. Took 0.19631 seconds. Average reconstruction error is: 16.5645
 epoch 7/100. Took 0.18766 seconds. Average reconstruction error is: 15.7002
 epoch 8/100. Took 0.19021 seconds. Average reconstruction error is: 14.9139
 epoch 9/100. Took 0.19046 seconds. Average reconstruction error is: 14.2213
 epoch 10/100. Took 0.18927 seconds. Average reconstruction error is: 13.7045
 epoch 11/100. Took 0.18908 seconds. Average reconstruction error is: 13.2339
 epoch 12/100. Took 0.18788 seconds. Average reconstruction error is: 12.7453
 epoch 13/100. Took 0.189 seconds. Average reconstruction error is: 12.41
 epoch 14/100. Took 0.18897 seconds. Average reconstruction error is: 12.0442
 epoch 15/100. Took 0.1907 seconds. Average reconstruction error is: 11.7854
 epoch 16/100. Took 0.18909 seconds. Average reconstruction error is: 11.5208
 epoch 17/100. Took 0.19145 seconds. Average reconstruction error is: 11.1274
 epoch 18/100. Took 0.19214 seconds. Average reconstruction error is: 10.9798
 epoch 19/100. Took 0.19072 seconds. Average reconstruction error is: 10.7121
 epoch 20/100. Took 0.19177 seconds. Average reconstruction error is: 10.3866
 epoch 21/100. Took 0.18794 seconds. Average reconstruction error is: 10.2926
 epoch 22/100. Took 0.18953 seconds. Average reconstruction error is: 10.0836
 epoch 23/100. Took 0.18931 seconds. Average reconstruction error is: 9.8053
 epoch 24/100. Took 0.19274 seconds. Average reconstruction error is: 9.673
 epoch 25/100. Took 0.19126 seconds. Average reconstruction error is: 9.5516
 epoch 26/100. Took 0.19131 seconds. Average reconstruction error is: 9.4543
 epoch 27/100. Took 0.19197 seconds. Average reconstruction error is: 9.2648
 epoch 28/100. Took 0.18938 seconds. Average reconstruction error is: 9.164
 epoch 29/100. Took 0.19021 seconds. Average reconstruction error is: 9.1053
 epoch 30/100. Took 0.19077 seconds. Average reconstruction error is: 8.957
 epoch 31/100. Took 0.19108 seconds. Average reconstruction error is: 8.8571
 epoch 32/100. Took 0.18998 seconds. Average reconstruction error is: 8.7266
 epoch 33/100. Took 0.18998 seconds. Average reconstruction error is: 8.655
 epoch 34/100. Took 0.19148 seconds. Average reconstruction error is: 8.5586
 epoch 35/100. Took 0.19108 seconds. Average reconstruction error is: 8.4254
 epoch 36/100. Took 0.18634 seconds. Average reconstruction error is: 8.2793
 epoch 37/100. Took 0.19059 seconds. Average reconstruction error is: 8.2948
 epoch 38/100. Took 0.18884 seconds. Average reconstruction error is: 8.1934
 epoch 39/100. Took 0.18894 seconds. Average reconstruction error is: 8.1662
 epoch 40/100. Took 0.1955 seconds. Average reconstruction error is: 8.1688
 epoch 41/100. Took 0.18975 seconds. Average reconstruction error is: 8.0262
 epoch 42/100. Took 0.19058 seconds. Average reconstruction error is: 7.9359
 epoch 43/100. Took 0.18992 seconds. Average reconstruction error is: 7.9111
 epoch 44/100. Took 0.18871 seconds. Average reconstruction error is: 7.8308
 epoch 45/100. Took 0.19059 seconds. Average reconstruction error is: 7.7891
 epoch 46/100. Took 0.18762 seconds. Average reconstruction error is: 7.7254
 epoch 47/100. Took 0.19271 seconds. Average reconstruction error is: 7.7092
 epoch 48/100. Took 0.18932 seconds. Average reconstruction error is: 7.6613
 epoch 49/100. Took 0.19163 seconds. Average reconstruction error is: 7.5918
 epoch 50/100. Took 0.18837 seconds. Average reconstruction error is: 7.534
 epoch 51/100. Took 0.19225 seconds. Average reconstruction error is: 7.4968
 epoch 52/100. Took 0.18729 seconds. Average reconstruction error is: 7.4243
 epoch 53/100. Took 0.19111 seconds. Average reconstruction error is: 7.3901
 epoch 54/100. Took 0.19095 seconds. Average reconstruction error is: 7.3293
 epoch 55/100. Took 0.18871 seconds. Average reconstruction error is: 7.3344
 epoch 56/100. Took 0.19089 seconds. Average reconstruction error is: 7.344
 epoch 57/100. Took 0.19336 seconds. Average reconstruction error is: 7.204
 epoch 58/100. Took 0.19055 seconds. Average reconstruction error is: 7.141
 epoch 59/100. Took 0.18814 seconds. Average reconstruction error is: 7.1657
 epoch 60/100. Took 0.18827 seconds. Average reconstruction error is: 7.1964
 epoch 61/100. Took 0.19039 seconds. Average reconstruction error is: 7.1824
 epoch 62/100. Took 0.19094 seconds. Average reconstruction error is: 7.0937
 epoch 63/100. Took 0.19244 seconds. Average reconstruction error is: 7.1345
 epoch 64/100. Took 0.19139 seconds. Average reconstruction error is: 7.0637
 epoch 65/100. Took 0.19294 seconds. Average reconstruction error is: 6.9994
 epoch 66/100. Took 0.19205 seconds. Average reconstruction error is: 7.0239
 epoch 67/100. Took 0.192 seconds. Average reconstruction error is: 6.9339
 epoch 68/100. Took 0.18766 seconds. Average reconstruction error is: 6.926
 epoch 69/100. Took 0.19046 seconds. Average reconstruction error is: 6.905
 epoch 70/100. Took 0.19104 seconds. Average reconstruction error is: 6.8374
 epoch 71/100. Took 0.18653 seconds. Average reconstruction error is: 6.862
 epoch 72/100. Took 0.19282 seconds. Average reconstruction error is: 6.833
 epoch 73/100. Took 0.19237 seconds. Average reconstruction error is: 6.8368
 epoch 74/100. Took 0.18889 seconds. Average reconstruction error is: 6.7942
 epoch 75/100. Took 0.19078 seconds. Average reconstruction error is: 6.7766
 epoch 76/100. Took 0.19037 seconds. Average reconstruction error is: 6.7599
 epoch 77/100. Took 0.1906 seconds. Average reconstruction error is: 6.7458
 epoch 78/100. Took 0.18823 seconds. Average reconstruction error is: 6.7512
 epoch 79/100. Took 0.19066 seconds. Average reconstruction error is: 6.7035
 epoch 80/100. Took 0.19196 seconds. Average reconstruction error is: 6.6643
 epoch 81/100. Took 0.18968 seconds. Average reconstruction error is: 6.6285
 epoch 82/100. Took 0.1915 seconds. Average reconstruction error is: 6.6129
 epoch 83/100. Took 0.19162 seconds. Average reconstruction error is: 6.6126
 epoch 84/100. Took 0.18905 seconds. Average reconstruction error is: 6.5834
 epoch 85/100. Took 0.19131 seconds. Average reconstruction error is: 6.5672
 epoch 86/100. Took 0.18972 seconds. Average reconstruction error is: 6.5422
 epoch 87/100. Took 0.1881 seconds. Average reconstruction error is: 6.5844
 epoch 88/100. Took 0.18925 seconds. Average reconstruction error is: 6.5535
 epoch 89/100. Took 0.18998 seconds. Average reconstruction error is: 6.4752
 epoch 90/100. Took 0.18995 seconds. Average reconstruction error is: 6.4944
 epoch 91/100. Took 0.19108 seconds. Average reconstruction error is: 6.5015
 epoch 92/100. Took 0.19156 seconds. Average reconstruction error is: 6.4427
 epoch 93/100. Took 0.18962 seconds. Average reconstruction error is: 6.4604
 epoch 94/100. Took 0.19196 seconds. Average reconstruction error is: 6.4744
 epoch 95/100. Took 0.19164 seconds. Average reconstruction error is: 6.373
 epoch 96/100. Took 0.19036 seconds. Average reconstruction error is: 6.4183
 epoch 97/100. Took 0.19041 seconds. Average reconstruction error is: 6.3806
 epoch 98/100. Took 0.19059 seconds. Average reconstruction error is: 6.3813
 epoch 99/100. Took 0.18837 seconds. Average reconstruction error is: 6.3783
 epoch 100/100. Took 0.19134 seconds. Average reconstruction error is: 6.3813
Training binary-binary RBM in layer 2 (500  500) with CD1 for 100 epochs
 epoch 1/100. Took 0.13101 seconds. Average reconstruction error is: 36.0349
 epoch 2/100. Took 0.1341 seconds. Average reconstruction error is: 19.3443
 epoch 3/100. Took 0.13552 seconds. Average reconstruction error is: 15.686
 epoch 4/100. Took 0.13379 seconds. Average reconstruction error is: 13.7471
 epoch 5/100. Took 0.13324 seconds. Average reconstruction error is: 12.435
 epoch 6/100. Took 0.13495 seconds. Average reconstruction error is: 11.5688
 epoch 7/100. Took 0.13346 seconds. Average reconstruction error is: 10.9261
 epoch 8/100. Took 0.13326 seconds. Average reconstruction error is: 10.3963
 epoch 9/100. Took 0.13342 seconds. Average reconstruction error is: 10.0593
 epoch 10/100. Took 0.13302 seconds. Average reconstruction error is: 9.7297
 epoch 11/100. Took 0.13395 seconds. Average reconstruction error is: 9.4962
 epoch 12/100. Took 0.13294 seconds. Average reconstruction error is: 9.0766
 epoch 13/100. Took 0.13326 seconds. Average reconstruction error is: 8.9473
 epoch 14/100. Took 0.13269 seconds. Average reconstruction error is: 8.716
 epoch 15/100. Took 0.13394 seconds. Average reconstruction error is: 8.5739
 epoch 16/100. Took 0.1345 seconds. Average reconstruction error is: 8.424
 epoch 17/100. Took 0.13174 seconds. Average reconstruction error is: 8.2568
 epoch 18/100. Took 0.13369 seconds. Average reconstruction error is: 8.1416
 epoch 19/100. Took 0.13437 seconds. Average reconstruction error is: 7.9641
 epoch 20/100. Took 0.13413 seconds. Average reconstruction error is: 7.9214
 epoch 21/100. Took 0.13392 seconds. Average reconstruction error is: 7.7522
 epoch 22/100. Took 0.1334 seconds. Average reconstruction error is: 7.7251
 epoch 23/100. Took 0.13262 seconds. Average reconstruction error is: 7.6071
 epoch 24/100. Took 0.13506 seconds. Average reconstruction error is: 7.5413
 epoch 25/100. Took 0.13241 seconds. Average reconstruction error is: 7.5327
 epoch 26/100. Took 0.13358 seconds. Average reconstruction error is: 7.3561
 epoch 27/100. Took 0.13378 seconds. Average reconstruction error is: 7.2808
 epoch 28/100. Took 0.13271 seconds. Average reconstruction error is: 7.2469
 epoch 29/100. Took 0.13022 seconds. Average reconstruction error is: 7.1594
 epoch 30/100. Took 0.13281 seconds. Average reconstruction error is: 7.0913
 epoch 31/100. Took 0.1343 seconds. Average reconstruction error is: 6.9834
 epoch 32/100. Took 0.13621 seconds. Average reconstruction error is: 6.9839
 epoch 33/100. Took 0.13463 seconds. Average reconstruction error is: 6.9166
 epoch 34/100. Took 0.13234 seconds. Average reconstruction error is: 6.865
 epoch 35/100. Took 0.13524 seconds. Average reconstruction error is: 6.8303
 epoch 36/100. Took 0.13368 seconds. Average reconstruction error is: 6.767
 epoch 37/100. Took 0.13182 seconds. Average reconstruction error is: 6.7611
 epoch 38/100. Took 0.13395 seconds. Average reconstruction error is: 6.6803
 epoch 39/100. Took 0.13287 seconds. Average reconstruction error is: 6.6234
 epoch 40/100. Took 0.13243 seconds. Average reconstruction error is: 6.6187
 epoch 41/100. Took 0.13342 seconds. Average reconstruction error is: 6.5684
 epoch 42/100. Took 0.1342 seconds. Average reconstruction error is: 6.5069
 epoch 43/100. Took 0.13226 seconds. Average reconstruction error is: 6.4805
 epoch 44/100. Took 0.13378 seconds. Average reconstruction error is: 6.4954
 epoch 45/100. Took 0.13445 seconds. Average reconstruction error is: 6.436
 epoch 46/100. Took 0.13471 seconds. Average reconstruction error is: 6.3977
 epoch 47/100. Took 0.13325 seconds. Average reconstruction error is: 6.2867
 epoch 48/100. Took 0.13323 seconds. Average reconstruction error is: 6.3398
 epoch 49/100. Took 0.13389 seconds. Average reconstruction error is: 6.2964
 epoch 50/100. Took 0.13441 seconds. Average reconstruction error is: 6.2213
 epoch 51/100. Took 0.1347 seconds. Average reconstruction error is: 6.2626
 epoch 52/100. Took 0.13506 seconds. Average reconstruction error is: 6.2296
 epoch 53/100. Took 0.13471 seconds. Average reconstruction error is: 6.131
 epoch 54/100. Took 0.13409 seconds. Average reconstruction error is: 6.177
 epoch 55/100. Took 0.13377 seconds. Average reconstruction error is: 6.1
 epoch 56/100. Took 0.13344 seconds. Average reconstruction error is: 6.0885
 epoch 57/100. Took 0.13381 seconds. Average reconstruction error is: 6.0589
 epoch 58/100. Took 0.13238 seconds. Average reconstruction error is: 6.0691
 epoch 59/100. Took 0.13306 seconds. Average reconstruction error is: 6.0386
 epoch 60/100. Took 0.13368 seconds. Average reconstruction error is: 6.0056
 epoch 61/100. Took 0.13382 seconds. Average reconstruction error is: 5.9946
 epoch 62/100. Took 0.1344 seconds. Average reconstruction error is: 5.9632
 epoch 63/100. Took 0.13259 seconds. Average reconstruction error is: 5.9499
 epoch 64/100. Took 0.13273 seconds. Average reconstruction error is: 5.8995
 epoch 65/100. Took 0.13379 seconds. Average reconstruction error is: 5.9197
 epoch 66/100. Took 0.13249 seconds. Average reconstruction error is: 5.8933
 epoch 67/100. Took 0.13354 seconds. Average reconstruction error is: 5.7793
 epoch 68/100. Took 0.1311 seconds. Average reconstruction error is: 5.8217
 epoch 69/100. Took 0.13258 seconds. Average reconstruction error is: 5.7908
 epoch 70/100. Took 0.13455 seconds. Average reconstruction error is: 5.8228
 epoch 71/100. Took 0.1333 seconds. Average reconstruction error is: 5.807
 epoch 72/100. Took 0.13519 seconds. Average reconstruction error is: 5.79
 epoch 73/100. Took 0.13445 seconds. Average reconstruction error is: 5.7693
 epoch 74/100. Took 0.13444 seconds. Average reconstruction error is: 5.6983
 epoch 75/100. Took 0.13247 seconds. Average reconstruction error is: 5.7534
 epoch 76/100. Took 0.13274 seconds. Average reconstruction error is: 5.7009
 epoch 77/100. Took 0.13621 seconds. Average reconstruction error is: 5.7258
 epoch 78/100. Took 0.13563 seconds. Average reconstruction error is: 5.7508
 epoch 79/100. Took 0.13537 seconds. Average reconstruction error is: 5.7128
 epoch 80/100. Took 0.13555 seconds. Average reconstruction error is: 5.6673
 epoch 81/100. Took 0.13536 seconds. Average reconstruction error is: 5.6166
 epoch 82/100. Took 0.13374 seconds. Average reconstruction error is: 5.6379
 epoch 83/100. Took 0.13308 seconds. Average reconstruction error is: 5.6431
 epoch 84/100. Took 0.13275 seconds. Average reconstruction error is: 5.6329
 epoch 85/100. Took 0.13241 seconds. Average reconstruction error is: 5.6015
 epoch 86/100. Took 0.13349 seconds. Average reconstruction error is: 5.6002
 epoch 87/100. Took 0.13268 seconds. Average reconstruction error is: 5.567
 epoch 88/100. Took 0.13431 seconds. Average reconstruction error is: 5.5454
 epoch 89/100. Took 0.13857 seconds. Average reconstruction error is: 5.5718
 epoch 90/100. Took 0.13439 seconds. Average reconstruction error is: 5.5653
 epoch 91/100. Took 0.13273 seconds. Average reconstruction error is: 5.545
 epoch 92/100. Took 0.13317 seconds. Average reconstruction error is: 5.5534
 epoch 93/100. Took 0.13267 seconds. Average reconstruction error is: 5.4613
 epoch 94/100. Took 0.13354 seconds. Average reconstruction error is: 5.4939
 epoch 95/100. Took 0.13389 seconds. Average reconstruction error is: 5.5016
 epoch 96/100. Took 0.13419 seconds. Average reconstruction error is: 5.453
 epoch 97/100. Took 0.13499 seconds. Average reconstruction error is: 5.4636
 epoch 98/100. Took 0.1345 seconds. Average reconstruction error is: 5.4384
 epoch 99/100. Took 0.13536 seconds. Average reconstruction error is: 5.4079
 epoch 100/100. Took 0.13331 seconds. Average reconstruction error is: 5.4273
Training binary-binary RBM in layer 3 (500  500) with CD1 for 100 epochs
 epoch 1/100. Took 0.12988 seconds. Average reconstruction error is: 30.5401
 epoch 2/100. Took 0.13054 seconds. Average reconstruction error is: 14.5955
 epoch 3/100. Took 0.13049 seconds. Average reconstruction error is: 11.7188
 epoch 4/100. Took 0.13078 seconds. Average reconstruction error is: 10.141
 epoch 5/100. Took 0.13174 seconds. Average reconstruction error is: 9.2205
 epoch 6/100. Took 0.13139 seconds. Average reconstruction error is: 8.617
 epoch 7/100. Took 0.13086 seconds. Average reconstruction error is: 8.2408
 epoch 8/100. Took 0.13103 seconds. Average reconstruction error is: 7.87
 epoch 9/100. Took 0.13166 seconds. Average reconstruction error is: 7.5227
 epoch 10/100. Took 0.13235 seconds. Average reconstruction error is: 7.2978
 epoch 11/100. Took 0.12858 seconds. Average reconstruction error is: 7.1204
 epoch 12/100. Took 0.13064 seconds. Average reconstruction error is: 6.956
 epoch 13/100. Took 0.1329 seconds. Average reconstruction error is: 6.8234
 epoch 14/100. Took 0.13139 seconds. Average reconstruction error is: 6.6944
 epoch 15/100. Took 0.1293 seconds. Average reconstruction error is: 6.5617
 epoch 16/100. Took 0.1313 seconds. Average reconstruction error is: 6.5063
 epoch 17/100. Took 0.12989 seconds. Average reconstruction error is: 6.4205
 epoch 18/100. Took 0.13239 seconds. Average reconstruction error is: 6.2665
 epoch 19/100. Took 0.13276 seconds. Average reconstruction error is: 6.2449
 epoch 20/100. Took 0.13228 seconds. Average reconstruction error is: 6.1995
 epoch 21/100. Took 0.13133 seconds. Average reconstruction error is: 6.1098
 epoch 22/100. Took 0.13277 seconds. Average reconstruction error is: 6.0911
 epoch 23/100. Took 0.1324 seconds. Average reconstruction error is: 6.016
 epoch 24/100. Took 0.12937 seconds. Average reconstruction error is: 5.9328
 epoch 25/100. Took 0.13101 seconds. Average reconstruction error is: 5.9176
 epoch 26/100. Took 0.12982 seconds. Average reconstruction error is: 5.8796
 epoch 27/100. Took 0.13141 seconds. Average reconstruction error is: 5.8445
 epoch 28/100. Took 0.13127 seconds. Average reconstruction error is: 5.7913
 epoch 29/100. Took 0.13238 seconds. Average reconstruction error is: 5.7626
 epoch 30/100. Took 0.13193 seconds. Average reconstruction error is: 5.7551
 epoch 31/100. Took 0.12929 seconds. Average reconstruction error is: 5.6932
 epoch 32/100. Took 0.12906 seconds. Average reconstruction error is: 5.6272
 epoch 33/100. Took 0.13042 seconds. Average reconstruction error is: 5.6731
 epoch 34/100. Took 0.13076 seconds. Average reconstruction error is: 5.6344
 epoch 35/100. Took 0.12962 seconds. Average reconstruction error is: 5.5823
 epoch 36/100. Took 0.1307 seconds. Average reconstruction error is: 5.6115
 epoch 37/100. Took 0.13083 seconds. Average reconstruction error is: 5.5027
 epoch 38/100. Took 0.13058 seconds. Average reconstruction error is: 5.4776
 epoch 39/100. Took 0.13127 seconds. Average reconstruction error is: 5.45
 epoch 40/100. Took 0.13186 seconds. Average reconstruction error is: 5.5096
 epoch 41/100. Took 0.13306 seconds. Average reconstruction error is: 5.4181
 epoch 42/100. Took 0.13123 seconds. Average reconstruction error is: 5.4048
 epoch 43/100. Took 0.13308 seconds. Average reconstruction error is: 5.4501
 epoch 44/100. Took 0.13111 seconds. Average reconstruction error is: 5.3213
 epoch 45/100. Took 0.13021 seconds. Average reconstruction error is: 5.3405
 epoch 46/100. Took 0.13147 seconds. Average reconstruction error is: 5.3527
 epoch 47/100. Took 0.13017 seconds. Average reconstruction error is: 5.3071
 epoch 48/100. Took 0.13221 seconds. Average reconstruction error is: 5.2855
 epoch 49/100. Took 0.13224 seconds. Average reconstruction error is: 5.2707
 epoch 50/100. Took 0.13011 seconds. Average reconstruction error is: 5.2531
 epoch 51/100. Took 0.12946 seconds. Average reconstruction error is: 5.2438
 epoch 52/100. Took 0.1309 seconds. Average reconstruction error is: 5.2271
 epoch 53/100. Took 0.13027 seconds. Average reconstruction error is: 5.2867
 epoch 54/100. Took 0.12975 seconds. Average reconstruction error is: 5.2863
 epoch 55/100. Took 0.13051 seconds. Average reconstruction error is: 5.2217
 epoch 56/100. Took 0.13203 seconds. Average reconstruction error is: 5.162
 epoch 57/100. Took 0.13138 seconds. Average reconstruction error is: 5.1634
 epoch 58/100. Took 0.1331 seconds. Average reconstruction error is: 5.1012
 epoch 59/100. Took 0.13201 seconds. Average reconstruction error is: 5.1155
 epoch 60/100. Took 0.13185 seconds. Average reconstruction error is: 5.1817
 epoch 61/100. Took 0.13075 seconds. Average reconstruction error is: 5.1244
 epoch 62/100. Took 0.13172 seconds. Average reconstruction error is: 5.0621
 epoch 63/100. Took 0.13257 seconds. Average reconstruction error is: 5.1043
 epoch 64/100. Took 0.13129 seconds. Average reconstruction error is: 5.1256
 epoch 65/100. Took 0.13129 seconds. Average reconstruction error is: 5.092
 epoch 66/100. Took 0.13178 seconds. Average reconstruction error is: 5.0481
 epoch 67/100. Took 0.1307 seconds. Average reconstruction error is: 5.018
 epoch 68/100. Took 0.13126 seconds. Average reconstruction error is: 5.0596
 epoch 69/100. Took 0.12984 seconds. Average reconstruction error is: 4.9889
 epoch 70/100. Took 0.13114 seconds. Average reconstruction error is: 5.0304
 epoch 71/100. Took 0.13118 seconds. Average reconstruction error is: 4.9958
 epoch 72/100. Took 0.12887 seconds. Average reconstruction error is: 4.9764
 epoch 73/100. Took 0.13113 seconds. Average reconstruction error is: 4.9938
 epoch 74/100. Took 0.13152 seconds. Average reconstruction error is: 4.9725
 epoch 75/100. Took 0.13134 seconds. Average reconstruction error is: 4.9765
 epoch 76/100. Took 0.13122 seconds. Average reconstruction error is: 4.9337
 epoch 77/100. Took 0.13109 seconds. Average reconstruction error is: 5.0255
 epoch 78/100. Took 0.13136 seconds. Average reconstruction error is: 4.973
 epoch 79/100. Took 0.13275 seconds. Average reconstruction error is: 4.9813
 epoch 80/100. Took 0.13318 seconds. Average reconstruction error is: 4.9565
 epoch 81/100. Took 0.13091 seconds. Average reconstruction error is: 4.9468
 epoch 82/100. Took 0.1332 seconds. Average reconstruction error is: 4.923
 epoch 83/100. Took 0.13089 seconds. Average reconstruction error is: 4.9714
 epoch 84/100. Took 0.13272 seconds. Average reconstruction error is: 4.9475
 epoch 85/100. Took 0.13 seconds. Average reconstruction error is: 4.8982
 epoch 86/100. Took 0.13214 seconds. Average reconstruction error is: 4.8781
 epoch 87/100. Took 0.13222 seconds. Average reconstruction error is: 4.887
 epoch 88/100. Took 0.12921 seconds. Average reconstruction error is: 4.8318
 epoch 89/100. Took 0.13049 seconds. Average reconstruction error is: 4.8881
 epoch 90/100. Took 0.12778 seconds. Average reconstruction error is: 4.9048
 epoch 91/100. Took 0.13054 seconds. Average reconstruction error is: 4.844
 epoch 92/100. Took 0.13058 seconds. Average reconstruction error is: 4.8411
 epoch 93/100. Took 0.13167 seconds. Average reconstruction error is: 4.8697
 epoch 94/100. Took 0.13039 seconds. Average reconstruction error is: 4.8775
 epoch 95/100. Took 0.13088 seconds. Average reconstruction error is: 4.8783
 epoch 96/100. Took 0.13089 seconds. Average reconstruction error is: 4.8063
 epoch 97/100. Took 0.13056 seconds. Average reconstruction error is: 4.8171
 epoch 98/100. Took 0.1322 seconds. Average reconstruction error is: 4.8078
 epoch 99/100. Took 0.13142 seconds. Average reconstruction error is: 4.7976
 epoch 100/100. Took 0.1325 seconds. Average reconstruction error is: 4.8462
Training NN  (784  500  500  500   10) with BackPropagation for 100 epochs
 epoch 1/100. Took 0.30268 seconds. 
  Full-batch training loss = 0.575174, test loss = 0.591873
  Training set accuracy = 0.863500, Test set accuracy = 0.851900
 epoch 2/100. Took 0.30183 seconds. 
  Full-batch training loss = 0.417662, test loss = 0.440895
  Training set accuracy = 0.894500, Test set accuracy = 0.889700
 epoch 3/100. Took 0.29818 seconds. 
  Full-batch training loss = 0.344079, test loss = 0.381538
  Training set accuracy = 0.915500, Test set accuracy = 0.895100
 epoch 4/100. Took 0.30472 seconds. 
  Full-batch training loss = 0.310149, test loss = 0.355547
  Training set accuracy = 0.917000, Test set accuracy = 0.903100
 epoch 5/100. Took 0.29992 seconds. 
  Full-batch training loss = 0.287092, test loss = 0.341068
  Training set accuracy = 0.925500, Test set accuracy = 0.907700
 epoch 6/100. Took 0.30196 seconds. 
  Full-batch training loss = 0.256050, test loss = 0.321393
  Training set accuracy = 0.934500, Test set accuracy = 0.907400
 epoch 7/100. Took 0.30463 seconds. 
  Full-batch training loss = 0.235658, test loss = 0.309593
  Training set accuracy = 0.941000, Test set accuracy = 0.911500
 epoch 8/100. Took 0.30553 seconds. 
  Full-batch training loss = 0.220810, test loss = 0.301134
  Training set accuracy = 0.942000, Test set accuracy = 0.914200
 epoch 9/100. Took 0.30172 seconds. 
  Full-batch training loss = 0.212022, test loss = 0.303197
  Training set accuracy = 0.947000, Test set accuracy = 0.910700
 epoch 10/100. Took 0.30303 seconds. 
  Full-batch training loss = 0.194481, test loss = 0.290514
  Training set accuracy = 0.954000, Test set accuracy = 0.913900
 epoch 11/100. Took 0.30478 seconds. 
  Full-batch training loss = 0.187281, test loss = 0.291813
  Training set accuracy = 0.957000, Test set accuracy = 0.915600
 epoch 12/100. Took 0.29991 seconds. 
  Full-batch training loss = 0.173385, test loss = 0.282795
  Training set accuracy = 0.962500, Test set accuracy = 0.917300
 epoch 13/100. Took 0.30276 seconds. 
  Full-batch training loss = 0.164416, test loss = 0.278705
  Training set accuracy = 0.965000, Test set accuracy = 0.917000
 epoch 14/100. Took 0.29802 seconds. 
  Full-batch training loss = 0.156477, test loss = 0.278006
  Training set accuracy = 0.965500, Test set accuracy = 0.916200
 epoch 15/100. Took 0.30034 seconds. 
  Full-batch training loss = 0.147034, test loss = 0.273436
  Training set accuracy = 0.970500, Test set accuracy = 0.917500
 epoch 16/100. Took 0.30166 seconds. 
  Full-batch training loss = 0.141213, test loss = 0.271340
  Training set accuracy = 0.973000, Test set accuracy = 0.918600
 epoch 17/100. Took 0.304 seconds. 
  Full-batch training loss = 0.133043, test loss = 0.267474
  Training set accuracy = 0.975500, Test set accuracy = 0.921000
 epoch 18/100. Took 0.30488 seconds. 
  Full-batch training loss = 0.129305, test loss = 0.269626
  Training set accuracy = 0.974000, Test set accuracy = 0.918500
 epoch 19/100. Took 0.30088 seconds. 
  Full-batch training loss = 0.120955, test loss = 0.264937
  Training set accuracy = 0.978000, Test set accuracy = 0.921400
 epoch 20/100. Took 0.30136 seconds. 
  Full-batch training loss = 0.114862, test loss = 0.263906
  Training set accuracy = 0.980000, Test set accuracy = 0.919700
 epoch 21/100. Took 0.30103 seconds. 
  Full-batch training loss = 0.109941, test loss = 0.260985
  Training set accuracy = 0.983000, Test set accuracy = 0.921800
 epoch 22/100. Took 0.30211 seconds. 
  Full-batch training loss = 0.106579, test loss = 0.261941
  Training set accuracy = 0.983500, Test set accuracy = 0.922000
 epoch 23/100. Took 0.30401 seconds. 
  Full-batch training loss = 0.100200, test loss = 0.258823
  Training set accuracy = 0.986000, Test set accuracy = 0.921800
 epoch 24/100. Took 0.30089 seconds. 
  Full-batch training loss = 0.095934, test loss = 0.259452
  Training set accuracy = 0.987500, Test set accuracy = 0.921500
 epoch 25/100. Took 0.29946 seconds. 
  Full-batch training loss = 0.092415, test loss = 0.257534
  Training set accuracy = 0.988000, Test set accuracy = 0.922200
 epoch 26/100. Took 0.30511 seconds. 
  Full-batch training loss = 0.088352, test loss = 0.257486
  Training set accuracy = 0.988000, Test set accuracy = 0.922000
 epoch 27/100. Took 0.30645 seconds. 
  Full-batch training loss = 0.084668, test loss = 0.256216
  Training set accuracy = 0.991000, Test set accuracy = 0.923700
 epoch 28/100. Took 0.30104 seconds. 
  Full-batch training loss = 0.081079, test loss = 0.255436
  Training set accuracy = 0.991000, Test set accuracy = 0.922900
 epoch 29/100. Took 0.30637 seconds. 
  Full-batch training loss = 0.079119, test loss = 0.257278
  Training set accuracy = 0.993500, Test set accuracy = 0.924300
 epoch 30/100. Took 0.30397 seconds. 
  Full-batch training loss = 0.074900, test loss = 0.255509
  Training set accuracy = 0.993500, Test set accuracy = 0.923100
 epoch 31/100. Took 0.30154 seconds. 
  Full-batch training loss = 0.071570, test loss = 0.255155
  Training set accuracy = 0.994500, Test set accuracy = 0.923100
 epoch 32/100. Took 0.30432 seconds. 
  Full-batch training loss = 0.069139, test loss = 0.254602
  Training set accuracy = 0.995000, Test set accuracy = 0.923000
 epoch 33/100. Took 0.30171 seconds. 
  Full-batch training loss = 0.066157, test loss = 0.254502
  Training set accuracy = 0.995500, Test set accuracy = 0.922000
 epoch 34/100. Took 0.29911 seconds. 
  Full-batch training loss = 0.063695, test loss = 0.254184
  Training set accuracy = 0.996500, Test set accuracy = 0.923000
 epoch 35/100. Took 0.3047 seconds. 
  Full-batch training loss = 0.061446, test loss = 0.254565
  Training set accuracy = 0.997000, Test set accuracy = 0.923000
 epoch 36/100. Took 0.30291 seconds. 
  Full-batch training loss = 0.059679, test loss = 0.255175
  Training set accuracy = 0.996000, Test set accuracy = 0.922700
 epoch 37/100. Took 0.30385 seconds. 
  Full-batch training loss = 0.057306, test loss = 0.254169
  Training set accuracy = 0.997000, Test set accuracy = 0.923800
 epoch 38/100. Took 0.30367 seconds. 
  Full-batch training loss = 0.054902, test loss = 0.253491
  Training set accuracy = 0.997000, Test set accuracy = 0.923400
 epoch 39/100. Took 0.30357 seconds. 
  Full-batch training loss = 0.053114, test loss = 0.253859
  Training set accuracy = 0.997000, Test set accuracy = 0.923100
 epoch 40/100. Took 0.30324 seconds. 
  Full-batch training loss = 0.051424, test loss = 0.253977
  Training set accuracy = 0.997000, Test set accuracy = 0.923200
 epoch 41/100. Took 0.30195 seconds. 
  Full-batch training loss = 0.049432, test loss = 0.252781
  Training set accuracy = 0.997000, Test set accuracy = 0.924200
 epoch 42/100. Took 0.30492 seconds. 
  Full-batch training loss = 0.047892, test loss = 0.254000
  Training set accuracy = 0.997000, Test set accuracy = 0.923800
 epoch 43/100. Took 0.30798 seconds. 
  Full-batch training loss = 0.046517, test loss = 0.254678
  Training set accuracy = 0.997500, Test set accuracy = 0.923800
 epoch 44/100. Took 0.30609 seconds. 
  Full-batch training loss = 0.044759, test loss = 0.253193
  Training set accuracy = 0.997500, Test set accuracy = 0.924500
 epoch 45/100. Took 0.30115 seconds. 
  Full-batch training loss = 0.043474, test loss = 0.252815
  Training set accuracy = 0.997500, Test set accuracy = 0.924800
 epoch 46/100. Took 0.30488 seconds. 
  Full-batch training loss = 0.041969, test loss = 0.253349
  Training set accuracy = 0.998000, Test set accuracy = 0.924500
 epoch 47/100. Took 0.30048 seconds. 
  Full-batch training loss = 0.040642, test loss = 0.253509
  Training set accuracy = 0.998000, Test set accuracy = 0.925400
 epoch 48/100. Took 0.30642 seconds. 
  Full-batch training loss = 0.039413, test loss = 0.252958
  Training set accuracy = 0.998000, Test set accuracy = 0.924700
 epoch 49/100. Took 0.30513 seconds. 
  Full-batch training loss = 0.038317, test loss = 0.253308
  Training set accuracy = 0.998500, Test set accuracy = 0.924800
 epoch 50/100. Took 0.3054 seconds. 
  Full-batch training loss = 0.037038, test loss = 0.253610
  Training set accuracy = 0.998500, Test set accuracy = 0.924500
 epoch 51/100. Took 0.30359 seconds. 
  Full-batch training loss = 0.036153, test loss = 0.254925
  Training set accuracy = 0.998500, Test set accuracy = 0.924500
 epoch 52/100. Took 0.30344 seconds. 
  Full-batch training loss = 0.034990, test loss = 0.254391
  Training set accuracy = 0.998500, Test set accuracy = 0.924900
 epoch 53/100. Took 0.30015 seconds. 
  Full-batch training loss = 0.033901, test loss = 0.253552
  Training set accuracy = 0.998500, Test set accuracy = 0.925900
 epoch 54/100. Took 0.30417 seconds. 
  Full-batch training loss = 0.033073, test loss = 0.253606
  Training set accuracy = 0.998500, Test set accuracy = 0.926300
 epoch 55/100. Took 0.30317 seconds. 
  Full-batch training loss = 0.032228, test loss = 0.255109
  Training set accuracy = 0.998500, Test set accuracy = 0.925100
 epoch 56/100. Took 0.30367 seconds. 
  Full-batch training loss = 0.031162, test loss = 0.254795
  Training set accuracy = 0.999000, Test set accuracy = 0.926100
 epoch 57/100. Took 0.30014 seconds. 
  Full-batch training loss = 0.030332, test loss = 0.254756
  Training set accuracy = 0.999000, Test set accuracy = 0.925900
 epoch 58/100. Took 0.30625 seconds. 
  Full-batch training loss = 0.029543, test loss = 0.254894
  Training set accuracy = 0.999000, Test set accuracy = 0.925900
 epoch 59/100. Took 0.30324 seconds. 
  Full-batch training loss = 0.028753, test loss = 0.254705
  Training set accuracy = 0.999000, Test set accuracy = 0.926800
 epoch 60/100. Took 0.30294 seconds. 
  Full-batch training loss = 0.028062, test loss = 0.254967
  Training set accuracy = 0.999000, Test set accuracy = 0.926900
 epoch 61/100. Took 0.30161 seconds. 
  Full-batch training loss = 0.027357, test loss = 0.254865
  Training set accuracy = 0.999500, Test set accuracy = 0.927100
 epoch 62/100. Took 0.30254 seconds. 
  Full-batch training loss = 0.026724, test loss = 0.255642
  Training set accuracy = 1.000000, Test set accuracy = 0.926600
 epoch 63/100. Took 0.30458 seconds. 
  Full-batch training loss = 0.026030, test loss = 0.255654
  Training set accuracy = 1.000000, Test set accuracy = 0.926800
 epoch 64/100. Took 0.30544 seconds. 
  Full-batch training loss = 0.025389, test loss = 0.255123
  Training set accuracy = 1.000000, Test set accuracy = 0.927300
 epoch 65/100. Took 0.30257 seconds. 
  Full-batch training loss = 0.024836, test loss = 0.255746
  Training set accuracy = 1.000000, Test set accuracy = 0.927000
 epoch 66/100. Took 0.3023 seconds. 
  Full-batch training loss = 0.024231, test loss = 0.255821
  Training set accuracy = 1.000000, Test set accuracy = 0.926800
 epoch 67/100. Took 0.30454 seconds. 
  Full-batch training loss = 0.023648, test loss = 0.256101
  Training set accuracy = 1.000000, Test set accuracy = 0.927100
 epoch 68/100. Took 0.30328 seconds. 
  Full-batch training loss = 0.023197, test loss = 0.256642
  Training set accuracy = 1.000000, Test set accuracy = 0.927000
 epoch 69/100. Took 0.30088 seconds. 
  Full-batch training loss = 0.022613, test loss = 0.256348
  Training set accuracy = 1.000000, Test set accuracy = 0.927200
 epoch 70/100. Took 0.30552 seconds. 
  Full-batch training loss = 0.022118, test loss = 0.256659
  Training set accuracy = 1.000000, Test set accuracy = 0.927100
 epoch 71/100. Took 0.30685 seconds. 
  Full-batch training loss = 0.021679, test loss = 0.256480
  Training set accuracy = 1.000000, Test set accuracy = 0.927200
 epoch 72/100. Took 0.30447 seconds. 
  Full-batch training loss = 0.021183, test loss = 0.257105
  Training set accuracy = 1.000000, Test set accuracy = 0.927100
 epoch 73/100. Took 0.3034 seconds. 
  Full-batch training loss = 0.020841, test loss = 0.257929
  Training set accuracy = 1.000000, Test set accuracy = 0.926800
 epoch 74/100. Took 0.30096 seconds. 
  Full-batch training loss = 0.020348, test loss = 0.257434
  Training set accuracy = 1.000000, Test set accuracy = 0.926700
 epoch 75/100. Took 0.30454 seconds. 
  Full-batch training loss = 0.019903, test loss = 0.257396
  Training set accuracy = 1.000000, Test set accuracy = 0.927300
 epoch 76/100. Took 0.2995 seconds. 
  Full-batch training loss = 0.019505, test loss = 0.257944
  Training set accuracy = 1.000000, Test set accuracy = 0.927200
 epoch 77/100. Took 0.30163 seconds. 
  Full-batch training loss = 0.019137, test loss = 0.257825
  Training set accuracy = 1.000000, Test set accuracy = 0.927600
 epoch 78/100. Took 0.30335 seconds. 
  Full-batch training loss = 0.018759, test loss = 0.257994
  Training set accuracy = 1.000000, Test set accuracy = 0.927800
 epoch 79/100. Took 0.30282 seconds. 
  Full-batch training loss = 0.018399, test loss = 0.258203
  Training set accuracy = 1.000000, Test set accuracy = 0.927700
 epoch 80/100. Took 0.30128 seconds. 
  Full-batch training loss = 0.018051, test loss = 0.258744
  Training set accuracy = 1.000000, Test set accuracy = 0.927600
 epoch 81/100. Took 0.30594 seconds. 
  Full-batch training loss = 0.017707, test loss = 0.258705
  Training set accuracy = 1.000000, Test set accuracy = 0.927400
 epoch 82/100. Took 0.30544 seconds. 
  Full-batch training loss = 0.017379, test loss = 0.259036
  Training set accuracy = 1.000000, Test set accuracy = 0.927800
 epoch 83/100. Took 0.30105 seconds. 
  Full-batch training loss = 0.017058, test loss = 0.259034
  Training set accuracy = 1.000000, Test set accuracy = 0.927800
 epoch 84/100. Took 0.3034 seconds. 
  Full-batch training loss = 0.016755, test loss = 0.259307
  Training set accuracy = 1.000000, Test set accuracy = 0.927400
 epoch 85/100. Took 0.29709 seconds. 
  Full-batch training loss = 0.016481, test loss = 0.259591
  Training set accuracy = 1.000000, Test set accuracy = 0.927400
 epoch 86/100. Took 0.3055 seconds. 
  Full-batch training loss = 0.016178, test loss = 0.259608
  Training set accuracy = 1.000000, Test set accuracy = 0.928300
 epoch 87/100. Took 0.30233 seconds. 
  Full-batch training loss = 0.015888, test loss = 0.259762
  Training set accuracy = 1.000000, Test set accuracy = 0.928000
 epoch 88/100. Took 0.30087 seconds. 
  Full-batch training loss = 0.015628, test loss = 0.260154
  Training set accuracy = 1.000000, Test set accuracy = 0.928000
 epoch 89/100. Took 0.30444 seconds. 
  Full-batch training loss = 0.015360, test loss = 0.260362
  Training set accuracy = 1.000000, Test set accuracy = 0.928200
 epoch 90/100. Took 0.30291 seconds. 
  Full-batch training loss = 0.015131, test loss = 0.260037
  Training set accuracy = 1.000000, Test set accuracy = 0.928300
 epoch 91/100. Took 0.29951 seconds. 
  Full-batch training loss = 0.014867, test loss = 0.260540
  Training set accuracy = 1.000000, Test set accuracy = 0.928100
 epoch 92/100. Took 0.30418 seconds. 
  Full-batch training loss = 0.014617, test loss = 0.260820
  Training set accuracy = 1.000000, Test set accuracy = 0.928200
 epoch 93/100. Took 0.30008 seconds. 
  Full-batch training loss = 0.014386, test loss = 0.261118
  Training set accuracy = 1.000000, Test set accuracy = 0.928200
 epoch 94/100. Took 0.30625 seconds. 
  Full-batch training loss = 0.014162, test loss = 0.260990
  Training set accuracy = 1.000000, Test set accuracy = 0.928000
 epoch 95/100. Took 0.30449 seconds. 
  Full-batch training loss = 0.013939, test loss = 0.261443
  Training set accuracy = 1.000000, Test set accuracy = 0.928000
 epoch 96/100. Took 0.30649 seconds. 
  Full-batch training loss = 0.013729, test loss = 0.261793
  Training set accuracy = 1.000000, Test set accuracy = 0.928400
 epoch 97/100. Took 0.30689 seconds. 
  Full-batch training loss = 0.013515, test loss = 0.261638
  Training set accuracy = 1.000000, Test set accuracy = 0.928300
 epoch 98/100. Took 0.30091 seconds. 
  Full-batch training loss = 0.013310, test loss = 0.262029
  Training set accuracy = 1.000000, Test set accuracy = 0.928200
 epoch 99/100. Took 0.30057 seconds. 
  Full-batch training loss = 0.013113, test loss = 0.262313
  Training set accuracy = 1.000000, Test set accuracy = 0.928300
 epoch 100/100. Took 0.29871 seconds. 
  Full-batch training loss = 0.012916, test loss = 0.262413
  Training set accuracy = 1.000000, Test set accuracy = 0.928200
Elapsed time is 154.669106 seconds.
End Training
