==========================================================
  Architecture is 500 500 500 // 3 layer x 500 neuron
----------------------------------------------------------
Execution 39/270
----------------------------------------------------------
* ReducedData	2000
* PreTrainRBM	true
	-> Epochs	100
	-> LearningRate	0.05
* Fine-tunning
	-> Epochs	200
	-> LearningRate	0.20
==========================================================
Start Training
Number of training examples: 2000  BatchSize: 100
Number of inputs: 784  Number of outputs: 10
Number of hidden layers: 3 (500  500  500)
Training binary-binary RBM in layer 1 (784  500) with CD1 for 100 epochs
 epoch 1/100. Took 0.39537 seconds. Average reconstruction error is: 53.0748
 epoch 2/100. Took 0.34467 seconds. Average reconstruction error is: 30.3847
 epoch 3/100. Took 0.3402 seconds. Average reconstruction error is: 24.0858
 epoch 4/100. Took 0.35745 seconds. Average reconstruction error is: 20.802
 epoch 5/100. Took 0.32927 seconds. Average reconstruction error is: 18.746
 epoch 6/100. Took 0.3371 seconds. Average reconstruction error is: 17.2469
 epoch 7/100. Took 0.34145 seconds. Average reconstruction error is: 15.9958
 epoch 8/100. Took 0.33913 seconds. Average reconstruction error is: 15.0978
 epoch 9/100. Took 0.33595 seconds. Average reconstruction error is: 14.3335
 epoch 10/100. Took 0.32756 seconds. Average reconstruction error is: 13.7616
 epoch 11/100. Took 0.33823 seconds. Average reconstruction error is: 13.2265
 epoch 12/100. Took 0.33745 seconds. Average reconstruction error is: 12.7304
 epoch 13/100. Took 0.33601 seconds. Average reconstruction error is: 12.3373
 epoch 14/100. Took 0.33603 seconds. Average reconstruction error is: 11.9288
 epoch 15/100. Took 0.34178 seconds. Average reconstruction error is: 11.6294
 epoch 16/100. Took 0.33654 seconds. Average reconstruction error is: 11.3388
 epoch 17/100. Took 0.36709 seconds. Average reconstruction error is: 11.0161
 epoch 18/100. Took 0.3612 seconds. Average reconstruction error is: 10.8245
 epoch 19/100. Took 0.36001 seconds. Average reconstruction error is: 10.5646
 epoch 20/100. Took 0.36232 seconds. Average reconstruction error is: 10.3811
 epoch 21/100. Took 0.36767 seconds. Average reconstruction error is: 10.2186
 epoch 22/100. Took 0.37142 seconds. Average reconstruction error is: 10.0143
 epoch 23/100. Took 0.36068 seconds. Average reconstruction error is: 9.8158
 epoch 24/100. Took 0.36615 seconds. Average reconstruction error is: 9.6219
 epoch 25/100. Took 0.35822 seconds. Average reconstruction error is: 9.539
 epoch 26/100. Took 0.37151 seconds. Average reconstruction error is: 9.3202
 epoch 27/100. Took 0.35822 seconds. Average reconstruction error is: 9.2393
 epoch 28/100. Took 0.36016 seconds. Average reconstruction error is: 9.0408
 epoch 29/100. Took 0.36604 seconds. Average reconstruction error is: 8.9854
 epoch 30/100. Took 0.36462 seconds. Average reconstruction error is: 8.8684
 epoch 31/100. Took 0.36174 seconds. Average reconstruction error is: 8.7132
 epoch 32/100. Took 0.3583 seconds. Average reconstruction error is: 8.6804
 epoch 33/100. Took 0.35796 seconds. Average reconstruction error is: 8.5585
 epoch 34/100. Took 0.35975 seconds. Average reconstruction error is: 8.4207
 epoch 35/100. Took 0.35501 seconds. Average reconstruction error is: 8.3687
 epoch 36/100. Took 0.36213 seconds. Average reconstruction error is: 8.3046
 epoch 37/100. Took 0.35652 seconds. Average reconstruction error is: 8.1901
 epoch 38/100. Took 0.36706 seconds. Average reconstruction error is: 8.12
 epoch 39/100. Took 0.36078 seconds. Average reconstruction error is: 8.0573
 epoch 40/100. Took 0.35793 seconds. Average reconstruction error is: 7.9846
 epoch 41/100. Took 0.35479 seconds. Average reconstruction error is: 7.9195
 epoch 42/100. Took 0.36796 seconds. Average reconstruction error is: 7.8277
 epoch 43/100. Took 0.37563 seconds. Average reconstruction error is: 7.8
 epoch 44/100. Took 0.36429 seconds. Average reconstruction error is: 7.6714
 epoch 45/100. Took 0.36267 seconds. Average reconstruction error is: 7.6549
 epoch 46/100. Took 0.36193 seconds. Average reconstruction error is: 7.585
 epoch 47/100. Took 0.35875 seconds. Average reconstruction error is: 7.5427
 epoch 48/100. Took 0.35531 seconds. Average reconstruction error is: 7.4375
 epoch 49/100. Took 0.37645 seconds. Average reconstruction error is: 7.4414
 epoch 50/100. Took 0.37294 seconds. Average reconstruction error is: 7.3743
 epoch 51/100. Took 0.36694 seconds. Average reconstruction error is: 7.3659
 epoch 52/100. Took 0.36645 seconds. Average reconstruction error is: 7.3349
 epoch 53/100. Took 0.35708 seconds. Average reconstruction error is: 7.286
 epoch 54/100. Took 0.36371 seconds. Average reconstruction error is: 7.2686
 epoch 55/100. Took 0.36391 seconds. Average reconstruction error is: 7.1764
 epoch 56/100. Took 0.36092 seconds. Average reconstruction error is: 7.1104
 epoch 57/100. Took 0.36145 seconds. Average reconstruction error is: 7.1063
 epoch 58/100. Took 0.36313 seconds. Average reconstruction error is: 7.0374
 epoch 59/100. Took 0.35746 seconds. Average reconstruction error is: 7.0483
 epoch 60/100. Took 0.36714 seconds. Average reconstruction error is: 6.9658
 epoch 61/100. Took 0.3564 seconds. Average reconstruction error is: 6.9587
 epoch 62/100. Took 0.36119 seconds. Average reconstruction error is: 6.902
 epoch 63/100. Took 0.38028 seconds. Average reconstruction error is: 6.865
 epoch 64/100. Took 0.36055 seconds. Average reconstruction error is: 6.8074
 epoch 65/100. Took 0.36046 seconds. Average reconstruction error is: 6.8255
 epoch 66/100. Took 0.35475 seconds. Average reconstruction error is: 6.8012
 epoch 67/100. Took 0.35649 seconds. Average reconstruction error is: 6.7819
 epoch 68/100. Took 0.35941 seconds. Average reconstruction error is: 6.7682
 epoch 69/100. Took 0.35614 seconds. Average reconstruction error is: 6.7147
 epoch 70/100. Took 0.35741 seconds. Average reconstruction error is: 6.6937
 epoch 71/100. Took 0.35709 seconds. Average reconstruction error is: 6.6436
 epoch 72/100. Took 0.41399 seconds. Average reconstruction error is: 6.6449
 epoch 73/100. Took 0.35773 seconds. Average reconstruction error is: 6.5882
 epoch 74/100. Took 0.36123 seconds. Average reconstruction error is: 6.5811
 epoch 75/100. Took 0.35571 seconds. Average reconstruction error is: 6.5789
 epoch 76/100. Took 0.37209 seconds. Average reconstruction error is: 6.5638
 epoch 77/100. Took 0.36492 seconds. Average reconstruction error is: 6.5632
 epoch 78/100. Took 0.36496 seconds. Average reconstruction error is: 6.5434
 epoch 79/100. Took 0.37396 seconds. Average reconstruction error is: 6.5027
 epoch 80/100. Took 0.36032 seconds. Average reconstruction error is: 6.4357
 epoch 81/100. Took 0.36981 seconds. Average reconstruction error is: 6.5076
 epoch 82/100. Took 0.36215 seconds. Average reconstruction error is: 6.4563
 epoch 83/100. Took 0.37344 seconds. Average reconstruction error is: 6.4069
 epoch 84/100. Took 0.35955 seconds. Average reconstruction error is: 6.4184
 epoch 85/100. Took 0.35991 seconds. Average reconstruction error is: 6.427
 epoch 86/100. Took 0.35863 seconds. Average reconstruction error is: 6.3456
 epoch 87/100. Took 0.37307 seconds. Average reconstruction error is: 6.3615
 epoch 88/100. Took 0.36679 seconds. Average reconstruction error is: 6.3289
 epoch 89/100. Took 0.35567 seconds. Average reconstruction error is: 6.348
 epoch 90/100. Took 0.36812 seconds. Average reconstruction error is: 6.3107
 epoch 91/100. Took 0.36587 seconds. Average reconstruction error is: 6.2932
 epoch 92/100. Took 0.35919 seconds. Average reconstruction error is: 6.2476
 epoch 93/100. Took 0.36429 seconds. Average reconstruction error is: 6.2899
 epoch 94/100. Took 0.37043 seconds. Average reconstruction error is: 6.2386
 epoch 95/100. Took 0.36336 seconds. Average reconstruction error is: 6.2884
 epoch 96/100. Took 0.36853 seconds. Average reconstruction error is: 6.3097
 epoch 97/100. Took 0.3777 seconds. Average reconstruction error is: 6.1948
 epoch 98/100. Took 0.36402 seconds. Average reconstruction error is: 6.1654
 epoch 99/100. Took 0.37271 seconds. Average reconstruction error is: 6.2096
 epoch 100/100. Took 0.36439 seconds. Average reconstruction error is: 6.1476
Training binary-binary RBM in layer 2 (500  500) with CD1 for 100 epochs
 epoch 1/100. Took 0.28277 seconds. Average reconstruction error is: 52.3465
 epoch 2/100. Took 0.26283 seconds. Average reconstruction error is: 32.6773
 epoch 3/100. Took 0.27909 seconds. Average reconstruction error is: 25.9155
 epoch 4/100. Took 0.26165 seconds. Average reconstruction error is: 22.133
 epoch 5/100. Took 0.26489 seconds. Average reconstruction error is: 19.7462
 epoch 6/100. Took 0.28098 seconds. Average reconstruction error is: 18.0096
 epoch 7/100. Took 0.25949 seconds. Average reconstruction error is: 16.6827
 epoch 8/100. Took 0.26611 seconds. Average reconstruction error is: 15.6762
 epoch 9/100. Took 0.26286 seconds. Average reconstruction error is: 14.8453
 epoch 10/100. Took 0.2668 seconds. Average reconstruction error is: 14.2319
 epoch 11/100. Took 0.25937 seconds. Average reconstruction error is: 13.6981
 epoch 12/100. Took 0.26945 seconds. Average reconstruction error is: 13.2991
 epoch 13/100. Took 0.26655 seconds. Average reconstruction error is: 12.8519
 epoch 14/100. Took 0.26237 seconds. Average reconstruction error is: 12.5094
 epoch 15/100. Took 0.26402 seconds. Average reconstruction error is: 12.175
 epoch 16/100. Took 0.26622 seconds. Average reconstruction error is: 11.9253
 epoch 17/100. Took 0.26576 seconds. Average reconstruction error is: 11.6633
 epoch 18/100. Took 0.25884 seconds. Average reconstruction error is: 11.3344
 epoch 19/100. Took 0.2639 seconds. Average reconstruction error is: 11.2361
 epoch 20/100. Took 0.26753 seconds. Average reconstruction error is: 11.0905
 epoch 21/100. Took 0.26377 seconds. Average reconstruction error is: 10.8706
 epoch 22/100. Took 0.26164 seconds. Average reconstruction error is: 10.7323
 epoch 23/100. Took 0.26194 seconds. Average reconstruction error is: 10.5781
 epoch 24/100. Took 0.26561 seconds. Average reconstruction error is: 10.5551
 epoch 25/100. Took 0.26259 seconds. Average reconstruction error is: 10.3686
 epoch 26/100. Took 0.2655 seconds. Average reconstruction error is: 10.3238
 epoch 27/100. Took 0.2601 seconds. Average reconstruction error is: 10.209
 epoch 28/100. Took 0.26064 seconds. Average reconstruction error is: 10.0801
 epoch 29/100. Took 0.26019 seconds. Average reconstruction error is: 9.9935
 epoch 30/100. Took 0.2645 seconds. Average reconstruction error is: 9.8494
 epoch 31/100. Took 0.26576 seconds. Average reconstruction error is: 9.8303
 epoch 32/100. Took 0.26808 seconds. Average reconstruction error is: 9.8133
 epoch 33/100. Took 0.26662 seconds. Average reconstruction error is: 9.7671
 epoch 34/100. Took 0.26882 seconds. Average reconstruction error is: 9.6053
 epoch 35/100. Took 0.26397 seconds. Average reconstruction error is: 9.5359
 epoch 36/100. Took 0.26455 seconds. Average reconstruction error is: 9.5715
 epoch 37/100. Took 0.25872 seconds. Average reconstruction error is: 9.4938
 epoch 38/100. Took 0.26116 seconds. Average reconstruction error is: 9.4275
 epoch 39/100. Took 0.25773 seconds. Average reconstruction error is: 9.4138
 epoch 40/100. Took 0.26026 seconds. Average reconstruction error is: 9.2798
 epoch 41/100. Took 0.26539 seconds. Average reconstruction error is: 9.3165
 epoch 42/100. Took 0.26469 seconds. Average reconstruction error is: 9.2224
 epoch 43/100. Took 0.26753 seconds. Average reconstruction error is: 9.2662
 epoch 44/100. Took 0.26224 seconds. Average reconstruction error is: 9.1879
 epoch 45/100. Took 0.26836 seconds. Average reconstruction error is: 9.1333
 epoch 46/100. Took 0.26242 seconds. Average reconstruction error is: 9.1009
 epoch 47/100. Took 0.26428 seconds. Average reconstruction error is: 8.9641
 epoch 48/100. Took 0.26299 seconds. Average reconstruction error is: 8.9567
 epoch 49/100. Took 0.26456 seconds. Average reconstruction error is: 8.8805
 epoch 50/100. Took 0.26362 seconds. Average reconstruction error is: 8.9073
 epoch 51/100. Took 0.27068 seconds. Average reconstruction error is: 8.9066
 epoch 52/100. Took 0.26103 seconds. Average reconstruction error is: 8.9197
 epoch 53/100. Took 0.2657 seconds. Average reconstruction error is: 8.8538
 epoch 54/100. Took 0.27097 seconds. Average reconstruction error is: 8.8121
 epoch 55/100. Took 0.2705 seconds. Average reconstruction error is: 8.7992
 epoch 56/100. Took 0.26619 seconds. Average reconstruction error is: 8.7258
 epoch 57/100. Took 0.26478 seconds. Average reconstruction error is: 8.7543
 epoch 58/100. Took 0.27066 seconds. Average reconstruction error is: 8.6558
 epoch 59/100. Took 0.2646 seconds. Average reconstruction error is: 8.6113
 epoch 60/100. Took 0.26412 seconds. Average reconstruction error is: 8.5982
 epoch 61/100. Took 0.26474 seconds. Average reconstruction error is: 8.559
 epoch 62/100. Took 0.26098 seconds. Average reconstruction error is: 8.5886
 epoch 63/100. Took 0.25899 seconds. Average reconstruction error is: 8.5829
 epoch 64/100. Took 0.26219 seconds. Average reconstruction error is: 8.4878
 epoch 65/100. Took 0.26185 seconds. Average reconstruction error is: 8.4947
 epoch 66/100. Took 0.26521 seconds. Average reconstruction error is: 8.4718
 epoch 67/100. Took 0.25894 seconds. Average reconstruction error is: 8.4888
 epoch 68/100. Took 0.26483 seconds. Average reconstruction error is: 8.4712
 epoch 69/100. Took 0.26541 seconds. Average reconstruction error is: 8.4601
 epoch 70/100. Took 0.27203 seconds. Average reconstruction error is: 8.3736
 epoch 71/100. Took 0.27295 seconds. Average reconstruction error is: 8.3538
 epoch 72/100. Took 0.26383 seconds. Average reconstruction error is: 8.4087
 epoch 73/100. Took 0.26341 seconds. Average reconstruction error is: 8.3916
 epoch 74/100. Took 0.27129 seconds. Average reconstruction error is: 8.2753
 epoch 75/100. Took 0.26082 seconds. Average reconstruction error is: 8.3234
 epoch 76/100. Took 0.26429 seconds. Average reconstruction error is: 8.3403
 epoch 77/100. Took 0.26737 seconds. Average reconstruction error is: 8.3284
 epoch 78/100. Took 0.26392 seconds. Average reconstruction error is: 8.2136
 epoch 79/100. Took 0.26081 seconds. Average reconstruction error is: 8.1985
 epoch 80/100. Took 0.26936 seconds. Average reconstruction error is: 8.2329
 epoch 81/100. Took 0.25591 seconds. Average reconstruction error is: 8.2444
 epoch 82/100. Took 0.27093 seconds. Average reconstruction error is: 8.1741
 epoch 83/100. Took 0.26492 seconds. Average reconstruction error is: 8.16
 epoch 84/100. Took 0.26016 seconds. Average reconstruction error is: 8.1889
 epoch 85/100. Took 0.27758 seconds. Average reconstruction error is: 8.0764
 epoch 86/100. Took 0.26807 seconds. Average reconstruction error is: 8.1205
 epoch 87/100. Took 0.26131 seconds. Average reconstruction error is: 8.1677
 epoch 88/100. Took 0.33832 seconds. Average reconstruction error is: 8.0737
 epoch 89/100. Took 0.25986 seconds. Average reconstruction error is: 8.0258
 epoch 90/100. Took 0.25962 seconds. Average reconstruction error is: 8.0569
 epoch 91/100. Took 0.26129 seconds. Average reconstruction error is: 7.9934
 epoch 92/100. Took 0.25867 seconds. Average reconstruction error is: 8.0956
 epoch 93/100. Took 0.27493 seconds. Average reconstruction error is: 8.0196
 epoch 94/100. Took 0.2679 seconds. Average reconstruction error is: 8.0047
 epoch 95/100. Took 0.26403 seconds. Average reconstruction error is: 7.9412
 epoch 96/100. Took 0.26729 seconds. Average reconstruction error is: 7.939
 epoch 97/100. Took 0.26759 seconds. Average reconstruction error is: 7.9683
 epoch 98/100. Took 0.26292 seconds. Average reconstruction error is: 7.9448
 epoch 99/100. Took 0.26761 seconds. Average reconstruction error is: 7.9501
 epoch 100/100. Took 0.26198 seconds. Average reconstruction error is: 7.9062
Training binary-binary RBM in layer 3 (500  500) with CD1 for 100 epochs
 epoch 1/100. Took 0.30667 seconds. Average reconstruction error is: 45.2982
 epoch 2/100. Took 0.26421 seconds. Average reconstruction error is: 26.2055
 epoch 3/100. Took 0.26549 seconds. Average reconstruction error is: 19.8719
 epoch 4/100. Took 0.26842 seconds. Average reconstruction error is: 16.7747
 epoch 5/100. Took 0.27318 seconds. Average reconstruction error is: 14.7705
 epoch 6/100. Took 0.26418 seconds. Average reconstruction error is: 13.4426
 epoch 7/100. Took 0.25683 seconds. Average reconstruction error is: 12.3643
 epoch 8/100. Took 0.26713 seconds. Average reconstruction error is: 11.6195
 epoch 9/100. Took 0.26482 seconds. Average reconstruction error is: 10.9578
 epoch 10/100. Took 0.25766 seconds. Average reconstruction error is: 10.4836
 epoch 11/100. Took 0.26448 seconds. Average reconstruction error is: 9.9985
 epoch 12/100. Took 0.26218 seconds. Average reconstruction error is: 9.6745
 epoch 13/100. Took 0.26859 seconds. Average reconstruction error is: 9.3175
 epoch 14/100. Took 0.26407 seconds. Average reconstruction error is: 9.0778
 epoch 15/100. Took 0.26411 seconds. Average reconstruction error is: 8.8869
 epoch 16/100. Took 0.26277 seconds. Average reconstruction error is: 8.734
 epoch 17/100. Took 0.27171 seconds. Average reconstruction error is: 8.5006
 epoch 18/100. Took 0.25714 seconds. Average reconstruction error is: 8.3747
 epoch 19/100. Took 0.2672 seconds. Average reconstruction error is: 8.2654
 epoch 20/100. Took 0.26314 seconds. Average reconstruction error is: 8.1384
 epoch 21/100. Took 0.26873 seconds. Average reconstruction error is: 8.0358
 epoch 22/100. Took 0.26436 seconds. Average reconstruction error is: 7.9255
 epoch 23/100. Took 0.25712 seconds. Average reconstruction error is: 7.7901
 epoch 24/100. Took 0.26019 seconds. Average reconstruction error is: 7.7949
 epoch 25/100. Took 0.26417 seconds. Average reconstruction error is: 7.6959
 epoch 26/100. Took 0.27043 seconds. Average reconstruction error is: 7.6297
 epoch 27/100. Took 0.28176 seconds. Average reconstruction error is: 7.5444
 epoch 28/100. Took 0.2902 seconds. Average reconstruction error is: 7.5367
 epoch 29/100. Took 0.27505 seconds. Average reconstruction error is: 7.4591
 epoch 30/100. Took 0.26681 seconds. Average reconstruction error is: 7.4195
 epoch 31/100. Took 0.32071 seconds. Average reconstruction error is: 7.3799
 epoch 32/100. Took 0.26569 seconds. Average reconstruction error is: 7.3324
 epoch 33/100. Took 0.25619 seconds. Average reconstruction error is: 7.2125
 epoch 34/100. Took 0.25398 seconds. Average reconstruction error is: 7.2038
 epoch 35/100. Took 0.24596 seconds. Average reconstruction error is: 7.0859
 epoch 36/100. Took 0.24559 seconds. Average reconstruction error is: 7.0958
 epoch 37/100. Took 0.2594 seconds. Average reconstruction error is: 7.1305
 epoch 38/100. Took 0.24808 seconds. Average reconstruction error is: 7.0634
 epoch 39/100. Took 0.25289 seconds. Average reconstruction error is: 7.0322
 epoch 40/100. Took 0.25013 seconds. Average reconstruction error is: 7.0107
 epoch 41/100. Took 0.25127 seconds. Average reconstruction error is: 6.9341
 epoch 42/100. Took 0.25507 seconds. Average reconstruction error is: 6.977
 epoch 43/100. Took 0.25602 seconds. Average reconstruction error is: 6.9518
 epoch 44/100. Took 0.25345 seconds. Average reconstruction error is: 6.8931
 epoch 45/100. Took 0.25053 seconds. Average reconstruction error is: 6.8309
 epoch 46/100. Took 0.24713 seconds. Average reconstruction error is: 6.8436
 epoch 47/100. Took 0.25239 seconds. Average reconstruction error is: 6.8255
 epoch 48/100. Took 0.24663 seconds. Average reconstruction error is: 6.799
 epoch 49/100. Took 0.25484 seconds. Average reconstruction error is: 6.8069
 epoch 50/100. Took 0.25379 seconds. Average reconstruction error is: 6.746
 epoch 51/100. Took 0.253 seconds. Average reconstruction error is: 6.7327
 epoch 52/100. Took 0.25039 seconds. Average reconstruction error is: 6.725
 epoch 53/100. Took 0.25207 seconds. Average reconstruction error is: 6.7392
 epoch 54/100. Took 0.24885 seconds. Average reconstruction error is: 6.6733
 epoch 55/100. Took 0.24651 seconds. Average reconstruction error is: 6.6912
 epoch 56/100. Took 0.24765 seconds. Average reconstruction error is: 6.69
 epoch 57/100. Took 0.2467 seconds. Average reconstruction error is: 6.7124
 epoch 58/100. Took 0.2504 seconds. Average reconstruction error is: 6.5736
 epoch 59/100. Took 0.24547 seconds. Average reconstruction error is: 6.5655
 epoch 60/100. Took 0.24815 seconds. Average reconstruction error is: 6.6221
 epoch 61/100. Took 0.24795 seconds. Average reconstruction error is: 6.5632
 epoch 62/100. Took 0.25222 seconds. Average reconstruction error is: 6.5749
 epoch 63/100. Took 0.2532 seconds. Average reconstruction error is: 6.6136
 epoch 64/100. Took 0.24617 seconds. Average reconstruction error is: 6.5941
 epoch 65/100. Took 0.25361 seconds. Average reconstruction error is: 6.5422
 epoch 66/100. Took 0.25034 seconds. Average reconstruction error is: 6.5234
 epoch 67/100. Took 0.25197 seconds. Average reconstruction error is: 6.5011
 epoch 68/100. Took 0.24989 seconds. Average reconstruction error is: 6.4965
 epoch 69/100. Took 0.25036 seconds. Average reconstruction error is: 6.4861
 epoch 70/100. Took 0.24821 seconds. Average reconstruction error is: 6.5253
 epoch 71/100. Took 0.25468 seconds. Average reconstruction error is: 6.4334
 epoch 72/100. Took 0.25597 seconds. Average reconstruction error is: 6.4871
 epoch 73/100. Took 0.24667 seconds. Average reconstruction error is: 6.5559
 epoch 74/100. Took 0.24848 seconds. Average reconstruction error is: 6.4815
 epoch 75/100. Took 0.25041 seconds. Average reconstruction error is: 6.455
 epoch 76/100. Took 0.24738 seconds. Average reconstruction error is: 6.4306
 epoch 77/100. Took 0.24888 seconds. Average reconstruction error is: 6.4748
 epoch 78/100. Took 0.25259 seconds. Average reconstruction error is: 6.3609
 epoch 79/100. Took 0.24831 seconds. Average reconstruction error is: 6.4205
 epoch 80/100. Took 0.25418 seconds. Average reconstruction error is: 6.3542
 epoch 81/100. Took 0.2545 seconds. Average reconstruction error is: 6.3952
 epoch 82/100. Took 0.25251 seconds. Average reconstruction error is: 6.3834
 epoch 83/100. Took 0.25387 seconds. Average reconstruction error is: 6.3733
 epoch 84/100. Took 0.25067 seconds. Average reconstruction error is: 6.4001
 epoch 85/100. Took 0.24831 seconds. Average reconstruction error is: 6.3011
 epoch 86/100. Took 0.24923 seconds. Average reconstruction error is: 6.3911
 epoch 87/100. Took 0.25127 seconds. Average reconstruction error is: 6.2866
 epoch 88/100. Took 0.24747 seconds. Average reconstruction error is: 6.369
 epoch 89/100. Took 0.25669 seconds. Average reconstruction error is: 6.3122
 epoch 90/100. Took 0.25229 seconds. Average reconstruction error is: 6.3019
 epoch 91/100. Took 0.25329 seconds. Average reconstruction error is: 6.2943
 epoch 92/100. Took 0.25247 seconds. Average reconstruction error is: 6.2975
 epoch 93/100. Took 0.25177 seconds. Average reconstruction error is: 6.2738
 epoch 94/100. Took 0.24641 seconds. Average reconstruction error is: 6.2841
 epoch 95/100. Took 0.25086 seconds. Average reconstruction error is: 6.2129
 epoch 96/100. Took 0.25099 seconds. Average reconstruction error is: 6.3091
 epoch 97/100. Took 0.25135 seconds. Average reconstruction error is: 6.345
 epoch 98/100. Took 0.25177 seconds. Average reconstruction error is: 6.2031
 epoch 99/100. Took 0.25459 seconds. Average reconstruction error is: 6.2314
 epoch 100/100. Took 0.2465 seconds. Average reconstruction error is: 6.2319
Training NN  (784  500  500  500   10) with BackPropagation for 200 epochs
 epoch 1/200. Took 0.53947 seconds. 
  Full-batch training loss = 0.346696, test loss = 0.380649
  Training set accuracy = 0.884000, Test set accuracy = 0.884800
 epoch 2/200. Took 0.56327 seconds. 
  Full-batch training loss = 0.243838, test loss = 0.316393
  Training set accuracy = 0.930000, Test set accuracy = 0.905300
 epoch 3/200. Took 0.55906 seconds. 
  Full-batch training loss = 0.200537, test loss = 0.300092
  Training set accuracy = 0.946000, Test set accuracy = 0.910600
 epoch 4/200. Took 0.5603 seconds. 
  Full-batch training loss = 0.170371, test loss = 0.286933
  Training set accuracy = 0.953500, Test set accuracy = 0.915700
 epoch 5/200. Took 0.56719 seconds. 
  Full-batch training loss = 0.148193, test loss = 0.275554
  Training set accuracy = 0.963000, Test set accuracy = 0.914900
 epoch 6/200. Took 0.56254 seconds. 
  Full-batch training loss = 0.134009, test loss = 0.278214
  Training set accuracy = 0.968500, Test set accuracy = 0.918500
 epoch 7/200. Took 0.55489 seconds. 
  Full-batch training loss = 0.117551, test loss = 0.262670
  Training set accuracy = 0.971000, Test set accuracy = 0.921800
 epoch 8/200. Took 0.56864 seconds. 
  Full-batch training loss = 0.098155, test loss = 0.264018
  Training set accuracy = 0.976000, Test set accuracy = 0.920200
 epoch 9/200. Took 0.55901 seconds. 
  Full-batch training loss = 0.083728, test loss = 0.248909
  Training set accuracy = 0.986500, Test set accuracy = 0.924500
 epoch 10/200. Took 0.56379 seconds. 
  Full-batch training loss = 0.069100, test loss = 0.243817
  Training set accuracy = 0.991000, Test set accuracy = 0.927300
 epoch 11/200. Took 0.55594 seconds. 
  Full-batch training loss = 0.070900, test loss = 0.261760
  Training set accuracy = 0.989000, Test set accuracy = 0.924200
 epoch 12/200. Took 0.56707 seconds. 
  Full-batch training loss = 0.055971, test loss = 0.247575
  Training set accuracy = 0.997000, Test set accuracy = 0.927700
 epoch 13/200. Took 0.55557 seconds. 
  Full-batch training loss = 0.051820, test loss = 0.245682
  Training set accuracy = 0.994500, Test set accuracy = 0.928000
 epoch 14/200. Took 0.5621 seconds. 
  Full-batch training loss = 0.044752, test loss = 0.246467
  Training set accuracy = 0.997000, Test set accuracy = 0.929200
 epoch 15/200. Took 0.56423 seconds. 
  Full-batch training loss = 0.041855, test loss = 0.248436
  Training set accuracy = 0.998000, Test set accuracy = 0.928600
 epoch 16/200. Took 0.55448 seconds. 
  Full-batch training loss = 0.036354, test loss = 0.243257
  Training set accuracy = 0.998500, Test set accuracy = 0.929400
 epoch 17/200. Took 0.55705 seconds. 
  Full-batch training loss = 0.034199, test loss = 0.244715
  Training set accuracy = 0.998000, Test set accuracy = 0.929700
 epoch 18/200. Took 0.55655 seconds. 
  Full-batch training loss = 0.030549, test loss = 0.243450
  Training set accuracy = 0.999000, Test set accuracy = 0.930400
 epoch 19/200. Took 0.55723 seconds. 
  Full-batch training loss = 0.028309, test loss = 0.242900
  Training set accuracy = 0.999000, Test set accuracy = 0.931300
 epoch 20/200. Took 0.55597 seconds. 
  Full-batch training loss = 0.027291, test loss = 0.246958
  Training set accuracy = 0.999000, Test set accuracy = 0.929400
 epoch 21/200. Took 0.56313 seconds. 
  Full-batch training loss = 0.023854, test loss = 0.246266
  Training set accuracy = 0.999500, Test set accuracy = 0.930600
 epoch 22/200. Took 0.56067 seconds. 
  Full-batch training loss = 0.023989, test loss = 0.248683
  Training set accuracy = 0.999500, Test set accuracy = 0.930100
 epoch 23/200. Took 0.55251 seconds. 
  Full-batch training loss = 0.020907, test loss = 0.246314
  Training set accuracy = 0.999500, Test set accuracy = 0.930700
 epoch 24/200. Took 0.55394 seconds. 
  Full-batch training loss = 0.020424, test loss = 0.250192
  Training set accuracy = 0.999500, Test set accuracy = 0.930400
 epoch 25/200. Took 0.56062 seconds. 
  Full-batch training loss = 0.019545, test loss = 0.248534
  Training set accuracy = 1.000000, Test set accuracy = 0.931300
 epoch 26/200. Took 0.55575 seconds. 
  Full-batch training loss = 0.017423, test loss = 0.246395
  Training set accuracy = 0.999500, Test set accuracy = 0.931700
 epoch 27/200. Took 0.55375 seconds. 
  Full-batch training loss = 0.016514, test loss = 0.249366
  Training set accuracy = 1.000000, Test set accuracy = 0.931800
 epoch 28/200. Took 0.55501 seconds. 
  Full-batch training loss = 0.015819, test loss = 0.249157
  Training set accuracy = 1.000000, Test set accuracy = 0.931000
 epoch 29/200. Took 0.5651 seconds. 
  Full-batch training loss = 0.015043, test loss = 0.252014
  Training set accuracy = 1.000000, Test set accuracy = 0.931500
 epoch 30/200. Took 0.55466 seconds. 
  Full-batch training loss = 0.014127, test loss = 0.250481
  Training set accuracy = 1.000000, Test set accuracy = 0.932000
 epoch 31/200. Took 0.556 seconds. 
  Full-batch training loss = 0.013359, test loss = 0.250697
  Training set accuracy = 1.000000, Test set accuracy = 0.932300
 epoch 32/200. Took 0.56043 seconds. 
  Full-batch training loss = 0.013314, test loss = 0.252023
  Training set accuracy = 1.000000, Test set accuracy = 0.932900
 epoch 33/200. Took 0.55476 seconds. 
  Full-batch training loss = 0.012596, test loss = 0.252937
  Training set accuracy = 1.000000, Test set accuracy = 0.932000
 epoch 34/200. Took 0.55909 seconds. 
  Full-batch training loss = 0.011723, test loss = 0.251856
  Training set accuracy = 1.000000, Test set accuracy = 0.932100
 epoch 35/200. Took 0.55603 seconds. 
  Full-batch training loss = 0.011706, test loss = 0.254351
  Training set accuracy = 1.000000, Test set accuracy = 0.932700
 epoch 36/200. Took 0.5536 seconds. 
  Full-batch training loss = 0.010962, test loss = 0.252884
  Training set accuracy = 1.000000, Test set accuracy = 0.931500
 epoch 37/200. Took 0.55472 seconds. 
  Full-batch training loss = 0.010394, test loss = 0.253816
  Training set accuracy = 1.000000, Test set accuracy = 0.932700
 epoch 38/200. Took 0.55707 seconds. 
  Full-batch training loss = 0.010009, test loss = 0.255370
  Training set accuracy = 1.000000, Test set accuracy = 0.932300
 epoch 39/200. Took 0.5527 seconds. 
  Full-batch training loss = 0.009708, test loss = 0.254402
  Training set accuracy = 1.000000, Test set accuracy = 0.932300
 epoch 40/200. Took 0.55588 seconds. 
  Full-batch training loss = 0.009262, test loss = 0.255949
  Training set accuracy = 1.000000, Test set accuracy = 0.933300
 epoch 41/200. Took 0.56491 seconds. 
  Full-batch training loss = 0.009126, test loss = 0.255327
  Training set accuracy = 1.000000, Test set accuracy = 0.932200
 epoch 42/200. Took 0.55447 seconds. 
  Full-batch training loss = 0.008816, test loss = 0.258037
  Training set accuracy = 1.000000, Test set accuracy = 0.932600
 epoch 43/200. Took 0.57016 seconds. 
  Full-batch training loss = 0.008384, test loss = 0.256937
  Training set accuracy = 1.000000, Test set accuracy = 0.933700
 epoch 44/200. Took 0.55381 seconds. 
  Full-batch training loss = 0.008108, test loss = 0.257168
  Training set accuracy = 1.000000, Test set accuracy = 0.933500
 epoch 45/200. Took 0.56298 seconds. 
  Full-batch training loss = 0.007883, test loss = 0.257814
  Training set accuracy = 1.000000, Test set accuracy = 0.932800
 epoch 46/200. Took 0.55463 seconds. 
  Full-batch training loss = 0.007756, test loss = 0.259738
  Training set accuracy = 1.000000, Test set accuracy = 0.933400
 epoch 47/200. Took 0.55589 seconds. 
  Full-batch training loss = 0.007464, test loss = 0.259242
  Training set accuracy = 1.000000, Test set accuracy = 0.933300
 epoch 48/200. Took 0.5611 seconds. 
  Full-batch training loss = 0.007211, test loss = 0.259045
  Training set accuracy = 1.000000, Test set accuracy = 0.933400
 epoch 49/200. Took 0.55541 seconds. 
  Full-batch training loss = 0.007005, test loss = 0.260049
  Training set accuracy = 1.000000, Test set accuracy = 0.933500
 epoch 50/200. Took 0.55337 seconds. 
  Full-batch training loss = 0.006815, test loss = 0.260477
  Training set accuracy = 1.000000, Test set accuracy = 0.933400
 epoch 51/200. Took 0.55105 seconds. 
  Full-batch training loss = 0.006754, test loss = 0.259947
  Training set accuracy = 1.000000, Test set accuracy = 0.932700
 epoch 52/200. Took 0.55281 seconds. 
  Full-batch training loss = 0.006542, test loss = 0.261516
  Training set accuracy = 1.000000, Test set accuracy = 0.933100
 epoch 53/200. Took 0.55338 seconds. 
  Full-batch training loss = 0.006289, test loss = 0.261019
  Training set accuracy = 1.000000, Test set accuracy = 0.933400
 epoch 54/200. Took 0.55742 seconds. 
  Full-batch training loss = 0.006171, test loss = 0.261421
  Training set accuracy = 1.000000, Test set accuracy = 0.933600
 epoch 55/200. Took 0.5562 seconds. 
  Full-batch training loss = 0.005991, test loss = 0.262081
  Training set accuracy = 1.000000, Test set accuracy = 0.933700
 epoch 56/200. Took 0.56503 seconds. 
  Full-batch training loss = 0.005872, test loss = 0.262498
  Training set accuracy = 1.000000, Test set accuracy = 0.933700
 epoch 57/200. Took 0.56663 seconds. 
  Full-batch training loss = 0.005741, test loss = 0.263273
  Training set accuracy = 1.000000, Test set accuracy = 0.933800
 epoch 58/200. Took 0.55667 seconds. 
  Full-batch training loss = 0.005573, test loss = 0.263289
  Training set accuracy = 1.000000, Test set accuracy = 0.933900
 epoch 59/200. Took 0.55531 seconds. 
  Full-batch training loss = 0.005456, test loss = 0.263697
  Training set accuracy = 1.000000, Test set accuracy = 0.934100
 epoch 60/200. Took 0.55237 seconds. 
  Full-batch training loss = 0.005328, test loss = 0.264249
  Training set accuracy = 1.000000, Test set accuracy = 0.933700
 epoch 61/200. Took 0.556 seconds. 
  Full-batch training loss = 0.005223, test loss = 0.264531
  Training set accuracy = 1.000000, Test set accuracy = 0.933800
 epoch 62/200. Took 0.55766 seconds. 
  Full-batch training loss = 0.005103, test loss = 0.264519
  Training set accuracy = 1.000000, Test set accuracy = 0.933600
 epoch 63/200. Took 0.5547 seconds. 
  Full-batch training loss = 0.004994, test loss = 0.264986
  Training set accuracy = 1.000000, Test set accuracy = 0.934300
 epoch 64/200. Took 0.55436 seconds. 
  Full-batch training loss = 0.004885, test loss = 0.265493
  Training set accuracy = 1.000000, Test set accuracy = 0.933800
 epoch 65/200. Took 0.56373 seconds. 
  Full-batch training loss = 0.004788, test loss = 0.265669
  Training set accuracy = 1.000000, Test set accuracy = 0.933800
 epoch 66/200. Took 0.55806 seconds. 
  Full-batch training loss = 0.004697, test loss = 0.265965
  Training set accuracy = 1.000000, Test set accuracy = 0.934400
 epoch 67/200. Took 0.55119 seconds. 
  Full-batch training loss = 0.004604, test loss = 0.266369
  Training set accuracy = 1.000000, Test set accuracy = 0.933900
 epoch 68/200. Took 0.55514 seconds. 
  Full-batch training loss = 0.004528, test loss = 0.266501
  Training set accuracy = 1.000000, Test set accuracy = 0.933900
 epoch 69/200. Took 0.55252 seconds. 
  Full-batch training loss = 0.004431, test loss = 0.266963
  Training set accuracy = 1.000000, Test set accuracy = 0.934000
 epoch 70/200. Took 0.55597 seconds. 
  Full-batch training loss = 0.004354, test loss = 0.266891
  Training set accuracy = 1.000000, Test set accuracy = 0.934100
 epoch 71/200. Took 0.55201 seconds. 
  Full-batch training loss = 0.004264, test loss = 0.267566
  Training set accuracy = 1.000000, Test set accuracy = 0.934100
 epoch 72/200. Took 0.5545 seconds. 
  Full-batch training loss = 0.004185, test loss = 0.267813
  Training set accuracy = 1.000000, Test set accuracy = 0.934100
 epoch 73/200. Took 0.55118 seconds. 
  Full-batch training loss = 0.004111, test loss = 0.268040
  Training set accuracy = 1.000000, Test set accuracy = 0.934000
 epoch 74/200. Took 0.56058 seconds. 
  Full-batch training loss = 0.004046, test loss = 0.268991
  Training set accuracy = 1.000000, Test set accuracy = 0.933900
 epoch 75/200. Took 0.55479 seconds. 
  Full-batch training loss = 0.003972, test loss = 0.269376
  Training set accuracy = 1.000000, Test set accuracy = 0.933900
 epoch 76/200. Took 0.55364 seconds. 
  Full-batch training loss = 0.003900, test loss = 0.268814
  Training set accuracy = 1.000000, Test set accuracy = 0.934300
 epoch 77/200. Took 0.54966 seconds. 
  Full-batch training loss = 0.003837, test loss = 0.269337
  Training set accuracy = 1.000000, Test set accuracy = 0.934200
 epoch 78/200. Took 0.55958 seconds. 
  Full-batch training loss = 0.003769, test loss = 0.269670
  Training set accuracy = 1.000000, Test set accuracy = 0.934200
 epoch 79/200. Took 0.55354 seconds. 
  Full-batch training loss = 0.003710, test loss = 0.270199
  Training set accuracy = 1.000000, Test set accuracy = 0.934200
 epoch 80/200. Took 0.5507 seconds. 
  Full-batch training loss = 0.003649, test loss = 0.270342
  Training set accuracy = 1.000000, Test set accuracy = 0.934300
 epoch 81/200. Took 0.55257 seconds. 
  Full-batch training loss = 0.003588, test loss = 0.270811
  Training set accuracy = 1.000000, Test set accuracy = 0.934100
 epoch 82/200. Took 0.55436 seconds. 
  Full-batch training loss = 0.003532, test loss = 0.270796
  Training set accuracy = 1.000000, Test set accuracy = 0.934200
 epoch 83/200. Took 0.56339 seconds. 
  Full-batch training loss = 0.003480, test loss = 0.271273
  Training set accuracy = 1.000000, Test set accuracy = 0.934300
 epoch 84/200. Took 0.56231 seconds. 
  Full-batch training loss = 0.003428, test loss = 0.271422
  Training set accuracy = 1.000000, Test set accuracy = 0.934500
 epoch 85/200. Took 0.55428 seconds. 
  Full-batch training loss = 0.003373, test loss = 0.272109
  Training set accuracy = 1.000000, Test set accuracy = 0.934100
 epoch 86/200. Took 0.55953 seconds. 
  Full-batch training loss = 0.003323, test loss = 0.271756
  Training set accuracy = 1.000000, Test set accuracy = 0.934700
 epoch 87/200. Took 0.55336 seconds. 
  Full-batch training loss = 0.003272, test loss = 0.272260
  Training set accuracy = 1.000000, Test set accuracy = 0.934400
 epoch 88/200. Took 0.55747 seconds. 
  Full-batch training loss = 0.003224, test loss = 0.272510
  Training set accuracy = 1.000000, Test set accuracy = 0.934600
 epoch 89/200. Took 0.55862 seconds. 
  Full-batch training loss = 0.003178, test loss = 0.272801
  Training set accuracy = 1.000000, Test set accuracy = 0.934500
 epoch 90/200. Took 0.55491 seconds. 
  Full-batch training loss = 0.003132, test loss = 0.273316
  Training set accuracy = 1.000000, Test set accuracy = 0.934400
 epoch 91/200. Took 0.55432 seconds. 
  Full-batch training loss = 0.003089, test loss = 0.273062
  Training set accuracy = 1.000000, Test set accuracy = 0.934500
 epoch 92/200. Took 0.55322 seconds. 
  Full-batch training loss = 0.003045, test loss = 0.273545
  Training set accuracy = 1.000000, Test set accuracy = 0.934500
 epoch 93/200. Took 0.55639 seconds. 
  Full-batch training loss = 0.003005, test loss = 0.273664
  Training set accuracy = 1.000000, Test set accuracy = 0.934600
 epoch 94/200. Took 0.55285 seconds. 
  Full-batch training loss = 0.002962, test loss = 0.274018
  Training set accuracy = 1.000000, Test set accuracy = 0.934600
 epoch 95/200. Took 0.55197 seconds. 
  Full-batch training loss = 0.002923, test loss = 0.274504
  Training set accuracy = 1.000000, Test set accuracy = 0.934500
 epoch 96/200. Took 0.554 seconds. 
  Full-batch training loss = 0.002884, test loss = 0.274888
  Training set accuracy = 1.000000, Test set accuracy = 0.934500
 epoch 97/200. Took 0.55226 seconds. 
  Full-batch training loss = 0.002846, test loss = 0.274794
  Training set accuracy = 1.000000, Test set accuracy = 0.934700
 epoch 98/200. Took 0.55372 seconds. 
  Full-batch training loss = 0.002808, test loss = 0.274928
  Training set accuracy = 1.000000, Test set accuracy = 0.934600
 epoch 99/200. Took 0.55197 seconds. 
  Full-batch training loss = 0.002772, test loss = 0.275384
  Training set accuracy = 1.000000, Test set accuracy = 0.934700
 epoch 100/200. Took 0.55871 seconds. 
  Full-batch training loss = 0.002737, test loss = 0.275675
  Training set accuracy = 1.000000, Test set accuracy = 0.934800
 epoch 101/200. Took 0.56141 seconds. 
  Full-batch training loss = 0.002703, test loss = 0.275823
  Training set accuracy = 1.000000, Test set accuracy = 0.934500
 epoch 102/200. Took 0.5542 seconds. 
  Full-batch training loss = 0.002670, test loss = 0.275873
  Training set accuracy = 1.000000, Test set accuracy = 0.934900
 epoch 103/200. Took 0.5515 seconds. 
  Full-batch training loss = 0.002637, test loss = 0.276088
  Training set accuracy = 1.000000, Test set accuracy = 0.934900
 epoch 104/200. Took 0.5554 seconds. 
  Full-batch training loss = 0.002604, test loss = 0.276432
  Training set accuracy = 1.000000, Test set accuracy = 0.935000
 epoch 105/200. Took 0.55043 seconds. 
  Full-batch training loss = 0.002573, test loss = 0.276734
  Training set accuracy = 1.000000, Test set accuracy = 0.934600
 epoch 106/200. Took 0.55856 seconds. 
  Full-batch training loss = 0.002541, test loss = 0.276950
  Training set accuracy = 1.000000, Test set accuracy = 0.934800
 epoch 107/200. Took 0.5523 seconds. 
  Full-batch training loss = 0.002511, test loss = 0.277341
  Training set accuracy = 1.000000, Test set accuracy = 0.935100
 epoch 108/200. Took 0.56271 seconds. 
  Full-batch training loss = 0.002481, test loss = 0.277220
  Training set accuracy = 1.000000, Test set accuracy = 0.934900
 epoch 109/200. Took 0.57664 seconds. 
  Full-batch training loss = 0.002454, test loss = 0.277371
  Training set accuracy = 1.000000, Test set accuracy = 0.934900
 epoch 110/200. Took 0.56992 seconds. 
  Full-batch training loss = 0.002426, test loss = 0.277741
  Training set accuracy = 1.000000, Test set accuracy = 0.935100
 epoch 111/200. Took 0.60079 seconds. 
  Full-batch training loss = 0.002399, test loss = 0.278164
  Training set accuracy = 1.000000, Test set accuracy = 0.935000
 epoch 112/200. Took 0.58827 seconds. 
  Full-batch training loss = 0.002370, test loss = 0.278274
  Training set accuracy = 1.000000, Test set accuracy = 0.935200
 epoch 113/200. Took 0.5995 seconds. 
  Full-batch training loss = 0.002345, test loss = 0.278296
  Training set accuracy = 1.000000, Test set accuracy = 0.935000
 epoch 114/200. Took 0.5793 seconds. 
  Full-batch training loss = 0.002318, test loss = 0.278566
  Training set accuracy = 1.000000, Test set accuracy = 0.935100
 epoch 115/200. Took 0.57636 seconds. 
  Full-batch training loss = 0.002293, test loss = 0.278844
  Training set accuracy = 1.000000, Test set accuracy = 0.935000
 epoch 116/200. Took 0.57009 seconds. 
  Full-batch training loss = 0.002267, test loss = 0.279047
  Training set accuracy = 1.000000, Test set accuracy = 0.935200
 epoch 117/200. Took 0.57502 seconds. 
  Full-batch training loss = 0.002244, test loss = 0.279090
  Training set accuracy = 1.000000, Test set accuracy = 0.935200
 epoch 118/200. Took 0.60712 seconds. 
  Full-batch training loss = 0.002221, test loss = 0.279383
  Training set accuracy = 1.000000, Test set accuracy = 0.935200
 epoch 119/200. Took 0.57801 seconds. 
  Full-batch training loss = 0.002198, test loss = 0.279742
  Training set accuracy = 1.000000, Test set accuracy = 0.935100
 epoch 120/200. Took 0.57668 seconds. 
  Full-batch training loss = 0.002173, test loss = 0.279849
  Training set accuracy = 1.000000, Test set accuracy = 0.935000
 epoch 121/200. Took 0.5693 seconds. 
  Full-batch training loss = 0.002150, test loss = 0.280151
  Training set accuracy = 1.000000, Test set accuracy = 0.935100
 epoch 122/200. Took 0.57811 seconds. 
  Full-batch training loss = 0.002129, test loss = 0.280254
  Training set accuracy = 1.000000, Test set accuracy = 0.935100
 epoch 123/200. Took 0.57795 seconds. 
  Full-batch training loss = 0.002107, test loss = 0.280393
  Training set accuracy = 1.000000, Test set accuracy = 0.935000
 epoch 124/200. Took 0.57589 seconds. 
  Full-batch training loss = 0.002085, test loss = 0.280481
  Training set accuracy = 1.000000, Test set accuracy = 0.935200
 epoch 125/200. Took 0.57562 seconds. 
  Full-batch training loss = 0.002064, test loss = 0.280923
  Training set accuracy = 1.000000, Test set accuracy = 0.935400
 epoch 126/200. Took 0.57398 seconds. 
  Full-batch training loss = 0.002044, test loss = 0.281029
  Training set accuracy = 1.000000, Test set accuracy = 0.935200
 epoch 127/200. Took 0.56616 seconds. 
  Full-batch training loss = 0.002024, test loss = 0.281006
  Training set accuracy = 1.000000, Test set accuracy = 0.935300
 epoch 128/200. Took 0.57123 seconds. 
  Full-batch training loss = 0.002004, test loss = 0.281473
  Training set accuracy = 1.000000, Test set accuracy = 0.935400
 epoch 129/200. Took 0.576 seconds. 
  Full-batch training loss = 0.001985, test loss = 0.281513
  Training set accuracy = 1.000000, Test set accuracy = 0.935300
 epoch 130/200. Took 0.57073 seconds. 
  Full-batch training loss = 0.001965, test loss = 0.281854
  Training set accuracy = 1.000000, Test set accuracy = 0.935200
 epoch 131/200. Took 0.58067 seconds. 
  Full-batch training loss = 0.001947, test loss = 0.281880
  Training set accuracy = 1.000000, Test set accuracy = 0.935100
 epoch 132/200. Took 0.56494 seconds. 
  Full-batch training loss = 0.001928, test loss = 0.282019
  Training set accuracy = 1.000000, Test set accuracy = 0.935300
 epoch 133/200. Took 0.57856 seconds. 
  Full-batch training loss = 0.001910, test loss = 0.282229
  Training set accuracy = 1.000000, Test set accuracy = 0.935200
 epoch 134/200. Took 0.57229 seconds. 
  Full-batch training loss = 0.001892, test loss = 0.282414
  Training set accuracy = 1.000000, Test set accuracy = 0.935200
 epoch 135/200. Took 0.57242 seconds. 
  Full-batch training loss = 0.001875, test loss = 0.282628
  Training set accuracy = 1.000000, Test set accuracy = 0.935200
 epoch 136/200. Took 0.57454 seconds. 
  Full-batch training loss = 0.001857, test loss = 0.282944
  Training set accuracy = 1.000000, Test set accuracy = 0.935300
 epoch 137/200. Took 0.58705 seconds. 
  Full-batch training loss = 0.001841, test loss = 0.283010
  Training set accuracy = 1.000000, Test set accuracy = 0.935300
 epoch 138/200. Took 0.58064 seconds. 
  Full-batch training loss = 0.001824, test loss = 0.283123
  Training set accuracy = 1.000000, Test set accuracy = 0.935400
 epoch 139/200. Took 0.57625 seconds. 
  Full-batch training loss = 0.001808, test loss = 0.283356
  Training set accuracy = 1.000000, Test set accuracy = 0.935300
 epoch 140/200. Took 0.57545 seconds. 
  Full-batch training loss = 0.001791, test loss = 0.283590
  Training set accuracy = 1.000000, Test set accuracy = 0.935400
 epoch 141/200. Took 0.57698 seconds. 
  Full-batch training loss = 0.001775, test loss = 0.283608
  Training set accuracy = 1.000000, Test set accuracy = 0.935300
 epoch 142/200. Took 0.56472 seconds. 
  Full-batch training loss = 0.001761, test loss = 0.283750
  Training set accuracy = 1.000000, Test set accuracy = 0.935200
 epoch 143/200. Took 0.58239 seconds. 
  Full-batch training loss = 0.001745, test loss = 0.284077
  Training set accuracy = 1.000000, Test set accuracy = 0.935400
 epoch 144/200. Took 0.57315 seconds. 
  Full-batch training loss = 0.001730, test loss = 0.284183
  Training set accuracy = 1.000000, Test set accuracy = 0.935300
 epoch 145/200. Took 0.56831 seconds. 
  Full-batch training loss = 0.001715, test loss = 0.284320
  Training set accuracy = 1.000000, Test set accuracy = 0.935400
 epoch 146/200. Took 0.58049 seconds. 
  Full-batch training loss = 0.001701, test loss = 0.284616
  Training set accuracy = 1.000000, Test set accuracy = 0.935400
 epoch 147/200. Took 0.57519 seconds. 
  Full-batch training loss = 0.001686, test loss = 0.284749
  Training set accuracy = 1.000000, Test set accuracy = 0.935500
 epoch 148/200. Took 0.5853 seconds. 
  Full-batch training loss = 0.001673, test loss = 0.284888
  Training set accuracy = 1.000000, Test set accuracy = 0.935200
 epoch 149/200. Took 0.56854 seconds. 
  Full-batch training loss = 0.001659, test loss = 0.284936
  Training set accuracy = 1.000000, Test set accuracy = 0.935600
 epoch 150/200. Took 0.57772 seconds. 
  Full-batch training loss = 0.001645, test loss = 0.285262
  Training set accuracy = 1.000000, Test set accuracy = 0.935500
 epoch 151/200. Took 0.58165 seconds. 
  Full-batch training loss = 0.001631, test loss = 0.285245
  Training set accuracy = 1.000000, Test set accuracy = 0.935400
 epoch 152/200. Took 0.57182 seconds. 
  Full-batch training loss = 0.001617, test loss = 0.285439
  Training set accuracy = 1.000000, Test set accuracy = 0.935400
 epoch 153/200. Took 0.58886 seconds. 
  Full-batch training loss = 0.001605, test loss = 0.285429
  Training set accuracy = 1.000000, Test set accuracy = 0.935300
 epoch 154/200. Took 0.57459 seconds. 
  Full-batch training loss = 0.001592, test loss = 0.285794
  Training set accuracy = 1.000000, Test set accuracy = 0.935300
 epoch 155/200. Took 0.5713 seconds. 
  Full-batch training loss = 0.001579, test loss = 0.285981
  Training set accuracy = 1.000000, Test set accuracy = 0.935400
 epoch 156/200. Took 0.57784 seconds. 
  Full-batch training loss = 0.001567, test loss = 0.286183
  Training set accuracy = 1.000000, Test set accuracy = 0.935500
 epoch 157/200. Took 0.57036 seconds. 
  Full-batch training loss = 0.001554, test loss = 0.286204
  Training set accuracy = 1.000000, Test set accuracy = 0.935400
 epoch 158/200. Took 0.57024 seconds. 
  Full-batch training loss = 0.001542, test loss = 0.286582
  Training set accuracy = 1.000000, Test set accuracy = 0.935500
 epoch 159/200. Took 0.57682 seconds. 
  Full-batch training loss = 0.001530, test loss = 0.286494
  Training set accuracy = 1.000000, Test set accuracy = 0.935500
 epoch 160/200. Took 0.56823 seconds. 
  Full-batch training loss = 0.001518, test loss = 0.286712
  Training set accuracy = 1.000000, Test set accuracy = 0.935400
 epoch 161/200. Took 0.56938 seconds. 
  Full-batch training loss = 0.001507, test loss = 0.287033
  Training set accuracy = 1.000000, Test set accuracy = 0.935500
 epoch 162/200. Took 0.58036 seconds. 
  Full-batch training loss = 0.001496, test loss = 0.287248
  Training set accuracy = 1.000000, Test set accuracy = 0.935500
 epoch 163/200. Took 0.58578 seconds. 
  Full-batch training loss = 0.001484, test loss = 0.287060
  Training set accuracy = 1.000000, Test set accuracy = 0.935400
 epoch 164/200. Took 0.57964 seconds. 
  Full-batch training loss = 0.001473, test loss = 0.287414
  Training set accuracy = 1.000000, Test set accuracy = 0.935500
 epoch 165/200. Took 0.57445 seconds. 
  Full-batch training loss = 0.001462, test loss = 0.287484
  Training set accuracy = 1.000000, Test set accuracy = 0.935500
 epoch 166/200. Took 0.57885 seconds. 
  Full-batch training loss = 0.001451, test loss = 0.287656
  Training set accuracy = 1.000000, Test set accuracy = 0.935500
 epoch 167/200. Took 0.5773 seconds. 
  Full-batch training loss = 0.001440, test loss = 0.287754
  Training set accuracy = 1.000000, Test set accuracy = 0.935500
 epoch 168/200. Took 0.57854 seconds. 
  Full-batch training loss = 0.001429, test loss = 0.287819
  Training set accuracy = 1.000000, Test set accuracy = 0.935500
 epoch 169/200. Took 0.57121 seconds. 
  Full-batch training loss = 0.001419, test loss = 0.288118
  Training set accuracy = 1.000000, Test set accuracy = 0.935600
 epoch 170/200. Took 0.57644 seconds. 
  Full-batch training loss = 0.001409, test loss = 0.288209
  Training set accuracy = 1.000000, Test set accuracy = 0.935500
 epoch 171/200. Took 0.59076 seconds. 
  Full-batch training loss = 0.001399, test loss = 0.288316
  Training set accuracy = 1.000000, Test set accuracy = 0.935700
 epoch 172/200. Took 0.58283 seconds. 
  Full-batch training loss = 0.001389, test loss = 0.288397
  Training set accuracy = 1.000000, Test set accuracy = 0.935700
 epoch 173/200. Took 0.57516 seconds. 
  Full-batch training loss = 0.001379, test loss = 0.288485
  Training set accuracy = 1.000000, Test set accuracy = 0.935500
 epoch 174/200. Took 0.57615 seconds. 
  Full-batch training loss = 0.001369, test loss = 0.288729
  Training set accuracy = 1.000000, Test set accuracy = 0.935500
 epoch 175/200. Took 0.57541 seconds. 
  Full-batch training loss = 0.001359, test loss = 0.288892
  Training set accuracy = 1.000000, Test set accuracy = 0.935500
 epoch 176/200. Took 0.58552 seconds. 
  Full-batch training loss = 0.001350, test loss = 0.289030
  Training set accuracy = 1.000000, Test set accuracy = 0.935600
 epoch 177/200. Took 0.57639 seconds. 
  Full-batch training loss = 0.001341, test loss = 0.289164
  Training set accuracy = 1.000000, Test set accuracy = 0.935600
 epoch 178/200. Took 0.61848 seconds. 
  Full-batch training loss = 0.001331, test loss = 0.289238
  Training set accuracy = 1.000000, Test set accuracy = 0.935500
 epoch 179/200. Took 0.56261 seconds. 
  Full-batch training loss = 0.001322, test loss = 0.289498
  Training set accuracy = 1.000000, Test set accuracy = 0.935600
 epoch 180/200. Took 0.57068 seconds. 
  Full-batch training loss = 0.001313, test loss = 0.289537
  Training set accuracy = 1.000000, Test set accuracy = 0.935500
 epoch 181/200. Took 0.55276 seconds. 
  Full-batch training loss = 0.001304, test loss = 0.289692
  Training set accuracy = 1.000000, Test set accuracy = 0.935600
 epoch 182/200. Took 0.5542 seconds. 
  Full-batch training loss = 0.001296, test loss = 0.289976
  Training set accuracy = 1.000000, Test set accuracy = 0.935500
 epoch 183/200. Took 0.55456 seconds. 
  Full-batch training loss = 0.001287, test loss = 0.290017
  Training set accuracy = 1.000000, Test set accuracy = 0.935600
 epoch 184/200. Took 0.555 seconds. 
  Full-batch training loss = 0.001278, test loss = 0.290103
  Training set accuracy = 1.000000, Test set accuracy = 0.935500
 epoch 185/200. Took 0.55372 seconds. 
  Full-batch training loss = 0.001270, test loss = 0.290169
  Training set accuracy = 1.000000, Test set accuracy = 0.935600
 epoch 186/200. Took 0.56277 seconds. 
  Full-batch training loss = 0.001261, test loss = 0.290298
  Training set accuracy = 1.000000, Test set accuracy = 0.935700
 epoch 187/200. Took 0.56833 seconds. 
  Full-batch training loss = 0.001253, test loss = 0.290448
  Training set accuracy = 1.000000, Test set accuracy = 0.935500
 epoch 188/200. Took 0.55688 seconds. 
  Full-batch training loss = 0.001245, test loss = 0.290641
  Training set accuracy = 1.000000, Test set accuracy = 0.935600
 epoch 189/200. Took 0.56546 seconds. 
  Full-batch training loss = 0.001237, test loss = 0.290560
  Training set accuracy = 1.000000, Test set accuracy = 0.935700
 epoch 190/200. Took 0.55501 seconds. 
  Full-batch training loss = 0.001229, test loss = 0.290898
  Training set accuracy = 1.000000, Test set accuracy = 0.935600
 epoch 191/200. Took 0.55964 seconds. 
  Full-batch training loss = 0.001221, test loss = 0.290837
  Training set accuracy = 1.000000, Test set accuracy = 0.935700
 epoch 192/200. Took 0.56774 seconds. 
  Full-batch training loss = 0.001214, test loss = 0.291251
  Training set accuracy = 1.000000, Test set accuracy = 0.935700
 epoch 193/200. Took 0.55103 seconds. 
  Full-batch training loss = 0.001206, test loss = 0.291200
  Training set accuracy = 1.000000, Test set accuracy = 0.935500
 epoch 194/200. Took 0.55363 seconds. 
  Full-batch training loss = 0.001198, test loss = 0.291326
  Training set accuracy = 1.000000, Test set accuracy = 0.935600
 epoch 195/200. Took 0.55467 seconds. 
  Full-batch training loss = 0.001191, test loss = 0.291557
  Training set accuracy = 1.000000, Test set accuracy = 0.935800
 epoch 196/200. Took 0.55309 seconds. 
  Full-batch training loss = 0.001183, test loss = 0.291585
  Training set accuracy = 1.000000, Test set accuracy = 0.935700
 epoch 197/200. Took 0.55419 seconds. 
  Full-batch training loss = 0.001176, test loss = 0.291778
  Training set accuracy = 1.000000, Test set accuracy = 0.935700
 epoch 198/200. Took 0.56024 seconds. 
  Full-batch training loss = 0.001169, test loss = 0.291862
  Training set accuracy = 1.000000, Test set accuracy = 0.935600
 epoch 199/200. Took 0.5803 seconds. 
  Full-batch training loss = 0.001161, test loss = 0.291949
  Training set accuracy = 1.000000, Test set accuracy = 0.935700
 epoch 200/200. Took 0.55478 seconds. 
  Full-batch training loss = 0.001154, test loss = 0.292078
  Training set accuracy = 1.000000, Test set accuracy = 0.935700
Elapsed time is 485.246672 seconds.
End Training
