==========================================================
  Architecture is 500 500 500 // 3 layer x 500 neuron
----------------------------------------------------------
Execution 62/270
----------------------------------------------------------
* ReducedData	2000
* PreTrainRBM	true
	-> Epochs	20
	-> LearningRate	0.10
* Fine-tunning
	-> Epochs	500
	-> LearningRate	0.20
==========================================================
Start Training
Number of training examples: 2000  BatchSize: 100
Number of inputs: 784  Number of outputs: 10
Number of hidden layers: 3 (500  500  500)
Training binary-binary RBM in layer 1 (784  500) with CD1 for 20 epochs
 epoch 1/20. Took 0.34238 seconds. Average reconstruction error is: 51.1932
 epoch 2/20. Took 0.32893 seconds. Average reconstruction error is: 26.9556
 epoch 3/20. Took 0.3273 seconds. Average reconstruction error is: 21.6855
 epoch 4/20. Took 0.33774 seconds. Average reconstruction error is: 18.9902
 epoch 5/20. Took 0.32641 seconds. Average reconstruction error is: 17.1586
 epoch 6/20. Took 0.32352 seconds. Average reconstruction error is: 15.8694
 epoch 7/20. Took 0.32429 seconds. Average reconstruction error is: 14.9323
 epoch 8/20. Took 0.32287 seconds. Average reconstruction error is: 14.1675
 epoch 9/20. Took 0.32211 seconds. Average reconstruction error is: 13.4685
 epoch 10/20. Took 0.32297 seconds. Average reconstruction error is: 12.9052
 epoch 11/20. Took 0.3277 seconds. Average reconstruction error is: 12.4738
 epoch 12/20. Took 0.32256 seconds. Average reconstruction error is: 12.0317
 epoch 13/20. Took 0.33273 seconds. Average reconstruction error is: 11.6933
 epoch 14/20. Took 0.32288 seconds. Average reconstruction error is: 11.3655
 epoch 15/20. Took 0.32742 seconds. Average reconstruction error is: 11.034
 epoch 16/20. Took 0.32772 seconds. Average reconstruction error is: 10.7501
 epoch 17/20. Took 0.34954 seconds. Average reconstruction error is: 10.4995
 epoch 18/20. Took 0.34224 seconds. Average reconstruction error is: 10.2679
 epoch 19/20. Took 0.34171 seconds. Average reconstruction error is: 10.0992
 epoch 20/20. Took 0.34398 seconds. Average reconstruction error is: 9.795
Training binary-binary RBM in layer 2 (500  500) with CD1 for 20 epochs
 epoch 1/20. Took 0.24566 seconds. Average reconstruction error is: 36.2161
 epoch 2/20. Took 0.3128 seconds. Average reconstruction error is: 19.0838
 epoch 3/20. Took 0.2518 seconds. Average reconstruction error is: 14.5054
 epoch 4/20. Took 0.25105 seconds. Average reconstruction error is: 12.2114
 epoch 5/20. Took 0.25321 seconds. Average reconstruction error is: 10.7792
 epoch 6/20. Took 0.25377 seconds. Average reconstruction error is: 9.8362
 epoch 7/20. Took 0.24866 seconds. Average reconstruction error is: 9.1882
 epoch 8/20. Took 0.25156 seconds. Average reconstruction error is: 8.6455
 epoch 9/20. Took 0.25124 seconds. Average reconstruction error is: 8.2673
 epoch 10/20. Took 0.24492 seconds. Average reconstruction error is: 7.9445
 epoch 11/20. Took 0.25462 seconds. Average reconstruction error is: 7.6891
 epoch 12/20. Took 0.24625 seconds. Average reconstruction error is: 7.4726
 epoch 13/20. Took 0.24942 seconds. Average reconstruction error is: 7.2934
 epoch 14/20. Took 0.24576 seconds. Average reconstruction error is: 7.1066
 epoch 15/20. Took 0.24959 seconds. Average reconstruction error is: 6.9668
 epoch 16/20. Took 0.2484 seconds. Average reconstruction error is: 6.8425
 epoch 17/20. Took 0.24827 seconds. Average reconstruction error is: 6.7532
 epoch 18/20. Took 0.24656 seconds. Average reconstruction error is: 6.6966
 epoch 19/20. Took 0.24765 seconds. Average reconstruction error is: 6.5522
 epoch 20/20. Took 0.24875 seconds. Average reconstruction error is: 6.4763
Training binary-binary RBM in layer 3 (500  500) with CD1 for 20 epochs
 epoch 1/20. Took 0.26169 seconds. Average reconstruction error is: 30.5674
 epoch 2/20. Took 0.25354 seconds. Average reconstruction error is: 13.904
 epoch 3/20. Took 0.25289 seconds. Average reconstruction error is: 10.2183
 epoch 4/20. Took 0.25067 seconds. Average reconstruction error is: 8.5649
 epoch 5/20. Took 0.25311 seconds. Average reconstruction error is: 7.5559
 epoch 6/20. Took 0.24657 seconds. Average reconstruction error is: 6.9363
 epoch 7/20. Took 0.24883 seconds. Average reconstruction error is: 6.469
 epoch 8/20. Took 0.24514 seconds. Average reconstruction error is: 6.1114
 epoch 9/20. Took 0.24887 seconds. Average reconstruction error is: 5.9283
 epoch 10/20. Took 0.25102 seconds. Average reconstruction error is: 5.6479
 epoch 11/20. Took 0.24689 seconds. Average reconstruction error is: 5.5014
 epoch 12/20. Took 0.24228 seconds. Average reconstruction error is: 5.3731
 epoch 13/20. Took 0.25171 seconds. Average reconstruction error is: 5.3234
 epoch 14/20. Took 0.25202 seconds. Average reconstruction error is: 5.2332
 epoch 15/20. Took 0.24574 seconds. Average reconstruction error is: 5.1104
 epoch 16/20. Took 0.24979 seconds. Average reconstruction error is: 5.1335
 epoch 17/20. Took 0.24639 seconds. Average reconstruction error is: 5.0794
 epoch 18/20. Took 0.24887 seconds. Average reconstruction error is: 5.0392
 epoch 19/20. Took 0.24825 seconds. Average reconstruction error is: 4.9861
 epoch 20/20. Took 0.24645 seconds. Average reconstruction error is: 4.9423
Training NN  (784  500  500  500   10) with BackPropagation for 500 epochs
 epoch 1/500. Took 0.51584 seconds. 
  Full-batch training loss = 0.403527, test loss = 0.412809
  Training set accuracy = 0.879500, Test set accuracy = 0.883100
 epoch 2/500. Took 0.56472 seconds. 
  Full-batch training loss = 0.319446, test loss = 0.367219
  Training set accuracy = 0.905000, Test set accuracy = 0.888900
 epoch 3/500. Took 0.55881 seconds. 
  Full-batch training loss = 0.251058, test loss = 0.311206
  Training set accuracy = 0.931000, Test set accuracy = 0.908900
 epoch 4/500. Took 0.56279 seconds. 
  Full-batch training loss = 0.221540, test loss = 0.303243
  Training set accuracy = 0.939500, Test set accuracy = 0.908900
 epoch 5/500. Took 0.56949 seconds. 
  Full-batch training loss = 0.190723, test loss = 0.285547
  Training set accuracy = 0.949000, Test set accuracy = 0.913200
 epoch 6/500. Took 0.5677 seconds. 
  Full-batch training loss = 0.168017, test loss = 0.268198
  Training set accuracy = 0.956500, Test set accuracy = 0.920000
 epoch 7/500. Took 0.5583 seconds. 
  Full-batch training loss = 0.151577, test loss = 0.270665
  Training set accuracy = 0.958500, Test set accuracy = 0.917700
 epoch 8/500. Took 0.56077 seconds. 
  Full-batch training loss = 0.133634, test loss = 0.262141
  Training set accuracy = 0.968500, Test set accuracy = 0.920600
 epoch 9/500. Took 0.56865 seconds. 
  Full-batch training loss = 0.119222, test loss = 0.254686
  Training set accuracy = 0.970500, Test set accuracy = 0.924100
 epoch 10/500. Took 0.56 seconds. 
  Full-batch training loss = 0.118004, test loss = 0.264616
  Training set accuracy = 0.971500, Test set accuracy = 0.921000
 epoch 11/500. Took 0.55509 seconds. 
  Full-batch training loss = 0.103421, test loss = 0.263015
  Training set accuracy = 0.974500, Test set accuracy = 0.921500
 epoch 12/500. Took 0.62295 seconds. 
  Full-batch training loss = 0.092178, test loss = 0.252164
  Training set accuracy = 0.980500, Test set accuracy = 0.925400
 epoch 13/500. Took 0.55964 seconds. 
  Full-batch training loss = 0.080501, test loss = 0.247017
  Training set accuracy = 0.986000, Test set accuracy = 0.926600
 epoch 14/500. Took 0.56703 seconds. 
  Full-batch training loss = 0.073772, test loss = 0.249027
  Training set accuracy = 0.988500, Test set accuracy = 0.926700
 epoch 15/500. Took 0.55488 seconds. 
  Full-batch training loss = 0.067290, test loss = 0.244576
  Training set accuracy = 0.991000, Test set accuracy = 0.928000
 epoch 16/500. Took 0.56107 seconds. 
  Full-batch training loss = 0.062897, test loss = 0.246473
  Training set accuracy = 0.992500, Test set accuracy = 0.927500
 epoch 17/500. Took 0.55565 seconds. 
  Full-batch training loss = 0.061833, test loss = 0.253830
  Training set accuracy = 0.990000, Test set accuracy = 0.926100
 epoch 18/500. Took 0.56286 seconds. 
  Full-batch training loss = 0.055369, test loss = 0.251873
  Training set accuracy = 0.993500, Test set accuracy = 0.925500
 epoch 19/500. Took 0.56416 seconds. 
  Full-batch training loss = 0.048114, test loss = 0.246832
  Training set accuracy = 0.995500, Test set accuracy = 0.929200
 epoch 20/500. Took 0.56503 seconds. 
  Full-batch training loss = 0.045083, test loss = 0.244184
  Training set accuracy = 0.996000, Test set accuracy = 0.929500
 epoch 21/500. Took 0.55892 seconds. 
  Full-batch training loss = 0.041452, test loss = 0.244298
  Training set accuracy = 0.998000, Test set accuracy = 0.929500
 epoch 22/500. Took 0.56734 seconds. 
  Full-batch training loss = 0.041621, test loss = 0.250376
  Training set accuracy = 0.996000, Test set accuracy = 0.928900
 epoch 23/500. Took 0.56802 seconds. 
  Full-batch training loss = 0.035849, test loss = 0.244207
  Training set accuracy = 0.998000, Test set accuracy = 0.930500
 epoch 24/500. Took 0.55963 seconds. 
  Full-batch training loss = 0.033865, test loss = 0.247744
  Training set accuracy = 0.999000, Test set accuracy = 0.929800
 epoch 25/500. Took 0.55952 seconds. 
  Full-batch training loss = 0.031218, test loss = 0.245346
  Training set accuracy = 0.999000, Test set accuracy = 0.931900
 epoch 26/500. Took 0.5674 seconds. 
  Full-batch training loss = 0.029697, test loss = 0.245599
  Training set accuracy = 0.999000, Test set accuracy = 0.931100
 epoch 27/500. Took 0.55606 seconds. 
  Full-batch training loss = 0.027799, test loss = 0.247859
  Training set accuracy = 0.999500, Test set accuracy = 0.931800
 epoch 28/500. Took 0.57501 seconds. 
  Full-batch training loss = 0.026158, test loss = 0.246795
  Training set accuracy = 0.999000, Test set accuracy = 0.930600
 epoch 29/500. Took 0.55812 seconds. 
  Full-batch training loss = 0.024653, test loss = 0.248535
  Training set accuracy = 0.999500, Test set accuracy = 0.931200
 epoch 30/500. Took 0.56733 seconds. 
  Full-batch training loss = 0.023514, test loss = 0.248578
  Training set accuracy = 0.999500, Test set accuracy = 0.931100
 epoch 31/500. Took 0.55711 seconds. 
  Full-batch training loss = 0.021853, test loss = 0.247996
  Training set accuracy = 0.999500, Test set accuracy = 0.931600
 epoch 32/500. Took 0.55786 seconds. 
  Full-batch training loss = 0.020964, test loss = 0.250029
  Training set accuracy = 0.999500, Test set accuracy = 0.931100
 epoch 33/500. Took 0.55515 seconds. 
  Full-batch training loss = 0.019964, test loss = 0.250190
  Training set accuracy = 0.999500, Test set accuracy = 0.931700
 epoch 34/500. Took 0.55544 seconds. 
  Full-batch training loss = 0.018659, test loss = 0.249172
  Training set accuracy = 0.999500, Test set accuracy = 0.932700
 epoch 35/500. Took 0.56416 seconds. 
  Full-batch training loss = 0.018039, test loss = 0.251804
  Training set accuracy = 0.999500, Test set accuracy = 0.931700
 epoch 36/500. Took 0.56459 seconds. 
  Full-batch training loss = 0.017359, test loss = 0.251625
  Training set accuracy = 0.999500, Test set accuracy = 0.931800
 epoch 37/500. Took 0.57184 seconds. 
  Full-batch training loss = 0.016454, test loss = 0.252646
  Training set accuracy = 1.000000, Test set accuracy = 0.932000
 epoch 38/500. Took 0.55543 seconds. 
  Full-batch training loss = 0.015751, test loss = 0.252189
  Training set accuracy = 0.999500, Test set accuracy = 0.932100
 epoch 39/500. Took 0.56224 seconds. 
  Full-batch training loss = 0.014982, test loss = 0.252285
  Training set accuracy = 0.999500, Test set accuracy = 0.932500
 epoch 40/500. Took 0.57078 seconds. 
  Full-batch training loss = 0.014417, test loss = 0.254027
  Training set accuracy = 1.000000, Test set accuracy = 0.931800
 epoch 41/500. Took 0.55807 seconds. 
  Full-batch training loss = 0.013809, test loss = 0.254006
  Training set accuracy = 1.000000, Test set accuracy = 0.932300
 epoch 42/500. Took 0.55574 seconds. 
  Full-batch training loss = 0.013329, test loss = 0.254082
  Training set accuracy = 0.999500, Test set accuracy = 0.932000
 epoch 43/500. Took 0.55538 seconds. 
  Full-batch training loss = 0.012991, test loss = 0.255300
  Training set accuracy = 1.000000, Test set accuracy = 0.932500
 epoch 44/500. Took 0.55596 seconds. 
  Full-batch training loss = 0.012352, test loss = 0.255698
  Training set accuracy = 1.000000, Test set accuracy = 0.932500
 epoch 45/500. Took 0.56241 seconds. 
  Full-batch training loss = 0.012188, test loss = 0.256100
  Training set accuracy = 0.999500, Test set accuracy = 0.932800
 epoch 46/500. Took 0.55881 seconds. 
  Full-batch training loss = 0.011465, test loss = 0.256436
  Training set accuracy = 1.000000, Test set accuracy = 0.932300
 epoch 47/500. Took 0.56041 seconds. 
  Full-batch training loss = 0.011093, test loss = 0.257591
  Training set accuracy = 1.000000, Test set accuracy = 0.932300
 epoch 48/500. Took 0.56074 seconds. 
  Full-batch training loss = 0.010733, test loss = 0.257718
  Training set accuracy = 1.000000, Test set accuracy = 0.932500
 epoch 49/500. Took 0.56308 seconds. 
  Full-batch training loss = 0.010430, test loss = 0.257398
  Training set accuracy = 1.000000, Test set accuracy = 0.933000
 epoch 50/500. Took 0.5652 seconds. 
  Full-batch training loss = 0.010052, test loss = 0.258790
  Training set accuracy = 1.000000, Test set accuracy = 0.932700
 epoch 51/500. Took 0.56293 seconds. 
  Full-batch training loss = 0.009801, test loss = 0.259366
  Training set accuracy = 1.000000, Test set accuracy = 0.933100
 epoch 52/500. Took 0.55702 seconds. 
  Full-batch training loss = 0.009541, test loss = 0.259076
  Training set accuracy = 1.000000, Test set accuracy = 0.932300
 epoch 53/500. Took 0.55583 seconds. 
  Full-batch training loss = 0.009248, test loss = 0.260070
  Training set accuracy = 1.000000, Test set accuracy = 0.933400
 epoch 54/500. Took 0.55671 seconds. 
  Full-batch training loss = 0.008925, test loss = 0.260251
  Training set accuracy = 1.000000, Test set accuracy = 0.933500
 epoch 55/500. Took 0.55646 seconds. 
  Full-batch training loss = 0.008668, test loss = 0.260227
  Training set accuracy = 1.000000, Test set accuracy = 0.933300
 epoch 56/500. Took 0.55693 seconds. 
  Full-batch training loss = 0.008516, test loss = 0.261573
  Training set accuracy = 1.000000, Test set accuracy = 0.933600
 epoch 57/500. Took 0.56584 seconds. 
  Full-batch training loss = 0.008248, test loss = 0.261707
  Training set accuracy = 1.000000, Test set accuracy = 0.932800
 epoch 58/500. Took 0.5564 seconds. 
  Full-batch training loss = 0.008007, test loss = 0.262502
  Training set accuracy = 1.000000, Test set accuracy = 0.933300
 epoch 59/500. Took 0.55752 seconds. 
  Full-batch training loss = 0.007794, test loss = 0.262534
  Training set accuracy = 1.000000, Test set accuracy = 0.932600
 epoch 60/500. Took 0.5648 seconds. 
  Full-batch training loss = 0.007599, test loss = 0.262503
  Training set accuracy = 1.000000, Test set accuracy = 0.932900
 epoch 61/500. Took 0.55729 seconds. 
  Full-batch training loss = 0.007416, test loss = 0.263340
  Training set accuracy = 1.000000, Test set accuracy = 0.933200
 epoch 62/500. Took 0.55392 seconds. 
  Full-batch training loss = 0.007229, test loss = 0.263746
  Training set accuracy = 1.000000, Test set accuracy = 0.932900
 epoch 63/500. Took 0.55733 seconds. 
  Full-batch training loss = 0.007104, test loss = 0.264592
  Training set accuracy = 1.000000, Test set accuracy = 0.933400
 epoch 64/500. Took 0.55885 seconds. 
  Full-batch training loss = 0.006896, test loss = 0.264353
  Training set accuracy = 1.000000, Test set accuracy = 0.933800
 epoch 65/500. Took 0.55763 seconds. 
  Full-batch training loss = 0.006741, test loss = 0.265153
  Training set accuracy = 1.000000, Test set accuracy = 0.933500
 epoch 66/500. Took 0.55899 seconds. 
  Full-batch training loss = 0.006583, test loss = 0.265402
  Training set accuracy = 1.000000, Test set accuracy = 0.933900
 epoch 67/500. Took 0.5597 seconds. 
  Full-batch training loss = 0.006459, test loss = 0.265970
  Training set accuracy = 1.000000, Test set accuracy = 0.932900
 epoch 68/500. Took 0.55562 seconds. 
  Full-batch training loss = 0.006296, test loss = 0.266147
  Training set accuracy = 1.000000, Test set accuracy = 0.934200
 epoch 69/500. Took 0.55372 seconds. 
  Full-batch training loss = 0.006166, test loss = 0.266644
  Training set accuracy = 1.000000, Test set accuracy = 0.933500
 epoch 70/500. Took 0.56383 seconds. 
  Full-batch training loss = 0.006033, test loss = 0.266993
  Training set accuracy = 1.000000, Test set accuracy = 0.934100
 epoch 71/500. Took 0.56522 seconds. 
  Full-batch training loss = 0.005912, test loss = 0.266994
  Training set accuracy = 1.000000, Test set accuracy = 0.934300
 epoch 72/500. Took 0.56496 seconds. 
  Full-batch training loss = 0.005801, test loss = 0.267679
  Training set accuracy = 1.000000, Test set accuracy = 0.933200
 epoch 73/500. Took 0.55913 seconds. 
  Full-batch training loss = 0.005670, test loss = 0.267879
  Training set accuracy = 1.000000, Test set accuracy = 0.933800
 epoch 74/500. Took 0.56529 seconds. 
  Full-batch training loss = 0.005561, test loss = 0.267929
  Training set accuracy = 1.000000, Test set accuracy = 0.934200
 epoch 75/500. Took 0.56066 seconds. 
  Full-batch training loss = 0.005449, test loss = 0.268471
  Training set accuracy = 1.000000, Test set accuracy = 0.934400
 epoch 76/500. Took 0.56155 seconds. 
  Full-batch training loss = 0.005356, test loss = 0.269283
  Training set accuracy = 1.000000, Test set accuracy = 0.934400
 epoch 77/500. Took 0.55237 seconds. 
  Full-batch training loss = 0.005249, test loss = 0.269360
  Training set accuracy = 1.000000, Test set accuracy = 0.934000
 epoch 78/500. Took 0.55909 seconds. 
  Full-batch training loss = 0.005150, test loss = 0.269677
  Training set accuracy = 1.000000, Test set accuracy = 0.934500
 epoch 79/500. Took 0.62515 seconds. 
  Full-batch training loss = 0.005061, test loss = 0.269892
  Training set accuracy = 1.000000, Test set accuracy = 0.934300
 epoch 80/500. Took 0.55342 seconds. 
  Full-batch training loss = 0.004973, test loss = 0.270054
  Training set accuracy = 1.000000, Test set accuracy = 0.933800
 epoch 81/500. Took 0.55605 seconds. 
  Full-batch training loss = 0.004875, test loss = 0.270628
  Training set accuracy = 1.000000, Test set accuracy = 0.934400
 epoch 82/500. Took 0.55519 seconds. 
  Full-batch training loss = 0.004790, test loss = 0.271027
  Training set accuracy = 1.000000, Test set accuracy = 0.934200
 epoch 83/500. Took 0.55709 seconds. 
  Full-batch training loss = 0.004710, test loss = 0.271600
  Training set accuracy = 1.000000, Test set accuracy = 0.934300
 epoch 84/500. Took 0.5546 seconds. 
  Full-batch training loss = 0.004632, test loss = 0.271430
  Training set accuracy = 1.000000, Test set accuracy = 0.934300
 epoch 85/500. Took 0.55562 seconds. 
  Full-batch training loss = 0.004550, test loss = 0.271737
  Training set accuracy = 1.000000, Test set accuracy = 0.934400
 epoch 86/500. Took 0.55734 seconds. 
  Full-batch training loss = 0.004481, test loss = 0.272153
  Training set accuracy = 1.000000, Test set accuracy = 0.933900
 epoch 87/500. Took 0.55819 seconds. 
  Full-batch training loss = 0.004404, test loss = 0.272709
  Training set accuracy = 1.000000, Test set accuracy = 0.934200
 epoch 88/500. Took 0.56199 seconds. 
  Full-batch training loss = 0.004332, test loss = 0.272803
  Training set accuracy = 1.000000, Test set accuracy = 0.934600
 epoch 89/500. Took 0.56708 seconds. 
  Full-batch training loss = 0.004262, test loss = 0.273146
  Training set accuracy = 1.000000, Test set accuracy = 0.934200
 epoch 90/500. Took 0.55954 seconds. 
  Full-batch training loss = 0.004194, test loss = 0.273444
  Training set accuracy = 1.000000, Test set accuracy = 0.934500
 epoch 91/500. Took 0.56733 seconds. 
  Full-batch training loss = 0.004130, test loss = 0.273960
  Training set accuracy = 1.000000, Test set accuracy = 0.934300
 epoch 92/500. Took 0.55823 seconds. 
  Full-batch training loss = 0.004069, test loss = 0.273995
  Training set accuracy = 1.000000, Test set accuracy = 0.934600
 epoch 93/500. Took 0.55678 seconds. 
  Full-batch training loss = 0.004007, test loss = 0.274274
  Training set accuracy = 1.000000, Test set accuracy = 0.934100
 epoch 94/500. Took 0.55701 seconds. 
  Full-batch training loss = 0.003947, test loss = 0.274635
  Training set accuracy = 1.000000, Test set accuracy = 0.934500
 epoch 95/500. Took 0.55597 seconds. 
  Full-batch training loss = 0.003886, test loss = 0.274888
  Training set accuracy = 1.000000, Test set accuracy = 0.934400
 epoch 96/500. Took 0.55824 seconds. 
  Full-batch training loss = 0.003830, test loss = 0.275380
  Training set accuracy = 1.000000, Test set accuracy = 0.934300
 epoch 97/500. Took 0.55789 seconds. 
  Full-batch training loss = 0.003774, test loss = 0.275589
  Training set accuracy = 1.000000, Test set accuracy = 0.934500
 epoch 98/500. Took 0.5588 seconds. 
  Full-batch training loss = 0.003721, test loss = 0.275920
  Training set accuracy = 1.000000, Test set accuracy = 0.934200
 epoch 99/500. Took 0.55741 seconds. 
  Full-batch training loss = 0.003670, test loss = 0.276201
  Training set accuracy = 1.000000, Test set accuracy = 0.934100
 epoch 100/500. Took 0.56095 seconds. 
  Full-batch training loss = 0.003617, test loss = 0.276262
  Training set accuracy = 1.000000, Test set accuracy = 0.934600
 epoch 101/500. Took 0.55922 seconds. 
  Full-batch training loss = 0.003573, test loss = 0.276787
  Training set accuracy = 1.000000, Test set accuracy = 0.934000
 epoch 102/500. Took 0.55874 seconds. 
  Full-batch training loss = 0.003520, test loss = 0.276752
  Training set accuracy = 1.000000, Test set accuracy = 0.934800
 epoch 103/500. Took 0.56094 seconds. 
  Full-batch training loss = 0.003472, test loss = 0.277211
  Training set accuracy = 1.000000, Test set accuracy = 0.934400
 epoch 104/500. Took 0.55459 seconds. 
  Full-batch training loss = 0.003426, test loss = 0.277342
  Training set accuracy = 1.000000, Test set accuracy = 0.934400
 epoch 105/500. Took 0.55622 seconds. 
  Full-batch training loss = 0.003380, test loss = 0.277748
  Training set accuracy = 1.000000, Test set accuracy = 0.934400
 epoch 106/500. Took 0.55466 seconds. 
  Full-batch training loss = 0.003336, test loss = 0.277848
  Training set accuracy = 1.000000, Test set accuracy = 0.934500
 epoch 107/500. Took 0.55576 seconds. 
  Full-batch training loss = 0.003293, test loss = 0.278148
  Training set accuracy = 1.000000, Test set accuracy = 0.934500
 epoch 108/500. Took 0.56146 seconds. 
  Full-batch training loss = 0.003251, test loss = 0.278441
  Training set accuracy = 1.000000, Test set accuracy = 0.934300
 epoch 109/500. Took 0.56071 seconds. 
  Full-batch training loss = 0.003208, test loss = 0.278687
  Training set accuracy = 1.000000, Test set accuracy = 0.934500
 epoch 110/500. Took 0.55665 seconds. 
  Full-batch training loss = 0.003168, test loss = 0.278863
  Training set accuracy = 1.000000, Test set accuracy = 0.934200
 epoch 111/500. Took 0.55859 seconds. 
  Full-batch training loss = 0.003130, test loss = 0.278921
  Training set accuracy = 1.000000, Test set accuracy = 0.934500
 epoch 112/500. Took 0.55574 seconds. 
  Full-batch training loss = 0.003093, test loss = 0.279388
  Training set accuracy = 1.000000, Test set accuracy = 0.934400
 epoch 113/500. Took 0.5565 seconds. 
  Full-batch training loss = 0.003053, test loss = 0.279712
  Training set accuracy = 1.000000, Test set accuracy = 0.934300
 epoch 114/500. Took 0.56429 seconds. 
  Full-batch training loss = 0.003018, test loss = 0.279837
  Training set accuracy = 1.000000, Test set accuracy = 0.934600
 epoch 115/500. Took 0.56062 seconds. 
  Full-batch training loss = 0.002982, test loss = 0.280154
  Training set accuracy = 1.000000, Test set accuracy = 0.934500
 epoch 116/500. Took 0.56507 seconds. 
  Full-batch training loss = 0.002946, test loss = 0.280258
  Training set accuracy = 1.000000, Test set accuracy = 0.934600
 epoch 117/500. Took 0.57029 seconds. 
  Full-batch training loss = 0.002910, test loss = 0.280523
  Training set accuracy = 1.000000, Test set accuracy = 0.934700
 epoch 118/500. Took 0.5529 seconds. 
  Full-batch training loss = 0.002878, test loss = 0.280870
  Training set accuracy = 1.000000, Test set accuracy = 0.934400
 epoch 119/500. Took 0.55869 seconds. 
  Full-batch training loss = 0.002845, test loss = 0.280946
  Training set accuracy = 1.000000, Test set accuracy = 0.934400
 epoch 120/500. Took 0.56106 seconds. 
  Full-batch training loss = 0.002813, test loss = 0.281060
  Training set accuracy = 1.000000, Test set accuracy = 0.934300
 epoch 121/500. Took 0.55679 seconds. 
  Full-batch training loss = 0.002781, test loss = 0.281403
  Training set accuracy = 1.000000, Test set accuracy = 0.934700
 epoch 122/500. Took 0.55797 seconds. 
  Full-batch training loss = 0.002751, test loss = 0.281697
  Training set accuracy = 1.000000, Test set accuracy = 0.934100
 epoch 123/500. Took 0.56443 seconds. 
  Full-batch training loss = 0.002719, test loss = 0.281916
  Training set accuracy = 1.000000, Test set accuracy = 0.934500
 epoch 124/500. Took 0.56727 seconds. 
  Full-batch training loss = 0.002690, test loss = 0.282223
  Training set accuracy = 1.000000, Test set accuracy = 0.934600
 epoch 125/500. Took 0.56029 seconds. 
  Full-batch training loss = 0.002660, test loss = 0.282314
  Training set accuracy = 1.000000, Test set accuracy = 0.934700
 epoch 126/500. Took 0.56698 seconds. 
  Full-batch training loss = 0.002632, test loss = 0.282635
  Training set accuracy = 1.000000, Test set accuracy = 0.934600
 epoch 127/500. Took 0.56085 seconds. 
  Full-batch training loss = 0.002604, test loss = 0.282587
  Training set accuracy = 1.000000, Test set accuracy = 0.934700
 epoch 128/500. Took 0.56487 seconds. 
  Full-batch training loss = 0.002576, test loss = 0.283104
  Training set accuracy = 1.000000, Test set accuracy = 0.934500
 epoch 129/500. Took 0.57066 seconds. 
  Full-batch training loss = 0.002549, test loss = 0.283097
  Training set accuracy = 1.000000, Test set accuracy = 0.934800
 epoch 130/500. Took 0.55585 seconds. 
  Full-batch training loss = 0.002523, test loss = 0.283226
  Training set accuracy = 1.000000, Test set accuracy = 0.934600
 epoch 131/500. Took 0.56288 seconds. 
  Full-batch training loss = 0.002497, test loss = 0.283522
  Training set accuracy = 1.000000, Test set accuracy = 0.934600
 epoch 132/500. Took 0.55971 seconds. 
  Full-batch training loss = 0.002471, test loss = 0.283660
  Training set accuracy = 1.000000, Test set accuracy = 0.934500
 epoch 133/500. Took 0.56495 seconds. 
  Full-batch training loss = 0.002446, test loss = 0.283960
  Training set accuracy = 1.000000, Test set accuracy = 0.934700
 epoch 134/500. Took 0.56047 seconds. 
  Full-batch training loss = 0.002421, test loss = 0.284052
  Training set accuracy = 1.000000, Test set accuracy = 0.934500
 epoch 135/500. Took 0.56671 seconds. 
  Full-batch training loss = 0.002398, test loss = 0.284290
  Training set accuracy = 1.000000, Test set accuracy = 0.934500
 epoch 136/500. Took 0.56953 seconds. 
  Full-batch training loss = 0.002374, test loss = 0.284504
  Training set accuracy = 1.000000, Test set accuracy = 0.934700
 epoch 137/500. Took 0.55456 seconds. 
  Full-batch training loss = 0.002351, test loss = 0.284818
  Training set accuracy = 1.000000, Test set accuracy = 0.934500
 epoch 138/500. Took 0.55863 seconds. 
  Full-batch training loss = 0.002328, test loss = 0.285049
  Training set accuracy = 1.000000, Test set accuracy = 0.934600
 epoch 139/500. Took 0.55402 seconds. 
  Full-batch training loss = 0.002305, test loss = 0.285070
  Training set accuracy = 1.000000, Test set accuracy = 0.934500
 epoch 140/500. Took 0.5556 seconds. 
  Full-batch training loss = 0.002283, test loss = 0.285288
  Training set accuracy = 1.000000, Test set accuracy = 0.934700
 epoch 141/500. Took 0.55226 seconds. 
  Full-batch training loss = 0.002262, test loss = 0.285610
  Training set accuracy = 1.000000, Test set accuracy = 0.934400
 epoch 142/500. Took 0.55907 seconds. 
  Full-batch training loss = 0.002240, test loss = 0.285707
  Training set accuracy = 1.000000, Test set accuracy = 0.934700
 epoch 143/500. Took 0.56478 seconds. 
  Full-batch training loss = 0.002220, test loss = 0.286032
  Training set accuracy = 1.000000, Test set accuracy = 0.934600
 epoch 144/500. Took 0.55682 seconds. 
  Full-batch training loss = 0.002199, test loss = 0.286288
  Training set accuracy = 1.000000, Test set accuracy = 0.934800
 epoch 145/500. Took 0.55633 seconds. 
  Full-batch training loss = 0.002178, test loss = 0.286267
  Training set accuracy = 1.000000, Test set accuracy = 0.934600
 epoch 146/500. Took 0.5614 seconds. 
  Full-batch training loss = 0.002159, test loss = 0.286436
  Training set accuracy = 1.000000, Test set accuracy = 0.934600
 epoch 147/500. Took 0.56683 seconds. 
  Full-batch training loss = 0.002139, test loss = 0.286704
  Training set accuracy = 1.000000, Test set accuracy = 0.934700
 epoch 148/500. Took 0.55513 seconds. 
  Full-batch training loss = 0.002120, test loss = 0.286867
  Training set accuracy = 1.000000, Test set accuracy = 0.934500
 epoch 149/500. Took 0.5617 seconds. 
  Full-batch training loss = 0.002102, test loss = 0.287055
  Training set accuracy = 1.000000, Test set accuracy = 0.934500
 epoch 150/500. Took 0.55325 seconds. 
  Full-batch training loss = 0.002083, test loss = 0.287216
  Training set accuracy = 1.000000, Test set accuracy = 0.934500
 epoch 151/500. Took 0.56235 seconds. 
  Full-batch training loss = 0.002064, test loss = 0.287452
  Training set accuracy = 1.000000, Test set accuracy = 0.934600
 epoch 152/500. Took 0.56033 seconds. 
  Full-batch training loss = 0.002046, test loss = 0.287554
  Training set accuracy = 1.000000, Test set accuracy = 0.934700
 epoch 153/500. Took 0.56003 seconds. 
  Full-batch training loss = 0.002028, test loss = 0.287540
  Training set accuracy = 1.000000, Test set accuracy = 0.934300
 epoch 154/500. Took 0.5599 seconds. 
  Full-batch training loss = 0.002011, test loss = 0.287897
  Training set accuracy = 1.000000, Test set accuracy = 0.934500
 epoch 155/500. Took 0.55648 seconds. 
  Full-batch training loss = 0.001993, test loss = 0.288008
  Training set accuracy = 1.000000, Test set accuracy = 0.934400
 epoch 156/500. Took 0.55563 seconds. 
  Full-batch training loss = 0.001977, test loss = 0.288234
  Training set accuracy = 1.000000, Test set accuracy = 0.934500
 epoch 157/500. Took 0.55398 seconds. 
  Full-batch training loss = 0.001959, test loss = 0.288441
  Training set accuracy = 1.000000, Test set accuracy = 0.934800
 epoch 158/500. Took 0.55635 seconds. 
  Full-batch training loss = 0.001944, test loss = 0.288542
  Training set accuracy = 1.000000, Test set accuracy = 0.934600
 epoch 159/500. Took 0.5607 seconds. 
  Full-batch training loss = 0.001928, test loss = 0.288820
  Training set accuracy = 1.000000, Test set accuracy = 0.934600
 epoch 160/500. Took 0.55452 seconds. 
  Full-batch training loss = 0.001911, test loss = 0.288996
  Training set accuracy = 1.000000, Test set accuracy = 0.934400
 epoch 161/500. Took 0.55848 seconds. 
  Full-batch training loss = 0.001896, test loss = 0.289112
  Training set accuracy = 1.000000, Test set accuracy = 0.934700
 epoch 162/500. Took 0.56092 seconds. 
  Full-batch training loss = 0.001880, test loss = 0.289181
  Training set accuracy = 1.000000, Test set accuracy = 0.934400
 epoch 163/500. Took 0.56476 seconds. 
  Full-batch training loss = 0.001865, test loss = 0.289366
  Training set accuracy = 1.000000, Test set accuracy = 0.934700
 epoch 164/500. Took 0.55583 seconds. 
  Full-batch training loss = 0.001850, test loss = 0.289488
  Training set accuracy = 1.000000, Test set accuracy = 0.934600
 epoch 165/500. Took 0.55829 seconds. 
  Full-batch training loss = 0.001835, test loss = 0.289734
  Training set accuracy = 1.000000, Test set accuracy = 0.934400
 epoch 166/500. Took 0.56199 seconds. 
  Full-batch training loss = 0.001821, test loss = 0.289892
  Training set accuracy = 1.000000, Test set accuracy = 0.934500
 epoch 167/500. Took 0.55767 seconds. 
  Full-batch training loss = 0.001807, test loss = 0.290199
  Training set accuracy = 1.000000, Test set accuracy = 0.934800
 epoch 168/500. Took 0.57144 seconds. 
  Full-batch training loss = 0.001792, test loss = 0.290204
  Training set accuracy = 1.000000, Test set accuracy = 0.934500
 epoch 169/500. Took 0.5598 seconds. 
  Full-batch training loss = 0.001778, test loss = 0.290524
  Training set accuracy = 1.000000, Test set accuracy = 0.934500
 epoch 170/500. Took 0.55429 seconds. 
  Full-batch training loss = 0.001764, test loss = 0.290576
  Training set accuracy = 1.000000, Test set accuracy = 0.934400
 epoch 171/500. Took 0.55805 seconds. 
  Full-batch training loss = 0.001751, test loss = 0.290686
  Training set accuracy = 1.000000, Test set accuracy = 0.934700
 epoch 172/500. Took 0.56303 seconds. 
  Full-batch training loss = 0.001737, test loss = 0.290867
  Training set accuracy = 1.000000, Test set accuracy = 0.934600
 epoch 173/500. Took 0.56255 seconds. 
  Full-batch training loss = 0.001724, test loss = 0.291115
  Training set accuracy = 1.000000, Test set accuracy = 0.934600
 epoch 174/500. Took 0.562 seconds. 
  Full-batch training loss = 0.001711, test loss = 0.291197
  Training set accuracy = 1.000000, Test set accuracy = 0.934600
 epoch 175/500. Took 0.55489 seconds. 
  Full-batch training loss = 0.001698, test loss = 0.291404
  Training set accuracy = 1.000000, Test set accuracy = 0.934500
 epoch 176/500. Took 0.55886 seconds. 
  Full-batch training loss = 0.001687, test loss = 0.291532
  Training set accuracy = 1.000000, Test set accuracy = 0.934600
 epoch 177/500. Took 0.55723 seconds. 
  Full-batch training loss = 0.001674, test loss = 0.291709
  Training set accuracy = 1.000000, Test set accuracy = 0.934700
 epoch 178/500. Took 0.55681 seconds. 
  Full-batch training loss = 0.001661, test loss = 0.291795
  Training set accuracy = 1.000000, Test set accuracy = 0.934400
 epoch 179/500. Took 0.55828 seconds. 
  Full-batch training loss = 0.001649, test loss = 0.291931
  Training set accuracy = 1.000000, Test set accuracy = 0.934500
 epoch 180/500. Took 0.54967 seconds. 
  Full-batch training loss = 0.001637, test loss = 0.292209
  Training set accuracy = 1.000000, Test set accuracy = 0.934700
 epoch 181/500. Took 0.55756 seconds. 
  Full-batch training loss = 0.001625, test loss = 0.292243
  Training set accuracy = 1.000000, Test set accuracy = 0.934500
 epoch 182/500. Took 0.55175 seconds. 
  Full-batch training loss = 0.001613, test loss = 0.292420
  Training set accuracy = 1.000000, Test set accuracy = 0.934700
 epoch 183/500. Took 0.55748 seconds. 
  Full-batch training loss = 0.001602, test loss = 0.292640
  Training set accuracy = 1.000000, Test set accuracy = 0.934700
 epoch 184/500. Took 0.56439 seconds. 
  Full-batch training loss = 0.001591, test loss = 0.292811
  Training set accuracy = 1.000000, Test set accuracy = 0.934500
 epoch 185/500. Took 0.61616 seconds. 
  Full-batch training loss = 0.001579, test loss = 0.292891
  Training set accuracy = 1.000000, Test set accuracy = 0.934800
 epoch 186/500. Took 0.56376 seconds. 
  Full-batch training loss = 0.001569, test loss = 0.292934
  Training set accuracy = 1.000000, Test set accuracy = 0.934400
 epoch 187/500. Took 0.55647 seconds. 
  Full-batch training loss = 0.001558, test loss = 0.293162
  Training set accuracy = 1.000000, Test set accuracy = 0.934700
 epoch 188/500. Took 0.55491 seconds. 
  Full-batch training loss = 0.001547, test loss = 0.293333
  Training set accuracy = 1.000000, Test set accuracy = 0.934600
 epoch 189/500. Took 0.55594 seconds. 
  Full-batch training loss = 0.001536, test loss = 0.293395
  Training set accuracy = 1.000000, Test set accuracy = 0.934900
 epoch 190/500. Took 0.57218 seconds. 
  Full-batch training loss = 0.001525, test loss = 0.293524
  Training set accuracy = 1.000000, Test set accuracy = 0.934400
 epoch 191/500. Took 0.55381 seconds. 
  Full-batch training loss = 0.001515, test loss = 0.293742
  Training set accuracy = 1.000000, Test set accuracy = 0.934500
 epoch 192/500. Took 0.5562 seconds. 
  Full-batch training loss = 0.001505, test loss = 0.293864
  Training set accuracy = 1.000000, Test set accuracy = 0.934700
 epoch 193/500. Took 0.55446 seconds. 
  Full-batch training loss = 0.001495, test loss = 0.293886
  Training set accuracy = 1.000000, Test set accuracy = 0.934700
 epoch 194/500. Took 0.55373 seconds. 
  Full-batch training loss = 0.001485, test loss = 0.294210
  Training set accuracy = 1.000000, Test set accuracy = 0.934700
 epoch 195/500. Took 0.55852 seconds. 
  Full-batch training loss = 0.001475, test loss = 0.294253
  Training set accuracy = 1.000000, Test set accuracy = 0.934500
 epoch 196/500. Took 0.55952 seconds. 
  Full-batch training loss = 0.001465, test loss = 0.294492
  Training set accuracy = 1.000000, Test set accuracy = 0.934500
 epoch 197/500. Took 0.56245 seconds. 
  Full-batch training loss = 0.001455, test loss = 0.294635
  Training set accuracy = 1.000000, Test set accuracy = 0.934700
 epoch 198/500. Took 0.55723 seconds. 
  Full-batch training loss = 0.001446, test loss = 0.294700
  Training set accuracy = 1.000000, Test set accuracy = 0.934600
 epoch 199/500. Took 0.55286 seconds. 
  Full-batch training loss = 0.001437, test loss = 0.294782
  Training set accuracy = 1.000000, Test set accuracy = 0.934600
 epoch 200/500. Took 0.5513 seconds. 
  Full-batch training loss = 0.001427, test loss = 0.294988
  Training set accuracy = 1.000000, Test set accuracy = 0.934700
 epoch 201/500. Took 0.55138 seconds. 
  Full-batch training loss = 0.001418, test loss = 0.295112
  Training set accuracy = 1.000000, Test set accuracy = 0.934700
 epoch 202/500. Took 0.55691 seconds. 
  Full-batch training loss = 0.001409, test loss = 0.295271
  Training set accuracy = 1.000000, Test set accuracy = 0.934700
 epoch 203/500. Took 0.55967 seconds. 
  Full-batch training loss = 0.001400, test loss = 0.295407
  Training set accuracy = 1.000000, Test set accuracy = 0.934600
 epoch 204/500. Took 0.55558 seconds. 
  Full-batch training loss = 0.001391, test loss = 0.295461
  Training set accuracy = 1.000000, Test set accuracy = 0.934800
 epoch 205/500. Took 0.55796 seconds. 
  Full-batch training loss = 0.001382, test loss = 0.295608
  Training set accuracy = 1.000000, Test set accuracy = 0.934700
 epoch 206/500. Took 0.55988 seconds. 
  Full-batch training loss = 0.001374, test loss = 0.295788
  Training set accuracy = 1.000000, Test set accuracy = 0.934600
 epoch 207/500. Took 0.56693 seconds. 
  Full-batch training loss = 0.001365, test loss = 0.295841
  Training set accuracy = 1.000000, Test set accuracy = 0.934700
 epoch 208/500. Took 0.55771 seconds. 
  Full-batch training loss = 0.001357, test loss = 0.296065
  Training set accuracy = 1.000000, Test set accuracy = 0.934800
 epoch 209/500. Took 0.55358 seconds. 
  Full-batch training loss = 0.001348, test loss = 0.296211
  Training set accuracy = 1.000000, Test set accuracy = 0.934800
 epoch 210/500. Took 0.55387 seconds. 
  Full-batch training loss = 0.001340, test loss = 0.296239
  Training set accuracy = 1.000000, Test set accuracy = 0.934700
 epoch 211/500. Took 0.55641 seconds. 
  Full-batch training loss = 0.001332, test loss = 0.296358
  Training set accuracy = 1.000000, Test set accuracy = 0.934700
 epoch 212/500. Took 0.55793 seconds. 
  Full-batch training loss = 0.001323, test loss = 0.296543
  Training set accuracy = 1.000000, Test set accuracy = 0.934800
 epoch 213/500. Took 0.58425 seconds. 
  Full-batch training loss = 0.001316, test loss = 0.296658
  Training set accuracy = 1.000000, Test set accuracy = 0.934700
 epoch 214/500. Took 0.5599 seconds. 
  Full-batch training loss = 0.001308, test loss = 0.296843
  Training set accuracy = 1.000000, Test set accuracy = 0.934800
 epoch 215/500. Took 0.56201 seconds. 
  Full-batch training loss = 0.001300, test loss = 0.297009
  Training set accuracy = 1.000000, Test set accuracy = 0.934800
 epoch 216/500. Took 0.55827 seconds. 
  Full-batch training loss = 0.001292, test loss = 0.297069
  Training set accuracy = 1.000000, Test set accuracy = 0.934600
 epoch 217/500. Took 0.5634 seconds. 
  Full-batch training loss = 0.001285, test loss = 0.297151
  Training set accuracy = 1.000000, Test set accuracy = 0.934700
 epoch 218/500. Took 0.55928 seconds. 
  Full-batch training loss = 0.001277, test loss = 0.297265
  Training set accuracy = 1.000000, Test set accuracy = 0.934700
 epoch 219/500. Took 0.56444 seconds. 
  Full-batch training loss = 0.001269, test loss = 0.297428
  Training set accuracy = 1.000000, Test set accuracy = 0.934700
 epoch 220/500. Took 0.55926 seconds. 
  Full-batch training loss = 0.001262, test loss = 0.297557
  Training set accuracy = 1.000000, Test set accuracy = 0.934500
 epoch 221/500. Took 0.55798 seconds. 
  Full-batch training loss = 0.001255, test loss = 0.297691
  Training set accuracy = 1.000000, Test set accuracy = 0.934800
 epoch 222/500. Took 0.55723 seconds. 
  Full-batch training loss = 0.001248, test loss = 0.297868
  Training set accuracy = 1.000000, Test set accuracy = 0.934600
 epoch 223/500. Took 0.55808 seconds. 
  Full-batch training loss = 0.001240, test loss = 0.297949
  Training set accuracy = 1.000000, Test set accuracy = 0.934700
 epoch 224/500. Took 0.55658 seconds. 
  Full-batch training loss = 0.001233, test loss = 0.298059
  Training set accuracy = 1.000000, Test set accuracy = 0.934700
 epoch 225/500. Took 0.55529 seconds. 
  Full-batch training loss = 0.001226, test loss = 0.298201
  Training set accuracy = 1.000000, Test set accuracy = 0.934900
 epoch 226/500. Took 0.55555 seconds. 
  Full-batch training loss = 0.001219, test loss = 0.298302
  Training set accuracy = 1.000000, Test set accuracy = 0.934600
 epoch 227/500. Took 0.56679 seconds. 
  Full-batch training loss = 0.001212, test loss = 0.298438
  Training set accuracy = 1.000000, Test set accuracy = 0.934700
 epoch 228/500. Took 0.56416 seconds. 
  Full-batch training loss = 0.001206, test loss = 0.298516
  Training set accuracy = 1.000000, Test set accuracy = 0.934700
 epoch 229/500. Took 0.55136 seconds. 
  Full-batch training loss = 0.001199, test loss = 0.298651
  Training set accuracy = 1.000000, Test set accuracy = 0.934700
 epoch 230/500. Took 0.56075 seconds. 
  Full-batch training loss = 0.001192, test loss = 0.298783
  Training set accuracy = 1.000000, Test set accuracy = 0.934700
 epoch 231/500. Took 0.55746 seconds. 
  Full-batch training loss = 0.001185, test loss = 0.298895
  Training set accuracy = 1.000000, Test set accuracy = 0.934600
 epoch 232/500. Took 0.55709 seconds. 
  Full-batch training loss = 0.001179, test loss = 0.298991
  Training set accuracy = 1.000000, Test set accuracy = 0.934700
 epoch 233/500. Took 0.57133 seconds. 
  Full-batch training loss = 0.001173, test loss = 0.299209
  Training set accuracy = 1.000000, Test set accuracy = 0.934700
 epoch 234/500. Took 0.58698 seconds. 
  Full-batch training loss = 0.001166, test loss = 0.299176
  Training set accuracy = 1.000000, Test set accuracy = 0.934700
 epoch 235/500. Took 0.55921 seconds. 
  Full-batch training loss = 0.001160, test loss = 0.299270
  Training set accuracy = 1.000000, Test set accuracy = 0.934800
 epoch 236/500. Took 0.56722 seconds. 
  Full-batch training loss = 0.001154, test loss = 0.299421
  Training set accuracy = 1.000000, Test set accuracy = 0.934700
 epoch 237/500. Took 0.56153 seconds. 
  Full-batch training loss = 0.001147, test loss = 0.299578
  Training set accuracy = 1.000000, Test set accuracy = 0.934600
 epoch 238/500. Took 0.56301 seconds. 
  Full-batch training loss = 0.001141, test loss = 0.299705
  Training set accuracy = 1.000000, Test set accuracy = 0.934700
 epoch 239/500. Took 0.55827 seconds. 
  Full-batch training loss = 0.001135, test loss = 0.299782
  Training set accuracy = 1.000000, Test set accuracy = 0.934600
 epoch 240/500. Took 0.64068 seconds. 
  Full-batch training loss = 0.001129, test loss = 0.299947
  Training set accuracy = 1.000000, Test set accuracy = 0.934700
 epoch 241/500. Took 0.56268 seconds. 
  Full-batch training loss = 0.001123, test loss = 0.300014
  Training set accuracy = 1.000000, Test set accuracy = 0.934800
 epoch 242/500. Took 0.56394 seconds. 
  Full-batch training loss = 0.001117, test loss = 0.300142
  Training set accuracy = 1.000000, Test set accuracy = 0.934700
 epoch 243/500. Took 0.55445 seconds. 
  Full-batch training loss = 0.001111, test loss = 0.300255
  Training set accuracy = 1.000000, Test set accuracy = 0.934700
 epoch 244/500. Took 0.5655 seconds. 
  Full-batch training loss = 0.001105, test loss = 0.300438
  Training set accuracy = 1.000000, Test set accuracy = 0.934800
 epoch 245/500. Took 0.55676 seconds. 
  Full-batch training loss = 0.001100, test loss = 0.300477
  Training set accuracy = 1.000000, Test set accuracy = 0.934700
 epoch 246/500. Took 0.55632 seconds. 
  Full-batch training loss = 0.001094, test loss = 0.300603
  Training set accuracy = 1.000000, Test set accuracy = 0.934700
 epoch 247/500. Took 0.55814 seconds. 
  Full-batch training loss = 0.001088, test loss = 0.300760
  Training set accuracy = 1.000000, Test set accuracy = 0.934800
 epoch 248/500. Took 0.55863 seconds. 
  Full-batch training loss = 0.001083, test loss = 0.300839
  Training set accuracy = 1.000000, Test set accuracy = 0.934700
 epoch 249/500. Took 0.57583 seconds. 
  Full-batch training loss = 0.001077, test loss = 0.300951
  Training set accuracy = 1.000000, Test set accuracy = 0.934800
 epoch 250/500. Took 0.55622 seconds. 
  Full-batch training loss = 0.001072, test loss = 0.301029
  Training set accuracy = 1.000000, Test set accuracy = 0.934600
 epoch 251/500. Took 0.56206 seconds. 
  Full-batch training loss = 0.001066, test loss = 0.301048
  Training set accuracy = 1.000000, Test set accuracy = 0.934700
 epoch 252/500. Took 0.56007 seconds. 
  Full-batch training loss = 0.001061, test loss = 0.301317
  Training set accuracy = 1.000000, Test set accuracy = 0.934800
 epoch 253/500. Took 0.55635 seconds. 
  Full-batch training loss = 0.001056, test loss = 0.301435
  Training set accuracy = 1.000000, Test set accuracy = 0.934800
 epoch 254/500. Took 0.56034 seconds. 
  Full-batch training loss = 0.001050, test loss = 0.301407
  Training set accuracy = 1.000000, Test set accuracy = 0.934600
 epoch 255/500. Took 0.55746 seconds. 
  Full-batch training loss = 0.001045, test loss = 0.301573
  Training set accuracy = 1.000000, Test set accuracy = 0.934700
 epoch 256/500. Took 0.56069 seconds. 
  Full-batch training loss = 0.001040, test loss = 0.301646
  Training set accuracy = 1.000000, Test set accuracy = 0.934800
 epoch 257/500. Took 0.55755 seconds. 
  Full-batch training loss = 0.001035, test loss = 0.301769
  Training set accuracy = 1.000000, Test set accuracy = 0.934700
 epoch 258/500. Took 0.56227 seconds. 
  Full-batch training loss = 0.001030, test loss = 0.301852
  Training set accuracy = 1.000000, Test set accuracy = 0.934700
 epoch 259/500. Took 0.55696 seconds. 
  Full-batch training loss = 0.001025, test loss = 0.302075
  Training set accuracy = 1.000000, Test set accuracy = 0.934600
 epoch 260/500. Took 0.55819 seconds. 
  Full-batch training loss = 0.001020, test loss = 0.302061
  Training set accuracy = 1.000000, Test set accuracy = 0.934700
 epoch 261/500. Took 0.55637 seconds. 
  Full-batch training loss = 0.001015, test loss = 0.302198
  Training set accuracy = 1.000000, Test set accuracy = 0.934700
 epoch 262/500. Took 0.55941 seconds. 
  Full-batch training loss = 0.001010, test loss = 0.302228
  Training set accuracy = 1.000000, Test set accuracy = 0.934600
 epoch 263/500. Took 0.56606 seconds. 
  Full-batch training loss = 0.001005, test loss = 0.302446
  Training set accuracy = 1.000000, Test set accuracy = 0.934800
 epoch 264/500. Took 0.57081 seconds. 
  Full-batch training loss = 0.001000, test loss = 0.302520
  Training set accuracy = 1.000000, Test set accuracy = 0.934800
 epoch 265/500. Took 0.56595 seconds. 
  Full-batch training loss = 0.000995, test loss = 0.302599
  Training set accuracy = 1.000000, Test set accuracy = 0.934700
 epoch 266/500. Took 0.55475 seconds. 
  Full-batch training loss = 0.000991, test loss = 0.302759
  Training set accuracy = 1.000000, Test set accuracy = 0.934600
 epoch 267/500. Took 0.58083 seconds. 
  Full-batch training loss = 0.000986, test loss = 0.302767
  Training set accuracy = 1.000000, Test set accuracy = 0.934700
 epoch 268/500. Took 0.56365 seconds. 
  Full-batch training loss = 0.000981, test loss = 0.302868
  Training set accuracy = 1.000000, Test set accuracy = 0.934700
 epoch 269/500. Took 0.56698 seconds. 
  Full-batch training loss = 0.000977, test loss = 0.303026
  Training set accuracy = 1.000000, Test set accuracy = 0.934800
 epoch 270/500. Took 0.57067 seconds. 
  Full-batch training loss = 0.000972, test loss = 0.303131
  Training set accuracy = 1.000000, Test set accuracy = 0.934600
 epoch 271/500. Took 0.55755 seconds. 
  Full-batch training loss = 0.000967, test loss = 0.303202
  Training set accuracy = 1.000000, Test set accuracy = 0.934800
 epoch 272/500. Took 0.55672 seconds. 
  Full-batch training loss = 0.000963, test loss = 0.303368
  Training set accuracy = 1.000000, Test set accuracy = 0.934700
 epoch 273/500. Took 0.55494 seconds. 
  Full-batch training loss = 0.000959, test loss = 0.303426
  Training set accuracy = 1.000000, Test set accuracy = 0.934700
 epoch 274/500. Took 0.55599 seconds. 
  Full-batch training loss = 0.000954, test loss = 0.303469
  Training set accuracy = 1.000000, Test set accuracy = 0.934700
 epoch 275/500. Took 0.56142 seconds. 
  Full-batch training loss = 0.000950, test loss = 0.303629
  Training set accuracy = 1.000000, Test set accuracy = 0.934700
 epoch 276/500. Took 0.55457 seconds. 
  Full-batch training loss = 0.000945, test loss = 0.303719
  Training set accuracy = 1.000000, Test set accuracy = 0.934800
 epoch 277/500. Took 0.56108 seconds. 
  Full-batch training loss = 0.000941, test loss = 0.303819
  Training set accuracy = 1.000000, Test set accuracy = 0.934700
 epoch 278/500. Took 0.55598 seconds. 
  Full-batch training loss = 0.000937, test loss = 0.303882
  Training set accuracy = 1.000000, Test set accuracy = 0.934700
 epoch 279/500. Took 0.55245 seconds. 
  Full-batch training loss = 0.000933, test loss = 0.303998
  Training set accuracy = 1.000000, Test set accuracy = 0.934800
 epoch 280/500. Took 0.5612 seconds. 
  Full-batch training loss = 0.000928, test loss = 0.304154
  Training set accuracy = 1.000000, Test set accuracy = 0.934800
 epoch 281/500. Took 0.5654 seconds. 
  Full-batch training loss = 0.000924, test loss = 0.304126
  Training set accuracy = 1.000000, Test set accuracy = 0.934800
 epoch 282/500. Took 0.55563 seconds. 
  Full-batch training loss = 0.000920, test loss = 0.304314
  Training set accuracy = 1.000000, Test set accuracy = 0.934900
 epoch 283/500. Took 0.55897 seconds. 
  Full-batch training loss = 0.000916, test loss = 0.304430
  Training set accuracy = 1.000000, Test set accuracy = 0.934800
 epoch 284/500. Took 0.55819 seconds. 
  Full-batch training loss = 0.000912, test loss = 0.304534
  Training set accuracy = 1.000000, Test set accuracy = 0.934900
 epoch 285/500. Took 0.55654 seconds. 
  Full-batch training loss = 0.000908, test loss = 0.304568
  Training set accuracy = 1.000000, Test set accuracy = 0.934700
 epoch 286/500. Took 0.55492 seconds. 
  Full-batch training loss = 0.000904, test loss = 0.304708
  Training set accuracy = 1.000000, Test set accuracy = 0.934800
 epoch 287/500. Took 0.56812 seconds. 
  Full-batch training loss = 0.000900, test loss = 0.304752
  Training set accuracy = 1.000000, Test set accuracy = 0.934800
 epoch 288/500. Took 0.56216 seconds. 
  Full-batch training loss = 0.000896, test loss = 0.304856
  Training set accuracy = 1.000000, Test set accuracy = 0.934800
 epoch 289/500. Took 0.56496 seconds. 
  Full-batch training loss = 0.000892, test loss = 0.304909
  Training set accuracy = 1.000000, Test set accuracy = 0.934800
 epoch 290/500. Took 0.56302 seconds. 
  Full-batch training loss = 0.000888, test loss = 0.305066
  Training set accuracy = 1.000000, Test set accuracy = 0.934700
 epoch 291/500. Took 0.5584 seconds. 
  Full-batch training loss = 0.000884, test loss = 0.305084
  Training set accuracy = 1.000000, Test set accuracy = 0.934800
 epoch 292/500. Took 0.55575 seconds. 
  Full-batch training loss = 0.000881, test loss = 0.305263
  Training set accuracy = 1.000000, Test set accuracy = 0.934700
 epoch 293/500. Took 0.55584 seconds. 
  Full-batch training loss = 0.000877, test loss = 0.305288
  Training set accuracy = 1.000000, Test set accuracy = 0.934800
 epoch 294/500. Took 0.55859 seconds. 
  Full-batch training loss = 0.000873, test loss = 0.305393
  Training set accuracy = 1.000000, Test set accuracy = 0.934700
 epoch 295/500. Took 0.55536 seconds. 
  Full-batch training loss = 0.000869, test loss = 0.305487
  Training set accuracy = 1.000000, Test set accuracy = 0.934800
 epoch 296/500. Took 0.55656 seconds. 
  Full-batch training loss = 0.000866, test loss = 0.305631
  Training set accuracy = 1.000000, Test set accuracy = 0.934700
 epoch 297/500. Took 0.55923 seconds. 
  Full-batch training loss = 0.000862, test loss = 0.305718
  Training set accuracy = 1.000000, Test set accuracy = 0.934700
 epoch 298/500. Took 0.5587 seconds. 
  Full-batch training loss = 0.000858, test loss = 0.305798
  Training set accuracy = 1.000000, Test set accuracy = 0.934800
 epoch 299/500. Took 0.56845 seconds. 
  Full-batch training loss = 0.000855, test loss = 0.305876
  Training set accuracy = 1.000000, Test set accuracy = 0.934800
 epoch 300/500. Took 0.5539 seconds. 
  Full-batch training loss = 0.000851, test loss = 0.305963
  Training set accuracy = 1.000000, Test set accuracy = 0.934600
 epoch 301/500. Took 0.55289 seconds. 
  Full-batch training loss = 0.000848, test loss = 0.306039
  Training set accuracy = 1.000000, Test set accuracy = 0.934800
 epoch 302/500. Took 0.55524 seconds. 
  Full-batch training loss = 0.000844, test loss = 0.306140
  Training set accuracy = 1.000000, Test set accuracy = 0.934700
 epoch 303/500. Took 0.56009 seconds. 
  Full-batch training loss = 0.000841, test loss = 0.306165
  Training set accuracy = 1.000000, Test set accuracy = 0.934700
 epoch 304/500. Took 0.55462 seconds. 
  Full-batch training loss = 0.000837, test loss = 0.306370
  Training set accuracy = 1.000000, Test set accuracy = 0.934800
 epoch 305/500. Took 0.55944 seconds. 
  Full-batch training loss = 0.000834, test loss = 0.306402
  Training set accuracy = 1.000000, Test set accuracy = 0.934800
 epoch 306/500. Took 0.56211 seconds. 
  Full-batch training loss = 0.000830, test loss = 0.306513
  Training set accuracy = 1.000000, Test set accuracy = 0.934800
 epoch 307/500. Took 0.56434 seconds. 
  Full-batch training loss = 0.000827, test loss = 0.306627
  Training set accuracy = 1.000000, Test set accuracy = 0.934900
 epoch 308/500. Took 0.55546 seconds. 
  Full-batch training loss = 0.000823, test loss = 0.306727
  Training set accuracy = 1.000000, Test set accuracy = 0.934700
 epoch 309/500. Took 0.55787 seconds. 
  Full-batch training loss = 0.000820, test loss = 0.306751
  Training set accuracy = 1.000000, Test set accuracy = 0.934800
 epoch 310/500. Took 0.55623 seconds. 
  Full-batch training loss = 0.000817, test loss = 0.306831
  Training set accuracy = 1.000000, Test set accuracy = 0.934800
 epoch 311/500. Took 0.55506 seconds. 
  Full-batch training loss = 0.000814, test loss = 0.306952
  Training set accuracy = 1.000000, Test set accuracy = 0.934700
 epoch 312/500. Took 0.63221 seconds. 
  Full-batch training loss = 0.000810, test loss = 0.306994
  Training set accuracy = 1.000000, Test set accuracy = 0.934800
 epoch 313/500. Took 0.5566 seconds. 
  Full-batch training loss = 0.000807, test loss = 0.307112
  Training set accuracy = 1.000000, Test set accuracy = 0.934700
 epoch 314/500. Took 0.5664 seconds. 
  Full-batch training loss = 0.000804, test loss = 0.307234
  Training set accuracy = 1.000000, Test set accuracy = 0.934900
 epoch 315/500. Took 0.55392 seconds. 
  Full-batch training loss = 0.000801, test loss = 0.307264
  Training set accuracy = 1.000000, Test set accuracy = 0.934900
 epoch 316/500. Took 0.55779 seconds. 
  Full-batch training loss = 0.000797, test loss = 0.307392
  Training set accuracy = 1.000000, Test set accuracy = 0.934700
 epoch 317/500. Took 0.5568 seconds. 
  Full-batch training loss = 0.000794, test loss = 0.307466
  Training set accuracy = 1.000000, Test set accuracy = 0.934700
 epoch 318/500. Took 0.55801 seconds. 
  Full-batch training loss = 0.000791, test loss = 0.307576
  Training set accuracy = 1.000000, Test set accuracy = 0.934700
 epoch 319/500. Took 0.55498 seconds. 
  Full-batch training loss = 0.000788, test loss = 0.307660
  Training set accuracy = 1.000000, Test set accuracy = 0.934700
 epoch 320/500. Took 0.5526 seconds. 
  Full-batch training loss = 0.000785, test loss = 0.307678
  Training set accuracy = 1.000000, Test set accuracy = 0.934600
 epoch 321/500. Took 0.55657 seconds. 
  Full-batch training loss = 0.000782, test loss = 0.307789
  Training set accuracy = 1.000000, Test set accuracy = 0.934700
 epoch 322/500. Took 0.55297 seconds. 
  Full-batch training loss = 0.000779, test loss = 0.307875
  Training set accuracy = 1.000000, Test set accuracy = 0.934700
 epoch 323/500. Took 0.5635 seconds. 
  Full-batch training loss = 0.000776, test loss = 0.307913
  Training set accuracy = 1.000000, Test set accuracy = 0.934800
 epoch 324/500. Took 0.55553 seconds. 
  Full-batch training loss = 0.000773, test loss = 0.308056
  Training set accuracy = 1.000000, Test set accuracy = 0.934800
 epoch 325/500. Took 0.56621 seconds. 
  Full-batch training loss = 0.000770, test loss = 0.308129
  Training set accuracy = 1.000000, Test set accuracy = 0.934900
 epoch 326/500. Took 0.56329 seconds. 
  Full-batch training loss = 0.000767, test loss = 0.308183
  Training set accuracy = 1.000000, Test set accuracy = 0.935000
 epoch 327/500. Took 0.56062 seconds. 
  Full-batch training loss = 0.000764, test loss = 0.308313
  Training set accuracy = 1.000000, Test set accuracy = 0.934800
 epoch 328/500. Took 0.55568 seconds. 
  Full-batch training loss = 0.000761, test loss = 0.308378
  Training set accuracy = 1.000000, Test set accuracy = 0.934900
 epoch 329/500. Took 0.55503 seconds. 
  Full-batch training loss = 0.000758, test loss = 0.308467
  Training set accuracy = 1.000000, Test set accuracy = 0.934900
 epoch 330/500. Took 0.56386 seconds. 
  Full-batch training loss = 0.000755, test loss = 0.308539
  Training set accuracy = 1.000000, Test set accuracy = 0.934900
 epoch 331/500. Took 0.5629 seconds. 
  Full-batch training loss = 0.000753, test loss = 0.308633
  Training set accuracy = 1.000000, Test set accuracy = 0.934900
 epoch 332/500. Took 0.56439 seconds. 
  Full-batch training loss = 0.000750, test loss = 0.308707
  Training set accuracy = 1.000000, Test set accuracy = 0.934800
 epoch 333/500. Took 0.5558 seconds. 
  Full-batch training loss = 0.000747, test loss = 0.308780
  Training set accuracy = 1.000000, Test set accuracy = 0.934800
 epoch 334/500. Took 0.55844 seconds. 
  Full-batch training loss = 0.000744, test loss = 0.308917
  Training set accuracy = 1.000000, Test set accuracy = 0.934800
 epoch 335/500. Took 0.55491 seconds. 
  Full-batch training loss = 0.000741, test loss = 0.309035
  Training set accuracy = 1.000000, Test set accuracy = 0.934900
 epoch 336/500. Took 0.55599 seconds. 
  Full-batch training loss = 0.000739, test loss = 0.309025
  Training set accuracy = 1.000000, Test set accuracy = 0.934900
 epoch 337/500. Took 0.55587 seconds. 
  Full-batch training loss = 0.000736, test loss = 0.309126
  Training set accuracy = 1.000000, Test set accuracy = 0.934900
 epoch 338/500. Took 0.56009 seconds. 
  Full-batch training loss = 0.000733, test loss = 0.309138
  Training set accuracy = 1.000000, Test set accuracy = 0.934900
 epoch 339/500. Took 0.56701 seconds. 
  Full-batch training loss = 0.000730, test loss = 0.309241
  Training set accuracy = 1.000000, Test set accuracy = 0.934800
 epoch 340/500. Took 0.5714 seconds. 
  Full-batch training loss = 0.000728, test loss = 0.309340
  Training set accuracy = 1.000000, Test set accuracy = 0.934900
 epoch 341/500. Took 0.55625 seconds. 
  Full-batch training loss = 0.000725, test loss = 0.309448
  Training set accuracy = 1.000000, Test set accuracy = 0.934800
 epoch 342/500. Took 0.56755 seconds. 
  Full-batch training loss = 0.000723, test loss = 0.309510
  Training set accuracy = 1.000000, Test set accuracy = 0.934900
 epoch 343/500. Took 0.56053 seconds. 
  Full-batch training loss = 0.000720, test loss = 0.309530
  Training set accuracy = 1.000000, Test set accuracy = 0.934900
 epoch 344/500. Took 0.5602 seconds. 
  Full-batch training loss = 0.000717, test loss = 0.309653
  Training set accuracy = 1.000000, Test set accuracy = 0.934900
 epoch 345/500. Took 0.57581 seconds. 
  Full-batch training loss = 0.000715, test loss = 0.309767
  Training set accuracy = 1.000000, Test set accuracy = 0.934900
 epoch 346/500. Took 0.56028 seconds. 
  Full-batch training loss = 0.000712, test loss = 0.309787
  Training set accuracy = 1.000000, Test set accuracy = 0.934900
 epoch 347/500. Took 0.55941 seconds. 
  Full-batch training loss = 0.000710, test loss = 0.309896
  Training set accuracy = 1.000000, Test set accuracy = 0.934900
 epoch 348/500. Took 0.55753 seconds. 
  Full-batch training loss = 0.000707, test loss = 0.309975
  Training set accuracy = 1.000000, Test set accuracy = 0.934900
 epoch 349/500. Took 0.55812 seconds. 
  Full-batch training loss = 0.000705, test loss = 0.310075
  Training set accuracy = 1.000000, Test set accuracy = 0.934900
 epoch 350/500. Took 0.55629 seconds. 
  Full-batch training loss = 0.000702, test loss = 0.310135
  Training set accuracy = 1.000000, Test set accuracy = 0.934900
 epoch 351/500. Took 0.55609 seconds. 
  Full-batch training loss = 0.000699, test loss = 0.310160
  Training set accuracy = 1.000000, Test set accuracy = 0.934900
 epoch 352/500. Took 0.55487 seconds. 
  Full-batch training loss = 0.000697, test loss = 0.310268
  Training set accuracy = 1.000000, Test set accuracy = 0.934900
 epoch 353/500. Took 0.5578 seconds. 
  Full-batch training loss = 0.000695, test loss = 0.310399
  Training set accuracy = 1.000000, Test set accuracy = 0.935000
 epoch 354/500. Took 0.56463 seconds. 
  Full-batch training loss = 0.000692, test loss = 0.310459
  Training set accuracy = 1.000000, Test set accuracy = 0.934900
 epoch 355/500. Took 0.56257 seconds. 
  Full-batch training loss = 0.000690, test loss = 0.310502
  Training set accuracy = 1.000000, Test set accuracy = 0.934900
 epoch 356/500. Took 0.55653 seconds. 
  Full-batch training loss = 0.000687, test loss = 0.310629
  Training set accuracy = 1.000000, Test set accuracy = 0.934900
 epoch 357/500. Took 0.55748 seconds. 
  Full-batch training loss = 0.000685, test loss = 0.310720
  Training set accuracy = 1.000000, Test set accuracy = 0.934900
 epoch 358/500. Took 0.55707 seconds. 
  Full-batch training loss = 0.000683, test loss = 0.310727
  Training set accuracy = 1.000000, Test set accuracy = 0.934900
 epoch 359/500. Took 0.57614 seconds. 
  Full-batch training loss = 0.000680, test loss = 0.310841
  Training set accuracy = 1.000000, Test set accuracy = 0.934900
 epoch 360/500. Took 0.56433 seconds. 
  Full-batch training loss = 0.000678, test loss = 0.310863
  Training set accuracy = 1.000000, Test set accuracy = 0.934900
 epoch 361/500. Took 0.56912 seconds. 
  Full-batch training loss = 0.000675, test loss = 0.310954
  Training set accuracy = 1.000000, Test set accuracy = 0.934900
 epoch 362/500. Took 0.58007 seconds. 
  Full-batch training loss = 0.000673, test loss = 0.311032
  Training set accuracy = 1.000000, Test set accuracy = 0.934900
 epoch 363/500. Took 0.57517 seconds. 
  Full-batch training loss = 0.000671, test loss = 0.311145
  Training set accuracy = 1.000000, Test set accuracy = 0.934900
 epoch 364/500. Took 0.55638 seconds. 
  Full-batch training loss = 0.000669, test loss = 0.311203
  Training set accuracy = 1.000000, Test set accuracy = 0.934900
 epoch 365/500. Took 0.55524 seconds. 
  Full-batch training loss = 0.000666, test loss = 0.311315
  Training set accuracy = 1.000000, Test set accuracy = 0.935000
 epoch 366/500. Took 0.55617 seconds. 
  Full-batch training loss = 0.000664, test loss = 0.311347
  Training set accuracy = 1.000000, Test set accuracy = 0.935100
 epoch 367/500. Took 0.55233 seconds. 
  Full-batch training loss = 0.000662, test loss = 0.311385
  Training set accuracy = 1.000000, Test set accuracy = 0.934900
 epoch 368/500. Took 0.56077 seconds. 
  Full-batch training loss = 0.000660, test loss = 0.311472
  Training set accuracy = 1.000000, Test set accuracy = 0.935000
 epoch 369/500. Took 0.5619 seconds. 
  Full-batch training loss = 0.000657, test loss = 0.311577
  Training set accuracy = 1.000000, Test set accuracy = 0.935000
 epoch 370/500. Took 0.57883 seconds. 
  Full-batch training loss = 0.000655, test loss = 0.311638
  Training set accuracy = 1.000000, Test set accuracy = 0.935000
 epoch 371/500. Took 0.56127 seconds. 
  Full-batch training loss = 0.000653, test loss = 0.311673
  Training set accuracy = 1.000000, Test set accuracy = 0.934900
 epoch 372/500. Took 0.55973 seconds. 
  Full-batch training loss = 0.000651, test loss = 0.311755
  Training set accuracy = 1.000000, Test set accuracy = 0.935000
 epoch 373/500. Took 0.56205 seconds. 
  Full-batch training loss = 0.000649, test loss = 0.311855
  Training set accuracy = 1.000000, Test set accuracy = 0.934900
 epoch 374/500. Took 0.56597 seconds. 
  Full-batch training loss = 0.000647, test loss = 0.311962
  Training set accuracy = 1.000000, Test set accuracy = 0.935000
 epoch 375/500. Took 0.55655 seconds. 
  Full-batch training loss = 0.000644, test loss = 0.311996
  Training set accuracy = 1.000000, Test set accuracy = 0.935000
 epoch 376/500. Took 0.63737 seconds. 
  Full-batch training loss = 0.000642, test loss = 0.312068
  Training set accuracy = 1.000000, Test set accuracy = 0.935000
 epoch 377/500. Took 0.55862 seconds. 
  Full-batch training loss = 0.000640, test loss = 0.312116
  Training set accuracy = 1.000000, Test set accuracy = 0.935000
 epoch 378/500. Took 0.55662 seconds. 
  Full-batch training loss = 0.000638, test loss = 0.312206
  Training set accuracy = 1.000000, Test set accuracy = 0.935000
 epoch 379/500. Took 0.55526 seconds. 
  Full-batch training loss = 0.000636, test loss = 0.312247
  Training set accuracy = 1.000000, Test set accuracy = 0.935000
 epoch 380/500. Took 0.56505 seconds. 
  Full-batch training loss = 0.000634, test loss = 0.312373
  Training set accuracy = 1.000000, Test set accuracy = 0.935100
 epoch 381/500. Took 0.55627 seconds. 
  Full-batch training loss = 0.000632, test loss = 0.312415
  Training set accuracy = 1.000000, Test set accuracy = 0.935000
 epoch 382/500. Took 0.5637 seconds. 
  Full-batch training loss = 0.000630, test loss = 0.312529
  Training set accuracy = 1.000000, Test set accuracy = 0.935000
 epoch 383/500. Took 0.56111 seconds. 
  Full-batch training loss = 0.000628, test loss = 0.312584
  Training set accuracy = 1.000000, Test set accuracy = 0.935100
 epoch 384/500. Took 0.5592 seconds. 
  Full-batch training loss = 0.000626, test loss = 0.312617
  Training set accuracy = 1.000000, Test set accuracy = 0.935000
 epoch 385/500. Took 0.55973 seconds. 
  Full-batch training loss = 0.000624, test loss = 0.312695
  Training set accuracy = 1.000000, Test set accuracy = 0.935100
 epoch 386/500. Took 0.56597 seconds. 
  Full-batch training loss = 0.000622, test loss = 0.312705
  Training set accuracy = 1.000000, Test set accuracy = 0.935000
 epoch 387/500. Took 0.58075 seconds. 
  Full-batch training loss = 0.000620, test loss = 0.312881
  Training set accuracy = 1.000000, Test set accuracy = 0.935100
 epoch 388/500. Took 0.56027 seconds. 
  Full-batch training loss = 0.000618, test loss = 0.312916
  Training set accuracy = 1.000000, Test set accuracy = 0.935100
 epoch 389/500. Took 0.58029 seconds. 
  Full-batch training loss = 0.000616, test loss = 0.313007
  Training set accuracy = 1.000000, Test set accuracy = 0.935100
 epoch 390/500. Took 0.55517 seconds. 
  Full-batch training loss = 0.000614, test loss = 0.313062
  Training set accuracy = 1.000000, Test set accuracy = 0.935100
 epoch 391/500. Took 0.5558 seconds. 
  Full-batch training loss = 0.000612, test loss = 0.313149
  Training set accuracy = 1.000000, Test set accuracy = 0.935100
 epoch 392/500. Took 0.55413 seconds. 
  Full-batch training loss = 0.000610, test loss = 0.313177
  Training set accuracy = 1.000000, Test set accuracy = 0.935100
 epoch 393/500. Took 0.55813 seconds. 
  Full-batch training loss = 0.000608, test loss = 0.313277
  Training set accuracy = 1.000000, Test set accuracy = 0.935100
 epoch 394/500. Took 0.55787 seconds. 
  Full-batch training loss = 0.000606, test loss = 0.313334
  Training set accuracy = 1.000000, Test set accuracy = 0.935100
 epoch 395/500. Took 0.56225 seconds. 
  Full-batch training loss = 0.000604, test loss = 0.313398
  Training set accuracy = 1.000000, Test set accuracy = 0.935000
 epoch 396/500. Took 0.567 seconds. 
  Full-batch training loss = 0.000602, test loss = 0.313442
  Training set accuracy = 1.000000, Test set accuracy = 0.935100
 epoch 397/500. Took 0.55595 seconds. 
  Full-batch training loss = 0.000601, test loss = 0.313508
  Training set accuracy = 1.000000, Test set accuracy = 0.935100
 epoch 398/500. Took 0.55438 seconds. 
  Full-batch training loss = 0.000599, test loss = 0.313601
  Training set accuracy = 1.000000, Test set accuracy = 0.935100
 epoch 399/500. Took 0.56075 seconds. 
  Full-batch training loss = 0.000597, test loss = 0.313719
  Training set accuracy = 1.000000, Test set accuracy = 0.935100
 epoch 400/500. Took 0.5625 seconds. 
  Full-batch training loss = 0.000595, test loss = 0.313733
  Training set accuracy = 1.000000, Test set accuracy = 0.935200
 epoch 401/500. Took 0.55935 seconds. 
  Full-batch training loss = 0.000593, test loss = 0.313844
  Training set accuracy = 1.000000, Test set accuracy = 0.935100
 epoch 402/500. Took 0.56709 seconds. 
  Full-batch training loss = 0.000591, test loss = 0.313868
  Training set accuracy = 1.000000, Test set accuracy = 0.935100
 epoch 403/500. Took 0.55613 seconds. 
  Full-batch training loss = 0.000590, test loss = 0.313912
  Training set accuracy = 1.000000, Test set accuracy = 0.935200
 epoch 404/500. Took 0.55542 seconds. 
  Full-batch training loss = 0.000588, test loss = 0.313993
  Training set accuracy = 1.000000, Test set accuracy = 0.935100
 epoch 405/500. Took 0.55477 seconds. 
  Full-batch training loss = 0.000586, test loss = 0.314050
  Training set accuracy = 1.000000, Test set accuracy = 0.935000
 epoch 406/500. Took 0.5515 seconds. 
  Full-batch training loss = 0.000584, test loss = 0.314121
  Training set accuracy = 1.000000, Test set accuracy = 0.935200
 epoch 407/500. Took 0.55674 seconds. 
  Full-batch training loss = 0.000582, test loss = 0.314204
  Training set accuracy = 1.000000, Test set accuracy = 0.935200
 epoch 408/500. Took 0.55543 seconds. 
  Full-batch training loss = 0.000581, test loss = 0.314253
  Training set accuracy = 1.000000, Test set accuracy = 0.935000
 epoch 409/500. Took 0.55785 seconds. 
  Full-batch training loss = 0.000579, test loss = 0.314292
  Training set accuracy = 1.000000, Test set accuracy = 0.935200
 epoch 410/500. Took 0.56002 seconds. 
  Full-batch training loss = 0.000577, test loss = 0.314404
  Training set accuracy = 1.000000, Test set accuracy = 0.935100
 epoch 411/500. Took 0.56061 seconds. 
  Full-batch training loss = 0.000575, test loss = 0.314458
  Training set accuracy = 1.000000, Test set accuracy = 0.935000
 epoch 412/500. Took 0.56087 seconds. 
  Full-batch training loss = 0.000574, test loss = 0.314532
  Training set accuracy = 1.000000, Test set accuracy = 0.935100
 epoch 413/500. Took 0.5588 seconds. 
  Full-batch training loss = 0.000572, test loss = 0.314597
  Training set accuracy = 1.000000, Test set accuracy = 0.935100
 epoch 414/500. Took 0.55402 seconds. 
  Full-batch training loss = 0.000570, test loss = 0.314608
  Training set accuracy = 1.000000, Test set accuracy = 0.935100
 epoch 415/500. Took 0.56122 seconds. 
  Full-batch training loss = 0.000569, test loss = 0.314732
  Training set accuracy = 1.000000, Test set accuracy = 0.935200
 epoch 416/500. Took 0.55863 seconds. 
  Full-batch training loss = 0.000567, test loss = 0.314772
  Training set accuracy = 1.000000, Test set accuracy = 0.935000
 epoch 417/500. Took 0.55535 seconds. 
  Full-batch training loss = 0.000565, test loss = 0.314839
  Training set accuracy = 1.000000, Test set accuracy = 0.935200
 epoch 418/500. Took 0.5589 seconds. 
  Full-batch training loss = 0.000564, test loss = 0.314914
  Training set accuracy = 1.000000, Test set accuracy = 0.935100
 epoch 419/500. Took 0.56062 seconds. 
  Full-batch training loss = 0.000562, test loss = 0.314958
  Training set accuracy = 1.000000, Test set accuracy = 0.935100
 epoch 420/500. Took 0.55499 seconds. 
  Full-batch training loss = 0.000560, test loss = 0.315024
  Training set accuracy = 1.000000, Test set accuracy = 0.935100
 epoch 421/500. Took 0.56193 seconds. 
  Full-batch training loss = 0.000559, test loss = 0.315131
  Training set accuracy = 1.000000, Test set accuracy = 0.935100
 epoch 422/500. Took 0.55864 seconds. 
  Full-batch training loss = 0.000557, test loss = 0.315146
  Training set accuracy = 1.000000, Test set accuracy = 0.935100
 epoch 423/500. Took 0.55542 seconds. 
  Full-batch training loss = 0.000555, test loss = 0.315232
  Training set accuracy = 1.000000, Test set accuracy = 0.935100
 epoch 424/500. Took 0.56171 seconds. 
  Full-batch training loss = 0.000554, test loss = 0.315303
  Training set accuracy = 1.000000, Test set accuracy = 0.935100
 epoch 425/500. Took 0.56524 seconds. 
  Full-batch training loss = 0.000552, test loss = 0.315362
  Training set accuracy = 1.000000, Test set accuracy = 0.935100
 epoch 426/500. Took 0.58335 seconds. 
  Full-batch training loss = 0.000551, test loss = 0.315398
  Training set accuracy = 1.000000, Test set accuracy = 0.935100
 epoch 427/500. Took 0.56144 seconds. 
  Full-batch training loss = 0.000549, test loss = 0.315507
  Training set accuracy = 1.000000, Test set accuracy = 0.935100
 epoch 428/500. Took 0.5566 seconds. 
  Full-batch training loss = 0.000547, test loss = 0.315532
  Training set accuracy = 1.000000, Test set accuracy = 0.935100
 epoch 429/500. Took 0.63635 seconds. 
  Full-batch training loss = 0.000546, test loss = 0.315653
  Training set accuracy = 1.000000, Test set accuracy = 0.935100
 epoch 430/500. Took 0.55991 seconds. 
  Full-batch training loss = 0.000544, test loss = 0.315700
  Training set accuracy = 1.000000, Test set accuracy = 0.935100
 epoch 431/500. Took 0.55702 seconds. 
  Full-batch training loss = 0.000543, test loss = 0.315713
  Training set accuracy = 1.000000, Test set accuracy = 0.935100
 epoch 432/500. Took 0.56891 seconds. 
  Full-batch training loss = 0.000541, test loss = 0.315817
  Training set accuracy = 1.000000, Test set accuracy = 0.935100
 epoch 433/500. Took 0.55362 seconds. 
  Full-batch training loss = 0.000540, test loss = 0.315843
  Training set accuracy = 1.000000, Test set accuracy = 0.935100
 epoch 434/500. Took 0.5572 seconds. 
  Full-batch training loss = 0.000538, test loss = 0.315915
  Training set accuracy = 1.000000, Test set accuracy = 0.935100
 epoch 435/500. Took 0.5552 seconds. 
  Full-batch training loss = 0.000537, test loss = 0.315998
  Training set accuracy = 1.000000, Test set accuracy = 0.935100
 epoch 436/500. Took 0.56434 seconds. 
  Full-batch training loss = 0.000535, test loss = 0.316062
  Training set accuracy = 1.000000, Test set accuracy = 0.935100
 epoch 437/500. Took 0.55845 seconds. 
  Full-batch training loss = 0.000534, test loss = 0.316135
  Training set accuracy = 1.000000, Test set accuracy = 0.935100
 epoch 438/500. Took 0.5591 seconds. 
  Full-batch training loss = 0.000532, test loss = 0.316174
  Training set accuracy = 1.000000, Test set accuracy = 0.935100
 epoch 439/500. Took 0.55562 seconds. 
  Full-batch training loss = 0.000531, test loss = 0.316280
  Training set accuracy = 1.000000, Test set accuracy = 0.935100
 epoch 440/500. Took 0.55565 seconds. 
  Full-batch training loss = 0.000529, test loss = 0.316292
  Training set accuracy = 1.000000, Test set accuracy = 0.935200
 epoch 441/500. Took 0.55654 seconds. 
  Full-batch training loss = 0.000528, test loss = 0.316354
  Training set accuracy = 1.000000, Test set accuracy = 0.935100
 epoch 442/500. Took 0.55454 seconds. 
  Full-batch training loss = 0.000526, test loss = 0.316383
  Training set accuracy = 1.000000, Test set accuracy = 0.935200
 epoch 443/500. Took 0.55371 seconds. 
  Full-batch training loss = 0.000525, test loss = 0.316471
  Training set accuracy = 1.000000, Test set accuracy = 0.935200
 epoch 444/500. Took 0.56121 seconds. 
  Full-batch training loss = 0.000523, test loss = 0.316519
  Training set accuracy = 1.000000, Test set accuracy = 0.935100
 epoch 445/500. Took 0.56337 seconds. 
  Full-batch training loss = 0.000522, test loss = 0.316582
  Training set accuracy = 1.000000, Test set accuracy = 0.935200
 epoch 446/500. Took 0.56755 seconds. 
  Full-batch training loss = 0.000520, test loss = 0.316665
  Training set accuracy = 1.000000, Test set accuracy = 0.935100
 epoch 447/500. Took 0.56373 seconds. 
  Full-batch training loss = 0.000519, test loss = 0.316735
  Training set accuracy = 1.000000, Test set accuracy = 0.935100
 epoch 448/500. Took 0.5526 seconds. 
  Full-batch training loss = 0.000518, test loss = 0.316787
  Training set accuracy = 1.000000, Test set accuracy = 0.935100
 epoch 449/500. Took 0.55416 seconds. 
  Full-batch training loss = 0.000516, test loss = 0.316831
  Training set accuracy = 1.000000, Test set accuracy = 0.935100
 epoch 450/500. Took 0.56335 seconds. 
  Full-batch training loss = 0.000515, test loss = 0.316900
  Training set accuracy = 1.000000, Test set accuracy = 0.935100
 epoch 451/500. Took 0.55943 seconds. 
  Full-batch training loss = 0.000513, test loss = 0.316966
  Training set accuracy = 1.000000, Test set accuracy = 0.935100
 epoch 452/500. Took 0.56436 seconds. 
  Full-batch training loss = 0.000512, test loss = 0.317027
  Training set accuracy = 1.000000, Test set accuracy = 0.935100
 epoch 453/500. Took 0.55428 seconds. 
  Full-batch training loss = 0.000510, test loss = 0.317089
  Training set accuracy = 1.000000, Test set accuracy = 0.935100
 epoch 454/500. Took 0.55559 seconds. 
  Full-batch training loss = 0.000509, test loss = 0.317142
  Training set accuracy = 1.000000, Test set accuracy = 0.935100
 epoch 455/500. Took 0.56099 seconds. 
  Full-batch training loss = 0.000508, test loss = 0.317186
  Training set accuracy = 1.000000, Test set accuracy = 0.935100
 epoch 456/500. Took 0.56042 seconds. 
  Full-batch training loss = 0.000506, test loss = 0.317264
  Training set accuracy = 1.000000, Test set accuracy = 0.935100
 epoch 457/500. Took 0.56659 seconds. 
  Full-batch training loss = 0.000505, test loss = 0.317325
  Training set accuracy = 1.000000, Test set accuracy = 0.935100
 epoch 458/500. Took 0.55531 seconds. 
  Full-batch training loss = 0.000504, test loss = 0.317402
  Training set accuracy = 1.000000, Test set accuracy = 0.935100
 epoch 459/500. Took 0.56368 seconds. 
  Full-batch training loss = 0.000502, test loss = 0.317427
  Training set accuracy = 1.000000, Test set accuracy = 0.935100
 epoch 460/500. Took 0.55617 seconds. 
  Full-batch training loss = 0.000501, test loss = 0.317468
  Training set accuracy = 1.000000, Test set accuracy = 0.935100
 epoch 461/500. Took 0.55619 seconds. 
  Full-batch training loss = 0.000500, test loss = 0.317535
  Training set accuracy = 1.000000, Test set accuracy = 0.935100
 epoch 462/500. Took 0.5528 seconds. 
  Full-batch training loss = 0.000498, test loss = 0.317606
  Training set accuracy = 1.000000, Test set accuracy = 0.935200
 epoch 463/500. Took 0.55272 seconds. 
  Full-batch training loss = 0.000497, test loss = 0.317650
  Training set accuracy = 1.000000, Test set accuracy = 0.935200
 epoch 464/500. Took 0.5572 seconds. 
  Full-batch training loss = 0.000496, test loss = 0.317725
  Training set accuracy = 1.000000, Test set accuracy = 0.935200
 epoch 465/500. Took 0.56584 seconds. 
  Full-batch training loss = 0.000494, test loss = 0.317773
  Training set accuracy = 1.000000, Test set accuracy = 0.935300
 epoch 466/500. Took 0.55882 seconds. 
  Full-batch training loss = 0.000493, test loss = 0.317816
  Training set accuracy = 1.000000, Test set accuracy = 0.935200
 epoch 467/500. Took 0.56289 seconds. 
  Full-batch training loss = 0.000492, test loss = 0.317884
  Training set accuracy = 1.000000, Test set accuracy = 0.935200
 epoch 468/500. Took 0.56323 seconds. 
  Full-batch training loss = 0.000491, test loss = 0.317934
  Training set accuracy = 1.000000, Test set accuracy = 0.935200
 epoch 469/500. Took 0.55772 seconds. 
  Full-batch training loss = 0.000489, test loss = 0.317992
  Training set accuracy = 1.000000, Test set accuracy = 0.935200
 epoch 470/500. Took 0.56106 seconds. 
  Full-batch training loss = 0.000488, test loss = 0.318039
  Training set accuracy = 1.000000, Test set accuracy = 0.935200
 epoch 471/500. Took 0.56378 seconds. 
  Full-batch training loss = 0.000487, test loss = 0.318113
  Training set accuracy = 1.000000, Test set accuracy = 0.935200
 epoch 472/500. Took 0.55607 seconds. 
  Full-batch training loss = 0.000485, test loss = 0.318165
  Training set accuracy = 1.000000, Test set accuracy = 0.935200
 epoch 473/500. Took 0.55162 seconds. 
  Full-batch training loss = 0.000484, test loss = 0.318239
  Training set accuracy = 1.000000, Test set accuracy = 0.935200
 epoch 474/500. Took 0.57763 seconds. 
  Full-batch training loss = 0.000483, test loss = 0.318322
  Training set accuracy = 1.000000, Test set accuracy = 0.935200
 epoch 475/500. Took 0.55759 seconds. 
  Full-batch training loss = 0.000482, test loss = 0.318355
  Training set accuracy = 1.000000, Test set accuracy = 0.935200
 epoch 476/500. Took 0.55298 seconds. 
  Full-batch training loss = 0.000481, test loss = 0.318440
  Training set accuracy = 1.000000, Test set accuracy = 0.935100
 epoch 477/500. Took 0.55805 seconds. 
  Full-batch training loss = 0.000479, test loss = 0.318477
  Training set accuracy = 1.000000, Test set accuracy = 0.935300
 epoch 478/500. Took 0.56385 seconds. 
  Full-batch training loss = 0.000478, test loss = 0.318496
  Training set accuracy = 1.000000, Test set accuracy = 0.935200
 epoch 479/500. Took 0.5611 seconds. 
  Full-batch training loss = 0.000477, test loss = 0.318578
  Training set accuracy = 1.000000, Test set accuracy = 0.935300
 epoch 480/500. Took 0.55761 seconds. 
  Full-batch training loss = 0.000476, test loss = 0.318634
  Training set accuracy = 1.000000, Test set accuracy = 0.935100
 epoch 481/500. Took 0.56907 seconds. 
  Full-batch training loss = 0.000474, test loss = 0.318689
  Training set accuracy = 1.000000, Test set accuracy = 0.935100
 epoch 482/500. Took 0.55724 seconds. 
  Full-batch training loss = 0.000473, test loss = 0.318786
  Training set accuracy = 1.000000, Test set accuracy = 0.935300
 epoch 483/500. Took 0.56741 seconds. 
  Full-batch training loss = 0.000472, test loss = 0.318829
  Training set accuracy = 1.000000, Test set accuracy = 0.935200
 epoch 484/500. Took 0.55922 seconds. 
  Full-batch training loss = 0.000471, test loss = 0.318861
  Training set accuracy = 1.000000, Test set accuracy = 0.935100
 epoch 485/500. Took 0.58401 seconds. 
  Full-batch training loss = 0.000470, test loss = 0.318937
  Training set accuracy = 1.000000, Test set accuracy = 0.935100
 epoch 486/500. Took 0.62386 seconds. 
  Full-batch training loss = 0.000468, test loss = 0.318969
  Training set accuracy = 1.000000, Test set accuracy = 0.935300
 epoch 487/500. Took 0.56481 seconds. 
  Full-batch training loss = 0.000467, test loss = 0.319027
  Training set accuracy = 1.000000, Test set accuracy = 0.935200
 epoch 488/500. Took 0.55625 seconds. 
  Full-batch training loss = 0.000466, test loss = 0.319097
  Training set accuracy = 1.000000, Test set accuracy = 0.935200
 epoch 489/500. Took 0.56435 seconds. 
  Full-batch training loss = 0.000465, test loss = 0.319143
  Training set accuracy = 1.000000, Test set accuracy = 0.935200
 epoch 490/500. Took 0.55296 seconds. 
  Full-batch training loss = 0.000464, test loss = 0.319194
  Training set accuracy = 1.000000, Test set accuracy = 0.935300
 epoch 491/500. Took 0.59245 seconds. 
  Full-batch training loss = 0.000463, test loss = 0.319225
  Training set accuracy = 1.000000, Test set accuracy = 0.935100
 epoch 492/500. Took 0.55619 seconds. 
  Full-batch training loss = 0.000461, test loss = 0.319310
  Training set accuracy = 1.000000, Test set accuracy = 0.935300
 epoch 493/500. Took 0.5639 seconds. 
  Full-batch training loss = 0.000460, test loss = 0.319388
  Training set accuracy = 1.000000, Test set accuracy = 0.935300
 epoch 494/500. Took 0.55929 seconds. 
  Full-batch training loss = 0.000459, test loss = 0.319400
  Training set accuracy = 1.000000, Test set accuracy = 0.935300
 epoch 495/500. Took 0.55836 seconds. 
  Full-batch training loss = 0.000458, test loss = 0.319452
  Training set accuracy = 1.000000, Test set accuracy = 0.935100
 epoch 496/500. Took 0.56657 seconds. 
  Full-batch training loss = 0.000457, test loss = 0.319485
  Training set accuracy = 1.000000, Test set accuracy = 0.935100
 epoch 497/500. Took 0.55815 seconds. 
  Full-batch training loss = 0.000456, test loss = 0.319524
  Training set accuracy = 1.000000, Test set accuracy = 0.935100
 epoch 498/500. Took 0.55563 seconds. 
  Full-batch training loss = 0.000455, test loss = 0.319597
  Training set accuracy = 1.000000, Test set accuracy = 0.935200
 epoch 499/500. Took 0.55645 seconds. 
  Full-batch training loss = 0.000454, test loss = 0.319640
  Training set accuracy = 1.000000, Test set accuracy = 0.935200
 epoch 500/500. Took 0.55514 seconds. 
  Full-batch training loss = 0.000452, test loss = 0.319740
  Training set accuracy = 1.000000, Test set accuracy = 0.935300
Elapsed time is 1007.259910 seconds.
End Training
