==========================================================
  Architecture is 500 500 500 // 3 layer x 500 neuron
----------------------------------------------------------
Execution 83/270
----------------------------------------------------------
* ReducedData	2000
* PreTrainRBM	true
	-> Epochs	20
	-> LearningRate	0.05
* Fine-tunning
	-> Epochs	500
	-> LearningRate	0.05
==========================================================
Start Training
Number of training examples: 2000  BatchSize: 100
Number of inputs: 784  Number of outputs: 10
Number of hidden layers: 3 (500  500  500)
Training binary-binary RBM in layer 1 (784  500) with CD1 for 20 epochs
 epoch 1/20. Took 0.33938 seconds. Average reconstruction error is: 53.3362
 epoch 2/20. Took 0.3245 seconds. Average reconstruction error is: 30.1715
 epoch 3/20. Took 0.32769 seconds. Average reconstruction error is: 24.0112
 epoch 4/20. Took 0.32894 seconds. Average reconstruction error is: 20.7738
 epoch 5/20. Took 0.32203 seconds. Average reconstruction error is: 18.6821
 epoch 6/20. Took 0.32444 seconds. Average reconstruction error is: 17.2175
 epoch 7/20. Took 0.32383 seconds. Average reconstruction error is: 15.9312
 epoch 8/20. Took 0.32159 seconds. Average reconstruction error is: 15.0715
 epoch 9/20. Took 0.32678 seconds. Average reconstruction error is: 14.3327
 epoch 10/20. Took 0.32018 seconds. Average reconstruction error is: 13.6879
 epoch 11/20. Took 0.32343 seconds. Average reconstruction error is: 13.0962
 epoch 12/20. Took 0.32287 seconds. Average reconstruction error is: 12.6477
 epoch 13/20. Took 0.32324 seconds. Average reconstruction error is: 12.2459
 epoch 14/20. Took 0.32524 seconds. Average reconstruction error is: 11.8799
 epoch 15/20. Took 0.3259 seconds. Average reconstruction error is: 11.5403
 epoch 16/20. Took 0.32308 seconds. Average reconstruction error is: 11.2495
 epoch 17/20. Took 0.40725 seconds. Average reconstruction error is: 10.9738
 epoch 18/20. Took 0.34129 seconds. Average reconstruction error is: 10.7686
 epoch 19/20. Took 0.34507 seconds. Average reconstruction error is: 10.5646
 epoch 20/20. Took 0.34525 seconds. Average reconstruction error is: 10.4067
Training binary-binary RBM in layer 2 (500  500) with CD1 for 20 epochs
 epoch 1/20. Took 0.24377 seconds. Average reconstruction error is: 42.2726
 epoch 2/20. Took 0.25336 seconds. Average reconstruction error is: 24.7003
 epoch 3/20. Took 0.25085 seconds. Average reconstruction error is: 18.43
 epoch 4/20. Took 0.24957 seconds. Average reconstruction error is: 14.9275
 epoch 5/20. Took 0.24647 seconds. Average reconstruction error is: 12.8414
 epoch 6/20. Took 0.24474 seconds. Average reconstruction error is: 11.5636
 epoch 7/20. Took 0.24263 seconds. Average reconstruction error is: 10.63
 epoch 8/20. Took 0.24818 seconds. Average reconstruction error is: 9.8926
 epoch 9/20. Took 0.2518 seconds. Average reconstruction error is: 9.3656
 epoch 10/20. Took 0.25228 seconds. Average reconstruction error is: 8.9757
 epoch 11/20. Took 0.24915 seconds. Average reconstruction error is: 8.6023
 epoch 12/20. Took 0.25729 seconds. Average reconstruction error is: 8.3553
 epoch 13/20. Took 0.24463 seconds. Average reconstruction error is: 8.1092
 epoch 14/20. Took 0.25384 seconds. Average reconstruction error is: 7.9252
 epoch 15/20. Took 0.25003 seconds. Average reconstruction error is: 7.7809
 epoch 16/20. Took 0.25735 seconds. Average reconstruction error is: 7.601
 epoch 17/20. Took 0.24497 seconds. Average reconstruction error is: 7.5567
 epoch 18/20. Took 0.24735 seconds. Average reconstruction error is: 7.3913
 epoch 19/20. Took 0.25039 seconds. Average reconstruction error is: 7.2824
 epoch 20/20. Took 0.24476 seconds. Average reconstruction error is: 7.1631
Training binary-binary RBM in layer 3 (500  500) with CD1 for 20 epochs
 epoch 1/20. Took 0.24643 seconds. Average reconstruction error is: 34.8984
 epoch 2/20. Took 0.2507 seconds. Average reconstruction error is: 17.7695
 epoch 3/20. Took 0.24915 seconds. Average reconstruction error is: 13.0132
 epoch 4/20. Took 0.25051 seconds. Average reconstruction error is: 10.4912
 epoch 5/20. Took 0.24374 seconds. Average reconstruction error is: 9.0033
 epoch 6/20. Took 0.25028 seconds. Average reconstruction error is: 8.0681
 epoch 7/20. Took 0.24791 seconds. Average reconstruction error is: 7.4133
 epoch 8/20. Took 0.24585 seconds. Average reconstruction error is: 6.9278
 epoch 9/20. Took 0.2489 seconds. Average reconstruction error is: 6.4927
 epoch 10/20. Took 0.2488 seconds. Average reconstruction error is: 6.1998
 epoch 11/20. Took 0.24195 seconds. Average reconstruction error is: 5.9679
 epoch 12/20. Took 0.24901 seconds. Average reconstruction error is: 5.7819
 epoch 13/20. Took 0.25527 seconds. Average reconstruction error is: 5.683
 epoch 14/20. Took 0.24516 seconds. Average reconstruction error is: 5.5038
 epoch 15/20. Took 0.24961 seconds. Average reconstruction error is: 5.4556
 epoch 16/20. Took 0.25252 seconds. Average reconstruction error is: 5.3467
 epoch 17/20. Took 0.25266 seconds. Average reconstruction error is: 5.2819
 epoch 18/20. Took 0.24412 seconds. Average reconstruction error is: 5.2085
 epoch 19/20. Took 0.2492 seconds. Average reconstruction error is: 5.1895
 epoch 20/20. Took 0.24941 seconds. Average reconstruction error is: 5.1766
Training NN  (784  500  500  500   10) with BackPropagation for 500 epochs
 epoch 1/500. Took 0.51822 seconds. 
  Full-batch training loss = 0.719077, test loss = 0.716447
  Training set accuracy = 0.830500, Test set accuracy = 0.837800
 epoch 2/500. Took 0.57252 seconds. 
  Full-batch training loss = 0.499053, test loss = 0.510134
  Training set accuracy = 0.871500, Test set accuracy = 0.872900
 epoch 3/500. Took 0.57573 seconds. 
  Full-batch training loss = 0.425288, test loss = 0.438713
  Training set accuracy = 0.883000, Test set accuracy = 0.884400
 epoch 4/500. Took 0.55725 seconds. 
  Full-batch training loss = 0.378452, test loss = 0.399621
  Training set accuracy = 0.904500, Test set accuracy = 0.896000
 epoch 5/500. Took 0.61622 seconds. 
  Full-batch training loss = 0.348569, test loss = 0.374346
  Training set accuracy = 0.909000, Test set accuracy = 0.895100
 epoch 6/500. Took 0.56647 seconds. 
  Full-batch training loss = 0.325959, test loss = 0.361290
  Training set accuracy = 0.915500, Test set accuracy = 0.898100
 epoch 7/500. Took 0.56147 seconds. 
  Full-batch training loss = 0.306061, test loss = 0.345586
  Training set accuracy = 0.918000, Test set accuracy = 0.902800
 epoch 8/500. Took 0.56188 seconds. 
  Full-batch training loss = 0.288605, test loss = 0.332847
  Training set accuracy = 0.922000, Test set accuracy = 0.907400
 epoch 9/500. Took 0.56006 seconds. 
  Full-batch training loss = 0.274313, test loss = 0.324464
  Training set accuracy = 0.926500, Test set accuracy = 0.908000
 epoch 10/500. Took 0.55266 seconds. 
  Full-batch training loss = 0.263986, test loss = 0.319410
  Training set accuracy = 0.929000, Test set accuracy = 0.907300
 epoch 11/500. Took 0.55595 seconds. 
  Full-batch training loss = 0.252008, test loss = 0.310762
  Training set accuracy = 0.934000, Test set accuracy = 0.910600
 epoch 12/500. Took 0.55925 seconds. 
  Full-batch training loss = 0.240830, test loss = 0.303877
  Training set accuracy = 0.937000, Test set accuracy = 0.912100
 epoch 13/500. Took 0.5569 seconds. 
  Full-batch training loss = 0.233857, test loss = 0.301181
  Training set accuracy = 0.941500, Test set accuracy = 0.912300
 epoch 14/500. Took 0.55926 seconds. 
  Full-batch training loss = 0.226235, test loss = 0.297889
  Training set accuracy = 0.937000, Test set accuracy = 0.912100
 epoch 15/500. Took 0.56291 seconds. 
  Full-batch training loss = 0.220792, test loss = 0.298111
  Training set accuracy = 0.941500, Test set accuracy = 0.913600
 epoch 16/500. Took 0.55952 seconds. 
  Full-batch training loss = 0.211232, test loss = 0.290167
  Training set accuracy = 0.942000, Test set accuracy = 0.913600
 epoch 17/500. Took 0.56272 seconds. 
  Full-batch training loss = 0.202885, test loss = 0.287092
  Training set accuracy = 0.947500, Test set accuracy = 0.914900
 epoch 18/500. Took 0.5732 seconds. 
  Full-batch training loss = 0.196260, test loss = 0.284318
  Training set accuracy = 0.947000, Test set accuracy = 0.917000
 epoch 19/500. Took 0.55774 seconds. 
  Full-batch training loss = 0.191751, test loss = 0.283230
  Training set accuracy = 0.948000, Test set accuracy = 0.916800
 epoch 20/500. Took 0.5604 seconds. 
  Full-batch training loss = 0.184752, test loss = 0.278565
  Training set accuracy = 0.947000, Test set accuracy = 0.917000
 epoch 21/500. Took 0.56407 seconds. 
  Full-batch training loss = 0.183016, test loss = 0.282796
  Training set accuracy = 0.952500, Test set accuracy = 0.915600
 epoch 22/500. Took 0.56119 seconds. 
  Full-batch training loss = 0.174131, test loss = 0.276578
  Training set accuracy = 0.952000, Test set accuracy = 0.918900
 epoch 23/500. Took 0.55296 seconds. 
  Full-batch training loss = 0.172639, test loss = 0.277485
  Training set accuracy = 0.953500, Test set accuracy = 0.916700
 epoch 24/500. Took 0.55324 seconds. 
  Full-batch training loss = 0.166395, test loss = 0.275766
  Training set accuracy = 0.955000, Test set accuracy = 0.919400
 epoch 25/500. Took 0.55588 seconds. 
  Full-batch training loss = 0.159639, test loss = 0.269659
  Training set accuracy = 0.954000, Test set accuracy = 0.919600
 epoch 26/500. Took 0.56234 seconds. 
  Full-batch training loss = 0.156694, test loss = 0.270665
  Training set accuracy = 0.957500, Test set accuracy = 0.920400
 epoch 27/500. Took 0.56762 seconds. 
  Full-batch training loss = 0.152924, test loss = 0.271732
  Training set accuracy = 0.960000, Test set accuracy = 0.919700
 epoch 28/500. Took 0.55825 seconds. 
  Full-batch training loss = 0.147139, test loss = 0.266122
  Training set accuracy = 0.957500, Test set accuracy = 0.920600
 epoch 29/500. Took 0.55637 seconds. 
  Full-batch training loss = 0.146549, test loss = 0.269537
  Training set accuracy = 0.959500, Test set accuracy = 0.920800
 epoch 30/500. Took 0.56322 seconds. 
  Full-batch training loss = 0.140889, test loss = 0.265414
  Training set accuracy = 0.961000, Test set accuracy = 0.919500
 epoch 31/500. Took 0.56541 seconds. 
  Full-batch training loss = 0.136348, test loss = 0.264720
  Training set accuracy = 0.964500, Test set accuracy = 0.921300
 epoch 32/500. Took 0.55631 seconds. 
  Full-batch training loss = 0.132231, test loss = 0.263649
  Training set accuracy = 0.965000, Test set accuracy = 0.922600
 epoch 33/500. Took 0.56273 seconds. 
  Full-batch training loss = 0.128124, test loss = 0.261959
  Training set accuracy = 0.965500, Test set accuracy = 0.922000
 epoch 34/500. Took 0.56657 seconds. 
  Full-batch training loss = 0.125489, test loss = 0.262645
  Training set accuracy = 0.967500, Test set accuracy = 0.922000
 epoch 35/500. Took 0.56427 seconds. 
  Full-batch training loss = 0.122419, test loss = 0.260689
  Training set accuracy = 0.970500, Test set accuracy = 0.922500
 epoch 36/500. Took 0.555 seconds. 
  Full-batch training loss = 0.119772, test loss = 0.261391
  Training set accuracy = 0.971500, Test set accuracy = 0.922000
 epoch 37/500. Took 0.557 seconds. 
  Full-batch training loss = 0.116099, test loss = 0.260116
  Training set accuracy = 0.972000, Test set accuracy = 0.922700
 epoch 38/500. Took 0.55485 seconds. 
  Full-batch training loss = 0.114226, test loss = 0.259721
  Training set accuracy = 0.973000, Test set accuracy = 0.923500
 epoch 39/500. Took 0.55748 seconds. 
  Full-batch training loss = 0.109821, test loss = 0.256914
  Training set accuracy = 0.975500, Test set accuracy = 0.923900
 epoch 40/500. Took 0.56097 seconds. 
  Full-batch training loss = 0.107213, test loss = 0.258542
  Training set accuracy = 0.975000, Test set accuracy = 0.923900
 epoch 41/500. Took 0.55931 seconds. 
  Full-batch training loss = 0.105128, test loss = 0.258359
  Training set accuracy = 0.975000, Test set accuracy = 0.923900
 epoch 42/500. Took 0.56039 seconds. 
  Full-batch training loss = 0.101634, test loss = 0.257244
  Training set accuracy = 0.976000, Test set accuracy = 0.924400
 epoch 43/500. Took 0.56691 seconds. 
  Full-batch training loss = 0.099060, test loss = 0.256038
  Training set accuracy = 0.978000, Test set accuracy = 0.925000
 epoch 44/500. Took 0.56729 seconds. 
  Full-batch training loss = 0.096925, test loss = 0.255224
  Training set accuracy = 0.979000, Test set accuracy = 0.924500
 epoch 45/500. Took 0.56056 seconds. 
  Full-batch training loss = 0.094370, test loss = 0.257473
  Training set accuracy = 0.979000, Test set accuracy = 0.925100
 epoch 46/500. Took 0.55869 seconds. 
  Full-batch training loss = 0.092295, test loss = 0.255812
  Training set accuracy = 0.981500, Test set accuracy = 0.924600
 epoch 47/500. Took 0.56678 seconds. 
  Full-batch training loss = 0.089663, test loss = 0.255398
  Training set accuracy = 0.981000, Test set accuracy = 0.925100
 epoch 48/500. Took 0.55195 seconds. 
  Full-batch training loss = 0.089022, test loss = 0.256658
  Training set accuracy = 0.979000, Test set accuracy = 0.924800
 epoch 49/500. Took 0.55716 seconds. 
  Full-batch training loss = 0.085545, test loss = 0.256238
  Training set accuracy = 0.983000, Test set accuracy = 0.924200
 epoch 50/500. Took 0.55612 seconds. 
  Full-batch training loss = 0.083338, test loss = 0.254536
  Training set accuracy = 0.984500, Test set accuracy = 0.925500
 epoch 51/500. Took 0.5533 seconds. 
  Full-batch training loss = 0.081542, test loss = 0.255685
  Training set accuracy = 0.983500, Test set accuracy = 0.925000
 epoch 52/500. Took 0.55689 seconds. 
  Full-batch training loss = 0.079376, test loss = 0.254681
  Training set accuracy = 0.986000, Test set accuracy = 0.925700
 epoch 53/500. Took 0.55469 seconds. 
  Full-batch training loss = 0.077587, test loss = 0.255296
  Training set accuracy = 0.985000, Test set accuracy = 0.925500
 epoch 54/500. Took 0.55747 seconds. 
  Full-batch training loss = 0.076475, test loss = 0.255347
  Training set accuracy = 0.986500, Test set accuracy = 0.924500
 epoch 55/500. Took 0.55914 seconds. 
  Full-batch training loss = 0.074048, test loss = 0.254612
  Training set accuracy = 0.986500, Test set accuracy = 0.925800
 epoch 56/500. Took 0.55747 seconds. 
  Full-batch training loss = 0.072459, test loss = 0.254741
  Training set accuracy = 0.987500, Test set accuracy = 0.925600
 epoch 57/500. Took 0.55649 seconds. 
  Full-batch training loss = 0.070504, test loss = 0.254411
  Training set accuracy = 0.989500, Test set accuracy = 0.925400
 epoch 58/500. Took 0.5579 seconds. 
  Full-batch training loss = 0.069302, test loss = 0.254942
  Training set accuracy = 0.990000, Test set accuracy = 0.925600
 epoch 59/500. Took 0.55536 seconds. 
  Full-batch training loss = 0.067289, test loss = 0.254703
  Training set accuracy = 0.989500, Test set accuracy = 0.925700
 epoch 60/500. Took 0.55787 seconds. 
  Full-batch training loss = 0.065615, test loss = 0.254256
  Training set accuracy = 0.990000, Test set accuracy = 0.925700
 epoch 61/500. Took 0.55898 seconds. 
  Full-batch training loss = 0.064254, test loss = 0.254536
  Training set accuracy = 0.993000, Test set accuracy = 0.926200
 epoch 62/500. Took 0.57631 seconds. 
  Full-batch training loss = 0.063482, test loss = 0.255234
  Training set accuracy = 0.991500, Test set accuracy = 0.925700
 epoch 63/500. Took 0.55575 seconds. 
  Full-batch training loss = 0.062113, test loss = 0.256163
  Training set accuracy = 0.992000, Test set accuracy = 0.925400
 epoch 64/500. Took 0.64085 seconds. 
  Full-batch training loss = 0.060237, test loss = 0.254090
  Training set accuracy = 0.993000, Test set accuracy = 0.926100
 epoch 65/500. Took 0.56491 seconds. 
  Full-batch training loss = 0.058616, test loss = 0.254657
  Training set accuracy = 0.992000, Test set accuracy = 0.926600
 epoch 66/500. Took 0.56621 seconds. 
  Full-batch training loss = 0.057603, test loss = 0.254975
  Training set accuracy = 0.993000, Test set accuracy = 0.926400
 epoch 67/500. Took 0.55815 seconds. 
  Full-batch training loss = 0.056341, test loss = 0.254253
  Training set accuracy = 0.993500, Test set accuracy = 0.926700
 epoch 68/500. Took 0.5634 seconds. 
  Full-batch training loss = 0.054945, test loss = 0.254858
  Training set accuracy = 0.994500, Test set accuracy = 0.926500
 epoch 69/500. Took 0.55338 seconds. 
  Full-batch training loss = 0.053824, test loss = 0.254223
  Training set accuracy = 0.994500, Test set accuracy = 0.926800
 epoch 70/500. Took 0.56071 seconds. 
  Full-batch training loss = 0.052711, test loss = 0.255088
  Training set accuracy = 0.995000, Test set accuracy = 0.927100
 epoch 71/500. Took 0.57202 seconds. 
  Full-batch training loss = 0.052389, test loss = 0.256843
  Training set accuracy = 0.995500, Test set accuracy = 0.926500
 epoch 72/500. Took 0.55941 seconds. 
  Full-batch training loss = 0.050734, test loss = 0.254447
  Training set accuracy = 0.994000, Test set accuracy = 0.927600
 epoch 73/500. Took 0.56017 seconds. 
  Full-batch training loss = 0.049660, test loss = 0.255176
  Training set accuracy = 0.995500, Test set accuracy = 0.927700
 epoch 74/500. Took 0.56251 seconds. 
  Full-batch training loss = 0.048833, test loss = 0.255682
  Training set accuracy = 0.996500, Test set accuracy = 0.926700
 epoch 75/500. Took 0.55787 seconds. 
  Full-batch training loss = 0.047552, test loss = 0.255575
  Training set accuracy = 0.997000, Test set accuracy = 0.927500
 epoch 76/500. Took 0.55418 seconds. 
  Full-batch training loss = 0.046498, test loss = 0.256051
  Training set accuracy = 0.996000, Test set accuracy = 0.928000
 epoch 77/500. Took 0.55461 seconds. 
  Full-batch training loss = 0.045516, test loss = 0.255378
  Training set accuracy = 0.997000, Test set accuracy = 0.927800
 epoch 78/500. Took 0.55101 seconds. 
  Full-batch training loss = 0.044765, test loss = 0.255639
  Training set accuracy = 0.997000, Test set accuracy = 0.927300
 epoch 79/500. Took 0.55925 seconds. 
  Full-batch training loss = 0.043790, test loss = 0.256780
  Training set accuracy = 0.997000, Test set accuracy = 0.927300
 epoch 80/500. Took 0.55408 seconds. 
  Full-batch training loss = 0.043063, test loss = 0.256336
  Training set accuracy = 0.997500, Test set accuracy = 0.927800
 epoch 81/500. Took 0.56489 seconds. 
  Full-batch training loss = 0.042030, test loss = 0.255872
  Training set accuracy = 0.997500, Test set accuracy = 0.927900
 epoch 82/500. Took 0.56264 seconds. 
  Full-batch training loss = 0.041176, test loss = 0.255916
  Training set accuracy = 0.997500, Test set accuracy = 0.928200
 epoch 83/500. Took 0.55433 seconds. 
  Full-batch training loss = 0.040911, test loss = 0.256365
  Training set accuracy = 0.997000, Test set accuracy = 0.927800
 epoch 84/500. Took 0.5599 seconds. 
  Full-batch training loss = 0.039795, test loss = 0.257337
  Training set accuracy = 0.998000, Test set accuracy = 0.927400
 epoch 85/500. Took 0.56255 seconds. 
  Full-batch training loss = 0.038983, test loss = 0.256449
  Training set accuracy = 0.997500, Test set accuracy = 0.927700
 epoch 86/500. Took 0.55403 seconds. 
  Full-batch training loss = 0.038312, test loss = 0.257315
  Training set accuracy = 0.998000, Test set accuracy = 0.927400
 epoch 87/500. Took 0.56012 seconds. 
  Full-batch training loss = 0.037523, test loss = 0.256984
  Training set accuracy = 0.998000, Test set accuracy = 0.928000
 epoch 88/500. Took 0.55434 seconds. 
  Full-batch training loss = 0.036983, test loss = 0.257673
  Training set accuracy = 0.998500, Test set accuracy = 0.928100
 epoch 89/500. Took 0.55678 seconds. 
  Full-batch training loss = 0.036285, test loss = 0.257633
  Training set accuracy = 0.998500, Test set accuracy = 0.928400
 epoch 90/500. Took 0.56827 seconds. 
  Full-batch training loss = 0.035740, test loss = 0.257568
  Training set accuracy = 0.998500, Test set accuracy = 0.928700
 epoch 91/500. Took 0.5586 seconds. 
  Full-batch training loss = 0.035350, test loss = 0.257582
  Training set accuracy = 0.998000, Test set accuracy = 0.928400
 epoch 92/500. Took 0.55931 seconds. 
  Full-batch training loss = 0.034391, test loss = 0.258343
  Training set accuracy = 0.998500, Test set accuracy = 0.927900
 epoch 93/500. Took 0.56245 seconds. 
  Full-batch training loss = 0.033908, test loss = 0.258107
  Training set accuracy = 0.998500, Test set accuracy = 0.928100
 epoch 94/500. Took 0.56581 seconds. 
  Full-batch training loss = 0.033247, test loss = 0.258343
  Training set accuracy = 0.999000, Test set accuracy = 0.927700
 epoch 95/500. Took 0.56569 seconds. 
  Full-batch training loss = 0.032524, test loss = 0.258906
  Training set accuracy = 0.999000, Test set accuracy = 0.928900
 epoch 96/500. Took 0.56319 seconds. 
  Full-batch training loss = 0.032237, test loss = 0.258262
  Training set accuracy = 0.999000, Test set accuracy = 0.928600
 epoch 97/500. Took 0.55717 seconds. 
  Full-batch training loss = 0.031563, test loss = 0.259940
  Training set accuracy = 0.999000, Test set accuracy = 0.928300
 epoch 98/500. Took 0.55546 seconds. 
  Full-batch training loss = 0.031163, test loss = 0.258876
  Training set accuracy = 0.998500, Test set accuracy = 0.928600
 epoch 99/500. Took 0.56291 seconds. 
  Full-batch training loss = 0.030369, test loss = 0.259615
  Training set accuracy = 0.999000, Test set accuracy = 0.929000
 epoch 100/500. Took 0.56193 seconds. 
  Full-batch training loss = 0.029968, test loss = 0.259269
  Training set accuracy = 0.999000, Test set accuracy = 0.928400
 epoch 101/500. Took 0.55634 seconds. 
  Full-batch training loss = 0.029378, test loss = 0.259632
  Training set accuracy = 0.999000, Test set accuracy = 0.928200
 epoch 102/500. Took 0.57613 seconds. 
  Full-batch training loss = 0.029017, test loss = 0.260412
  Training set accuracy = 0.999000, Test set accuracy = 0.929100
 epoch 103/500. Took 0.55452 seconds. 
  Full-batch training loss = 0.028493, test loss = 0.260662
  Training set accuracy = 0.999000, Test set accuracy = 0.929200
 epoch 104/500. Took 0.56067 seconds. 
  Full-batch training loss = 0.027980, test loss = 0.260482
  Training set accuracy = 0.999000, Test set accuracy = 0.928800
 epoch 105/500. Took 0.56343 seconds. 
  Full-batch training loss = 0.027504, test loss = 0.260284
  Training set accuracy = 0.999000, Test set accuracy = 0.928700
 epoch 106/500. Took 0.5581 seconds. 
  Full-batch training loss = 0.027355, test loss = 0.260441
  Training set accuracy = 0.999000, Test set accuracy = 0.928900
 epoch 107/500. Took 0.57079 seconds. 
  Full-batch training loss = 0.027065, test loss = 0.262211
  Training set accuracy = 0.999500, Test set accuracy = 0.928800
 epoch 108/500. Took 0.56551 seconds. 
  Full-batch training loss = 0.026334, test loss = 0.260938
  Training set accuracy = 0.999000, Test set accuracy = 0.928400
 epoch 109/500. Took 0.55715 seconds. 
  Full-batch training loss = 0.025862, test loss = 0.261050
  Training set accuracy = 0.999000, Test set accuracy = 0.928300
 epoch 110/500. Took 0.55309 seconds. 
  Full-batch training loss = 0.025492, test loss = 0.261744
  Training set accuracy = 0.999500, Test set accuracy = 0.928900
 epoch 111/500. Took 0.55992 seconds. 
  Full-batch training loss = 0.025280, test loss = 0.261421
  Training set accuracy = 0.999000, Test set accuracy = 0.929000
 epoch 112/500. Took 0.55558 seconds. 
  Full-batch training loss = 0.024689, test loss = 0.262144
  Training set accuracy = 0.999500, Test set accuracy = 0.928700
 epoch 113/500. Took 0.55488 seconds. 
  Full-batch training loss = 0.024321, test loss = 0.262176
  Training set accuracy = 0.999500, Test set accuracy = 0.929200
 epoch 114/500. Took 0.55981 seconds. 
  Full-batch training loss = 0.023994, test loss = 0.262434
  Training set accuracy = 0.999500, Test set accuracy = 0.928800
 epoch 115/500. Took 0.56194 seconds. 
  Full-batch training loss = 0.023653, test loss = 0.262976
  Training set accuracy = 0.999500, Test set accuracy = 0.929500
 epoch 116/500. Took 0.56516 seconds. 
  Full-batch training loss = 0.023313, test loss = 0.262746
  Training set accuracy = 0.999500, Test set accuracy = 0.929300
 epoch 117/500. Took 0.56672 seconds. 
  Full-batch training loss = 0.022950, test loss = 0.262736
  Training set accuracy = 0.999500, Test set accuracy = 0.929000
 epoch 118/500. Took 0.55703 seconds. 
  Full-batch training loss = 0.022613, test loss = 0.263227
  Training set accuracy = 0.999500, Test set accuracy = 0.929300
 epoch 119/500. Took 0.5565 seconds. 
  Full-batch training loss = 0.022266, test loss = 0.263277
  Training set accuracy = 0.999500, Test set accuracy = 0.929400
 epoch 120/500. Took 0.56692 seconds. 
  Full-batch training loss = 0.021952, test loss = 0.263849
  Training set accuracy = 0.999500, Test set accuracy = 0.929200
 epoch 121/500. Took 0.5565 seconds. 
  Full-batch training loss = 0.021738, test loss = 0.263948
  Training set accuracy = 0.999500, Test set accuracy = 0.928900
 epoch 122/500. Took 0.55841 seconds. 
  Full-batch training loss = 0.021451, test loss = 0.263707
  Training set accuracy = 0.999500, Test set accuracy = 0.928900
 epoch 123/500. Took 0.55796 seconds. 
  Full-batch training loss = 0.021124, test loss = 0.264664
  Training set accuracy = 0.999500, Test set accuracy = 0.929100
 epoch 124/500. Took 0.55633 seconds. 
  Full-batch training loss = 0.020769, test loss = 0.264418
  Training set accuracy = 0.999500, Test set accuracy = 0.929400
 epoch 125/500. Took 0.55679 seconds. 
  Full-batch training loss = 0.020488, test loss = 0.264166
  Training set accuracy = 0.999500, Test set accuracy = 0.929100
 epoch 126/500. Took 0.55379 seconds. 
  Full-batch training loss = 0.020212, test loss = 0.265038
  Training set accuracy = 0.999500, Test set accuracy = 0.929400
 epoch 127/500. Took 0.56169 seconds. 
  Full-batch training loss = 0.019941, test loss = 0.264817
  Training set accuracy = 0.999500, Test set accuracy = 0.929700
 epoch 128/500. Took 0.55855 seconds. 
  Full-batch training loss = 0.019667, test loss = 0.265182
  Training set accuracy = 0.999500, Test set accuracy = 0.929400
 epoch 129/500. Took 0.56646 seconds. 
  Full-batch training loss = 0.019461, test loss = 0.265169
  Training set accuracy = 0.999500, Test set accuracy = 0.929200
 epoch 130/500. Took 0.55517 seconds. 
  Full-batch training loss = 0.019174, test loss = 0.265652
  Training set accuracy = 0.999500, Test set accuracy = 0.929500
 epoch 131/500. Took 0.55849 seconds. 
  Full-batch training loss = 0.018921, test loss = 0.266173
  Training set accuracy = 0.999500, Test set accuracy = 0.929700
 epoch 132/500. Took 0.56623 seconds. 
  Full-batch training loss = 0.018671, test loss = 0.266258
  Training set accuracy = 0.999500, Test set accuracy = 0.929300
 epoch 133/500. Took 0.55545 seconds. 
  Full-batch training loss = 0.018431, test loss = 0.266143
  Training set accuracy = 0.999500, Test set accuracy = 0.929200
 epoch 134/500. Took 0.56598 seconds. 
  Full-batch training loss = 0.018210, test loss = 0.266151
  Training set accuracy = 0.999500, Test set accuracy = 0.929200
 epoch 135/500. Took 0.56062 seconds. 
  Full-batch training loss = 0.018007, test loss = 0.266840
  Training set accuracy = 0.999500, Test set accuracy = 0.929500
 epoch 136/500. Took 0.64028 seconds. 
  Full-batch training loss = 0.017762, test loss = 0.266773
  Training set accuracy = 0.999500, Test set accuracy = 0.929300
 epoch 137/500. Took 0.55694 seconds. 
  Full-batch training loss = 0.017567, test loss = 0.267219
  Training set accuracy = 0.999500, Test set accuracy = 0.929400
 epoch 138/500. Took 0.5623 seconds. 
  Full-batch training loss = 0.017302, test loss = 0.267315
  Training set accuracy = 0.999500, Test set accuracy = 0.929400
 epoch 139/500. Took 0.556 seconds. 
  Full-batch training loss = 0.017166, test loss = 0.267981
  Training set accuracy = 0.999500, Test set accuracy = 0.929200
 epoch 140/500. Took 0.57352 seconds. 
  Full-batch training loss = 0.016870, test loss = 0.267430
  Training set accuracy = 0.999500, Test set accuracy = 0.929000
 epoch 141/500. Took 0.55609 seconds. 
  Full-batch training loss = 0.016701, test loss = 0.267384
  Training set accuracy = 0.999500, Test set accuracy = 0.928700
 epoch 142/500. Took 0.55421 seconds. 
  Full-batch training loss = 0.016474, test loss = 0.267989
  Training set accuracy = 0.999500, Test set accuracy = 0.928900
 epoch 143/500. Took 0.56846 seconds. 
  Full-batch training loss = 0.016288, test loss = 0.268156
  Training set accuracy = 0.999500, Test set accuracy = 0.929700
 epoch 144/500. Took 0.55949 seconds. 
  Full-batch training loss = 0.016089, test loss = 0.268257
  Training set accuracy = 0.999500, Test set accuracy = 0.929600
 epoch 145/500. Took 0.56114 seconds. 
  Full-batch training loss = 0.015905, test loss = 0.268765
  Training set accuracy = 0.999500, Test set accuracy = 0.929400
 epoch 146/500. Took 0.56238 seconds. 
  Full-batch training loss = 0.015719, test loss = 0.268828
  Training set accuracy = 0.999500, Test set accuracy = 0.929400
 epoch 147/500. Took 0.55978 seconds. 
  Full-batch training loss = 0.015550, test loss = 0.268752
  Training set accuracy = 0.999500, Test set accuracy = 0.929100
 epoch 148/500. Took 0.56769 seconds. 
  Full-batch training loss = 0.015368, test loss = 0.268855
  Training set accuracy = 0.999500, Test set accuracy = 0.928900
 epoch 149/500. Took 0.56773 seconds. 
  Full-batch training loss = 0.015190, test loss = 0.268953
  Training set accuracy = 0.999500, Test set accuracy = 0.929400
 epoch 150/500. Took 0.55447 seconds. 
  Full-batch training loss = 0.014999, test loss = 0.269502
  Training set accuracy = 0.999500, Test set accuracy = 0.929400
 epoch 151/500. Took 0.55883 seconds. 
  Full-batch training loss = 0.014839, test loss = 0.269627
  Training set accuracy = 0.999500, Test set accuracy = 0.929100
 epoch 152/500. Took 0.56024 seconds. 
  Full-batch training loss = 0.014688, test loss = 0.269854
  Training set accuracy = 0.999500, Test set accuracy = 0.929000
 epoch 153/500. Took 0.56341 seconds. 
  Full-batch training loss = 0.014510, test loss = 0.270558
  Training set accuracy = 0.999500, Test set accuracy = 0.929300
 epoch 154/500. Took 0.55821 seconds. 
  Full-batch training loss = 0.014347, test loss = 0.270437
  Training set accuracy = 0.999500, Test set accuracy = 0.929400
 epoch 155/500. Took 0.56143 seconds. 
  Full-batch training loss = 0.014196, test loss = 0.270354
  Training set accuracy = 0.999500, Test set accuracy = 0.929800
 epoch 156/500. Took 0.56077 seconds. 
  Full-batch training loss = 0.014070, test loss = 0.271095
  Training set accuracy = 0.999500, Test set accuracy = 0.929300
 epoch 157/500. Took 0.5573 seconds. 
  Full-batch training loss = 0.013877, test loss = 0.270704
  Training set accuracy = 0.999500, Test set accuracy = 0.929300
 epoch 158/500. Took 0.55697 seconds. 
  Full-batch training loss = 0.013733, test loss = 0.270913
  Training set accuracy = 0.999500, Test set accuracy = 0.929000
 epoch 159/500. Took 0.55715 seconds. 
  Full-batch training loss = 0.013599, test loss = 0.271601
  Training set accuracy = 0.999500, Test set accuracy = 0.929300
 epoch 160/500. Took 0.56476 seconds. 
  Full-batch training loss = 0.013451, test loss = 0.271270
  Training set accuracy = 0.999500, Test set accuracy = 0.929300
 epoch 161/500. Took 0.55951 seconds. 
  Full-batch training loss = 0.013297, test loss = 0.271521
  Training set accuracy = 0.999500, Test set accuracy = 0.929300
 epoch 162/500. Took 0.56419 seconds. 
  Full-batch training loss = 0.013176, test loss = 0.271601
  Training set accuracy = 0.999500, Test set accuracy = 0.929500
 epoch 163/500. Took 0.55658 seconds. 
  Full-batch training loss = 0.013035, test loss = 0.271973
  Training set accuracy = 0.999500, Test set accuracy = 0.929100
 epoch 164/500. Took 0.55841 seconds. 
  Full-batch training loss = 0.012885, test loss = 0.271966
  Training set accuracy = 0.999500, Test set accuracy = 0.929500
 epoch 165/500. Took 0.55419 seconds. 
  Full-batch training loss = 0.012753, test loss = 0.272186
  Training set accuracy = 0.999500, Test set accuracy = 0.929400
 epoch 166/500. Took 0.55353 seconds. 
  Full-batch training loss = 0.012633, test loss = 0.272477
  Training set accuracy = 0.999500, Test set accuracy = 0.929300
 epoch 167/500. Took 0.56912 seconds. 
  Full-batch training loss = 0.012502, test loss = 0.272596
  Training set accuracy = 0.999500, Test set accuracy = 0.929300
 epoch 168/500. Took 0.55885 seconds. 
  Full-batch training loss = 0.012375, test loss = 0.272804
  Training set accuracy = 1.000000, Test set accuracy = 0.929200
 epoch 169/500. Took 0.55954 seconds. 
  Full-batch training loss = 0.012265, test loss = 0.273260
  Training set accuracy = 1.000000, Test set accuracy = 0.929600
 epoch 170/500. Took 0.55448 seconds. 
  Full-batch training loss = 0.012133, test loss = 0.273208
  Training set accuracy = 1.000000, Test set accuracy = 0.929200
 epoch 171/500. Took 0.55527 seconds. 
  Full-batch training loss = 0.012058, test loss = 0.273724
  Training set accuracy = 1.000000, Test set accuracy = 0.929200
 epoch 172/500. Took 0.55827 seconds. 
  Full-batch training loss = 0.011901, test loss = 0.273481
  Training set accuracy = 1.000000, Test set accuracy = 0.929300
 epoch 173/500. Took 0.55747 seconds. 
  Full-batch training loss = 0.011786, test loss = 0.273875
  Training set accuracy = 1.000000, Test set accuracy = 0.929400
 epoch 174/500. Took 0.55924 seconds. 
  Full-batch training loss = 0.011666, test loss = 0.273906
  Training set accuracy = 1.000000, Test set accuracy = 0.929500
 epoch 175/500. Took 0.56203 seconds. 
  Full-batch training loss = 0.011564, test loss = 0.273626
  Training set accuracy = 1.000000, Test set accuracy = 0.929300
 epoch 176/500. Took 0.5576 seconds. 
  Full-batch training loss = 0.011447, test loss = 0.274301
  Training set accuracy = 1.000000, Test set accuracy = 0.929300
 epoch 177/500. Took 0.55964 seconds. 
  Full-batch training loss = 0.011336, test loss = 0.274466
  Training set accuracy = 1.000000, Test set accuracy = 0.929200
 epoch 178/500. Took 0.55545 seconds. 
  Full-batch training loss = 0.011235, test loss = 0.274625
  Training set accuracy = 1.000000, Test set accuracy = 0.929400
 epoch 179/500. Took 0.5555 seconds. 
  Full-batch training loss = 0.011124, test loss = 0.274825
  Training set accuracy = 1.000000, Test set accuracy = 0.929400
 epoch 180/500. Took 0.55743 seconds. 
  Full-batch training loss = 0.011021, test loss = 0.275246
  Training set accuracy = 1.000000, Test set accuracy = 0.929300
 epoch 181/500. Took 0.55831 seconds. 
  Full-batch training loss = 0.010935, test loss = 0.275423
  Training set accuracy = 1.000000, Test set accuracy = 0.929200
 epoch 182/500. Took 0.55811 seconds. 
  Full-batch training loss = 0.010828, test loss = 0.275157
  Training set accuracy = 1.000000, Test set accuracy = 0.929400
 epoch 183/500. Took 0.56383 seconds. 
  Full-batch training loss = 0.010718, test loss = 0.275516
  Training set accuracy = 1.000000, Test set accuracy = 0.929600
 epoch 184/500. Took 0.56007 seconds. 
  Full-batch training loss = 0.010620, test loss = 0.275707
  Training set accuracy = 1.000000, Test set accuracy = 0.929200
 epoch 185/500. Took 0.56376 seconds. 
  Full-batch training loss = 0.010533, test loss = 0.275569
  Training set accuracy = 1.000000, Test set accuracy = 0.929200
 epoch 186/500. Took 0.5545 seconds. 
  Full-batch training loss = 0.010432, test loss = 0.275809
  Training set accuracy = 1.000000, Test set accuracy = 0.929200
 epoch 187/500. Took 0.55631 seconds. 
  Full-batch training loss = 0.010349, test loss = 0.276339
  Training set accuracy = 1.000000, Test set accuracy = 0.929500
 epoch 188/500. Took 0.57631 seconds. 
  Full-batch training loss = 0.010255, test loss = 0.276472
  Training set accuracy = 1.000000, Test set accuracy = 0.929100
 epoch 189/500. Took 0.55623 seconds. 
  Full-batch training loss = 0.010159, test loss = 0.276622
  Training set accuracy = 1.000000, Test set accuracy = 0.929500
 epoch 190/500. Took 0.5554 seconds. 
  Full-batch training loss = 0.010076, test loss = 0.276646
  Training set accuracy = 1.000000, Test set accuracy = 0.929300
 epoch 191/500. Took 0.55986 seconds. 
  Full-batch training loss = 0.009982, test loss = 0.276832
  Training set accuracy = 1.000000, Test set accuracy = 0.929400
 epoch 192/500. Took 0.56641 seconds. 
  Full-batch training loss = 0.009898, test loss = 0.277212
  Training set accuracy = 1.000000, Test set accuracy = 0.929500
 epoch 193/500. Took 0.57223 seconds. 
  Full-batch training loss = 0.009814, test loss = 0.277216
  Training set accuracy = 1.000000, Test set accuracy = 0.929600
 epoch 194/500. Took 0.56072 seconds. 
  Full-batch training loss = 0.009731, test loss = 0.277321
  Training set accuracy = 1.000000, Test set accuracy = 0.929200
 epoch 195/500. Took 0.55446 seconds. 
  Full-batch training loss = 0.009646, test loss = 0.277532
  Training set accuracy = 1.000000, Test set accuracy = 0.929200
 epoch 196/500. Took 0.55895 seconds. 
  Full-batch training loss = 0.009567, test loss = 0.277461
  Training set accuracy = 1.000000, Test set accuracy = 0.929500
 epoch 197/500. Took 0.55608 seconds. 
  Full-batch training loss = 0.009487, test loss = 0.278025
  Training set accuracy = 1.000000, Test set accuracy = 0.929300
 epoch 198/500. Took 0.56311 seconds. 
  Full-batch training loss = 0.009403, test loss = 0.277965
  Training set accuracy = 1.000000, Test set accuracy = 0.929400
 epoch 199/500. Took 0.56312 seconds. 
  Full-batch training loss = 0.009333, test loss = 0.278336
  Training set accuracy = 1.000000, Test set accuracy = 0.929200
 epoch 200/500. Took 0.55611 seconds. 
  Full-batch training loss = 0.009250, test loss = 0.278313
  Training set accuracy = 1.000000, Test set accuracy = 0.929300
 epoch 201/500. Took 0.63472 seconds. 
  Full-batch training loss = 0.009177, test loss = 0.278490
  Training set accuracy = 1.000000, Test set accuracy = 0.929200
 epoch 202/500. Took 0.5632 seconds. 
  Full-batch training loss = 0.009108, test loss = 0.278727
  Training set accuracy = 1.000000, Test set accuracy = 0.929600
 epoch 203/500. Took 0.55763 seconds. 
  Full-batch training loss = 0.009028, test loss = 0.278579
  Training set accuracy = 1.000000, Test set accuracy = 0.929400
 epoch 204/500. Took 0.55734 seconds. 
  Full-batch training loss = 0.008956, test loss = 0.279036
  Training set accuracy = 1.000000, Test set accuracy = 0.929400
 epoch 205/500. Took 0.56557 seconds. 
  Full-batch training loss = 0.008883, test loss = 0.278944
  Training set accuracy = 1.000000, Test set accuracy = 0.929300
 epoch 206/500. Took 0.56388 seconds. 
  Full-batch training loss = 0.008816, test loss = 0.279204
  Training set accuracy = 1.000000, Test set accuracy = 0.929600
 epoch 207/500. Took 0.5659 seconds. 
  Full-batch training loss = 0.008744, test loss = 0.279194
  Training set accuracy = 1.000000, Test set accuracy = 0.929500
 epoch 208/500. Took 0.55831 seconds. 
  Full-batch training loss = 0.008679, test loss = 0.279617
  Training set accuracy = 1.000000, Test set accuracy = 0.929600
 epoch 209/500. Took 0.5564 seconds. 
  Full-batch training loss = 0.008604, test loss = 0.279653
  Training set accuracy = 1.000000, Test set accuracy = 0.929300
 epoch 210/500. Took 0.56629 seconds. 
  Full-batch training loss = 0.008537, test loss = 0.279838
  Training set accuracy = 1.000000, Test set accuracy = 0.929500
 epoch 211/500. Took 0.55984 seconds. 
  Full-batch training loss = 0.008473, test loss = 0.279859
  Training set accuracy = 1.000000, Test set accuracy = 0.929500
 epoch 212/500. Took 0.55994 seconds. 
  Full-batch training loss = 0.008409, test loss = 0.280148
  Training set accuracy = 1.000000, Test set accuracy = 0.929400
 epoch 213/500. Took 0.55534 seconds. 
  Full-batch training loss = 0.008348, test loss = 0.280130
  Training set accuracy = 1.000000, Test set accuracy = 0.929600
 epoch 214/500. Took 0.55807 seconds. 
  Full-batch training loss = 0.008284, test loss = 0.280280
  Training set accuracy = 1.000000, Test set accuracy = 0.929300
 epoch 215/500. Took 0.5676 seconds. 
  Full-batch training loss = 0.008217, test loss = 0.280539
  Training set accuracy = 1.000000, Test set accuracy = 0.929300
 epoch 216/500. Took 0.55545 seconds. 
  Full-batch training loss = 0.008158, test loss = 0.280713
  Training set accuracy = 1.000000, Test set accuracy = 0.929400
 epoch 217/500. Took 0.55663 seconds. 
  Full-batch training loss = 0.008094, test loss = 0.280886
  Training set accuracy = 1.000000, Test set accuracy = 0.929400
 epoch 218/500. Took 0.55637 seconds. 
  Full-batch training loss = 0.008040, test loss = 0.280941
  Training set accuracy = 1.000000, Test set accuracy = 0.929800
 epoch 219/500. Took 0.55747 seconds. 
  Full-batch training loss = 0.007977, test loss = 0.281196
  Training set accuracy = 1.000000, Test set accuracy = 0.929500
 epoch 220/500. Took 0.56324 seconds. 
  Full-batch training loss = 0.007920, test loss = 0.281273
  Training set accuracy = 1.000000, Test set accuracy = 0.929600
 epoch 221/500. Took 0.56421 seconds. 
  Full-batch training loss = 0.007859, test loss = 0.281478
  Training set accuracy = 1.000000, Test set accuracy = 0.929800
 epoch 222/500. Took 0.55549 seconds. 
  Full-batch training loss = 0.007803, test loss = 0.281670
  Training set accuracy = 1.000000, Test set accuracy = 0.929600
 epoch 223/500. Took 0.55917 seconds. 
  Full-batch training loss = 0.007746, test loss = 0.281641
  Training set accuracy = 1.000000, Test set accuracy = 0.929700
 epoch 224/500. Took 0.55678 seconds. 
  Full-batch training loss = 0.007690, test loss = 0.281831
  Training set accuracy = 1.000000, Test set accuracy = 0.929400
 epoch 225/500. Took 0.55527 seconds. 
  Full-batch training loss = 0.007635, test loss = 0.282162
  Training set accuracy = 1.000000, Test set accuracy = 0.929400
 epoch 226/500. Took 0.55723 seconds. 
  Full-batch training loss = 0.007582, test loss = 0.282305
  Training set accuracy = 1.000000, Test set accuracy = 0.929600
 epoch 227/500. Took 0.55611 seconds. 
  Full-batch training loss = 0.007527, test loss = 0.282277
  Training set accuracy = 1.000000, Test set accuracy = 0.929700
 epoch 228/500. Took 0.55997 seconds. 
  Full-batch training loss = 0.007475, test loss = 0.282338
  Training set accuracy = 1.000000, Test set accuracy = 0.929500
 epoch 229/500. Took 0.56562 seconds. 
  Full-batch training loss = 0.007424, test loss = 0.282619
  Training set accuracy = 1.000000, Test set accuracy = 0.929800
 epoch 230/500. Took 0.56901 seconds. 
  Full-batch training loss = 0.007371, test loss = 0.282669
  Training set accuracy = 1.000000, Test set accuracy = 0.929600
 epoch 231/500. Took 0.56454 seconds. 
  Full-batch training loss = 0.007319, test loss = 0.282783
  Training set accuracy = 1.000000, Test set accuracy = 0.929700
 epoch 232/500. Took 0.55107 seconds. 
  Full-batch training loss = 0.007268, test loss = 0.283061
  Training set accuracy = 1.000000, Test set accuracy = 0.929800
 epoch 233/500. Took 0.55616 seconds. 
  Full-batch training loss = 0.007219, test loss = 0.283003
  Training set accuracy = 1.000000, Test set accuracy = 0.929600
 epoch 234/500. Took 0.55353 seconds. 
  Full-batch training loss = 0.007169, test loss = 0.283222
  Training set accuracy = 1.000000, Test set accuracy = 0.929700
 epoch 235/500. Took 0.55762 seconds. 
  Full-batch training loss = 0.007131, test loss = 0.283549
  Training set accuracy = 1.000000, Test set accuracy = 0.929800
 epoch 236/500. Took 0.55623 seconds. 
  Full-batch training loss = 0.007071, test loss = 0.283591
  Training set accuracy = 1.000000, Test set accuracy = 0.929700
 epoch 237/500. Took 0.56882 seconds. 
  Full-batch training loss = 0.007025, test loss = 0.283681
  Training set accuracy = 1.000000, Test set accuracy = 0.929700
 epoch 238/500. Took 0.56804 seconds. 
  Full-batch training loss = 0.006979, test loss = 0.283926
  Training set accuracy = 1.000000, Test set accuracy = 0.929700
 epoch 239/500. Took 0.56021 seconds. 
  Full-batch training loss = 0.006932, test loss = 0.284061
  Training set accuracy = 1.000000, Test set accuracy = 0.929700
 epoch 240/500. Took 0.55878 seconds. 
  Full-batch training loss = 0.006885, test loss = 0.283938
  Training set accuracy = 1.000000, Test set accuracy = 0.929500
 epoch 241/500. Took 0.55767 seconds. 
  Full-batch training loss = 0.006839, test loss = 0.284210
  Training set accuracy = 1.000000, Test set accuracy = 0.929500
 epoch 242/500. Took 0.55746 seconds. 
  Full-batch training loss = 0.006795, test loss = 0.284308
  Training set accuracy = 1.000000, Test set accuracy = 0.929500
 epoch 243/500. Took 0.61956 seconds. 
  Full-batch training loss = 0.006750, test loss = 0.284330
  Training set accuracy = 1.000000, Test set accuracy = 0.929600
 epoch 244/500. Took 0.56264 seconds. 
  Full-batch training loss = 0.006705, test loss = 0.284663
  Training set accuracy = 1.000000, Test set accuracy = 0.929700
 epoch 245/500. Took 0.55058 seconds. 
  Full-batch training loss = 0.006662, test loss = 0.284863
  Training set accuracy = 1.000000, Test set accuracy = 0.929900
 epoch 246/500. Took 0.55889 seconds. 
  Full-batch training loss = 0.006625, test loss = 0.284703
  Training set accuracy = 1.000000, Test set accuracy = 0.929800
 epoch 247/500. Took 0.55713 seconds. 
  Full-batch training loss = 0.006580, test loss = 0.285082
  Training set accuracy = 1.000000, Test set accuracy = 0.929600
 epoch 248/500. Took 0.5604 seconds. 
  Full-batch training loss = 0.006535, test loss = 0.285146
  Training set accuracy = 1.000000, Test set accuracy = 0.929400
 epoch 249/500. Took 0.56392 seconds. 
  Full-batch training loss = 0.006493, test loss = 0.285276
  Training set accuracy = 1.000000, Test set accuracy = 0.929900
 epoch 250/500. Took 0.57082 seconds. 
  Full-batch training loss = 0.006451, test loss = 0.285284
  Training set accuracy = 1.000000, Test set accuracy = 0.929800
 epoch 251/500. Took 0.55786 seconds. 
  Full-batch training loss = 0.006412, test loss = 0.285482
  Training set accuracy = 1.000000, Test set accuracy = 0.929800
 epoch 252/500. Took 0.55485 seconds. 
  Full-batch training loss = 0.006371, test loss = 0.285740
  Training set accuracy = 1.000000, Test set accuracy = 0.929900
 epoch 253/500. Took 0.56299 seconds. 
  Full-batch training loss = 0.006331, test loss = 0.285847
  Training set accuracy = 1.000000, Test set accuracy = 0.929800
 epoch 254/500. Took 0.55494 seconds. 
  Full-batch training loss = 0.006293, test loss = 0.285958
  Training set accuracy = 1.000000, Test set accuracy = 0.929900
 epoch 255/500. Took 0.57333 seconds. 
  Full-batch training loss = 0.006254, test loss = 0.285950
  Training set accuracy = 1.000000, Test set accuracy = 0.929800
 epoch 256/500. Took 0.56526 seconds. 
  Full-batch training loss = 0.006216, test loss = 0.286178
  Training set accuracy = 1.000000, Test set accuracy = 0.929800
 epoch 257/500. Took 0.55171 seconds. 
  Full-batch training loss = 0.006178, test loss = 0.286203
  Training set accuracy = 1.000000, Test set accuracy = 0.929700
 epoch 258/500. Took 0.5529 seconds. 
  Full-batch training loss = 0.006141, test loss = 0.286517
  Training set accuracy = 1.000000, Test set accuracy = 0.929800
 epoch 259/500. Took 0.55937 seconds. 
  Full-batch training loss = 0.006103, test loss = 0.286415
  Training set accuracy = 1.000000, Test set accuracy = 0.929700
 epoch 260/500. Took 0.55813 seconds. 
  Full-batch training loss = 0.006065, test loss = 0.286628
  Training set accuracy = 1.000000, Test set accuracy = 0.929800
 epoch 261/500. Took 0.55725 seconds. 
  Full-batch training loss = 0.006029, test loss = 0.286805
  Training set accuracy = 1.000000, Test set accuracy = 0.929800
 epoch 262/500. Took 0.5559 seconds. 
  Full-batch training loss = 0.005992, test loss = 0.286825
  Training set accuracy = 1.000000, Test set accuracy = 0.929700
 epoch 263/500. Took 0.56664 seconds. 
  Full-batch training loss = 0.005958, test loss = 0.287059
  Training set accuracy = 1.000000, Test set accuracy = 0.929800
 epoch 264/500. Took 0.56542 seconds. 
  Full-batch training loss = 0.005922, test loss = 0.287205
  Training set accuracy = 1.000000, Test set accuracy = 0.929900
 epoch 265/500. Took 0.55404 seconds. 
  Full-batch training loss = 0.005893, test loss = 0.287438
  Training set accuracy = 1.000000, Test set accuracy = 0.929800
 epoch 266/500. Took 0.55534 seconds. 
  Full-batch training loss = 0.005852, test loss = 0.287423
  Training set accuracy = 1.000000, Test set accuracy = 0.929700
 epoch 267/500. Took 0.55658 seconds. 
  Full-batch training loss = 0.005818, test loss = 0.287553
  Training set accuracy = 1.000000, Test set accuracy = 0.929900
 epoch 268/500. Took 0.55864 seconds. 
  Full-batch training loss = 0.005785, test loss = 0.287750
  Training set accuracy = 1.000000, Test set accuracy = 0.930000
 epoch 269/500. Took 0.55601 seconds. 
  Full-batch training loss = 0.005752, test loss = 0.287790
  Training set accuracy = 1.000000, Test set accuracy = 0.929900
 epoch 270/500. Took 0.55403 seconds. 
  Full-batch training loss = 0.005721, test loss = 0.287911
  Training set accuracy = 1.000000, Test set accuracy = 0.930000
 epoch 271/500. Took 0.55503 seconds. 
  Full-batch training loss = 0.005684, test loss = 0.287996
  Training set accuracy = 1.000000, Test set accuracy = 0.929900
 epoch 272/500. Took 0.55628 seconds. 
  Full-batch training loss = 0.005651, test loss = 0.288138
  Training set accuracy = 1.000000, Test set accuracy = 0.929900
 epoch 273/500. Took 0.56219 seconds. 
  Full-batch training loss = 0.005619, test loss = 0.288233
  Training set accuracy = 1.000000, Test set accuracy = 0.929900
 epoch 274/500. Took 0.55782 seconds. 
  Full-batch training loss = 0.005589, test loss = 0.288301
  Training set accuracy = 1.000000, Test set accuracy = 0.930100
 epoch 275/500. Took 0.55543 seconds. 
  Full-batch training loss = 0.005557, test loss = 0.288567
  Training set accuracy = 1.000000, Test set accuracy = 0.929700
 epoch 276/500. Took 0.55405 seconds. 
  Full-batch training loss = 0.005526, test loss = 0.288678
  Training set accuracy = 1.000000, Test set accuracy = 0.929800
 epoch 277/500. Took 0.55428 seconds. 
  Full-batch training loss = 0.005496, test loss = 0.288631
  Training set accuracy = 1.000000, Test set accuracy = 0.929800
 epoch 278/500. Took 0.55652 seconds. 
  Full-batch training loss = 0.005466, test loss = 0.288724
  Training set accuracy = 1.000000, Test set accuracy = 0.929700
 epoch 279/500. Took 0.5589 seconds. 
  Full-batch training loss = 0.005436, test loss = 0.289001
  Training set accuracy = 1.000000, Test set accuracy = 0.929800
 epoch 280/500. Took 0.55551 seconds. 
  Full-batch training loss = 0.005403, test loss = 0.289038
  Training set accuracy = 1.000000, Test set accuracy = 0.930100
 epoch 281/500. Took 0.55931 seconds. 
  Full-batch training loss = 0.005373, test loss = 0.289129
  Training set accuracy = 1.000000, Test set accuracy = 0.929900
 epoch 282/500. Took 0.5567 seconds. 
  Full-batch training loss = 0.005344, test loss = 0.289262
  Training set accuracy = 1.000000, Test set accuracy = 0.929700
 epoch 283/500. Took 0.55525 seconds. 
  Full-batch training loss = 0.005316, test loss = 0.289496
  Training set accuracy = 1.000000, Test set accuracy = 0.929700
 epoch 284/500. Took 0.55068 seconds. 
  Full-batch training loss = 0.005286, test loss = 0.289548
  Training set accuracy = 1.000000, Test set accuracy = 0.929700
 epoch 285/500. Took 0.55721 seconds. 
  Full-batch training loss = 0.005257, test loss = 0.289438
  Training set accuracy = 1.000000, Test set accuracy = 0.929900
 epoch 286/500. Took 0.5683 seconds. 
  Full-batch training loss = 0.005229, test loss = 0.289773
  Training set accuracy = 1.000000, Test set accuracy = 0.930100
 epoch 287/500. Took 0.55785 seconds. 
  Full-batch training loss = 0.005202, test loss = 0.289627
  Training set accuracy = 1.000000, Test set accuracy = 0.929900
 epoch 288/500. Took 0.56136 seconds. 
  Full-batch training loss = 0.005174, test loss = 0.289933
  Training set accuracy = 1.000000, Test set accuracy = 0.929900
 epoch 289/500. Took 0.56066 seconds. 
  Full-batch training loss = 0.005147, test loss = 0.290163
  Training set accuracy = 1.000000, Test set accuracy = 0.930100
 epoch 290/500. Took 0.55594 seconds. 
  Full-batch training loss = 0.005118, test loss = 0.290345
  Training set accuracy = 1.000000, Test set accuracy = 0.929700
 epoch 291/500. Took 0.55841 seconds. 
  Full-batch training loss = 0.005091, test loss = 0.290220
  Training set accuracy = 1.000000, Test set accuracy = 0.929900
 epoch 292/500. Took 0.55289 seconds. 
  Full-batch training loss = 0.005064, test loss = 0.290448
  Training set accuracy = 1.000000, Test set accuracy = 0.929900
 epoch 293/500. Took 0.56009 seconds. 
  Full-batch training loss = 0.005038, test loss = 0.290539
  Training set accuracy = 1.000000, Test set accuracy = 0.929900
 epoch 294/500. Took 0.55872 seconds. 
  Full-batch training loss = 0.005011, test loss = 0.290650
  Training set accuracy = 1.000000, Test set accuracy = 0.929700
 epoch 295/500. Took 0.56757 seconds. 
  Full-batch training loss = 0.004985, test loss = 0.290781
  Training set accuracy = 1.000000, Test set accuracy = 0.930100
 epoch 296/500. Took 0.56332 seconds. 
  Full-batch training loss = 0.004959, test loss = 0.290749
  Training set accuracy = 1.000000, Test set accuracy = 0.929700
 epoch 297/500. Took 0.559 seconds. 
  Full-batch training loss = 0.004934, test loss = 0.291070
  Training set accuracy = 1.000000, Test set accuracy = 0.929800
 epoch 298/500. Took 0.56973 seconds. 
  Full-batch training loss = 0.004908, test loss = 0.291191
  Training set accuracy = 1.000000, Test set accuracy = 0.929900
 epoch 299/500. Took 0.56104 seconds. 
  Full-batch training loss = 0.004882, test loss = 0.291295
  Training set accuracy = 1.000000, Test set accuracy = 0.930000
 epoch 300/500. Took 0.55897 seconds. 
  Full-batch training loss = 0.004858, test loss = 0.291112
  Training set accuracy = 1.000000, Test set accuracy = 0.930000
 epoch 301/500. Took 0.5567 seconds. 
  Full-batch training loss = 0.004834, test loss = 0.291364
  Training set accuracy = 1.000000, Test set accuracy = 0.929900
 epoch 302/500. Took 0.55855 seconds. 
  Full-batch training loss = 0.004808, test loss = 0.291569
  Training set accuracy = 1.000000, Test set accuracy = 0.929800
 epoch 303/500. Took 0.55868 seconds. 
  Full-batch training loss = 0.004784, test loss = 0.291686
  Training set accuracy = 1.000000, Test set accuracy = 0.930000
 epoch 304/500. Took 0.57134 seconds. 
  Full-batch training loss = 0.004760, test loss = 0.291697
  Training set accuracy = 1.000000, Test set accuracy = 0.930000
 epoch 305/500. Took 0.58586 seconds. 
  Full-batch training loss = 0.004737, test loss = 0.291825
  Training set accuracy = 1.000000, Test set accuracy = 0.929800
 epoch 306/500. Took 0.55969 seconds. 
  Full-batch training loss = 0.004713, test loss = 0.291964
  Training set accuracy = 1.000000, Test set accuracy = 0.929900
 epoch 307/500. Took 0.55713 seconds. 
  Full-batch training loss = 0.004690, test loss = 0.292175
  Training set accuracy = 1.000000, Test set accuracy = 0.929800
 epoch 308/500. Took 0.55919 seconds. 
  Full-batch training loss = 0.004666, test loss = 0.292160
  Training set accuracy = 1.000000, Test set accuracy = 0.929900
 epoch 309/500. Took 0.56255 seconds. 
  Full-batch training loss = 0.004647, test loss = 0.292105
  Training set accuracy = 1.000000, Test set accuracy = 0.930000
 epoch 310/500. Took 0.5577 seconds. 
  Full-batch training loss = 0.004620, test loss = 0.292389
  Training set accuracy = 1.000000, Test set accuracy = 0.929900
 epoch 311/500. Took 0.55744 seconds. 
  Full-batch training loss = 0.004598, test loss = 0.292496
  Training set accuracy = 1.000000, Test set accuracy = 0.929900
 epoch 312/500. Took 0.6287 seconds. 
  Full-batch training loss = 0.004575, test loss = 0.292535
  Training set accuracy = 1.000000, Test set accuracy = 0.929800
 epoch 313/500. Took 0.55874 seconds. 
  Full-batch training loss = 0.004554, test loss = 0.292717
  Training set accuracy = 1.000000, Test set accuracy = 0.930000
 epoch 314/500. Took 0.56666 seconds. 
  Full-batch training loss = 0.004532, test loss = 0.292790
  Training set accuracy = 1.000000, Test set accuracy = 0.930000
 epoch 315/500. Took 0.5573 seconds. 
  Full-batch training loss = 0.004509, test loss = 0.292908
  Training set accuracy = 1.000000, Test set accuracy = 0.929800
 epoch 316/500. Took 0.55727 seconds. 
  Full-batch training loss = 0.004488, test loss = 0.293065
  Training set accuracy = 1.000000, Test set accuracy = 0.930300
 epoch 317/500. Took 0.56005 seconds. 
  Full-batch training loss = 0.004467, test loss = 0.293097
  Training set accuracy = 1.000000, Test set accuracy = 0.930100
 epoch 318/500. Took 0.5907 seconds. 
  Full-batch training loss = 0.004446, test loss = 0.293069
  Training set accuracy = 1.000000, Test set accuracy = 0.930200
 epoch 319/500. Took 0.55668 seconds. 
  Full-batch training loss = 0.004424, test loss = 0.293135
  Training set accuracy = 1.000000, Test set accuracy = 0.929900
 epoch 320/500. Took 0.55663 seconds. 
  Full-batch training loss = 0.004403, test loss = 0.293298
  Training set accuracy = 1.000000, Test set accuracy = 0.930000
 epoch 321/500. Took 0.55442 seconds. 
  Full-batch training loss = 0.004382, test loss = 0.293481
  Training set accuracy = 1.000000, Test set accuracy = 0.930000
 epoch 322/500. Took 0.56333 seconds. 
  Full-batch training loss = 0.004361, test loss = 0.293609
  Training set accuracy = 1.000000, Test set accuracy = 0.930000
 epoch 323/500. Took 0.55767 seconds. 
  Full-batch training loss = 0.004342, test loss = 0.293575
  Training set accuracy = 1.000000, Test set accuracy = 0.930000
 epoch 324/500. Took 0.56285 seconds. 
  Full-batch training loss = 0.004322, test loss = 0.293830
  Training set accuracy = 1.000000, Test set accuracy = 0.930000
 epoch 325/500. Took 0.56024 seconds. 
  Full-batch training loss = 0.004301, test loss = 0.293950
  Training set accuracy = 1.000000, Test set accuracy = 0.929900
 epoch 326/500. Took 0.55519 seconds. 
  Full-batch training loss = 0.004282, test loss = 0.293983
  Training set accuracy = 1.000000, Test set accuracy = 0.929900
 epoch 327/500. Took 0.55704 seconds. 
  Full-batch training loss = 0.004261, test loss = 0.294121
  Training set accuracy = 1.000000, Test set accuracy = 0.930000
 epoch 328/500. Took 0.55393 seconds. 
  Full-batch training loss = 0.004242, test loss = 0.294104
  Training set accuracy = 1.000000, Test set accuracy = 0.930000
 epoch 329/500. Took 0.56999 seconds. 
  Full-batch training loss = 0.004222, test loss = 0.294257
  Training set accuracy = 1.000000, Test set accuracy = 0.930000
 epoch 330/500. Took 0.57225 seconds. 
  Full-batch training loss = 0.004203, test loss = 0.294407
  Training set accuracy = 1.000000, Test set accuracy = 0.930100
 epoch 331/500. Took 0.55959 seconds. 
  Full-batch training loss = 0.004188, test loss = 0.294373
  Training set accuracy = 1.000000, Test set accuracy = 0.930200
 epoch 332/500. Took 0.55976 seconds. 
  Full-batch training loss = 0.004165, test loss = 0.294610
  Training set accuracy = 1.000000, Test set accuracy = 0.930100
 epoch 333/500. Took 0.56086 seconds. 
  Full-batch training loss = 0.004147, test loss = 0.294657
  Training set accuracy = 1.000000, Test set accuracy = 0.930200
 epoch 334/500. Took 0.5562 seconds. 
  Full-batch training loss = 0.004128, test loss = 0.294767
  Training set accuracy = 1.000000, Test set accuracy = 0.930100
 epoch 335/500. Took 0.54999 seconds. 
  Full-batch training loss = 0.004109, test loss = 0.294923
  Training set accuracy = 1.000000, Test set accuracy = 0.930000
 epoch 336/500. Took 0.55367 seconds. 
  Full-batch training loss = 0.004091, test loss = 0.294959
  Training set accuracy = 1.000000, Test set accuracy = 0.930200
 epoch 337/500. Took 0.5651 seconds. 
  Full-batch training loss = 0.004072, test loss = 0.294944
  Training set accuracy = 1.000000, Test set accuracy = 0.930100
 epoch 338/500. Took 0.5677 seconds. 
  Full-batch training loss = 0.004054, test loss = 0.295145
  Training set accuracy = 1.000000, Test set accuracy = 0.930100
 epoch 339/500. Took 0.56018 seconds. 
  Full-batch training loss = 0.004037, test loss = 0.295332
  Training set accuracy = 1.000000, Test set accuracy = 0.930200
 epoch 340/500. Took 0.55688 seconds. 
  Full-batch training loss = 0.004019, test loss = 0.295271
  Training set accuracy = 1.000000, Test set accuracy = 0.930200
 epoch 341/500. Took 0.55704 seconds. 
  Full-batch training loss = 0.004001, test loss = 0.295484
  Training set accuracy = 1.000000, Test set accuracy = 0.930000
 epoch 342/500. Took 0.56513 seconds. 
  Full-batch training loss = 0.003984, test loss = 0.295661
  Training set accuracy = 1.000000, Test set accuracy = 0.929900
 epoch 343/500. Took 0.56177 seconds. 
  Full-batch training loss = 0.003967, test loss = 0.295723
  Training set accuracy = 1.000000, Test set accuracy = 0.930400
 epoch 344/500. Took 0.56357 seconds. 
  Full-batch training loss = 0.003949, test loss = 0.295703
  Training set accuracy = 1.000000, Test set accuracy = 0.930100
 epoch 345/500. Took 0.5654 seconds. 
  Full-batch training loss = 0.003932, test loss = 0.295907
  Training set accuracy = 1.000000, Test set accuracy = 0.930200
 epoch 346/500. Took 0.55609 seconds. 
  Full-batch training loss = 0.003916, test loss = 0.295865
  Training set accuracy = 1.000000, Test set accuracy = 0.930300
 epoch 347/500. Took 0.55527 seconds. 
  Full-batch training loss = 0.003898, test loss = 0.295908
  Training set accuracy = 1.000000, Test set accuracy = 0.930200
 epoch 348/500. Took 0.55655 seconds. 
  Full-batch training loss = 0.003883, test loss = 0.296109
  Training set accuracy = 1.000000, Test set accuracy = 0.930400
 epoch 349/500. Took 0.55621 seconds. 
  Full-batch training loss = 0.003865, test loss = 0.296241
  Training set accuracy = 1.000000, Test set accuracy = 0.930400
 epoch 350/500. Took 0.56454 seconds. 
  Full-batch training loss = 0.003849, test loss = 0.296295
  Training set accuracy = 1.000000, Test set accuracy = 0.930100
 epoch 351/500. Took 0.61989 seconds. 
  Full-batch training loss = 0.003832, test loss = 0.296387
  Training set accuracy = 1.000000, Test set accuracy = 0.930100
 epoch 352/500. Took 0.56231 seconds. 
  Full-batch training loss = 0.003816, test loss = 0.296558
  Training set accuracy = 1.000000, Test set accuracy = 0.930400
 epoch 353/500. Took 0.56906 seconds. 
  Full-batch training loss = 0.003800, test loss = 0.296597
  Training set accuracy = 1.000000, Test set accuracy = 0.930300
 epoch 354/500. Took 0.56429 seconds. 
  Full-batch training loss = 0.003784, test loss = 0.296696
  Training set accuracy = 1.000000, Test set accuracy = 0.930400
 epoch 355/500. Took 0.55921 seconds. 
  Full-batch training loss = 0.003769, test loss = 0.296642
  Training set accuracy = 1.000000, Test set accuracy = 0.930300
 epoch 356/500. Took 0.55812 seconds. 
  Full-batch training loss = 0.003752, test loss = 0.296834
  Training set accuracy = 1.000000, Test set accuracy = 0.930400
 epoch 357/500. Took 0.55734 seconds. 
  Full-batch training loss = 0.003736, test loss = 0.296889
  Training set accuracy = 1.000000, Test set accuracy = 0.930300
 epoch 358/500. Took 0.5674 seconds. 
  Full-batch training loss = 0.003721, test loss = 0.297037
  Training set accuracy = 1.000000, Test set accuracy = 0.930400
 epoch 359/500. Took 0.56088 seconds. 
  Full-batch training loss = 0.003706, test loss = 0.297155
  Training set accuracy = 1.000000, Test set accuracy = 0.930000
 epoch 360/500. Took 0.56072 seconds. 
  Full-batch training loss = 0.003691, test loss = 0.297098
  Training set accuracy = 1.000000, Test set accuracy = 0.930200
 epoch 361/500. Took 0.55914 seconds. 
  Full-batch training loss = 0.003675, test loss = 0.297309
  Training set accuracy = 1.000000, Test set accuracy = 0.930200
 epoch 362/500. Took 0.56023 seconds. 
  Full-batch training loss = 0.003661, test loss = 0.297373
  Training set accuracy = 1.000000, Test set accuracy = 0.930400
 epoch 363/500. Took 0.56778 seconds. 
  Full-batch training loss = 0.003646, test loss = 0.297404
  Training set accuracy = 1.000000, Test set accuracy = 0.930300
 epoch 364/500. Took 0.56598 seconds. 
  Full-batch training loss = 0.003631, test loss = 0.297528
  Training set accuracy = 1.000000, Test set accuracy = 0.930300
 epoch 365/500. Took 0.57522 seconds. 
  Full-batch training loss = 0.003616, test loss = 0.297571
  Training set accuracy = 1.000000, Test set accuracy = 0.930600
 epoch 366/500. Took 0.56831 seconds. 
  Full-batch training loss = 0.003601, test loss = 0.297794
  Training set accuracy = 1.000000, Test set accuracy = 0.930400
 epoch 367/500. Took 0.57138 seconds. 
  Full-batch training loss = 0.003586, test loss = 0.297802
  Training set accuracy = 1.000000, Test set accuracy = 0.930200
 epoch 368/500. Took 0.57244 seconds. 
  Full-batch training loss = 0.003572, test loss = 0.297835
  Training set accuracy = 1.000000, Test set accuracy = 0.930300
 epoch 369/500. Took 0.56744 seconds. 
  Full-batch training loss = 0.003558, test loss = 0.297983
  Training set accuracy = 1.000000, Test set accuracy = 0.930400
 epoch 370/500. Took 0.56344 seconds. 
  Full-batch training loss = 0.003544, test loss = 0.298061
  Training set accuracy = 1.000000, Test set accuracy = 0.930200
 epoch 371/500. Took 0.56388 seconds. 
  Full-batch training loss = 0.003530, test loss = 0.298162
  Training set accuracy = 1.000000, Test set accuracy = 0.930300
 epoch 372/500. Took 0.56022 seconds. 
  Full-batch training loss = 0.003516, test loss = 0.298187
  Training set accuracy = 1.000000, Test set accuracy = 0.930300
 epoch 373/500. Took 0.57108 seconds. 
  Full-batch training loss = 0.003502, test loss = 0.298236
  Training set accuracy = 1.000000, Test set accuracy = 0.930400
 epoch 374/500. Took 0.56688 seconds. 
  Full-batch training loss = 0.003488, test loss = 0.298480
  Training set accuracy = 1.000000, Test set accuracy = 0.930300
 epoch 375/500. Took 0.55911 seconds. 
  Full-batch training loss = 0.003474, test loss = 0.298500
  Training set accuracy = 1.000000, Test set accuracy = 0.930300
 epoch 376/500. Took 0.55557 seconds. 
  Full-batch training loss = 0.003460, test loss = 0.298569
  Training set accuracy = 1.000000, Test set accuracy = 0.930500
 epoch 377/500. Took 0.56039 seconds. 
  Full-batch training loss = 0.003447, test loss = 0.298689
  Training set accuracy = 1.000000, Test set accuracy = 0.930200
 epoch 378/500. Took 0.56285 seconds. 
  Full-batch training loss = 0.003434, test loss = 0.298711
  Training set accuracy = 1.000000, Test set accuracy = 0.930400
 epoch 379/500. Took 0.56429 seconds. 
  Full-batch training loss = 0.003420, test loss = 0.298830
  Training set accuracy = 1.000000, Test set accuracy = 0.930400
 epoch 380/500. Took 0.56414 seconds. 
  Full-batch training loss = 0.003407, test loss = 0.298902
  Training set accuracy = 1.000000, Test set accuracy = 0.930100
 epoch 381/500. Took 0.56813 seconds. 
  Full-batch training loss = 0.003394, test loss = 0.299057
  Training set accuracy = 1.000000, Test set accuracy = 0.930200
 epoch 382/500. Took 0.56916 seconds. 
  Full-batch training loss = 0.003381, test loss = 0.299095
  Training set accuracy = 1.000000, Test set accuracy = 0.930300
 epoch 383/500. Took 0.56197 seconds. 
  Full-batch training loss = 0.003368, test loss = 0.299174
  Training set accuracy = 1.000000, Test set accuracy = 0.930200
 epoch 384/500. Took 0.55617 seconds. 
  Full-batch training loss = 0.003355, test loss = 0.299402
  Training set accuracy = 1.000000, Test set accuracy = 0.930400
 epoch 385/500. Took 0.55939 seconds. 
  Full-batch training loss = 0.003342, test loss = 0.299316
  Training set accuracy = 1.000000, Test set accuracy = 0.930300
 epoch 386/500. Took 0.56291 seconds. 
  Full-batch training loss = 0.003330, test loss = 0.299479
  Training set accuracy = 1.000000, Test set accuracy = 0.930300
 epoch 387/500. Took 0.55543 seconds. 
  Full-batch training loss = 0.003317, test loss = 0.299456
  Training set accuracy = 1.000000, Test set accuracy = 0.930400
 epoch 388/500. Took 0.55763 seconds. 
  Full-batch training loss = 0.003304, test loss = 0.299563
  Training set accuracy = 1.000000, Test set accuracy = 0.930300
 epoch 389/500. Took 0.55673 seconds. 
  Full-batch training loss = 0.003292, test loss = 0.299727
  Training set accuracy = 1.000000, Test set accuracy = 0.930200
 epoch 390/500. Took 0.55585 seconds. 
  Full-batch training loss = 0.003280, test loss = 0.299754
  Training set accuracy = 1.000000, Test set accuracy = 0.930200
 epoch 391/500. Took 0.55684 seconds. 
  Full-batch training loss = 0.003268, test loss = 0.299744
  Training set accuracy = 1.000000, Test set accuracy = 0.930600
 epoch 392/500. Took 0.56174 seconds. 
  Full-batch training loss = 0.003255, test loss = 0.299917
  Training set accuracy = 1.000000, Test set accuracy = 0.930200
 epoch 393/500. Took 0.56844 seconds. 
  Full-batch training loss = 0.003243, test loss = 0.299960
  Training set accuracy = 1.000000, Test set accuracy = 0.930300
 epoch 394/500. Took 0.56484 seconds. 
  Full-batch training loss = 0.003231, test loss = 0.300157
  Training set accuracy = 1.000000, Test set accuracy = 0.930200
 epoch 395/500. Took 0.56251 seconds. 
  Full-batch training loss = 0.003219, test loss = 0.300086
  Training set accuracy = 1.000000, Test set accuracy = 0.930300
 epoch 396/500. Took 0.5595 seconds. 
  Full-batch training loss = 0.003207, test loss = 0.300295
  Training set accuracy = 1.000000, Test set accuracy = 0.930300
 epoch 397/500. Took 0.56779 seconds. 
  Full-batch training loss = 0.003195, test loss = 0.300317
  Training set accuracy = 1.000000, Test set accuracy = 0.930300
 epoch 398/500. Took 0.5548 seconds. 
  Full-batch training loss = 0.003184, test loss = 0.300510
  Training set accuracy = 1.000000, Test set accuracy = 0.930300
 epoch 399/500. Took 0.55939 seconds. 
  Full-batch training loss = 0.003172, test loss = 0.300454
  Training set accuracy = 1.000000, Test set accuracy = 0.930200
 epoch 400/500. Took 0.55787 seconds. 
  Full-batch training loss = 0.003160, test loss = 0.300610
  Training set accuracy = 1.000000, Test set accuracy = 0.930200
 epoch 401/500. Took 0.56776 seconds. 
  Full-batch training loss = 0.003149, test loss = 0.300730
  Training set accuracy = 1.000000, Test set accuracy = 0.930200
 epoch 402/500. Took 0.57355 seconds. 
  Full-batch training loss = 0.003137, test loss = 0.300783
  Training set accuracy = 1.000000, Test set accuracy = 0.930200
 epoch 403/500. Took 0.56011 seconds. 
  Full-batch training loss = 0.003126, test loss = 0.300742
  Training set accuracy = 1.000000, Test set accuracy = 0.930300
 epoch 404/500. Took 0.55476 seconds. 
  Full-batch training loss = 0.003115, test loss = 0.300828
  Training set accuracy = 1.000000, Test set accuracy = 0.930300
 epoch 405/500. Took 0.56016 seconds. 
  Full-batch training loss = 0.003104, test loss = 0.301052
  Training set accuracy = 1.000000, Test set accuracy = 0.930300
 epoch 406/500. Took 0.56194 seconds. 
  Full-batch training loss = 0.003093, test loss = 0.301174
  Training set accuracy = 1.000000, Test set accuracy = 0.930200
 epoch 407/500. Took 0.55316 seconds. 
  Full-batch training loss = 0.003081, test loss = 0.301118
  Training set accuracy = 1.000000, Test set accuracy = 0.930200
 epoch 408/500. Took 0.54919 seconds. 
  Full-batch training loss = 0.003071, test loss = 0.301171
  Training set accuracy = 1.000000, Test set accuracy = 0.930200
 epoch 409/500. Took 0.55769 seconds. 
  Full-batch training loss = 0.003060, test loss = 0.301290
  Training set accuracy = 1.000000, Test set accuracy = 0.930300
 epoch 410/500. Took 0.55665 seconds. 
  Full-batch training loss = 0.003049, test loss = 0.301413
  Training set accuracy = 1.000000, Test set accuracy = 0.930200
 epoch 411/500. Took 0.56274 seconds. 
  Full-batch training loss = 0.003038, test loss = 0.301413
  Training set accuracy = 1.000000, Test set accuracy = 0.930200
 epoch 412/500. Took 0.55714 seconds. 
  Full-batch training loss = 0.003028, test loss = 0.301475
  Training set accuracy = 1.000000, Test set accuracy = 0.930300
 epoch 413/500. Took 0.55512 seconds. 
  Full-batch training loss = 0.003016, test loss = 0.301564
  Training set accuracy = 1.000000, Test set accuracy = 0.930200
 epoch 414/500. Took 0.56365 seconds. 
  Full-batch training loss = 0.003006, test loss = 0.301603
  Training set accuracy = 1.000000, Test set accuracy = 0.930300
 epoch 415/500. Took 0.56072 seconds. 
  Full-batch training loss = 0.002995, test loss = 0.301751
  Training set accuracy = 1.000000, Test set accuracy = 0.930200
 epoch 416/500. Took 0.64176 seconds. 
  Full-batch training loss = 0.002985, test loss = 0.301898
  Training set accuracy = 1.000000, Test set accuracy = 0.930200
 epoch 417/500. Took 0.55858 seconds. 
  Full-batch training loss = 0.002975, test loss = 0.301956
  Training set accuracy = 1.000000, Test set accuracy = 0.930300
 epoch 418/500. Took 0.55737 seconds. 
  Full-batch training loss = 0.002964, test loss = 0.302042
  Training set accuracy = 1.000000, Test set accuracy = 0.930300
 epoch 419/500. Took 0.55434 seconds. 
  Full-batch training loss = 0.002954, test loss = 0.301972
  Training set accuracy = 1.000000, Test set accuracy = 0.930300
 epoch 420/500. Took 0.55705 seconds. 
  Full-batch training loss = 0.002944, test loss = 0.302172
  Training set accuracy = 1.000000, Test set accuracy = 0.930300
 epoch 421/500. Took 0.5625 seconds. 
  Full-batch training loss = 0.002934, test loss = 0.302225
  Training set accuracy = 1.000000, Test set accuracy = 0.930300
 epoch 422/500. Took 0.55197 seconds. 
  Full-batch training loss = 0.002924, test loss = 0.302340
  Training set accuracy = 1.000000, Test set accuracy = 0.930400
 epoch 423/500. Took 0.55485 seconds. 
  Full-batch training loss = 0.002914, test loss = 0.302323
  Training set accuracy = 1.000000, Test set accuracy = 0.930300
 epoch 424/500. Took 0.56326 seconds. 
  Full-batch training loss = 0.002904, test loss = 0.302434
  Training set accuracy = 1.000000, Test set accuracy = 0.930300
 epoch 425/500. Took 0.56105 seconds. 
  Full-batch training loss = 0.002894, test loss = 0.302500
  Training set accuracy = 1.000000, Test set accuracy = 0.930400
 epoch 426/500. Took 0.57299 seconds. 
  Full-batch training loss = 0.002884, test loss = 0.302585
  Training set accuracy = 1.000000, Test set accuracy = 0.930300
 epoch 427/500. Took 0.55556 seconds. 
  Full-batch training loss = 0.002874, test loss = 0.302657
  Training set accuracy = 1.000000, Test set accuracy = 0.930200
 epoch 428/500. Took 0.55454 seconds. 
  Full-batch training loss = 0.002865, test loss = 0.302772
  Training set accuracy = 1.000000, Test set accuracy = 0.930300
 epoch 429/500. Took 0.55426 seconds. 
  Full-batch training loss = 0.002855, test loss = 0.302803
  Training set accuracy = 1.000000, Test set accuracy = 0.930300
 epoch 430/500. Took 0.55466 seconds. 
  Full-batch training loss = 0.002846, test loss = 0.302832
  Training set accuracy = 1.000000, Test set accuracy = 0.930300
 epoch 431/500. Took 0.55728 seconds. 
  Full-batch training loss = 0.002836, test loss = 0.302989
  Training set accuracy = 1.000000, Test set accuracy = 0.930300
 epoch 432/500. Took 0.55937 seconds. 
  Full-batch training loss = 0.002827, test loss = 0.303088
  Training set accuracy = 1.000000, Test set accuracy = 0.930500
 epoch 433/500. Took 0.56749 seconds. 
  Full-batch training loss = 0.002818, test loss = 0.303209
  Training set accuracy = 1.000000, Test set accuracy = 0.930200
 epoch 434/500. Took 0.55829 seconds. 
  Full-batch training loss = 0.002808, test loss = 0.303246
  Training set accuracy = 1.000000, Test set accuracy = 0.930400
 epoch 435/500. Took 0.55418 seconds. 
  Full-batch training loss = 0.002798, test loss = 0.303284
  Training set accuracy = 1.000000, Test set accuracy = 0.930200
 epoch 436/500. Took 0.55161 seconds. 
  Full-batch training loss = 0.002789, test loss = 0.303387
  Training set accuracy = 1.000000, Test set accuracy = 0.930500
 epoch 437/500. Took 0.55747 seconds. 
  Full-batch training loss = 0.002780, test loss = 0.303350
  Training set accuracy = 1.000000, Test set accuracy = 0.930200
 epoch 438/500. Took 0.55938 seconds. 
  Full-batch training loss = 0.002771, test loss = 0.303466
  Training set accuracy = 1.000000, Test set accuracy = 0.930300
 epoch 439/500. Took 0.56619 seconds. 
  Full-batch training loss = 0.002762, test loss = 0.303495
  Training set accuracy = 1.000000, Test set accuracy = 0.930400
 epoch 440/500. Took 0.55948 seconds. 
  Full-batch training loss = 0.002753, test loss = 0.303626
  Training set accuracy = 1.000000, Test set accuracy = 0.930300
 epoch 441/500. Took 0.55642 seconds. 
  Full-batch training loss = 0.002744, test loss = 0.303640
  Training set accuracy = 1.000000, Test set accuracy = 0.930300
 epoch 442/500. Took 0.55996 seconds. 
  Full-batch training loss = 0.002735, test loss = 0.303749
  Training set accuracy = 1.000000, Test set accuracy = 0.930400
 epoch 443/500. Took 0.56256 seconds. 
  Full-batch training loss = 0.002726, test loss = 0.303934
  Training set accuracy = 1.000000, Test set accuracy = 0.930300
 epoch 444/500. Took 0.55728 seconds. 
  Full-batch training loss = 0.002717, test loss = 0.303962
  Training set accuracy = 1.000000, Test set accuracy = 0.930300
 epoch 445/500. Took 0.55884 seconds. 
  Full-batch training loss = 0.002709, test loss = 0.303945
  Training set accuracy = 1.000000, Test set accuracy = 0.930300
 epoch 446/500. Took 0.56517 seconds. 
  Full-batch training loss = 0.002700, test loss = 0.304057
  Training set accuracy = 1.000000, Test set accuracy = 0.930400
 epoch 447/500. Took 0.56038 seconds. 
  Full-batch training loss = 0.002691, test loss = 0.304169
  Training set accuracy = 1.000000, Test set accuracy = 0.930500
 epoch 448/500. Took 0.55771 seconds. 
  Full-batch training loss = 0.002682, test loss = 0.304227
  Training set accuracy = 1.000000, Test set accuracy = 0.930400
 epoch 449/500. Took 0.55868 seconds. 
  Full-batch training loss = 0.002674, test loss = 0.304214
  Training set accuracy = 1.000000, Test set accuracy = 0.930500
 epoch 450/500. Took 0.55757 seconds. 
  Full-batch training loss = 0.002665, test loss = 0.304431
  Training set accuracy = 1.000000, Test set accuracy = 0.930400
 epoch 451/500. Took 0.56237 seconds. 
  Full-batch training loss = 0.002657, test loss = 0.304465
  Training set accuracy = 1.000000, Test set accuracy = 0.930400
 epoch 452/500. Took 0.55264 seconds. 
  Full-batch training loss = 0.002648, test loss = 0.304501
  Training set accuracy = 1.000000, Test set accuracy = 0.930400
 epoch 453/500. Took 0.55652 seconds. 
  Full-batch training loss = 0.002640, test loss = 0.304502
  Training set accuracy = 1.000000, Test set accuracy = 0.930400
 epoch 454/500. Took 0.55212 seconds. 
  Full-batch training loss = 0.002632, test loss = 0.304694
  Training set accuracy = 1.000000, Test set accuracy = 0.930400
 epoch 455/500. Took 0.56105 seconds. 
  Full-batch training loss = 0.002623, test loss = 0.304679
  Training set accuracy = 1.000000, Test set accuracy = 0.930300
 epoch 456/500. Took 0.56717 seconds. 
  Full-batch training loss = 0.002615, test loss = 0.304794
  Training set accuracy = 1.000000, Test set accuracy = 0.930500
 epoch 457/500. Took 0.56624 seconds. 
  Full-batch training loss = 0.002607, test loss = 0.304818
  Training set accuracy = 1.000000, Test set accuracy = 0.930500
 epoch 458/500. Took 0.55629 seconds. 
  Full-batch training loss = 0.002599, test loss = 0.304963
  Training set accuracy = 1.000000, Test set accuracy = 0.930400
 epoch 459/500. Took 0.55889 seconds. 
  Full-batch training loss = 0.002591, test loss = 0.305025
  Training set accuracy = 1.000000, Test set accuracy = 0.930500
 epoch 460/500. Took 0.55536 seconds. 
  Full-batch training loss = 0.002583, test loss = 0.305064
  Training set accuracy = 1.000000, Test set accuracy = 0.930300
 epoch 461/500. Took 0.55653 seconds. 
  Full-batch training loss = 0.002575, test loss = 0.305057
  Training set accuracy = 1.000000, Test set accuracy = 0.930500
 epoch 462/500. Took 0.56162 seconds. 
  Full-batch training loss = 0.002567, test loss = 0.305179
  Training set accuracy = 1.000000, Test set accuracy = 0.930300
 epoch 463/500. Took 0.56331 seconds. 
  Full-batch training loss = 0.002559, test loss = 0.305311
  Training set accuracy = 1.000000, Test set accuracy = 0.930400
 epoch 464/500. Took 0.55864 seconds. 
  Full-batch training loss = 0.002551, test loss = 0.305328
  Training set accuracy = 1.000000, Test set accuracy = 0.930400
 epoch 465/500. Took 0.62353 seconds. 
  Full-batch training loss = 0.002543, test loss = 0.305357
  Training set accuracy = 1.000000, Test set accuracy = 0.930400
 epoch 466/500. Took 0.55746 seconds. 
  Full-batch training loss = 0.002535, test loss = 0.305428
  Training set accuracy = 1.000000, Test set accuracy = 0.930400
 epoch 467/500. Took 0.55888 seconds. 
  Full-batch training loss = 0.002528, test loss = 0.305471
  Training set accuracy = 1.000000, Test set accuracy = 0.930400
 epoch 468/500. Took 0.55462 seconds. 
  Full-batch training loss = 0.002520, test loss = 0.305663
  Training set accuracy = 1.000000, Test set accuracy = 0.930500
 epoch 469/500. Took 0.55998 seconds. 
  Full-batch training loss = 0.002512, test loss = 0.305617
  Training set accuracy = 1.000000, Test set accuracy = 0.930300
 epoch 470/500. Took 0.56095 seconds. 
  Full-batch training loss = 0.002505, test loss = 0.305724
  Training set accuracy = 1.000000, Test set accuracy = 0.930500
 epoch 471/500. Took 0.56111 seconds. 
  Full-batch training loss = 0.002497, test loss = 0.305905
  Training set accuracy = 1.000000, Test set accuracy = 0.930500
 epoch 472/500. Took 0.5554 seconds. 
  Full-batch training loss = 0.002490, test loss = 0.305796
  Training set accuracy = 1.000000, Test set accuracy = 0.930600
 epoch 473/500. Took 0.56089 seconds. 
  Full-batch training loss = 0.002482, test loss = 0.305971
  Training set accuracy = 1.000000, Test set accuracy = 0.930500
 epoch 474/500. Took 0.55952 seconds. 
  Full-batch training loss = 0.002475, test loss = 0.306058
  Training set accuracy = 1.000000, Test set accuracy = 0.930600
 epoch 475/500. Took 0.55892 seconds. 
  Full-batch training loss = 0.002467, test loss = 0.306030
  Training set accuracy = 1.000000, Test set accuracy = 0.930500
 epoch 476/500. Took 0.55738 seconds. 
  Full-batch training loss = 0.002460, test loss = 0.306135
  Training set accuracy = 1.000000, Test set accuracy = 0.930700
 epoch 477/500. Took 0.55794 seconds. 
  Full-batch training loss = 0.002453, test loss = 0.306229
  Training set accuracy = 1.000000, Test set accuracy = 0.930600
 epoch 478/500. Took 0.55672 seconds. 
  Full-batch training loss = 0.002446, test loss = 0.306253
  Training set accuracy = 1.000000, Test set accuracy = 0.930700
 epoch 479/500. Took 0.55507 seconds. 
  Full-batch training loss = 0.002438, test loss = 0.306426
  Training set accuracy = 1.000000, Test set accuracy = 0.930700
 epoch 480/500. Took 0.55943 seconds. 
  Full-batch training loss = 0.002431, test loss = 0.306329
  Training set accuracy = 1.000000, Test set accuracy = 0.930500
 epoch 481/500. Took 0.55564 seconds. 
  Full-batch training loss = 0.002424, test loss = 0.306452
  Training set accuracy = 1.000000, Test set accuracy = 0.930400
 epoch 482/500. Took 0.56225 seconds. 
  Full-batch training loss = 0.002416, test loss = 0.306532
  Training set accuracy = 1.000000, Test set accuracy = 0.930500
 epoch 483/500. Took 0.5685 seconds. 
  Full-batch training loss = 0.002409, test loss = 0.306604
  Training set accuracy = 1.000000, Test set accuracy = 0.930600
 epoch 484/500. Took 0.55701 seconds. 
  Full-batch training loss = 0.002402, test loss = 0.306630
  Training set accuracy = 1.000000, Test set accuracy = 0.930300
 epoch 485/500. Took 0.5514 seconds. 
  Full-batch training loss = 0.002396, test loss = 0.306738
  Training set accuracy = 1.000000, Test set accuracy = 0.930700
 epoch 486/500. Took 0.56438 seconds. 
  Full-batch training loss = 0.002388, test loss = 0.306786
  Training set accuracy = 1.000000, Test set accuracy = 0.930600
 epoch 487/500. Took 0.55562 seconds. 
  Full-batch training loss = 0.002381, test loss = 0.306910
  Training set accuracy = 1.000000, Test set accuracy = 0.930700
 epoch 488/500. Took 0.5538 seconds. 
  Full-batch training loss = 0.002375, test loss = 0.306956
  Training set accuracy = 1.000000, Test set accuracy = 0.930700
 epoch 489/500. Took 0.56004 seconds. 
  Full-batch training loss = 0.002368, test loss = 0.306974
  Training set accuracy = 1.000000, Test set accuracy = 0.930700
 epoch 490/500. Took 0.5519 seconds. 
  Full-batch training loss = 0.002361, test loss = 0.307017
  Training set accuracy = 1.000000, Test set accuracy = 0.930700
 epoch 491/500. Took 0.55599 seconds. 
  Full-batch training loss = 0.002354, test loss = 0.307165
  Training set accuracy = 1.000000, Test set accuracy = 0.930600
 epoch 492/500. Took 0.55739 seconds. 
  Full-batch training loss = 0.002347, test loss = 0.307179
  Training set accuracy = 1.000000, Test set accuracy = 0.930800
 epoch 493/500. Took 0.56205 seconds. 
  Full-batch training loss = 0.002340, test loss = 0.307237
  Training set accuracy = 1.000000, Test set accuracy = 0.930600
 epoch 494/500. Took 0.55683 seconds. 
  Full-batch training loss = 0.002334, test loss = 0.307361
  Training set accuracy = 1.000000, Test set accuracy = 0.930600
 epoch 495/500. Took 0.55801 seconds. 
  Full-batch training loss = 0.002327, test loss = 0.307442
  Training set accuracy = 1.000000, Test set accuracy = 0.930800
 epoch 496/500. Took 0.55836 seconds. 
  Full-batch training loss = 0.002321, test loss = 0.307467
  Training set accuracy = 1.000000, Test set accuracy = 0.930700
 epoch 497/500. Took 0.55656 seconds. 
  Full-batch training loss = 0.002314, test loss = 0.307546
  Training set accuracy = 1.000000, Test set accuracy = 0.930700
 epoch 498/500. Took 0.55747 seconds. 
  Full-batch training loss = 0.002307, test loss = 0.307571
  Training set accuracy = 1.000000, Test set accuracy = 0.930600
 epoch 499/500. Took 0.55635 seconds. 
  Full-batch training loss = 0.002301, test loss = 0.307517
  Training set accuracy = 1.000000, Test set accuracy = 0.930500
 epoch 500/500. Took 0.55506 seconds. 
  Full-batch training loss = 0.002294, test loss = 0.307720
  Training set accuracy = 1.000000, Test set accuracy = 0.930800
Elapsed time is 1008.904822 seconds.
End Training
