==========================================================
  Architecture is 500 500 500 // 3 layer x 500 neuron
----------------------------------------------------------
Execution 61/270
----------------------------------------------------------
* ReducedData	2000
* PreTrainRBM	true
	-> Epochs	20
	-> LearningRate	0.20
* Fine-tunning
	-> Epochs	500
	-> LearningRate	0.20
==========================================================
Start Training
Number of training examples: 2000  BatchSize: 100
Number of inputs: 784  Number of outputs: 10
Number of hidden layers: 3 (500  500  500)
Training binary-binary RBM in layer 1 (784  500) with CD1 for 20 epochs
 epoch 1/20. Took 0.34114 seconds. Average reconstruction error is: 49.3851
 epoch 2/20. Took 0.32248 seconds. Average reconstruction error is: 26.2097
 epoch 3/20. Took 0.32528 seconds. Average reconstruction error is: 21.5379
 epoch 4/20. Took 0.34876 seconds. Average reconstruction error is: 19.1645
 epoch 5/20. Took 0.32949 seconds. Average reconstruction error is: 17.5747
 epoch 6/20. Took 0.32663 seconds. Average reconstruction error is: 16.4091
 epoch 7/20. Took 0.32457 seconds. Average reconstruction error is: 15.5949
 epoch 8/20. Took 0.32337 seconds. Average reconstruction error is: 14.8926
 epoch 9/20. Took 0.32899 seconds. Average reconstruction error is: 14.2538
 epoch 10/20. Took 0.32688 seconds. Average reconstruction error is: 13.7121
 epoch 11/20. Took 0.32352 seconds. Average reconstruction error is: 13.2006
 epoch 12/20. Took 0.3242 seconds. Average reconstruction error is: 12.8702
 epoch 13/20. Took 0.32758 seconds. Average reconstruction error is: 12.4782
 epoch 14/20. Took 0.32679 seconds. Average reconstruction error is: 12.0941
 epoch 15/20. Took 0.32625 seconds. Average reconstruction error is: 11.7882
 epoch 16/20. Took 0.3276 seconds. Average reconstruction error is: 11.4783
 epoch 17/20. Took 0.34298 seconds. Average reconstruction error is: 11.2117
 epoch 18/20. Took 0.34032 seconds. Average reconstruction error is: 10.9865
 epoch 19/20. Took 0.34044 seconds. Average reconstruction error is: 10.7273
 epoch 20/20. Took 0.34436 seconds. Average reconstruction error is: 10.5128
Training binary-binary RBM in layer 2 (500  500) with CD1 for 20 epochs
 epoch 1/20. Took 0.24642 seconds. Average reconstruction error is: 28.9997
 epoch 2/20. Took 0.24605 seconds. Average reconstruction error is: 13.4819
 epoch 3/20. Took 0.25013 seconds. Average reconstruction error is: 10.4329
 epoch 4/20. Took 0.25192 seconds. Average reconstruction error is: 9.0028
 epoch 5/20. Took 0.2571 seconds. Average reconstruction error is: 8.1345
 epoch 6/20. Took 0.24952 seconds. Average reconstruction error is: 7.4946
 epoch 7/20. Took 0.25221 seconds. Average reconstruction error is: 7.0874
 epoch 8/20. Took 0.24803 seconds. Average reconstruction error is: 6.6897
 epoch 9/20. Took 0.24389 seconds. Average reconstruction error is: 6.438
 epoch 10/20. Took 0.24876 seconds. Average reconstruction error is: 6.1743
 epoch 11/20. Took 0.24352 seconds. Average reconstruction error is: 5.9976
 epoch 12/20. Took 0.24994 seconds. Average reconstruction error is: 5.8597
 epoch 13/20. Took 0.25101 seconds. Average reconstruction error is: 5.6651
 epoch 14/20. Took 0.24966 seconds. Average reconstruction error is: 5.5776
 epoch 15/20. Took 0.24937 seconds. Average reconstruction error is: 5.4888
 epoch 16/20. Took 0.2522 seconds. Average reconstruction error is: 5.4211
 epoch 17/20. Took 0.31196 seconds. Average reconstruction error is: 5.3103
 epoch 18/20. Took 0.25144 seconds. Average reconstruction error is: 5.263
 epoch 19/20. Took 0.25566 seconds. Average reconstruction error is: 5.1581
 epoch 20/20. Took 0.25034 seconds. Average reconstruction error is: 5.1462
Training binary-binary RBM in layer 3 (500  500) with CD1 for 20 epochs
 epoch 1/20. Took 0.25635 seconds. Average reconstruction error is: 26.0447
 epoch 2/20. Took 0.25136 seconds. Average reconstruction error is: 10.63
 epoch 3/20. Took 0.251 seconds. Average reconstruction error is: 8.1045
 epoch 4/20. Took 0.24824 seconds. Average reconstruction error is: 7.0207
 epoch 5/20. Took 0.24704 seconds. Average reconstruction error is: 6.4175
 epoch 6/20. Took 0.24784 seconds. Average reconstruction error is: 6.0341
 epoch 7/20. Took 0.25708 seconds. Average reconstruction error is: 5.7587
 epoch 8/20. Took 0.25446 seconds. Average reconstruction error is: 5.5134
 epoch 9/20. Took 0.24644 seconds. Average reconstruction error is: 5.3141
 epoch 10/20. Took 0.24748 seconds. Average reconstruction error is: 5.1798
 epoch 11/20. Took 0.25376 seconds. Average reconstruction error is: 5.0484
 epoch 12/20. Took 0.25118 seconds. Average reconstruction error is: 5.0068
 epoch 13/20. Took 0.25111 seconds. Average reconstruction error is: 4.9277
 epoch 14/20. Took 0.25004 seconds. Average reconstruction error is: 4.8792
 epoch 15/20. Took 0.24786 seconds. Average reconstruction error is: 4.8096
 epoch 16/20. Took 0.24409 seconds. Average reconstruction error is: 4.8185
 epoch 17/20. Took 0.24766 seconds. Average reconstruction error is: 4.7214
 epoch 18/20. Took 0.24493 seconds. Average reconstruction error is: 4.6986
 epoch 19/20. Took 0.24979 seconds. Average reconstruction error is: 4.6807
 epoch 20/20. Took 0.24914 seconds. Average reconstruction error is: 4.6177
Training NN  (784  500  500  500   10) with BackPropagation for 500 epochs
 epoch 1/500. Took 0.51435 seconds. 
  Full-batch training loss = 0.445754, test loss = 0.463680
  Training set accuracy = 0.874000, Test set accuracy = 0.870400
 epoch 2/500. Took 0.56562 seconds. 
  Full-batch training loss = 0.327089, test loss = 0.365729
  Training set accuracy = 0.913500, Test set accuracy = 0.895500
 epoch 3/500. Took 0.57107 seconds. 
  Full-batch training loss = 0.272106, test loss = 0.327090
  Training set accuracy = 0.932000, Test set accuracy = 0.906400
 epoch 4/500. Took 0.56107 seconds. 
  Full-batch training loss = 0.245013, test loss = 0.319060
  Training set accuracy = 0.939000, Test set accuracy = 0.906200
 epoch 5/500. Took 0.55793 seconds. 
  Full-batch training loss = 0.216020, test loss = 0.300407
  Training set accuracy = 0.945500, Test set accuracy = 0.911200
 epoch 6/500. Took 0.55965 seconds. 
  Full-batch training loss = 0.206838, test loss = 0.306273
  Training set accuracy = 0.944500, Test set accuracy = 0.906600
 epoch 7/500. Took 0.56685 seconds. 
  Full-batch training loss = 0.178574, test loss = 0.287546
  Training set accuracy = 0.955500, Test set accuracy = 0.915700
 epoch 8/500. Took 0.5665 seconds. 
  Full-batch training loss = 0.169447, test loss = 0.287560
  Training set accuracy = 0.957500, Test set accuracy = 0.914700
 epoch 9/500. Took 0.56 seconds. 
  Full-batch training loss = 0.148193, test loss = 0.278112
  Training set accuracy = 0.965000, Test set accuracy = 0.917100
 epoch 10/500. Took 0.56344 seconds. 
  Full-batch training loss = 0.137057, test loss = 0.279600
  Training set accuracy = 0.966000, Test set accuracy = 0.915800
 epoch 11/500. Took 0.56024 seconds. 
  Full-batch training loss = 0.126678, test loss = 0.277071
  Training set accuracy = 0.971000, Test set accuracy = 0.916900
 epoch 12/500. Took 0.5564 seconds. 
  Full-batch training loss = 0.116262, test loss = 0.271203
  Training set accuracy = 0.974500, Test set accuracy = 0.919600
 epoch 13/500. Took 0.55889 seconds. 
  Full-batch training loss = 0.106100, test loss = 0.273135
  Training set accuracy = 0.978000, Test set accuracy = 0.918000
 epoch 14/500. Took 0.55877 seconds. 
  Full-batch training loss = 0.099180, test loss = 0.273215
  Training set accuracy = 0.980500, Test set accuracy = 0.919200
 epoch 15/500. Took 0.55993 seconds. 
  Full-batch training loss = 0.089734, test loss = 0.267308
  Training set accuracy = 0.983500, Test set accuracy = 0.920900
 epoch 16/500. Took 0.55461 seconds. 
  Full-batch training loss = 0.083433, test loss = 0.270168
  Training set accuracy = 0.984500, Test set accuracy = 0.919500
 epoch 17/500. Took 0.56489 seconds. 
  Full-batch training loss = 0.077525, test loss = 0.270259
  Training set accuracy = 0.987500, Test set accuracy = 0.921100
 epoch 18/500. Took 0.55526 seconds. 
  Full-batch training loss = 0.071697, test loss = 0.266314
  Training set accuracy = 0.987500, Test set accuracy = 0.922000
 epoch 19/500. Took 0.55751 seconds. 
  Full-batch training loss = 0.069779, test loss = 0.272772
  Training set accuracy = 0.988000, Test set accuracy = 0.919400
 epoch 20/500. Took 0.5628 seconds. 
  Full-batch training loss = 0.062708, test loss = 0.268776
  Training set accuracy = 0.990000, Test set accuracy = 0.920400
 epoch 21/500. Took 0.55916 seconds. 
  Full-batch training loss = 0.057428, test loss = 0.267907
  Training set accuracy = 0.993000, Test set accuracy = 0.923300
 epoch 22/500. Took 0.55616 seconds. 
  Full-batch training loss = 0.053573, test loss = 0.266814
  Training set accuracy = 0.992500, Test set accuracy = 0.922200
 epoch 23/500. Took 0.5614 seconds. 
  Full-batch training loss = 0.049902, test loss = 0.268721
  Training set accuracy = 0.994000, Test set accuracy = 0.921800
 epoch 24/500. Took 0.55898 seconds. 
  Full-batch training loss = 0.046323, test loss = 0.269312
  Training set accuracy = 0.995000, Test set accuracy = 0.921600
 epoch 25/500. Took 0.56067 seconds. 
  Full-batch training loss = 0.043446, test loss = 0.270310
  Training set accuracy = 0.996500, Test set accuracy = 0.923800
 epoch 26/500. Took 0.55446 seconds. 
  Full-batch training loss = 0.041088, test loss = 0.269321
  Training set accuracy = 0.996500, Test set accuracy = 0.923300
 epoch 27/500. Took 0.55364 seconds. 
  Full-batch training loss = 0.038266, test loss = 0.271919
  Training set accuracy = 0.998000, Test set accuracy = 0.923600
 epoch 28/500. Took 0.55958 seconds. 
  Full-batch training loss = 0.035480, test loss = 0.268934
  Training set accuracy = 0.998500, Test set accuracy = 0.924400
 epoch 29/500. Took 0.55489 seconds. 
  Full-batch training loss = 0.033813, test loss = 0.272348
  Training set accuracy = 0.999000, Test set accuracy = 0.924600
 epoch 30/500. Took 0.55731 seconds. 
  Full-batch training loss = 0.032121, test loss = 0.270468
  Training set accuracy = 0.999000, Test set accuracy = 0.925200
 epoch 31/500. Took 0.55854 seconds. 
  Full-batch training loss = 0.030365, test loss = 0.272457
  Training set accuracy = 0.999500, Test set accuracy = 0.923900
 epoch 32/500. Took 0.55896 seconds. 
  Full-batch training loss = 0.028733, test loss = 0.273768
  Training set accuracy = 0.999500, Test set accuracy = 0.924600
 epoch 33/500. Took 0.56505 seconds. 
  Full-batch training loss = 0.027454, test loss = 0.272398
  Training set accuracy = 0.999000, Test set accuracy = 0.925600
 epoch 34/500. Took 0.55794 seconds. 
  Full-batch training loss = 0.025891, test loss = 0.273457
  Training set accuracy = 0.999500, Test set accuracy = 0.925300
 epoch 35/500. Took 0.57093 seconds. 
  Full-batch training loss = 0.024486, test loss = 0.274020
  Training set accuracy = 0.999500, Test set accuracy = 0.925700
 epoch 36/500. Took 0.56697 seconds. 
  Full-batch training loss = 0.023303, test loss = 0.273337
  Training set accuracy = 0.999500, Test set accuracy = 0.925000
 epoch 37/500. Took 0.56205 seconds. 
  Full-batch training loss = 0.022364, test loss = 0.273206
  Training set accuracy = 0.999500, Test set accuracy = 0.925600
 epoch 38/500. Took 0.55699 seconds. 
  Full-batch training loss = 0.021401, test loss = 0.275623
  Training set accuracy = 0.999500, Test set accuracy = 0.924700
 epoch 39/500. Took 0.56331 seconds. 
  Full-batch training loss = 0.020422, test loss = 0.274809
  Training set accuracy = 1.000000, Test set accuracy = 0.926000
 epoch 40/500. Took 0.5583 seconds. 
  Full-batch training loss = 0.019578, test loss = 0.276795
  Training set accuracy = 1.000000, Test set accuracy = 0.925400
 epoch 41/500. Took 0.55799 seconds. 
  Full-batch training loss = 0.018788, test loss = 0.277033
  Training set accuracy = 1.000000, Test set accuracy = 0.925700
 epoch 42/500. Took 0.56096 seconds. 
  Full-batch training loss = 0.018101, test loss = 0.277449
  Training set accuracy = 1.000000, Test set accuracy = 0.925400
 epoch 43/500. Took 0.64372 seconds. 
  Full-batch training loss = 0.017371, test loss = 0.278508
  Training set accuracy = 1.000000, Test set accuracy = 0.925900
 epoch 44/500. Took 0.55597 seconds. 
  Full-batch training loss = 0.016719, test loss = 0.278689
  Training set accuracy = 1.000000, Test set accuracy = 0.926300
 epoch 45/500. Took 0.55814 seconds. 
  Full-batch training loss = 0.016150, test loss = 0.278629
  Training set accuracy = 1.000000, Test set accuracy = 0.925700
 epoch 46/500. Took 0.55628 seconds. 
  Full-batch training loss = 0.015542, test loss = 0.279413
  Training set accuracy = 1.000000, Test set accuracy = 0.926100
 epoch 47/500. Took 0.55933 seconds. 
  Full-batch training loss = 0.015041, test loss = 0.280455
  Training set accuracy = 1.000000, Test set accuracy = 0.925900
 epoch 48/500. Took 0.55857 seconds. 
  Full-batch training loss = 0.014581, test loss = 0.280758
  Training set accuracy = 1.000000, Test set accuracy = 0.926000
 epoch 49/500. Took 0.55455 seconds. 
  Full-batch training loss = 0.014127, test loss = 0.281179
  Training set accuracy = 1.000000, Test set accuracy = 0.925500
 epoch 50/500. Took 0.56205 seconds. 
  Full-batch training loss = 0.013687, test loss = 0.281423
  Training set accuracy = 1.000000, Test set accuracy = 0.926000
 epoch 51/500. Took 0.55541 seconds. 
  Full-batch training loss = 0.013165, test loss = 0.282476
  Training set accuracy = 1.000000, Test set accuracy = 0.926400
 epoch 52/500. Took 0.56717 seconds. 
  Full-batch training loss = 0.012797, test loss = 0.282661
  Training set accuracy = 1.000000, Test set accuracy = 0.926300
 epoch 53/500. Took 0.55982 seconds. 
  Full-batch training loss = 0.012397, test loss = 0.283402
  Training set accuracy = 1.000000, Test set accuracy = 0.926300
 epoch 54/500. Took 0.55689 seconds. 
  Full-batch training loss = 0.012054, test loss = 0.283818
  Training set accuracy = 1.000000, Test set accuracy = 0.926800
 epoch 55/500. Took 0.55528 seconds. 
  Full-batch training loss = 0.011711, test loss = 0.284291
  Training set accuracy = 1.000000, Test set accuracy = 0.926000
 epoch 56/500. Took 0.55346 seconds. 
  Full-batch training loss = 0.011364, test loss = 0.284928
  Training set accuracy = 1.000000, Test set accuracy = 0.926200
 epoch 57/500. Took 0.55725 seconds. 
  Full-batch training loss = 0.011046, test loss = 0.285436
  Training set accuracy = 1.000000, Test set accuracy = 0.926200
 epoch 58/500. Took 0.56742 seconds. 
  Full-batch training loss = 0.010762, test loss = 0.286023
  Training set accuracy = 1.000000, Test set accuracy = 0.926000
 epoch 59/500. Took 0.58153 seconds. 
  Full-batch training loss = 0.010518, test loss = 0.286051
  Training set accuracy = 1.000000, Test set accuracy = 0.926800
 epoch 60/500. Took 0.56033 seconds. 
  Full-batch training loss = 0.010263, test loss = 0.287045
  Training set accuracy = 1.000000, Test set accuracy = 0.926200
 epoch 61/500. Took 0.56345 seconds. 
  Full-batch training loss = 0.009939, test loss = 0.287227
  Training set accuracy = 1.000000, Test set accuracy = 0.926700
 epoch 62/500. Took 0.56105 seconds. 
  Full-batch training loss = 0.009691, test loss = 0.287354
  Training set accuracy = 1.000000, Test set accuracy = 0.926600
 epoch 63/500. Took 0.56497 seconds. 
  Full-batch training loss = 0.009464, test loss = 0.288025
  Training set accuracy = 1.000000, Test set accuracy = 0.926500
 epoch 64/500. Took 0.56142 seconds. 
  Full-batch training loss = 0.009230, test loss = 0.288413
  Training set accuracy = 1.000000, Test set accuracy = 0.926900
 epoch 65/500. Took 0.55876 seconds. 
  Full-batch training loss = 0.009014, test loss = 0.288674
  Training set accuracy = 1.000000, Test set accuracy = 0.926700
 epoch 66/500. Took 0.56305 seconds. 
  Full-batch training loss = 0.008841, test loss = 0.289152
  Training set accuracy = 1.000000, Test set accuracy = 0.927100
 epoch 67/500. Took 0.5681 seconds. 
  Full-batch training loss = 0.008606, test loss = 0.289778
  Training set accuracy = 1.000000, Test set accuracy = 0.927000
 epoch 68/500. Took 0.5628 seconds. 
  Full-batch training loss = 0.008433, test loss = 0.290263
  Training set accuracy = 1.000000, Test set accuracy = 0.927200
 epoch 69/500. Took 0.5624 seconds. 
  Full-batch training loss = 0.008229, test loss = 0.290341
  Training set accuracy = 1.000000, Test set accuracy = 0.927000
 epoch 70/500. Took 0.55877 seconds. 
  Full-batch training loss = 0.008061, test loss = 0.290955
  Training set accuracy = 1.000000, Test set accuracy = 0.927000
 epoch 71/500. Took 0.56205 seconds. 
  Full-batch training loss = 0.007891, test loss = 0.291280
  Training set accuracy = 1.000000, Test set accuracy = 0.927300
 epoch 72/500. Took 0.55996 seconds. 
  Full-batch training loss = 0.007733, test loss = 0.291469
  Training set accuracy = 1.000000, Test set accuracy = 0.927100
 epoch 73/500. Took 0.57153 seconds. 
  Full-batch training loss = 0.007568, test loss = 0.292403
  Training set accuracy = 1.000000, Test set accuracy = 0.927300
 epoch 74/500. Took 0.55922 seconds. 
  Full-batch training loss = 0.007410, test loss = 0.292723
  Training set accuracy = 1.000000, Test set accuracy = 0.927500
 epoch 75/500. Took 0.5532 seconds. 
  Full-batch training loss = 0.007264, test loss = 0.293024
  Training set accuracy = 1.000000, Test set accuracy = 0.927500
 epoch 76/500. Took 0.55746 seconds. 
  Full-batch training loss = 0.007127, test loss = 0.293250
  Training set accuracy = 1.000000, Test set accuracy = 0.927400
 epoch 77/500. Took 0.55765 seconds. 
  Full-batch training loss = 0.006988, test loss = 0.293595
  Training set accuracy = 1.000000, Test set accuracy = 0.927700
 epoch 78/500. Took 0.56635 seconds. 
  Full-batch training loss = 0.006852, test loss = 0.294022
  Training set accuracy = 1.000000, Test set accuracy = 0.927600
 epoch 79/500. Took 0.55891 seconds. 
  Full-batch training loss = 0.006725, test loss = 0.294430
  Training set accuracy = 1.000000, Test set accuracy = 0.927400
 epoch 80/500. Took 0.55961 seconds. 
  Full-batch training loss = 0.006603, test loss = 0.294741
  Training set accuracy = 1.000000, Test set accuracy = 0.927500
 epoch 81/500. Took 0.55808 seconds. 
  Full-batch training loss = 0.006484, test loss = 0.295168
  Training set accuracy = 1.000000, Test set accuracy = 0.927400
 epoch 82/500. Took 0.5619 seconds. 
  Full-batch training loss = 0.006366, test loss = 0.295427
  Training set accuracy = 1.000000, Test set accuracy = 0.927500
 epoch 83/500. Took 0.55558 seconds. 
  Full-batch training loss = 0.006253, test loss = 0.295701
  Training set accuracy = 1.000000, Test set accuracy = 0.927400
 epoch 84/500. Took 0.55274 seconds. 
  Full-batch training loss = 0.006144, test loss = 0.296039
  Training set accuracy = 1.000000, Test set accuracy = 0.927600
 epoch 85/500. Took 0.55604 seconds. 
  Full-batch training loss = 0.006040, test loss = 0.296513
  Training set accuracy = 1.000000, Test set accuracy = 0.927600
 epoch 86/500. Took 0.55235 seconds. 
  Full-batch training loss = 0.005939, test loss = 0.296772
  Training set accuracy = 1.000000, Test set accuracy = 0.928000
 epoch 87/500. Took 0.56741 seconds. 
  Full-batch training loss = 0.005839, test loss = 0.297145
  Training set accuracy = 1.000000, Test set accuracy = 0.927700
 epoch 88/500. Took 0.55365 seconds. 
  Full-batch training loss = 0.005741, test loss = 0.297524
  Training set accuracy = 1.000000, Test set accuracy = 0.927700
 epoch 89/500. Took 0.55837 seconds. 
  Full-batch training loss = 0.005651, test loss = 0.298142
  Training set accuracy = 1.000000, Test set accuracy = 0.927700
 epoch 90/500. Took 0.55723 seconds. 
  Full-batch training loss = 0.005556, test loss = 0.298356
  Training set accuracy = 1.000000, Test set accuracy = 0.927700
 epoch 91/500. Took 0.55826 seconds. 
  Full-batch training loss = 0.005471, test loss = 0.298710
  Training set accuracy = 1.000000, Test set accuracy = 0.927800
 epoch 92/500. Took 0.5544 seconds. 
  Full-batch training loss = 0.005390, test loss = 0.298938
  Training set accuracy = 1.000000, Test set accuracy = 0.927700
 epoch 93/500. Took 0.55119 seconds. 
  Full-batch training loss = 0.005302, test loss = 0.299260
  Training set accuracy = 1.000000, Test set accuracy = 0.927900
 epoch 94/500. Took 0.55513 seconds. 
  Full-batch training loss = 0.005223, test loss = 0.299330
  Training set accuracy = 1.000000, Test set accuracy = 0.927900
 epoch 95/500. Took 0.55915 seconds. 
  Full-batch training loss = 0.005143, test loss = 0.300020
  Training set accuracy = 1.000000, Test set accuracy = 0.927900
 epoch 96/500. Took 0.56195 seconds. 
  Full-batch training loss = 0.005066, test loss = 0.300344
  Training set accuracy = 1.000000, Test set accuracy = 0.928000
 epoch 97/500. Took 0.55782 seconds. 
  Full-batch training loss = 0.004992, test loss = 0.300468
  Training set accuracy = 1.000000, Test set accuracy = 0.928000
 epoch 98/500. Took 0.55666 seconds. 
  Full-batch training loss = 0.004917, test loss = 0.300646
  Training set accuracy = 1.000000, Test set accuracy = 0.928200
 epoch 99/500. Took 0.55721 seconds. 
  Full-batch training loss = 0.004849, test loss = 0.300925
  Training set accuracy = 1.000000, Test set accuracy = 0.928200
 epoch 100/500. Took 0.55688 seconds. 
  Full-batch training loss = 0.004780, test loss = 0.301338
  Training set accuracy = 1.000000, Test set accuracy = 0.928000
 epoch 101/500. Took 0.56421 seconds. 
  Full-batch training loss = 0.004711, test loss = 0.301603
  Training set accuracy = 1.000000, Test set accuracy = 0.928200
 epoch 102/500. Took 0.56395 seconds. 
  Full-batch training loss = 0.004647, test loss = 0.301877
  Training set accuracy = 1.000000, Test set accuracy = 0.928000
 epoch 103/500. Took 0.57374 seconds. 
  Full-batch training loss = 0.004583, test loss = 0.302280
  Training set accuracy = 1.000000, Test set accuracy = 0.928200
 epoch 104/500. Took 0.55227 seconds. 
  Full-batch training loss = 0.004520, test loss = 0.302497
  Training set accuracy = 1.000000, Test set accuracy = 0.928200
 epoch 105/500. Took 0.55457 seconds. 
  Full-batch training loss = 0.004460, test loss = 0.302766
  Training set accuracy = 1.000000, Test set accuracy = 0.928200
 epoch 106/500. Took 0.55617 seconds. 
  Full-batch training loss = 0.004401, test loss = 0.303196
  Training set accuracy = 1.000000, Test set accuracy = 0.928000
 epoch 107/500. Took 0.55758 seconds. 
  Full-batch training loss = 0.004344, test loss = 0.303450
  Training set accuracy = 1.000000, Test set accuracy = 0.928100
 epoch 108/500. Took 0.57202 seconds. 
  Full-batch training loss = 0.004287, test loss = 0.303549
  Training set accuracy = 1.000000, Test set accuracy = 0.928400
 epoch 109/500. Took 0.55402 seconds. 
  Full-batch training loss = 0.004231, test loss = 0.304081
  Training set accuracy = 1.000000, Test set accuracy = 0.928300
 epoch 110/500. Took 0.56376 seconds. 
  Full-batch training loss = 0.004178, test loss = 0.304278
  Training set accuracy = 1.000000, Test set accuracy = 0.928300
 epoch 111/500. Took 0.55702 seconds. 
  Full-batch training loss = 0.004124, test loss = 0.304411
  Training set accuracy = 1.000000, Test set accuracy = 0.928200
 epoch 112/500. Took 0.55488 seconds. 
  Full-batch training loss = 0.004074, test loss = 0.304720
  Training set accuracy = 1.000000, Test set accuracy = 0.928300
 epoch 113/500. Took 0.55442 seconds. 
  Full-batch training loss = 0.004024, test loss = 0.304846
  Training set accuracy = 1.000000, Test set accuracy = 0.928500
 epoch 114/500. Took 0.57077 seconds. 
  Full-batch training loss = 0.003976, test loss = 0.305257
  Training set accuracy = 1.000000, Test set accuracy = 0.928300
 epoch 115/500. Took 0.55859 seconds. 
  Full-batch training loss = 0.003926, test loss = 0.305429
  Training set accuracy = 1.000000, Test set accuracy = 0.928500
 epoch 116/500. Took 0.55743 seconds. 
  Full-batch training loss = 0.003878, test loss = 0.305776
  Training set accuracy = 1.000000, Test set accuracy = 0.928400
 epoch 117/500. Took 0.55547 seconds. 
  Full-batch training loss = 0.003833, test loss = 0.305999
  Training set accuracy = 1.000000, Test set accuracy = 0.928400
 epoch 118/500. Took 0.55488 seconds. 
  Full-batch training loss = 0.003788, test loss = 0.306287
  Training set accuracy = 1.000000, Test set accuracy = 0.928400
 epoch 119/500. Took 0.55623 seconds. 
  Full-batch training loss = 0.003745, test loss = 0.306362
  Training set accuracy = 1.000000, Test set accuracy = 0.928800
 epoch 120/500. Took 0.54878 seconds. 
  Full-batch training loss = 0.003702, test loss = 0.306815
  Training set accuracy = 1.000000, Test set accuracy = 0.928400
 epoch 121/500. Took 0.55233 seconds. 
  Full-batch training loss = 0.003658, test loss = 0.307018
  Training set accuracy = 1.000000, Test set accuracy = 0.928400
 epoch 122/500. Took 0.55444 seconds. 
  Full-batch training loss = 0.003617, test loss = 0.307295
  Training set accuracy = 1.000000, Test set accuracy = 0.928500
 epoch 123/500. Took 0.55254 seconds. 
  Full-batch training loss = 0.003575, test loss = 0.307679
  Training set accuracy = 1.000000, Test set accuracy = 0.928400
 epoch 124/500. Took 0.56423 seconds. 
  Full-batch training loss = 0.003536, test loss = 0.307758
  Training set accuracy = 1.000000, Test set accuracy = 0.928500
 epoch 125/500. Took 0.55914 seconds. 
  Full-batch training loss = 0.003497, test loss = 0.307998
  Training set accuracy = 1.000000, Test set accuracy = 0.928700
 epoch 126/500. Took 0.58961 seconds. 
  Full-batch training loss = 0.003459, test loss = 0.308155
  Training set accuracy = 1.000000, Test set accuracy = 0.928600
 epoch 127/500. Took 0.55927 seconds. 
  Full-batch training loss = 0.003422, test loss = 0.308390
  Training set accuracy = 1.000000, Test set accuracy = 0.928600
 epoch 128/500. Took 0.55823 seconds. 
  Full-batch training loss = 0.003385, test loss = 0.308784
  Training set accuracy = 1.000000, Test set accuracy = 0.928600
 epoch 129/500. Took 0.55586 seconds. 
  Full-batch training loss = 0.003349, test loss = 0.308974
  Training set accuracy = 1.000000, Test set accuracy = 0.928600
 epoch 130/500. Took 0.5595 seconds. 
  Full-batch training loss = 0.003314, test loss = 0.309216
  Training set accuracy = 1.000000, Test set accuracy = 0.928800
 epoch 131/500. Took 0.55811 seconds. 
  Full-batch training loss = 0.003281, test loss = 0.309417
  Training set accuracy = 1.000000, Test set accuracy = 0.928600
 epoch 132/500. Took 0.5572 seconds. 
  Full-batch training loss = 0.003246, test loss = 0.309582
  Training set accuracy = 1.000000, Test set accuracy = 0.928800
 epoch 133/500. Took 0.55408 seconds. 
  Full-batch training loss = 0.003212, test loss = 0.309854
  Training set accuracy = 1.000000, Test set accuracy = 0.928600
 epoch 134/500. Took 0.5706 seconds. 
  Full-batch training loss = 0.003181, test loss = 0.310003
  Training set accuracy = 1.000000, Test set accuracy = 0.928700
 epoch 135/500. Took 0.55763 seconds. 
  Full-batch training loss = 0.003148, test loss = 0.310306
  Training set accuracy = 1.000000, Test set accuracy = 0.928700
 epoch 136/500. Took 0.56221 seconds. 
  Full-batch training loss = 0.003116, test loss = 0.310493
  Training set accuracy = 1.000000, Test set accuracy = 0.928600
 epoch 137/500. Took 0.56622 seconds. 
  Full-batch training loss = 0.003085, test loss = 0.310684
  Training set accuracy = 1.000000, Test set accuracy = 0.928800
 epoch 138/500. Took 0.55795 seconds. 
  Full-batch training loss = 0.003054, test loss = 0.310946
  Training set accuracy = 1.000000, Test set accuracy = 0.928800
 epoch 139/500. Took 0.55876 seconds. 
  Full-batch training loss = 0.003026, test loss = 0.311208
  Training set accuracy = 1.000000, Test set accuracy = 0.928600
 epoch 140/500. Took 0.55719 seconds. 
  Full-batch training loss = 0.002995, test loss = 0.311390
  Training set accuracy = 1.000000, Test set accuracy = 0.928700
 epoch 141/500. Took 0.56171 seconds. 
  Full-batch training loss = 0.002967, test loss = 0.311501
  Training set accuracy = 1.000000, Test set accuracy = 0.928900
 epoch 142/500. Took 0.56566 seconds. 
  Full-batch training loss = 0.002939, test loss = 0.311680
  Training set accuracy = 1.000000, Test set accuracy = 0.928800
 epoch 143/500. Took 0.57224 seconds. 
  Full-batch training loss = 0.002910, test loss = 0.312071
  Training set accuracy = 1.000000, Test set accuracy = 0.928500
 epoch 144/500. Took 0.55387 seconds. 
  Full-batch training loss = 0.002883, test loss = 0.312282
  Training set accuracy = 1.000000, Test set accuracy = 0.928600
 epoch 145/500. Took 0.5559 seconds. 
  Full-batch training loss = 0.002856, test loss = 0.312400
  Training set accuracy = 1.000000, Test set accuracy = 0.928700
 epoch 146/500. Took 0.56297 seconds. 
  Full-batch training loss = 0.002830, test loss = 0.312649
  Training set accuracy = 1.000000, Test set accuracy = 0.928600
 epoch 147/500. Took 0.55854 seconds. 
  Full-batch training loss = 0.002804, test loss = 0.312696
  Training set accuracy = 1.000000, Test set accuracy = 0.928800
 epoch 148/500. Took 0.55966 seconds. 
  Full-batch training loss = 0.002778, test loss = 0.313096
  Training set accuracy = 1.000000, Test set accuracy = 0.928500
 epoch 149/500. Took 0.56343 seconds. 
  Full-batch training loss = 0.002753, test loss = 0.313193
  Training set accuracy = 1.000000, Test set accuracy = 0.928700
 epoch 150/500. Took 0.56116 seconds. 
  Full-batch training loss = 0.002729, test loss = 0.313404
  Training set accuracy = 1.000000, Test set accuracy = 0.928700
 epoch 151/500. Took 0.55932 seconds. 
  Full-batch training loss = 0.002704, test loss = 0.313635
  Training set accuracy = 1.000000, Test set accuracy = 0.928600
 epoch 152/500. Took 0.58327 seconds. 
  Full-batch training loss = 0.002681, test loss = 0.313878
  Training set accuracy = 1.000000, Test set accuracy = 0.928800
 epoch 153/500. Took 0.56032 seconds. 
  Full-batch training loss = 0.002657, test loss = 0.314063
  Training set accuracy = 1.000000, Test set accuracy = 0.928600
 epoch 154/500. Took 0.56025 seconds. 
  Full-batch training loss = 0.002634, test loss = 0.314187
  Training set accuracy = 1.000000, Test set accuracy = 0.928700
 epoch 155/500. Took 0.55562 seconds. 
  Full-batch training loss = 0.002611, test loss = 0.314377
  Training set accuracy = 1.000000, Test set accuracy = 0.928600
 epoch 156/500. Took 0.55558 seconds. 
  Full-batch training loss = 0.002589, test loss = 0.314429
  Training set accuracy = 1.000000, Test set accuracy = 0.928800
 epoch 157/500. Took 0.5588 seconds. 
  Full-batch training loss = 0.002566, test loss = 0.314894
  Training set accuracy = 1.000000, Test set accuracy = 0.928600
 epoch 158/500. Took 0.59766 seconds. 
  Full-batch training loss = 0.002544, test loss = 0.315050
  Training set accuracy = 1.000000, Test set accuracy = 0.928700
 epoch 159/500. Took 0.60193 seconds. 
  Full-batch training loss = 0.002524, test loss = 0.315084
  Training set accuracy = 1.000000, Test set accuracy = 0.928700
 epoch 160/500. Took 0.62218 seconds. 
  Full-batch training loss = 0.002502, test loss = 0.315413
  Training set accuracy = 1.000000, Test set accuracy = 0.928800
 epoch 161/500. Took 0.59283 seconds. 
  Full-batch training loss = 0.002482, test loss = 0.315596
  Training set accuracy = 1.000000, Test set accuracy = 0.928600
 epoch 162/500. Took 0.59849 seconds. 
  Full-batch training loss = 0.002461, test loss = 0.315837
  Training set accuracy = 1.000000, Test set accuracy = 0.928700
 epoch 163/500. Took 0.59857 seconds. 
  Full-batch training loss = 0.002441, test loss = 0.316007
  Training set accuracy = 1.000000, Test set accuracy = 0.928600
 epoch 164/500. Took 0.61578 seconds. 
  Full-batch training loss = 0.002422, test loss = 0.316093
  Training set accuracy = 1.000000, Test set accuracy = 0.928800
 epoch 165/500. Took 0.6075 seconds. 
  Full-batch training loss = 0.002401, test loss = 0.316266
  Training set accuracy = 1.000000, Test set accuracy = 0.928700
 epoch 166/500. Took 0.60559 seconds. 
  Full-batch training loss = 0.002382, test loss = 0.316529
  Training set accuracy = 1.000000, Test set accuracy = 0.928800
 epoch 167/500. Took 0.59102 seconds. 
  Full-batch training loss = 0.002363, test loss = 0.316713
  Training set accuracy = 1.000000, Test set accuracy = 0.928700
 epoch 168/500. Took 0.59909 seconds. 
  Full-batch training loss = 0.002344, test loss = 0.316824
  Training set accuracy = 1.000000, Test set accuracy = 0.928600
 epoch 169/500. Took 0.60075 seconds. 
  Full-batch training loss = 0.002326, test loss = 0.316996
  Training set accuracy = 1.000000, Test set accuracy = 0.928800
 epoch 170/500. Took 0.58247 seconds. 
  Full-batch training loss = 0.002308, test loss = 0.317198
  Training set accuracy = 1.000000, Test set accuracy = 0.928600
 epoch 171/500. Took 0.58315 seconds. 
  Full-batch training loss = 0.002290, test loss = 0.317295
  Training set accuracy = 1.000000, Test set accuracy = 0.929000
 epoch 172/500. Took 0.5995 seconds. 
  Full-batch training loss = 0.002272, test loss = 0.317494
  Training set accuracy = 1.000000, Test set accuracy = 0.928600
 epoch 173/500. Took 0.58846 seconds. 
  Full-batch training loss = 0.002255, test loss = 0.317684
  Training set accuracy = 1.000000, Test set accuracy = 0.928600
 epoch 174/500. Took 0.58853 seconds. 
  Full-batch training loss = 0.002238, test loss = 0.317834
  Training set accuracy = 1.000000, Test set accuracy = 0.928600
 epoch 175/500. Took 0.58692 seconds. 
  Full-batch training loss = 0.002221, test loss = 0.318009
  Training set accuracy = 1.000000, Test set accuracy = 0.928600
 epoch 176/500. Took 0.61611 seconds. 
  Full-batch training loss = 0.002205, test loss = 0.318210
  Training set accuracy = 1.000000, Test set accuracy = 0.928600
 epoch 177/500. Took 0.5929 seconds. 
  Full-batch training loss = 0.002188, test loss = 0.318382
  Training set accuracy = 1.000000, Test set accuracy = 0.928700
 epoch 178/500. Took 0.58795 seconds. 
  Full-batch training loss = 0.002172, test loss = 0.318584
  Training set accuracy = 1.000000, Test set accuracy = 0.928700
 epoch 179/500. Took 0.60083 seconds. 
  Full-batch training loss = 0.002156, test loss = 0.318758
  Training set accuracy = 1.000000, Test set accuracy = 0.928700
 epoch 180/500. Took 0.59397 seconds. 
  Full-batch training loss = 0.002140, test loss = 0.318925
  Training set accuracy = 1.000000, Test set accuracy = 0.928800
 epoch 181/500. Took 0.5893 seconds. 
  Full-batch training loss = 0.002124, test loss = 0.319107
  Training set accuracy = 1.000000, Test set accuracy = 0.928600
 epoch 182/500. Took 0.59615 seconds. 
  Full-batch training loss = 0.002109, test loss = 0.319184
  Training set accuracy = 1.000000, Test set accuracy = 0.929000
 epoch 183/500. Took 0.58798 seconds. 
  Full-batch training loss = 0.002094, test loss = 0.319489
  Training set accuracy = 1.000000, Test set accuracy = 0.928700
 epoch 184/500. Took 0.58579 seconds. 
  Full-batch training loss = 0.002079, test loss = 0.319614
  Training set accuracy = 1.000000, Test set accuracy = 0.928700
 epoch 185/500. Took 0.58894 seconds. 
  Full-batch training loss = 0.002064, test loss = 0.319798
  Training set accuracy = 1.000000, Test set accuracy = 0.928700
 epoch 186/500. Took 0.58944 seconds. 
  Full-batch training loss = 0.002049, test loss = 0.319913
  Training set accuracy = 1.000000, Test set accuracy = 0.928700
 epoch 187/500. Took 0.59004 seconds. 
  Full-batch training loss = 0.002035, test loss = 0.319996
  Training set accuracy = 1.000000, Test set accuracy = 0.929000
 epoch 188/500. Took 0.58752 seconds. 
  Full-batch training loss = 0.002021, test loss = 0.320252
  Training set accuracy = 1.000000, Test set accuracy = 0.928800
 epoch 189/500. Took 0.58878 seconds. 
  Full-batch training loss = 0.002007, test loss = 0.320337
  Training set accuracy = 1.000000, Test set accuracy = 0.928800
 epoch 190/500. Took 0.56106 seconds. 
  Full-batch training loss = 0.001993, test loss = 0.320542
  Training set accuracy = 1.000000, Test set accuracy = 0.928900
 epoch 191/500. Took 0.56123 seconds. 
  Full-batch training loss = 0.001979, test loss = 0.320579
  Training set accuracy = 1.000000, Test set accuracy = 0.929000
 epoch 192/500. Took 0.56046 seconds. 
  Full-batch training loss = 0.001965, test loss = 0.320810
  Training set accuracy = 1.000000, Test set accuracy = 0.928900
 epoch 193/500. Took 0.56472 seconds. 
  Full-batch training loss = 0.001952, test loss = 0.320987
  Training set accuracy = 1.000000, Test set accuracy = 0.929000
 epoch 194/500. Took 0.55691 seconds. 
  Full-batch training loss = 0.001939, test loss = 0.321182
  Training set accuracy = 1.000000, Test set accuracy = 0.928700
 epoch 195/500. Took 0.56624 seconds. 
  Full-batch training loss = 0.001926, test loss = 0.321292
  Training set accuracy = 1.000000, Test set accuracy = 0.929000
 epoch 196/500. Took 0.55885 seconds. 
  Full-batch training loss = 0.001913, test loss = 0.321518
  Training set accuracy = 1.000000, Test set accuracy = 0.929000
 epoch 197/500. Took 0.56561 seconds. 
  Full-batch training loss = 0.001901, test loss = 0.321642
  Training set accuracy = 1.000000, Test set accuracy = 0.928900
 epoch 198/500. Took 0.55657 seconds. 
  Full-batch training loss = 0.001888, test loss = 0.321654
  Training set accuracy = 1.000000, Test set accuracy = 0.929200
 epoch 199/500. Took 0.56952 seconds. 
  Full-batch training loss = 0.001876, test loss = 0.321969
  Training set accuracy = 1.000000, Test set accuracy = 0.928900
 epoch 200/500. Took 0.56376 seconds. 
  Full-batch training loss = 0.001863, test loss = 0.322163
  Training set accuracy = 1.000000, Test set accuracy = 0.928900
 epoch 201/500. Took 0.55485 seconds. 
  Full-batch training loss = 0.001852, test loss = 0.322230
  Training set accuracy = 1.000000, Test set accuracy = 0.929200
 epoch 202/500. Took 0.55263 seconds. 
  Full-batch training loss = 0.001839, test loss = 0.322412
  Training set accuracy = 1.000000, Test set accuracy = 0.929200
 epoch 203/500. Took 0.55977 seconds. 
  Full-batch training loss = 0.001827, test loss = 0.322529
  Training set accuracy = 1.000000, Test set accuracy = 0.929100
 epoch 204/500. Took 0.56019 seconds. 
  Full-batch training loss = 0.001816, test loss = 0.322603
  Training set accuracy = 1.000000, Test set accuracy = 0.928900
 epoch 205/500. Took 0.56089 seconds. 
  Full-batch training loss = 0.001804, test loss = 0.322798
  Training set accuracy = 1.000000, Test set accuracy = 0.929100
 epoch 206/500. Took 0.55416 seconds. 
  Full-batch training loss = 0.001793, test loss = 0.322984
  Training set accuracy = 1.000000, Test set accuracy = 0.929000
 epoch 207/500. Took 0.55962 seconds. 
  Full-batch training loss = 0.001782, test loss = 0.323159
  Training set accuracy = 1.000000, Test set accuracy = 0.928900
 epoch 208/500. Took 0.55557 seconds. 
  Full-batch training loss = 0.001770, test loss = 0.323204
  Training set accuracy = 1.000000, Test set accuracy = 0.929200
 epoch 209/500. Took 0.55755 seconds. 
  Full-batch training loss = 0.001759, test loss = 0.323421
  Training set accuracy = 1.000000, Test set accuracy = 0.929100
 epoch 210/500. Took 0.55411 seconds. 
  Full-batch training loss = 0.001749, test loss = 0.323539
  Training set accuracy = 1.000000, Test set accuracy = 0.929200
 epoch 211/500. Took 0.56043 seconds. 
  Full-batch training loss = 0.001738, test loss = 0.323566
  Training set accuracy = 1.000000, Test set accuracy = 0.929300
 epoch 212/500. Took 0.55914 seconds. 
  Full-batch training loss = 0.001727, test loss = 0.323879
  Training set accuracy = 1.000000, Test set accuracy = 0.929100
 epoch 213/500. Took 0.56208 seconds. 
  Full-batch training loss = 0.001716, test loss = 0.323979
  Training set accuracy = 1.000000, Test set accuracy = 0.929300
 epoch 214/500. Took 0.57497 seconds. 
  Full-batch training loss = 0.001706, test loss = 0.324089
  Training set accuracy = 1.000000, Test set accuracy = 0.929100
 epoch 215/500. Took 0.55788 seconds. 
  Full-batch training loss = 0.001696, test loss = 0.324226
  Training set accuracy = 1.000000, Test set accuracy = 0.929100
 epoch 216/500. Took 0.55455 seconds. 
  Full-batch training loss = 0.001686, test loss = 0.324425
  Training set accuracy = 1.000000, Test set accuracy = 0.929200
 epoch 217/500. Took 0.56044 seconds. 
  Full-batch training loss = 0.001676, test loss = 0.324488
  Training set accuracy = 1.000000, Test set accuracy = 0.929200
 epoch 218/500. Took 0.55935 seconds. 
  Full-batch training loss = 0.001666, test loss = 0.324634
  Training set accuracy = 1.000000, Test set accuracy = 0.929300
 epoch 219/500. Took 0.55893 seconds. 
  Full-batch training loss = 0.001656, test loss = 0.324842
  Training set accuracy = 1.000000, Test set accuracy = 0.929100
 epoch 220/500. Took 0.56248 seconds. 
  Full-batch training loss = 0.001646, test loss = 0.324908
  Training set accuracy = 1.000000, Test set accuracy = 0.929400
 epoch 221/500. Took 0.56283 seconds. 
  Full-batch training loss = 0.001637, test loss = 0.325102
  Training set accuracy = 1.000000, Test set accuracy = 0.929300
 epoch 222/500. Took 0.55698 seconds. 
  Full-batch training loss = 0.001627, test loss = 0.325165
  Training set accuracy = 1.000000, Test set accuracy = 0.929300
 epoch 223/500. Took 0.55758 seconds. 
  Full-batch training loss = 0.001617, test loss = 0.325352
  Training set accuracy = 1.000000, Test set accuracy = 0.929300
 epoch 224/500. Took 0.55951 seconds. 
  Full-batch training loss = 0.001608, test loss = 0.325527
  Training set accuracy = 1.000000, Test set accuracy = 0.929200
 epoch 225/500. Took 0.55798 seconds. 
  Full-batch training loss = 0.001599, test loss = 0.325537
  Training set accuracy = 1.000000, Test set accuracy = 0.929400
 epoch 226/500. Took 0.55663 seconds. 
  Full-batch training loss = 0.001590, test loss = 0.325716
  Training set accuracy = 1.000000, Test set accuracy = 0.929400
 epoch 227/500. Took 0.55662 seconds. 
  Full-batch training loss = 0.001581, test loss = 0.325914
  Training set accuracy = 1.000000, Test set accuracy = 0.929300
 epoch 228/500. Took 0.56411 seconds. 
  Full-batch training loss = 0.001572, test loss = 0.325998
  Training set accuracy = 1.000000, Test set accuracy = 0.929300
 epoch 229/500. Took 0.56333 seconds. 
  Full-batch training loss = 0.001563, test loss = 0.326097
  Training set accuracy = 1.000000, Test set accuracy = 0.929400
 epoch 230/500. Took 0.55717 seconds. 
  Full-batch training loss = 0.001554, test loss = 0.326255
  Training set accuracy = 1.000000, Test set accuracy = 0.929200
 epoch 231/500. Took 0.56049 seconds. 
  Full-batch training loss = 0.001546, test loss = 0.326403
  Training set accuracy = 1.000000, Test set accuracy = 0.929500
 epoch 232/500. Took 0.55482 seconds. 
  Full-batch training loss = 0.001537, test loss = 0.326555
  Training set accuracy = 1.000000, Test set accuracy = 0.929200
 epoch 233/500. Took 0.55652 seconds. 
  Full-batch training loss = 0.001529, test loss = 0.326660
  Training set accuracy = 1.000000, Test set accuracy = 0.929300
 epoch 234/500. Took 0.5691 seconds. 
  Full-batch training loss = 0.001520, test loss = 0.326785
  Training set accuracy = 1.000000, Test set accuracy = 0.929300
 epoch 235/500. Took 0.56127 seconds. 
  Full-batch training loss = 0.001512, test loss = 0.326934
  Training set accuracy = 1.000000, Test set accuracy = 0.929300
 epoch 236/500. Took 0.5635 seconds. 
  Full-batch training loss = 0.001503, test loss = 0.326979
  Training set accuracy = 1.000000, Test set accuracy = 0.929400
 epoch 237/500. Took 0.5689 seconds. 
  Full-batch training loss = 0.001495, test loss = 0.327182
  Training set accuracy = 1.000000, Test set accuracy = 0.929300
 epoch 238/500. Took 0.58825 seconds. 
  Full-batch training loss = 0.001487, test loss = 0.327295
  Training set accuracy = 1.000000, Test set accuracy = 0.929300
 epoch 239/500. Took 0.56682 seconds. 
  Full-batch training loss = 0.001479, test loss = 0.327425
  Training set accuracy = 1.000000, Test set accuracy = 0.929300
 epoch 240/500. Took 0.56248 seconds. 
  Full-batch training loss = 0.001472, test loss = 0.327534
  Training set accuracy = 1.000000, Test set accuracy = 0.929200
 epoch 241/500. Took 0.56608 seconds. 
  Full-batch training loss = 0.001464, test loss = 0.327648
  Training set accuracy = 1.000000, Test set accuracy = 0.929400
 epoch 242/500. Took 0.56625 seconds. 
  Full-batch training loss = 0.001456, test loss = 0.327789
  Training set accuracy = 1.000000, Test set accuracy = 0.929200
 epoch 243/500. Took 0.55613 seconds. 
  Full-batch training loss = 0.001448, test loss = 0.327927
  Training set accuracy = 1.000000, Test set accuracy = 0.929300
 epoch 244/500. Took 0.57019 seconds. 
  Full-batch training loss = 0.001441, test loss = 0.327974
  Training set accuracy = 1.000000, Test set accuracy = 0.929300
 epoch 245/500. Took 0.56257 seconds. 
  Full-batch training loss = 0.001433, test loss = 0.328117
  Training set accuracy = 1.000000, Test set accuracy = 0.929400
 epoch 246/500. Took 0.56664 seconds. 
  Full-batch training loss = 0.001426, test loss = 0.328235
  Training set accuracy = 1.000000, Test set accuracy = 0.929300
 epoch 247/500. Took 0.55511 seconds. 
  Full-batch training loss = 0.001418, test loss = 0.328396
  Training set accuracy = 1.000000, Test set accuracy = 0.929200
 epoch 248/500. Took 0.56006 seconds. 
  Full-batch training loss = 0.001411, test loss = 0.328383
  Training set accuracy = 1.000000, Test set accuracy = 0.929500
 epoch 249/500. Took 0.65386 seconds. 
  Full-batch training loss = 0.001403, test loss = 0.328607
  Training set accuracy = 1.000000, Test set accuracy = 0.929200
 epoch 250/500. Took 0.57008 seconds. 
  Full-batch training loss = 0.001396, test loss = 0.328805
  Training set accuracy = 1.000000, Test set accuracy = 0.929400
 epoch 251/500. Took 0.55755 seconds. 
  Full-batch training loss = 0.001389, test loss = 0.328878
  Training set accuracy = 1.000000, Test set accuracy = 0.929500
 epoch 252/500. Took 0.5598 seconds. 
  Full-batch training loss = 0.001382, test loss = 0.328919
  Training set accuracy = 1.000000, Test set accuracy = 0.929500
 epoch 253/500. Took 0.56022 seconds. 
  Full-batch training loss = 0.001375, test loss = 0.329101
  Training set accuracy = 1.000000, Test set accuracy = 0.929400
 epoch 254/500. Took 0.55938 seconds. 
  Full-batch training loss = 0.001368, test loss = 0.329246
  Training set accuracy = 1.000000, Test set accuracy = 0.929500
 epoch 255/500. Took 0.55279 seconds. 
  Full-batch training loss = 0.001361, test loss = 0.329363
  Training set accuracy = 1.000000, Test set accuracy = 0.929400
 epoch 256/500. Took 0.55531 seconds. 
  Full-batch training loss = 0.001355, test loss = 0.329422
  Training set accuracy = 1.000000, Test set accuracy = 0.929400
 epoch 257/500. Took 0.55773 seconds. 
  Full-batch training loss = 0.001348, test loss = 0.329546
  Training set accuracy = 1.000000, Test set accuracy = 0.929500
 epoch 258/500. Took 0.56048 seconds. 
  Full-batch training loss = 0.001341, test loss = 0.329706
  Training set accuracy = 1.000000, Test set accuracy = 0.929600
 epoch 259/500. Took 0.62126 seconds. 
  Full-batch training loss = 0.001335, test loss = 0.329781
  Training set accuracy = 1.000000, Test set accuracy = 0.929500
 epoch 260/500. Took 0.55433 seconds. 
  Full-batch training loss = 0.001328, test loss = 0.329944
  Training set accuracy = 1.000000, Test set accuracy = 0.929600
 epoch 261/500. Took 0.55754 seconds. 
  Full-batch training loss = 0.001322, test loss = 0.330020
  Training set accuracy = 1.000000, Test set accuracy = 0.929500
 epoch 262/500. Took 0.55675 seconds. 
  Full-batch training loss = 0.001315, test loss = 0.330140
  Training set accuracy = 1.000000, Test set accuracy = 0.929300
 epoch 263/500. Took 0.561 seconds. 
  Full-batch training loss = 0.001309, test loss = 0.330264
  Training set accuracy = 1.000000, Test set accuracy = 0.929600
 epoch 264/500. Took 0.54975 seconds. 
  Full-batch training loss = 0.001302, test loss = 0.330335
  Training set accuracy = 1.000000, Test set accuracy = 0.929600
 epoch 265/500. Took 0.55547 seconds. 
  Full-batch training loss = 0.001296, test loss = 0.330488
  Training set accuracy = 1.000000, Test set accuracy = 0.929600
 epoch 266/500. Took 0.56719 seconds. 
  Full-batch training loss = 0.001290, test loss = 0.330586
  Training set accuracy = 1.000000, Test set accuracy = 0.929500
 epoch 267/500. Took 0.56122 seconds. 
  Full-batch training loss = 0.001284, test loss = 0.330731
  Training set accuracy = 1.000000, Test set accuracy = 0.929500
 epoch 268/500. Took 0.56735 seconds. 
  Full-batch training loss = 0.001278, test loss = 0.330826
  Training set accuracy = 1.000000, Test set accuracy = 0.929500
 epoch 269/500. Took 0.56037 seconds. 
  Full-batch training loss = 0.001272, test loss = 0.330973
  Training set accuracy = 1.000000, Test set accuracy = 0.929300
 epoch 270/500. Took 0.55796 seconds. 
  Full-batch training loss = 0.001266, test loss = 0.331045
  Training set accuracy = 1.000000, Test set accuracy = 0.929500
 epoch 271/500. Took 0.55773 seconds. 
  Full-batch training loss = 0.001260, test loss = 0.331049
  Training set accuracy = 1.000000, Test set accuracy = 0.929400
 epoch 272/500. Took 0.55725 seconds. 
  Full-batch training loss = 0.001254, test loss = 0.331260
  Training set accuracy = 1.000000, Test set accuracy = 0.929500
 epoch 273/500. Took 0.55602 seconds. 
  Full-batch training loss = 0.001248, test loss = 0.331380
  Training set accuracy = 1.000000, Test set accuracy = 0.929600
 epoch 274/500. Took 0.55568 seconds. 
  Full-batch training loss = 0.001242, test loss = 0.331441
  Training set accuracy = 1.000000, Test set accuracy = 0.929600
 epoch 275/500. Took 0.56668 seconds. 
  Full-batch training loss = 0.001237, test loss = 0.331614
  Training set accuracy = 1.000000, Test set accuracy = 0.929400
 epoch 276/500. Took 0.56401 seconds. 
  Full-batch training loss = 0.001231, test loss = 0.331737
  Training set accuracy = 1.000000, Test set accuracy = 0.929600
 epoch 277/500. Took 0.55009 seconds. 
  Full-batch training loss = 0.001225, test loss = 0.331798
  Training set accuracy = 1.000000, Test set accuracy = 0.929600
 epoch 278/500. Took 0.55714 seconds. 
  Full-batch training loss = 0.001219, test loss = 0.331981
  Training set accuracy = 1.000000, Test set accuracy = 0.929500
 epoch 279/500. Took 0.55617 seconds. 
  Full-batch training loss = 0.001214, test loss = 0.332004
  Training set accuracy = 1.000000, Test set accuracy = 0.929500
 epoch 280/500. Took 0.55825 seconds. 
  Full-batch training loss = 0.001208, test loss = 0.332095
  Training set accuracy = 1.000000, Test set accuracy = 0.929600
 epoch 281/500. Took 0.55755 seconds. 
  Full-batch training loss = 0.001203, test loss = 0.332264
  Training set accuracy = 1.000000, Test set accuracy = 0.929500
 epoch 282/500. Took 0.55465 seconds. 
  Full-batch training loss = 0.001198, test loss = 0.332365
  Training set accuracy = 1.000000, Test set accuracy = 0.929600
 epoch 283/500. Took 0.55981 seconds. 
  Full-batch training loss = 0.001192, test loss = 0.332470
  Training set accuracy = 1.000000, Test set accuracy = 0.929700
 epoch 284/500. Took 0.56392 seconds. 
  Full-batch training loss = 0.001187, test loss = 0.332599
  Training set accuracy = 1.000000, Test set accuracy = 0.929600
 epoch 285/500. Took 0.55711 seconds. 
  Full-batch training loss = 0.001182, test loss = 0.332658
  Training set accuracy = 1.000000, Test set accuracy = 0.929500
 epoch 286/500. Took 0.55715 seconds. 
  Full-batch training loss = 0.001176, test loss = 0.332768
  Training set accuracy = 1.000000, Test set accuracy = 0.929600
 epoch 287/500. Took 0.56434 seconds. 
  Full-batch training loss = 0.001171, test loss = 0.332882
  Training set accuracy = 1.000000, Test set accuracy = 0.929600
 epoch 288/500. Took 0.56106 seconds. 
  Full-batch training loss = 0.001166, test loss = 0.332957
  Training set accuracy = 1.000000, Test set accuracy = 0.929500
 epoch 289/500. Took 0.55661 seconds. 
  Full-batch training loss = 0.001161, test loss = 0.333020
  Training set accuracy = 1.000000, Test set accuracy = 0.929500
 epoch 290/500. Took 0.56176 seconds. 
  Full-batch training loss = 0.001156, test loss = 0.333206
  Training set accuracy = 1.000000, Test set accuracy = 0.929500
 epoch 291/500. Took 0.55817 seconds. 
  Full-batch training loss = 0.001151, test loss = 0.333245
  Training set accuracy = 1.000000, Test set accuracy = 0.929600
 epoch 292/500. Took 0.55647 seconds. 
  Full-batch training loss = 0.001146, test loss = 0.333366
  Training set accuracy = 1.000000, Test set accuracy = 0.929600
 epoch 293/500. Took 0.54897 seconds. 
  Full-batch training loss = 0.001141, test loss = 0.333513
  Training set accuracy = 1.000000, Test set accuracy = 0.929600
 epoch 294/500. Took 0.55639 seconds. 
  Full-batch training loss = 0.001136, test loss = 0.333567
  Training set accuracy = 1.000000, Test set accuracy = 0.929700
 epoch 295/500. Took 0.56812 seconds. 
  Full-batch training loss = 0.001131, test loss = 0.333653
  Training set accuracy = 1.000000, Test set accuracy = 0.929500
 epoch 296/500. Took 0.55728 seconds. 
  Full-batch training loss = 0.001126, test loss = 0.333745
  Training set accuracy = 1.000000, Test set accuracy = 0.929600
 epoch 297/500. Took 0.55979 seconds. 
  Full-batch training loss = 0.001122, test loss = 0.333857
  Training set accuracy = 1.000000, Test set accuracy = 0.929700
 epoch 298/500. Took 0.55522 seconds. 
  Full-batch training loss = 0.001117, test loss = 0.334009
  Training set accuracy = 1.000000, Test set accuracy = 0.929600
 epoch 299/500. Took 0.55713 seconds. 
  Full-batch training loss = 0.001112, test loss = 0.334123
  Training set accuracy = 1.000000, Test set accuracy = 0.929500
 epoch 300/500. Took 0.55835 seconds. 
  Full-batch training loss = 0.001107, test loss = 0.334191
  Training set accuracy = 1.000000, Test set accuracy = 0.929700
 epoch 301/500. Took 0.56203 seconds. 
  Full-batch training loss = 0.001103, test loss = 0.334227
  Training set accuracy = 1.000000, Test set accuracy = 0.929500
 epoch 302/500. Took 0.56003 seconds. 
  Full-batch training loss = 0.001098, test loss = 0.334357
  Training set accuracy = 1.000000, Test set accuracy = 0.929500
 epoch 303/500. Took 0.60208 seconds. 
  Full-batch training loss = 0.001094, test loss = 0.334484
  Training set accuracy = 1.000000, Test set accuracy = 0.929500
 epoch 304/500. Took 0.57154 seconds. 
  Full-batch training loss = 0.001089, test loss = 0.334581
  Training set accuracy = 1.000000, Test set accuracy = 0.929600
 epoch 305/500. Took 0.57117 seconds. 
  Full-batch training loss = 0.001085, test loss = 0.334641
  Training set accuracy = 1.000000, Test set accuracy = 0.929500
 epoch 306/500. Took 0.57028 seconds. 
  Full-batch training loss = 0.001080, test loss = 0.334830
  Training set accuracy = 1.000000, Test set accuracy = 0.929500
 epoch 307/500. Took 0.57176 seconds. 
  Full-batch training loss = 0.001076, test loss = 0.334838
  Training set accuracy = 1.000000, Test set accuracy = 0.929500
 epoch 308/500. Took 0.55086 seconds. 
  Full-batch training loss = 0.001071, test loss = 0.334971
  Training set accuracy = 1.000000, Test set accuracy = 0.929600
 epoch 309/500. Took 0.5588 seconds. 
  Full-batch training loss = 0.001067, test loss = 0.335102
  Training set accuracy = 1.000000, Test set accuracy = 0.929500
 epoch 310/500. Took 0.57928 seconds. 
  Full-batch training loss = 0.001063, test loss = 0.335123
  Training set accuracy = 1.000000, Test set accuracy = 0.929500
 epoch 311/500. Took 0.56803 seconds. 
  Full-batch training loss = 0.001058, test loss = 0.335228
  Training set accuracy = 1.000000, Test set accuracy = 0.929600
 epoch 312/500. Took 0.55673 seconds. 
  Full-batch training loss = 0.001054, test loss = 0.335350
  Training set accuracy = 1.000000, Test set accuracy = 0.929500
 epoch 313/500. Took 0.55578 seconds. 
  Full-batch training loss = 0.001050, test loss = 0.335431
  Training set accuracy = 1.000000, Test set accuracy = 0.929500
 epoch 314/500. Took 0.56018 seconds. 
  Full-batch training loss = 0.001046, test loss = 0.335592
  Training set accuracy = 1.000000, Test set accuracy = 0.929600
 epoch 315/500. Took 0.56472 seconds. 
  Full-batch training loss = 0.001041, test loss = 0.335621
  Training set accuracy = 1.000000, Test set accuracy = 0.929600
 epoch 316/500. Took 0.56406 seconds. 
  Full-batch training loss = 0.001037, test loss = 0.335746
  Training set accuracy = 1.000000, Test set accuracy = 0.929600
 epoch 317/500. Took 0.56595 seconds. 
  Full-batch training loss = 0.001033, test loss = 0.335850
  Training set accuracy = 1.000000, Test set accuracy = 0.929600
 epoch 318/500. Took 0.55805 seconds. 
  Full-batch training loss = 0.001029, test loss = 0.335909
  Training set accuracy = 1.000000, Test set accuracy = 0.929500
 epoch 319/500. Took 0.62235 seconds. 
  Full-batch training loss = 0.001025, test loss = 0.336004
  Training set accuracy = 1.000000, Test set accuracy = 0.929500
 epoch 320/500. Took 0.55714 seconds. 
  Full-batch training loss = 0.001021, test loss = 0.336138
  Training set accuracy = 1.000000, Test set accuracy = 0.929700
 epoch 321/500. Took 0.58509 seconds. 
  Full-batch training loss = 0.001017, test loss = 0.336188
  Training set accuracy = 1.000000, Test set accuracy = 0.929500
 epoch 322/500. Took 0.5518 seconds. 
  Full-batch training loss = 0.001013, test loss = 0.336251
  Training set accuracy = 1.000000, Test set accuracy = 0.929700
 epoch 323/500. Took 0.55519 seconds. 
  Full-batch training loss = 0.001009, test loss = 0.336402
  Training set accuracy = 1.000000, Test set accuracy = 0.929600
 epoch 324/500. Took 0.55952 seconds. 
  Full-batch training loss = 0.001005, test loss = 0.336511
  Training set accuracy = 1.000000, Test set accuracy = 0.929600
 epoch 325/500. Took 0.56435 seconds. 
  Full-batch training loss = 0.001001, test loss = 0.336563
  Training set accuracy = 1.000000, Test set accuracy = 0.929600
 epoch 326/500. Took 0.56306 seconds. 
  Full-batch training loss = 0.000997, test loss = 0.336634
  Training set accuracy = 1.000000, Test set accuracy = 0.929600
 epoch 327/500. Took 0.55986 seconds. 
  Full-batch training loss = 0.000994, test loss = 0.336760
  Training set accuracy = 1.000000, Test set accuracy = 0.929700
 epoch 328/500. Took 0.56446 seconds. 
  Full-batch training loss = 0.000990, test loss = 0.336837
  Training set accuracy = 1.000000, Test set accuracy = 0.929800
 epoch 329/500. Took 0.55763 seconds. 
  Full-batch training loss = 0.000986, test loss = 0.336902
  Training set accuracy = 1.000000, Test set accuracy = 0.929600
 epoch 330/500. Took 0.55307 seconds. 
  Full-batch training loss = 0.000982, test loss = 0.337009
  Training set accuracy = 1.000000, Test set accuracy = 0.929700
 epoch 331/500. Took 0.55951 seconds. 
  Full-batch training loss = 0.000979, test loss = 0.337103
  Training set accuracy = 1.000000, Test set accuracy = 0.929900
 epoch 332/500. Took 0.56053 seconds. 
  Full-batch training loss = 0.000975, test loss = 0.337240
  Training set accuracy = 1.000000, Test set accuracy = 0.929800
 epoch 333/500. Took 0.55613 seconds. 
  Full-batch training loss = 0.000971, test loss = 0.337279
  Training set accuracy = 1.000000, Test set accuracy = 0.929800
 epoch 334/500. Took 0.56675 seconds. 
  Full-batch training loss = 0.000968, test loss = 0.337372
  Training set accuracy = 1.000000, Test set accuracy = 0.929900
 epoch 335/500. Took 0.56374 seconds. 
  Full-batch training loss = 0.000964, test loss = 0.337416
  Training set accuracy = 1.000000, Test set accuracy = 0.929800
 epoch 336/500. Took 0.55643 seconds. 
  Full-batch training loss = 0.000960, test loss = 0.337568
  Training set accuracy = 1.000000, Test set accuracy = 0.929900
 epoch 337/500. Took 0.55317 seconds. 
  Full-batch training loss = 0.000957, test loss = 0.337617
  Training set accuracy = 1.000000, Test set accuracy = 0.929800
 epoch 338/500. Took 0.55679 seconds. 
  Full-batch training loss = 0.000953, test loss = 0.337769
  Training set accuracy = 1.000000, Test set accuracy = 0.929900
 epoch 339/500. Took 0.55593 seconds. 
  Full-batch training loss = 0.000950, test loss = 0.337829
  Training set accuracy = 1.000000, Test set accuracy = 0.930000
 epoch 340/500. Took 0.57309 seconds. 
  Full-batch training loss = 0.000946, test loss = 0.337912
  Training set accuracy = 1.000000, Test set accuracy = 0.929800
 epoch 341/500. Took 0.56257 seconds. 
  Full-batch training loss = 0.000943, test loss = 0.337997
  Training set accuracy = 1.000000, Test set accuracy = 0.929800
 epoch 342/500. Took 0.55713 seconds. 
  Full-batch training loss = 0.000939, test loss = 0.338066
  Training set accuracy = 1.000000, Test set accuracy = 0.929800
 epoch 343/500. Took 0.55774 seconds. 
  Full-batch training loss = 0.000936, test loss = 0.338179
  Training set accuracy = 1.000000, Test set accuracy = 0.929900
 epoch 344/500. Took 0.55625 seconds. 
  Full-batch training loss = 0.000933, test loss = 0.338270
  Training set accuracy = 1.000000, Test set accuracy = 0.929900
 epoch 345/500. Took 0.55901 seconds. 
  Full-batch training loss = 0.000929, test loss = 0.338335
  Training set accuracy = 1.000000, Test set accuracy = 0.929800
 epoch 346/500. Took 0.5609 seconds. 
  Full-batch training loss = 0.000926, test loss = 0.338424
  Training set accuracy = 1.000000, Test set accuracy = 0.929900
 epoch 347/500. Took 0.55825 seconds. 
  Full-batch training loss = 0.000922, test loss = 0.338505
  Training set accuracy = 1.000000, Test set accuracy = 0.929900
 epoch 348/500. Took 0.55493 seconds. 
  Full-batch training loss = 0.000919, test loss = 0.338591
  Training set accuracy = 1.000000, Test set accuracy = 0.929900
 epoch 349/500. Took 0.56339 seconds. 
  Full-batch training loss = 0.000916, test loss = 0.338639
  Training set accuracy = 1.000000, Test set accuracy = 0.929900
 epoch 350/500. Took 0.5616 seconds. 
  Full-batch training loss = 0.000913, test loss = 0.338780
  Training set accuracy = 1.000000, Test set accuracy = 0.929800
 epoch 351/500. Took 0.55946 seconds. 
  Full-batch training loss = 0.000909, test loss = 0.338875
  Training set accuracy = 1.000000, Test set accuracy = 0.929900
 epoch 352/500. Took 0.56401 seconds. 
  Full-batch training loss = 0.000906, test loss = 0.338953
  Training set accuracy = 1.000000, Test set accuracy = 0.930000
 epoch 353/500. Took 0.55414 seconds. 
  Full-batch training loss = 0.000903, test loss = 0.339015
  Training set accuracy = 1.000000, Test set accuracy = 0.929800
 epoch 354/500. Took 0.55835 seconds. 
  Full-batch training loss = 0.000900, test loss = 0.339100
  Training set accuracy = 1.000000, Test set accuracy = 0.929900
 epoch 355/500. Took 0.55983 seconds. 
  Full-batch training loss = 0.000897, test loss = 0.339173
  Training set accuracy = 1.000000, Test set accuracy = 0.929900
 epoch 356/500. Took 0.56018 seconds. 
  Full-batch training loss = 0.000893, test loss = 0.339309
  Training set accuracy = 1.000000, Test set accuracy = 0.930000
 epoch 357/500. Took 0.55528 seconds. 
  Full-batch training loss = 0.000890, test loss = 0.339332
  Training set accuracy = 1.000000, Test set accuracy = 0.929800
 epoch 358/500. Took 0.55641 seconds. 
  Full-batch training loss = 0.000887, test loss = 0.339451
  Training set accuracy = 1.000000, Test set accuracy = 0.929800
 epoch 359/500. Took 0.55882 seconds. 
  Full-batch training loss = 0.000884, test loss = 0.339517
  Training set accuracy = 1.000000, Test set accuracy = 0.929900
 epoch 360/500. Took 0.57038 seconds. 
  Full-batch training loss = 0.000881, test loss = 0.339553
  Training set accuracy = 1.000000, Test set accuracy = 0.929900
 epoch 361/500. Took 0.55345 seconds. 
  Full-batch training loss = 0.000878, test loss = 0.339695
  Training set accuracy = 1.000000, Test set accuracy = 0.929900
 epoch 362/500. Took 0.55419 seconds. 
  Full-batch training loss = 0.000875, test loss = 0.339741
  Training set accuracy = 1.000000, Test set accuracy = 0.929900
 epoch 363/500. Took 0.56689 seconds. 
  Full-batch training loss = 0.000872, test loss = 0.339885
  Training set accuracy = 1.000000, Test set accuracy = 0.929900
 epoch 364/500. Took 0.55563 seconds. 
  Full-batch training loss = 0.000869, test loss = 0.339917
  Training set accuracy = 1.000000, Test set accuracy = 0.930000
 epoch 365/500. Took 0.55801 seconds. 
  Full-batch training loss = 0.000866, test loss = 0.340033
  Training set accuracy = 1.000000, Test set accuracy = 0.929900
 epoch 366/500. Took 0.56279 seconds. 
  Full-batch training loss = 0.000863, test loss = 0.340089
  Training set accuracy = 1.000000, Test set accuracy = 0.929900
 epoch 367/500. Took 0.56711 seconds. 
  Full-batch training loss = 0.000860, test loss = 0.340231
  Training set accuracy = 1.000000, Test set accuracy = 0.930000
 epoch 368/500. Took 0.55943 seconds. 
  Full-batch training loss = 0.000857, test loss = 0.340242
  Training set accuracy = 1.000000, Test set accuracy = 0.930000
 epoch 369/500. Took 0.57774 seconds. 
  Full-batch training loss = 0.000854, test loss = 0.340369
  Training set accuracy = 1.000000, Test set accuracy = 0.930000
 epoch 370/500. Took 0.55848 seconds. 
  Full-batch training loss = 0.000852, test loss = 0.340402
  Training set accuracy = 1.000000, Test set accuracy = 0.930000
 epoch 371/500. Took 0.55898 seconds. 
  Full-batch training loss = 0.000849, test loss = 0.340511
  Training set accuracy = 1.000000, Test set accuracy = 0.929900
 epoch 372/500. Took 0.56428 seconds. 
  Full-batch training loss = 0.000846, test loss = 0.340561
  Training set accuracy = 1.000000, Test set accuracy = 0.930000
 epoch 373/500. Took 0.56348 seconds. 
  Full-batch training loss = 0.000843, test loss = 0.340679
  Training set accuracy = 1.000000, Test set accuracy = 0.930000
 epoch 374/500. Took 0.5659 seconds. 
  Full-batch training loss = 0.000840, test loss = 0.340723
  Training set accuracy = 1.000000, Test set accuracy = 0.929900
 epoch 375/500. Took 0.55906 seconds. 
  Full-batch training loss = 0.000837, test loss = 0.340820
  Training set accuracy = 1.000000, Test set accuracy = 0.930000
 epoch 376/500. Took 0.56011 seconds. 
  Full-batch training loss = 0.000835, test loss = 0.340922
  Training set accuracy = 1.000000, Test set accuracy = 0.930000
 epoch 377/500. Took 0.55907 seconds. 
  Full-batch training loss = 0.000832, test loss = 0.340974
  Training set accuracy = 1.000000, Test set accuracy = 0.930000
 epoch 378/500. Took 0.55634 seconds. 
  Full-batch training loss = 0.000829, test loss = 0.341042
  Training set accuracy = 1.000000, Test set accuracy = 0.929900
 epoch 379/500. Took 0.56468 seconds. 
  Full-batch training loss = 0.000826, test loss = 0.341176
  Training set accuracy = 1.000000, Test set accuracy = 0.930000
 epoch 380/500. Took 0.55418 seconds. 
  Full-batch training loss = 0.000824, test loss = 0.341188
  Training set accuracy = 1.000000, Test set accuracy = 0.930000
 epoch 381/500. Took 0.56994 seconds. 
  Full-batch training loss = 0.000821, test loss = 0.341272
  Training set accuracy = 1.000000, Test set accuracy = 0.930000
 epoch 382/500. Took 0.56553 seconds. 
  Full-batch training loss = 0.000818, test loss = 0.341385
  Training set accuracy = 1.000000, Test set accuracy = 0.930000
 epoch 383/500. Took 0.56259 seconds. 
  Full-batch training loss = 0.000816, test loss = 0.341436
  Training set accuracy = 1.000000, Test set accuracy = 0.930000
 epoch 384/500. Took 0.63694 seconds. 
  Full-batch training loss = 0.000813, test loss = 0.341518
  Training set accuracy = 1.000000, Test set accuracy = 0.930000
 epoch 385/500. Took 0.5609 seconds. 
  Full-batch training loss = 0.000810, test loss = 0.341559
  Training set accuracy = 1.000000, Test set accuracy = 0.930000
 epoch 386/500. Took 0.5599 seconds. 
  Full-batch training loss = 0.000808, test loss = 0.341673
  Training set accuracy = 1.000000, Test set accuracy = 0.930000
 epoch 387/500. Took 0.55795 seconds. 
  Full-batch training loss = 0.000805, test loss = 0.341737
  Training set accuracy = 1.000000, Test set accuracy = 0.930000
 epoch 388/500. Took 0.55645 seconds. 
  Full-batch training loss = 0.000803, test loss = 0.341886
  Training set accuracy = 1.000000, Test set accuracy = 0.930000
 epoch 389/500. Took 0.55265 seconds. 
  Full-batch training loss = 0.000800, test loss = 0.341929
  Training set accuracy = 1.000000, Test set accuracy = 0.930100
 epoch 390/500. Took 0.5594 seconds. 
  Full-batch training loss = 0.000798, test loss = 0.342006
  Training set accuracy = 1.000000, Test set accuracy = 0.930100
 epoch 391/500. Took 0.56261 seconds. 
  Full-batch training loss = 0.000795, test loss = 0.342061
  Training set accuracy = 1.000000, Test set accuracy = 0.930000
 epoch 392/500. Took 0.56114 seconds. 
  Full-batch training loss = 0.000793, test loss = 0.342133
  Training set accuracy = 1.000000, Test set accuracy = 0.930100
 epoch 393/500. Took 0.55616 seconds. 
  Full-batch training loss = 0.000790, test loss = 0.342252
  Training set accuracy = 1.000000, Test set accuracy = 0.930100
 epoch 394/500. Took 0.57407 seconds. 
  Full-batch training loss = 0.000788, test loss = 0.342283
  Training set accuracy = 1.000000, Test set accuracy = 0.930100
 epoch 395/500. Took 0.55887 seconds. 
  Full-batch training loss = 0.000785, test loss = 0.342352
  Training set accuracy = 1.000000, Test set accuracy = 0.930100
 epoch 396/500. Took 0.55529 seconds. 
  Full-batch training loss = 0.000783, test loss = 0.342418
  Training set accuracy = 1.000000, Test set accuracy = 0.930100
 epoch 397/500. Took 0.57093 seconds. 
  Full-batch training loss = 0.000780, test loss = 0.342567
  Training set accuracy = 1.000000, Test set accuracy = 0.930100
 epoch 398/500. Took 0.55995 seconds. 
  Full-batch training loss = 0.000778, test loss = 0.342653
  Training set accuracy = 1.000000, Test set accuracy = 0.930100
 epoch 399/500. Took 0.55959 seconds. 
  Full-batch training loss = 0.000775, test loss = 0.342654
  Training set accuracy = 1.000000, Test set accuracy = 0.930100
 epoch 400/500. Took 0.56106 seconds. 
  Full-batch training loss = 0.000773, test loss = 0.342731
  Training set accuracy = 1.000000, Test set accuracy = 0.930100
 epoch 401/500. Took 0.57353 seconds. 
  Full-batch training loss = 0.000771, test loss = 0.342819
  Training set accuracy = 1.000000, Test set accuracy = 0.930200
 epoch 402/500. Took 0.56344 seconds. 
  Full-batch training loss = 0.000768, test loss = 0.342899
  Training set accuracy = 1.000000, Test set accuracy = 0.930100
 epoch 403/500. Took 0.56025 seconds. 
  Full-batch training loss = 0.000766, test loss = 0.342953
  Training set accuracy = 1.000000, Test set accuracy = 0.930100
 epoch 404/500. Took 0.56012 seconds. 
  Full-batch training loss = 0.000764, test loss = 0.343015
  Training set accuracy = 1.000000, Test set accuracy = 0.930100
 epoch 405/500. Took 0.55797 seconds. 
  Full-batch training loss = 0.000761, test loss = 0.343158
  Training set accuracy = 1.000000, Test set accuracy = 0.930100
 epoch 406/500. Took 0.55866 seconds. 
  Full-batch training loss = 0.000759, test loss = 0.343174
  Training set accuracy = 1.000000, Test set accuracy = 0.930000
 epoch 407/500. Took 0.55829 seconds. 
  Full-batch training loss = 0.000757, test loss = 0.343263
  Training set accuracy = 1.000000, Test set accuracy = 0.930100
 epoch 408/500. Took 0.55555 seconds. 
  Full-batch training loss = 0.000754, test loss = 0.343321
  Training set accuracy = 1.000000, Test set accuracy = 0.930100
 epoch 409/500. Took 0.55671 seconds. 
  Full-batch training loss = 0.000752, test loss = 0.343411
  Training set accuracy = 1.000000, Test set accuracy = 0.930100
 epoch 410/500. Took 0.57178 seconds. 
  Full-batch training loss = 0.000750, test loss = 0.343456
  Training set accuracy = 1.000000, Test set accuracy = 0.930100
 epoch 411/500. Took 0.55704 seconds. 
  Full-batch training loss = 0.000747, test loss = 0.343563
  Training set accuracy = 1.000000, Test set accuracy = 0.930100
 epoch 412/500. Took 0.5612 seconds. 
  Full-batch training loss = 0.000745, test loss = 0.343591
  Training set accuracy = 1.000000, Test set accuracy = 0.930000
 epoch 413/500. Took 0.56529 seconds. 
  Full-batch training loss = 0.000743, test loss = 0.343734
  Training set accuracy = 1.000000, Test set accuracy = 0.930100
 epoch 414/500. Took 0.55373 seconds. 
  Full-batch training loss = 0.000741, test loss = 0.343748
  Training set accuracy = 1.000000, Test set accuracy = 0.930200
 epoch 415/500. Took 0.56059 seconds. 
  Full-batch training loss = 0.000739, test loss = 0.343818
  Training set accuracy = 1.000000, Test set accuracy = 0.930000
 epoch 416/500. Took 0.55361 seconds. 
  Full-batch training loss = 0.000736, test loss = 0.343904
  Training set accuracy = 1.000000, Test set accuracy = 0.930000
 epoch 417/500. Took 0.55432 seconds. 
  Full-batch training loss = 0.000734, test loss = 0.343949
  Training set accuracy = 1.000000, Test set accuracy = 0.930000
 epoch 418/500. Took 0.55769 seconds. 
  Full-batch training loss = 0.000732, test loss = 0.344051
  Training set accuracy = 1.000000, Test set accuracy = 0.930000
 epoch 419/500. Took 0.55319 seconds. 
  Full-batch training loss = 0.000730, test loss = 0.344102
  Training set accuracy = 1.000000, Test set accuracy = 0.930200
 epoch 420/500. Took 0.55964 seconds. 
  Full-batch training loss = 0.000728, test loss = 0.344171
  Training set accuracy = 1.000000, Test set accuracy = 0.930100
 epoch 421/500. Took 0.56073 seconds. 
  Full-batch training loss = 0.000726, test loss = 0.344252
  Training set accuracy = 1.000000, Test set accuracy = 0.930100
 epoch 422/500. Took 0.55435 seconds. 
  Full-batch training loss = 0.000723, test loss = 0.344313
  Training set accuracy = 1.000000, Test set accuracy = 0.930100
 epoch 423/500. Took 0.55934 seconds. 
  Full-batch training loss = 0.000721, test loss = 0.344387
  Training set accuracy = 1.000000, Test set accuracy = 0.930100
 epoch 424/500. Took 0.55433 seconds. 
  Full-batch training loss = 0.000719, test loss = 0.344474
  Training set accuracy = 1.000000, Test set accuracy = 0.930100
 epoch 425/500. Took 0.56679 seconds. 
  Full-batch training loss = 0.000717, test loss = 0.344543
  Training set accuracy = 1.000000, Test set accuracy = 0.930100
 epoch 426/500. Took 0.55415 seconds. 
  Full-batch training loss = 0.000715, test loss = 0.344584
  Training set accuracy = 1.000000, Test set accuracy = 0.930200
 epoch 427/500. Took 0.56783 seconds. 
  Full-batch training loss = 0.000713, test loss = 0.344651
  Training set accuracy = 1.000000, Test set accuracy = 0.930200
 epoch 428/500. Took 0.5565 seconds. 
  Full-batch training loss = 0.000711, test loss = 0.344744
  Training set accuracy = 1.000000, Test set accuracy = 0.930200
 epoch 429/500. Took 0.55661 seconds. 
  Full-batch training loss = 0.000709, test loss = 0.344814
  Training set accuracy = 1.000000, Test set accuracy = 0.930200
 epoch 430/500. Took 0.56748 seconds. 
  Full-batch training loss = 0.000707, test loss = 0.344863
  Training set accuracy = 1.000000, Test set accuracy = 0.930200
 epoch 431/500. Took 0.55655 seconds. 
  Full-batch training loss = 0.000705, test loss = 0.344965
  Training set accuracy = 1.000000, Test set accuracy = 0.930200
 epoch 432/500. Took 0.5562 seconds. 
  Full-batch training loss = 0.000703, test loss = 0.344981
  Training set accuracy = 1.000000, Test set accuracy = 0.930200
 epoch 433/500. Took 0.57063 seconds. 
  Full-batch training loss = 0.000701, test loss = 0.345116
  Training set accuracy = 1.000000, Test set accuracy = 0.930100
 epoch 434/500. Took 0.56077 seconds. 
  Full-batch training loss = 0.000699, test loss = 0.345180
  Training set accuracy = 1.000000, Test set accuracy = 0.930100
 epoch 435/500. Took 0.56517 seconds. 
  Full-batch training loss = 0.000697, test loss = 0.345222
  Training set accuracy = 1.000000, Test set accuracy = 0.930200
 epoch 436/500. Took 0.55645 seconds. 
  Full-batch training loss = 0.000695, test loss = 0.345282
  Training set accuracy = 1.000000, Test set accuracy = 0.930200
 epoch 437/500. Took 0.56192 seconds. 
  Full-batch training loss = 0.000693, test loss = 0.345369
  Training set accuracy = 1.000000, Test set accuracy = 0.930100
 epoch 438/500. Took 0.58336 seconds. 
  Full-batch training loss = 0.000691, test loss = 0.345460
  Training set accuracy = 1.000000, Test set accuracy = 0.930100
 epoch 439/500. Took 0.55696 seconds. 
  Full-batch training loss = 0.000689, test loss = 0.345461
  Training set accuracy = 1.000000, Test set accuracy = 0.930200
 epoch 440/500. Took 0.55994 seconds. 
  Full-batch training loss = 0.000687, test loss = 0.345578
  Training set accuracy = 1.000000, Test set accuracy = 0.930100
 epoch 441/500. Took 0.55688 seconds. 
  Full-batch training loss = 0.000685, test loss = 0.345619
  Training set accuracy = 1.000000, Test set accuracy = 0.930200
 epoch 442/500. Took 0.55314 seconds. 
  Full-batch training loss = 0.000683, test loss = 0.345694
  Training set accuracy = 1.000000, Test set accuracy = 0.930100
 epoch 443/500. Took 0.55971 seconds. 
  Full-batch training loss = 0.000681, test loss = 0.345801
  Training set accuracy = 1.000000, Test set accuracy = 0.930100
 epoch 444/500. Took 0.55701 seconds. 
  Full-batch training loss = 0.000680, test loss = 0.345857
  Training set accuracy = 1.000000, Test set accuracy = 0.930100
 epoch 445/500. Took 0.55871 seconds. 
  Full-batch training loss = 0.000678, test loss = 0.345898
  Training set accuracy = 1.000000, Test set accuracy = 0.930100
 epoch 446/500. Took 0.55632 seconds. 
  Full-batch training loss = 0.000676, test loss = 0.345969
  Training set accuracy = 1.000000, Test set accuracy = 0.930100
 epoch 447/500. Took 0.55671 seconds. 
  Full-batch training loss = 0.000674, test loss = 0.346034
  Training set accuracy = 1.000000, Test set accuracy = 0.930100
 epoch 448/500. Took 0.55769 seconds. 
  Full-batch training loss = 0.000672, test loss = 0.346080
  Training set accuracy = 1.000000, Test set accuracy = 0.930200
 epoch 449/500. Took 0.55483 seconds. 
  Full-batch training loss = 0.000670, test loss = 0.346210
  Training set accuracy = 1.000000, Test set accuracy = 0.930100
 epoch 450/500. Took 0.5572 seconds. 
  Full-batch training loss = 0.000668, test loss = 0.346203
  Training set accuracy = 1.000000, Test set accuracy = 0.930200
 epoch 451/500. Took 0.56506 seconds. 
  Full-batch training loss = 0.000667, test loss = 0.346320
  Training set accuracy = 1.000000, Test set accuracy = 0.930200
 epoch 452/500. Took 0.5634 seconds. 
  Full-batch training loss = 0.000665, test loss = 0.346364
  Training set accuracy = 1.000000, Test set accuracy = 0.930200
 epoch 453/500. Took 0.55923 seconds. 
  Full-batch training loss = 0.000663, test loss = 0.346418
  Training set accuracy = 1.000000, Test set accuracy = 0.930200
 epoch 454/500. Took 0.55776 seconds. 
  Full-batch training loss = 0.000661, test loss = 0.346520
  Training set accuracy = 1.000000, Test set accuracy = 0.930200
 epoch 455/500. Took 0.55828 seconds. 
  Full-batch training loss = 0.000659, test loss = 0.346578
  Training set accuracy = 1.000000, Test set accuracy = 0.930100
 epoch 456/500. Took 0.56103 seconds. 
  Full-batch training loss = 0.000658, test loss = 0.346634
  Training set accuracy = 1.000000, Test set accuracy = 0.930200
 epoch 457/500. Took 0.56701 seconds. 
  Full-batch training loss = 0.000656, test loss = 0.346670
  Training set accuracy = 1.000000, Test set accuracy = 0.930300
 epoch 458/500. Took 0.55814 seconds. 
  Full-batch training loss = 0.000654, test loss = 0.346716
  Training set accuracy = 1.000000, Test set accuracy = 0.930300
 epoch 459/500. Took 0.55765 seconds. 
  Full-batch training loss = 0.000652, test loss = 0.346825
  Training set accuracy = 1.000000, Test set accuracy = 0.930100
 epoch 460/500. Took 0.62903 seconds. 
  Full-batch training loss = 0.000651, test loss = 0.346877
  Training set accuracy = 1.000000, Test set accuracy = 0.930200
 epoch 461/500. Took 0.55569 seconds. 
  Full-batch training loss = 0.000649, test loss = 0.346970
  Training set accuracy = 1.000000, Test set accuracy = 0.930200
 epoch 462/500. Took 0.55781 seconds. 
  Full-batch training loss = 0.000647, test loss = 0.346996
  Training set accuracy = 1.000000, Test set accuracy = 0.930300
 epoch 463/500. Took 0.55589 seconds. 
  Full-batch training loss = 0.000645, test loss = 0.347092
  Training set accuracy = 1.000000, Test set accuracy = 0.930100
 epoch 464/500. Took 0.57275 seconds. 
  Full-batch training loss = 0.000644, test loss = 0.347108
  Training set accuracy = 1.000000, Test set accuracy = 0.930300
 epoch 465/500. Took 0.56782 seconds. 
  Full-batch training loss = 0.000642, test loss = 0.347218
  Training set accuracy = 1.000000, Test set accuracy = 0.930300
 epoch 466/500. Took 0.55556 seconds. 
  Full-batch training loss = 0.000640, test loss = 0.347266
  Training set accuracy = 1.000000, Test set accuracy = 0.930300
 epoch 467/500. Took 0.55678 seconds. 
  Full-batch training loss = 0.000639, test loss = 0.347361
  Training set accuracy = 1.000000, Test set accuracy = 0.930200
 epoch 468/500. Took 0.57695 seconds. 
  Full-batch training loss = 0.000637, test loss = 0.347375
  Training set accuracy = 1.000000, Test set accuracy = 0.930300
 epoch 469/500. Took 0.55936 seconds. 
  Full-batch training loss = 0.000635, test loss = 0.347467
  Training set accuracy = 1.000000, Test set accuracy = 0.930200
 epoch 470/500. Took 0.55591 seconds. 
  Full-batch training loss = 0.000634, test loss = 0.347525
  Training set accuracy = 1.000000, Test set accuracy = 0.930200
 epoch 471/500. Took 0.55615 seconds. 
  Full-batch training loss = 0.000632, test loss = 0.347606
  Training set accuracy = 1.000000, Test set accuracy = 0.930200
 epoch 472/500. Took 0.55673 seconds. 
  Full-batch training loss = 0.000630, test loss = 0.347692
  Training set accuracy = 1.000000, Test set accuracy = 0.930200
 epoch 473/500. Took 0.5547 seconds. 
  Full-batch training loss = 0.000629, test loss = 0.347700
  Training set accuracy = 1.000000, Test set accuracy = 0.930300
 epoch 474/500. Took 0.56357 seconds. 
  Full-batch training loss = 0.000627, test loss = 0.347758
  Training set accuracy = 1.000000, Test set accuracy = 0.930200
 epoch 475/500. Took 0.55793 seconds. 
  Full-batch training loss = 0.000625, test loss = 0.347812
  Training set accuracy = 1.000000, Test set accuracy = 0.930300
 epoch 476/500. Took 0.55698 seconds. 
  Full-batch training loss = 0.000624, test loss = 0.347894
  Training set accuracy = 1.000000, Test set accuracy = 0.930300
 epoch 477/500. Took 0.56306 seconds. 
  Full-batch training loss = 0.000622, test loss = 0.347968
  Training set accuracy = 1.000000, Test set accuracy = 0.930300
 epoch 478/500. Took 0.55737 seconds. 
  Full-batch training loss = 0.000621, test loss = 0.348013
  Training set accuracy = 1.000000, Test set accuracy = 0.930200
 epoch 479/500. Took 0.55609 seconds. 
  Full-batch training loss = 0.000619, test loss = 0.348083
  Training set accuracy = 1.000000, Test set accuracy = 0.930300
 epoch 480/500. Took 0.56117 seconds. 
  Full-batch training loss = 0.000618, test loss = 0.348162
  Training set accuracy = 1.000000, Test set accuracy = 0.930300
 epoch 481/500. Took 0.56602 seconds. 
  Full-batch training loss = 0.000616, test loss = 0.348208
  Training set accuracy = 1.000000, Test set accuracy = 0.930200
 epoch 482/500. Took 0.55368 seconds. 
  Full-batch training loss = 0.000614, test loss = 0.348311
  Training set accuracy = 1.000000, Test set accuracy = 0.930200
 epoch 483/500. Took 0.55636 seconds. 
  Full-batch training loss = 0.000613, test loss = 0.348321
  Training set accuracy = 1.000000, Test set accuracy = 0.930300
 epoch 484/500. Took 0.57603 seconds. 
  Full-batch training loss = 0.000611, test loss = 0.348360
  Training set accuracy = 1.000000, Test set accuracy = 0.930300
 epoch 485/500. Took 0.56232 seconds. 
  Full-batch training loss = 0.000610, test loss = 0.348459
  Training set accuracy = 1.000000, Test set accuracy = 0.930300
 epoch 486/500. Took 0.55449 seconds. 
  Full-batch training loss = 0.000608, test loss = 0.348503
  Training set accuracy = 1.000000, Test set accuracy = 0.930300
 epoch 487/500. Took 0.55365 seconds. 
  Full-batch training loss = 0.000607, test loss = 0.348544
  Training set accuracy = 1.000000, Test set accuracy = 0.930300
 epoch 488/500. Took 0.55509 seconds. 
  Full-batch training loss = 0.000605, test loss = 0.348639
  Training set accuracy = 1.000000, Test set accuracy = 0.930200
 epoch 489/500. Took 0.57624 seconds. 
  Full-batch training loss = 0.000604, test loss = 0.348667
  Training set accuracy = 1.000000, Test set accuracy = 0.930400
 epoch 490/500. Took 0.56244 seconds. 
  Full-batch training loss = 0.000602, test loss = 0.348758
  Training set accuracy = 1.000000, Test set accuracy = 0.930300
 epoch 491/500. Took 0.55933 seconds. 
  Full-batch training loss = 0.000601, test loss = 0.348790
  Training set accuracy = 1.000000, Test set accuracy = 0.930300
 epoch 492/500. Took 0.55797 seconds. 
  Full-batch training loss = 0.000599, test loss = 0.348897
  Training set accuracy = 1.000000, Test set accuracy = 0.930300
 epoch 493/500. Took 0.55764 seconds. 
  Full-batch training loss = 0.000598, test loss = 0.348941
  Training set accuracy = 1.000000, Test set accuracy = 0.930300
 epoch 494/500. Took 0.55731 seconds. 
  Full-batch training loss = 0.000596, test loss = 0.348996
  Training set accuracy = 1.000000, Test set accuracy = 0.930300
 epoch 495/500. Took 0.56919 seconds. 
  Full-batch training loss = 0.000595, test loss = 0.349002
  Training set accuracy = 1.000000, Test set accuracy = 0.930300
 epoch 496/500. Took 0.55651 seconds. 
  Full-batch training loss = 0.000593, test loss = 0.349131
  Training set accuracy = 1.000000, Test set accuracy = 0.930300
 epoch 497/500. Took 0.56887 seconds. 
  Full-batch training loss = 0.000592, test loss = 0.349175
  Training set accuracy = 1.000000, Test set accuracy = 0.930300
 epoch 498/500. Took 0.56055 seconds. 
  Full-batch training loss = 0.000590, test loss = 0.349215
  Training set accuracy = 1.000000, Test set accuracy = 0.930300
 epoch 499/500. Took 0.56057 seconds. 
  Full-batch training loss = 0.000589, test loss = 0.349314
  Training set accuracy = 1.000000, Test set accuracy = 0.930300
 epoch 500/500. Took 0.57012 seconds. 
  Full-batch training loss = 0.000587, test loss = 0.349315
  Training set accuracy = 1.000000, Test set accuracy = 0.930300
Elapsed time is 1010.256623 seconds.
End Training
