==========================================================
  Architecture is 500 500 500 // 3 layer x 500 neuron
----------------------------------------------------------
Execution 55/270
----------------------------------------------------------
* ReducedData	2000
* PreTrainRBM	true
	-> Epochs	50
	-> LearningRate	0.10
* Fine-tunning
	-> Epochs	200
	-> LearningRate	0.05
==========================================================
Start Training
Number of training examples: 2000  BatchSize: 100
Number of inputs: 784  Number of outputs: 10
Number of hidden layers: 3 (500  500  500)
Training binary-binary RBM in layer 1 (784  500) with CD1 for 50 epochs
 epoch 1/50. Took 0.33641 seconds. Average reconstruction error is: 50.7183
 epoch 2/50. Took 0.32006 seconds. Average reconstruction error is: 27.2612
 epoch 3/50. Took 0.32638 seconds. Average reconstruction error is: 21.7619
 epoch 4/50. Took 0.33917 seconds. Average reconstruction error is: 18.9483
 epoch 5/50. Took 0.32569 seconds. Average reconstruction error is: 17.1525
 epoch 6/50. Took 0.32173 seconds. Average reconstruction error is: 15.8661
 epoch 7/50. Took 0.32181 seconds. Average reconstruction error is: 14.8629
 epoch 8/50. Took 0.32199 seconds. Average reconstruction error is: 14.0453
 epoch 9/50. Took 0.32162 seconds. Average reconstruction error is: 13.3985
 epoch 10/50. Took 0.32313 seconds. Average reconstruction error is: 12.773
 epoch 11/50. Took 0.3224 seconds. Average reconstruction error is: 12.3619
 epoch 12/50. Took 0.32337 seconds. Average reconstruction error is: 11.9425
 epoch 13/50. Took 0.32625 seconds. Average reconstruction error is: 11.5649
 epoch 14/50. Took 0.32038 seconds. Average reconstruction error is: 11.2527
 epoch 15/50. Took 0.32644 seconds. Average reconstruction error is: 10.9722
 epoch 16/50. Took 0.32622 seconds. Average reconstruction error is: 10.6003
 epoch 17/50. Took 0.34052 seconds. Average reconstruction error is: 10.4196
 epoch 18/50. Took 0.34311 seconds. Average reconstruction error is: 10.2127
 epoch 19/50. Took 0.34635 seconds. Average reconstruction error is: 10.0116
 epoch 20/50. Took 0.33959 seconds. Average reconstruction error is: 9.7868
 epoch 21/50. Took 0.34029 seconds. Average reconstruction error is: 9.5953
 epoch 22/50. Took 0.34381 seconds. Average reconstruction error is: 9.4528
 epoch 23/50. Took 0.34116 seconds. Average reconstruction error is: 9.2762
 epoch 24/50. Took 0.34067 seconds. Average reconstruction error is: 9.1219
 epoch 25/50. Took 0.34334 seconds. Average reconstruction error is: 9.0047
 epoch 26/50. Took 0.35118 seconds. Average reconstruction error is: 8.85
 epoch 27/50. Took 0.33863 seconds. Average reconstruction error is: 8.6788
 epoch 28/50. Took 0.34235 seconds. Average reconstruction error is: 8.5399
 epoch 29/50. Took 0.34215 seconds. Average reconstruction error is: 8.4171
 epoch 30/50. Took 0.34708 seconds. Average reconstruction error is: 8.3273
 epoch 31/50. Took 0.34969 seconds. Average reconstruction error is: 8.2398
 epoch 32/50. Took 0.3428 seconds. Average reconstruction error is: 8.2414
 epoch 33/50. Took 0.33774 seconds. Average reconstruction error is: 8.0976
 epoch 34/50. Took 0.34562 seconds. Average reconstruction error is: 7.9989
 epoch 35/50. Took 0.33888 seconds. Average reconstruction error is: 7.9346
 epoch 36/50. Took 0.34979 seconds. Average reconstruction error is: 7.7925
 epoch 37/50. Took 0.34543 seconds. Average reconstruction error is: 7.7795
 epoch 38/50. Took 0.3464 seconds. Average reconstruction error is: 7.6941
 epoch 39/50. Took 0.34813 seconds. Average reconstruction error is: 7.6468
 epoch 40/50. Took 0.34042 seconds. Average reconstruction error is: 7.5904
 epoch 41/50. Took 0.34043 seconds. Average reconstruction error is: 7.4917
 epoch 42/50. Took 0.34461 seconds. Average reconstruction error is: 7.3985
 epoch 43/50. Took 0.33684 seconds. Average reconstruction error is: 7.4283
 epoch 44/50. Took 0.34019 seconds. Average reconstruction error is: 7.3563
 epoch 45/50. Took 0.34181 seconds. Average reconstruction error is: 7.2745
 epoch 46/50. Took 0.34093 seconds. Average reconstruction error is: 7.2724
 epoch 47/50. Took 0.34418 seconds. Average reconstruction error is: 7.2314
 epoch 48/50. Took 0.33928 seconds. Average reconstruction error is: 7.1583
 epoch 49/50. Took 0.34364 seconds. Average reconstruction error is: 7.1048
 epoch 50/50. Took 0.34007 seconds. Average reconstruction error is: 7.0725
Training binary-binary RBM in layer 2 (500  500) with CD1 for 50 epochs
 epoch 1/50. Took 0.24202 seconds. Average reconstruction error is: 43.8625
 epoch 2/50. Took 0.2485 seconds. Average reconstruction error is: 25.2813
 epoch 3/50. Took 0.24485 seconds. Average reconstruction error is: 19.786
 epoch 4/50. Took 0.25232 seconds. Average reconstruction error is: 16.926
 epoch 5/50. Took 0.25147 seconds. Average reconstruction error is: 15.1608
 epoch 6/50. Took 0.24862 seconds. Average reconstruction error is: 13.9173
 epoch 7/50. Took 0.24857 seconds. Average reconstruction error is: 12.9045
 epoch 8/50. Took 0.24516 seconds. Average reconstruction error is: 12.187
 epoch 9/50. Took 0.25271 seconds. Average reconstruction error is: 11.5715
 epoch 10/50. Took 0.24216 seconds. Average reconstruction error is: 11.1417
 epoch 11/50. Took 0.24553 seconds. Average reconstruction error is: 10.6656
 epoch 12/50. Took 0.2423 seconds. Average reconstruction error is: 10.3439
 epoch 13/50. Took 0.25438 seconds. Average reconstruction error is: 10.0824
 epoch 14/50. Took 0.25201 seconds. Average reconstruction error is: 9.8048
 epoch 15/50. Took 0.25179 seconds. Average reconstruction error is: 9.6267
 epoch 16/50. Took 0.25234 seconds. Average reconstruction error is: 9.358
 epoch 17/50. Took 0.25467 seconds. Average reconstruction error is: 9.313
 epoch 18/50. Took 0.26201 seconds. Average reconstruction error is: 9.0969
 epoch 19/50. Took 0.25736 seconds. Average reconstruction error is: 8.8952
 epoch 20/50. Took 0.2489 seconds. Average reconstruction error is: 8.8625
 epoch 21/50. Took 0.24681 seconds. Average reconstruction error is: 8.7405
 epoch 22/50. Took 0.2501 seconds. Average reconstruction error is: 8.6056
 epoch 23/50. Took 0.25028 seconds. Average reconstruction error is: 8.4448
 epoch 24/50. Took 0.25012 seconds. Average reconstruction error is: 8.3888
 epoch 25/50. Took 0.24355 seconds. Average reconstruction error is: 8.3741
 epoch 26/50. Took 0.24583 seconds. Average reconstruction error is: 8.2592
 epoch 27/50. Took 0.25007 seconds. Average reconstruction error is: 8.2158
 epoch 28/50. Took 0.24839 seconds. Average reconstruction error is: 8.1208
 epoch 29/50. Took 0.24494 seconds. Average reconstruction error is: 8.0586
 epoch 30/50. Took 0.24375 seconds. Average reconstruction error is: 7.9822
 epoch 31/50. Took 0.25022 seconds. Average reconstruction error is: 7.9532
 epoch 32/50. Took 0.24958 seconds. Average reconstruction error is: 7.8878
 epoch 33/50. Took 0.25198 seconds. Average reconstruction error is: 7.8293
 epoch 34/50. Took 0.25291 seconds. Average reconstruction error is: 7.8154
 epoch 35/50. Took 0.24988 seconds. Average reconstruction error is: 7.7475
 epoch 36/50. Took 0.25564 seconds. Average reconstruction error is: 7.7297
 epoch 37/50. Took 0.24362 seconds. Average reconstruction error is: 7.6832
 epoch 38/50. Took 0.25248 seconds. Average reconstruction error is: 7.6023
 epoch 39/50. Took 0.24738 seconds. Average reconstruction error is: 7.5581
 epoch 40/50. Took 0.25105 seconds. Average reconstruction error is: 7.4986
 epoch 41/50. Took 0.25706 seconds. Average reconstruction error is: 7.478
 epoch 42/50. Took 0.24631 seconds. Average reconstruction error is: 7.5072
 epoch 43/50. Took 0.24888 seconds. Average reconstruction error is: 7.4054
 epoch 44/50. Took 0.24613 seconds. Average reconstruction error is: 7.3646
 epoch 45/50. Took 0.25108 seconds. Average reconstruction error is: 7.3087
 epoch 46/50. Took 0.24889 seconds. Average reconstruction error is: 7.324
 epoch 47/50. Took 0.25098 seconds. Average reconstruction error is: 7.3157
 epoch 48/50. Took 0.25294 seconds. Average reconstruction error is: 7.2416
 epoch 49/50. Took 0.24647 seconds. Average reconstruction error is: 7.2654
 epoch 50/50. Took 0.25084 seconds. Average reconstruction error is: 7.2008
Training binary-binary RBM in layer 3 (500  500) with CD1 for 50 epochs
 epoch 1/50. Took 0.24673 seconds. Average reconstruction error is: 34.5304
 epoch 2/50. Took 0.24473 seconds. Average reconstruction error is: 17.1368
 epoch 3/50. Took 0.24816 seconds. Average reconstruction error is: 12.808
 epoch 4/50. Took 0.2494 seconds. Average reconstruction error is: 10.8188
 epoch 5/50. Took 0.24634 seconds. Average reconstruction error is: 9.7184
 epoch 6/50. Took 0.24886 seconds. Average reconstruction error is: 8.9556
 epoch 7/50. Took 0.25342 seconds. Average reconstruction error is: 8.3336
 epoch 8/50. Took 0.24998 seconds. Average reconstruction error is: 7.9808
 epoch 9/50. Took 0.24846 seconds. Average reconstruction error is: 7.5322
 epoch 10/50. Took 0.24948 seconds. Average reconstruction error is: 7.3344
 epoch 11/50. Took 0.24911 seconds. Average reconstruction error is: 7.077
 epoch 12/50. Took 0.24907 seconds. Average reconstruction error is: 6.8927
 epoch 13/50. Took 0.24647 seconds. Average reconstruction error is: 6.7315
 epoch 14/50. Took 0.24447 seconds. Average reconstruction error is: 6.5517
 epoch 15/50. Took 0.25058 seconds. Average reconstruction error is: 6.4515
 epoch 16/50. Took 0.24932 seconds. Average reconstruction error is: 6.3936
 epoch 17/50. Took 0.25066 seconds. Average reconstruction error is: 6.3028
 epoch 18/50. Took 0.24687 seconds. Average reconstruction error is: 6.1999
 epoch 19/50. Took 0.24812 seconds. Average reconstruction error is: 6.0773
 epoch 20/50. Took 0.24867 seconds. Average reconstruction error is: 5.9423
 epoch 21/50. Took 0.25256 seconds. Average reconstruction error is: 5.9588
 epoch 22/50. Took 0.24338 seconds. Average reconstruction error is: 6.0272
 epoch 23/50. Took 0.24854 seconds. Average reconstruction error is: 5.9602
 epoch 24/50. Took 0.2485 seconds. Average reconstruction error is: 5.9075
 epoch 25/50. Took 0.25155 seconds. Average reconstruction error is: 5.8629
 epoch 26/50. Took 0.24915 seconds. Average reconstruction error is: 5.7895
 epoch 27/50. Took 0.24896 seconds. Average reconstruction error is: 5.7313
 epoch 28/50. Took 0.24811 seconds. Average reconstruction error is: 5.7032
 epoch 29/50. Took 0.24958 seconds. Average reconstruction error is: 5.736
 epoch 30/50. Took 0.24762 seconds. Average reconstruction error is: 5.66
 epoch 31/50. Took 0.25259 seconds. Average reconstruction error is: 5.6554
 epoch 32/50. Took 0.25119 seconds. Average reconstruction error is: 5.618
 epoch 33/50. Took 0.24509 seconds. Average reconstruction error is: 5.5948
 epoch 34/50. Took 0.25162 seconds. Average reconstruction error is: 5.6229
 epoch 35/50. Took 0.24221 seconds. Average reconstruction error is: 5.5553
 epoch 36/50. Took 0.25246 seconds. Average reconstruction error is: 5.5889
 epoch 37/50. Took 0.24863 seconds. Average reconstruction error is: 5.5016
 epoch 38/50. Took 0.24783 seconds. Average reconstruction error is: 5.401
 epoch 39/50. Took 0.25091 seconds. Average reconstruction error is: 5.4665
 epoch 40/50. Took 0.25058 seconds. Average reconstruction error is: 5.4276
 epoch 41/50. Took 0.24675 seconds. Average reconstruction error is: 5.4288
 epoch 42/50. Took 0.25084 seconds. Average reconstruction error is: 5.3844
 epoch 43/50. Took 0.25095 seconds. Average reconstruction error is: 5.4119
 epoch 44/50. Took 0.24292 seconds. Average reconstruction error is: 5.4136
 epoch 45/50. Took 0.2461 seconds. Average reconstruction error is: 5.4035
 epoch 46/50. Took 0.25278 seconds. Average reconstruction error is: 5.3529
 epoch 47/50. Took 0.2532 seconds. Average reconstruction error is: 5.359
 epoch 48/50. Took 0.24406 seconds. Average reconstruction error is: 5.3594
 epoch 49/50. Took 0.24936 seconds. Average reconstruction error is: 5.3204
 epoch 50/50. Took 0.25028 seconds. Average reconstruction error is: 5.2852
Training NN  (784  500  500  500   10) with BackPropagation for 200 epochs
 epoch 1/200. Took 0.51634 seconds. 
  Full-batch training loss = 0.736212, test loss = 0.737880
  Training set accuracy = 0.843000, Test set accuracy = 0.847400
 epoch 2/200. Took 0.56116 seconds. 
  Full-batch training loss = 0.502014, test loss = 0.513854
  Training set accuracy = 0.884000, Test set accuracy = 0.876200
 epoch 3/200. Took 0.55764 seconds. 
  Full-batch training loss = 0.418199, test loss = 0.442406
  Training set accuracy = 0.895000, Test set accuracy = 0.884400
 epoch 4/200. Took 0.55856 seconds. 
  Full-batch training loss = 0.368009, test loss = 0.396095
  Training set accuracy = 0.911500, Test set accuracy = 0.893400
 epoch 5/200. Took 0.56034 seconds. 
  Full-batch training loss = 0.336191, test loss = 0.372509
  Training set accuracy = 0.915500, Test set accuracy = 0.899900
 epoch 6/200. Took 0.55609 seconds. 
  Full-batch training loss = 0.313059, test loss = 0.357853
  Training set accuracy = 0.921000, Test set accuracy = 0.900900
 epoch 7/200. Took 0.55937 seconds. 
  Full-batch training loss = 0.292204, test loss = 0.340241
  Training set accuracy = 0.924500, Test set accuracy = 0.905300
 epoch 8/200. Took 0.5601 seconds. 
  Full-batch training loss = 0.273431, test loss = 0.327687
  Training set accuracy = 0.935000, Test set accuracy = 0.906000
 epoch 9/200. Took 0.55971 seconds. 
  Full-batch training loss = 0.259341, test loss = 0.319555
  Training set accuracy = 0.938000, Test set accuracy = 0.908900
 epoch 10/200. Took 0.5576 seconds. 
  Full-batch training loss = 0.247590, test loss = 0.315560
  Training set accuracy = 0.941000, Test set accuracy = 0.908100
 epoch 11/200. Took 0.55941 seconds. 
  Full-batch training loss = 0.235493, test loss = 0.306164
  Training set accuracy = 0.943000, Test set accuracy = 0.910000
 epoch 12/200. Took 0.56774 seconds. 
  Full-batch training loss = 0.227684, test loss = 0.302628
  Training set accuracy = 0.944000, Test set accuracy = 0.911500
 epoch 13/200. Took 0.56389 seconds. 
  Full-batch training loss = 0.218273, test loss = 0.298492
  Training set accuracy = 0.944500, Test set accuracy = 0.913300
 epoch 14/200. Took 0.57153 seconds. 
  Full-batch training loss = 0.208047, test loss = 0.291632
  Training set accuracy = 0.951000, Test set accuracy = 0.913700
 epoch 15/200. Took 0.56602 seconds. 
  Full-batch training loss = 0.200468, test loss = 0.288486
  Training set accuracy = 0.951500, Test set accuracy = 0.914100
 epoch 16/200. Took 0.55899 seconds. 
  Full-batch training loss = 0.192867, test loss = 0.285703
  Training set accuracy = 0.952500, Test set accuracy = 0.915000
 epoch 17/200. Took 0.55581 seconds. 
  Full-batch training loss = 0.187137, test loss = 0.282393
  Training set accuracy = 0.951500, Test set accuracy = 0.915100
 epoch 18/200. Took 0.57124 seconds. 
  Full-batch training loss = 0.181127, test loss = 0.280362
  Training set accuracy = 0.955000, Test set accuracy = 0.916200
 epoch 19/200. Took 0.55686 seconds. 
  Full-batch training loss = 0.175973, test loss = 0.277744
  Training set accuracy = 0.955500, Test set accuracy = 0.916000
 epoch 20/200. Took 0.56711 seconds. 
  Full-batch training loss = 0.170205, test loss = 0.275908
  Training set accuracy = 0.955500, Test set accuracy = 0.916800
 epoch 21/200. Took 0.55622 seconds. 
  Full-batch training loss = 0.162580, test loss = 0.273379
  Training set accuracy = 0.958500, Test set accuracy = 0.918000
 epoch 22/200. Took 0.55694 seconds. 
  Full-batch training loss = 0.157877, test loss = 0.272045
  Training set accuracy = 0.960000, Test set accuracy = 0.919200
 epoch 23/200. Took 0.56563 seconds. 
  Full-batch training loss = 0.153696, test loss = 0.271312
  Training set accuracy = 0.962500, Test set accuracy = 0.918800
 epoch 24/200. Took 0.55623 seconds. 
  Full-batch training loss = 0.148509, test loss = 0.268851
  Training set accuracy = 0.964000, Test set accuracy = 0.920400
 epoch 25/200. Took 0.55501 seconds. 
  Full-batch training loss = 0.145463, test loss = 0.269232
  Training set accuracy = 0.963500, Test set accuracy = 0.918100
 epoch 26/200. Took 0.55545 seconds. 
  Full-batch training loss = 0.139174, test loss = 0.266135
  Training set accuracy = 0.967000, Test set accuracy = 0.919800
 epoch 27/200. Took 0.55759 seconds. 
  Full-batch training loss = 0.136526, test loss = 0.265895
  Training set accuracy = 0.968500, Test set accuracy = 0.919700
 epoch 28/200. Took 0.55999 seconds. 
  Full-batch training loss = 0.131500, test loss = 0.263378
  Training set accuracy = 0.971000, Test set accuracy = 0.920300
 epoch 29/200. Took 0.55815 seconds. 
  Full-batch training loss = 0.128329, test loss = 0.263637
  Training set accuracy = 0.970500, Test set accuracy = 0.920500
 epoch 30/200. Took 0.56649 seconds. 
  Full-batch training loss = 0.125956, test loss = 0.262866
  Training set accuracy = 0.971000, Test set accuracy = 0.920100
 epoch 31/200. Took 0.55351 seconds. 
  Full-batch training loss = 0.120637, test loss = 0.261480
  Training set accuracy = 0.973500, Test set accuracy = 0.920800
 epoch 32/200. Took 0.55716 seconds. 
  Full-batch training loss = 0.118495, test loss = 0.262333
  Training set accuracy = 0.974500, Test set accuracy = 0.922100
 epoch 33/200. Took 0.55629 seconds. 
  Full-batch training loss = 0.114467, test loss = 0.260012
  Training set accuracy = 0.975500, Test set accuracy = 0.923700
 epoch 34/200. Took 0.55668 seconds. 
  Full-batch training loss = 0.112613, test loss = 0.260598
  Training set accuracy = 0.975000, Test set accuracy = 0.921100
 epoch 35/200. Took 0.5615 seconds. 
  Full-batch training loss = 0.110789, test loss = 0.260092
  Training set accuracy = 0.975500, Test set accuracy = 0.922400
 epoch 36/200. Took 0.56517 seconds. 
  Full-batch training loss = 0.104593, test loss = 0.256822
  Training set accuracy = 0.979000, Test set accuracy = 0.923400
 epoch 37/200. Took 0.55816 seconds. 
  Full-batch training loss = 0.101621, test loss = 0.257508
  Training set accuracy = 0.980500, Test set accuracy = 0.923500
 epoch 38/200. Took 0.55961 seconds. 
  Full-batch training loss = 0.098687, test loss = 0.255523
  Training set accuracy = 0.981000, Test set accuracy = 0.922500
 epoch 39/200. Took 0.56113 seconds. 
  Full-batch training loss = 0.096583, test loss = 0.255981
  Training set accuracy = 0.982500, Test set accuracy = 0.923600
 epoch 40/200. Took 0.56297 seconds. 
  Full-batch training loss = 0.094641, test loss = 0.255579
  Training set accuracy = 0.983000, Test set accuracy = 0.921800
 epoch 41/200. Took 0.56595 seconds. 
  Full-batch training loss = 0.091353, test loss = 0.253503
  Training set accuracy = 0.985000, Test set accuracy = 0.923700
 epoch 42/200. Took 0.5567 seconds. 
  Full-batch training loss = 0.088512, test loss = 0.253428
  Training set accuracy = 0.985500, Test set accuracy = 0.923900
 epoch 43/200. Took 0.55123 seconds. 
  Full-batch training loss = 0.086617, test loss = 0.253406
  Training set accuracy = 0.986500, Test set accuracy = 0.924300
 epoch 44/200. Took 0.55154 seconds. 
  Full-batch training loss = 0.084593, test loss = 0.253084
  Training set accuracy = 0.987000, Test set accuracy = 0.923600
 epoch 45/200. Took 0.5596 seconds. 
  Full-batch training loss = 0.082008, test loss = 0.252491
  Training set accuracy = 0.989000, Test set accuracy = 0.925400
 epoch 46/200. Took 0.55595 seconds. 
  Full-batch training loss = 0.079885, test loss = 0.251659
  Training set accuracy = 0.989000, Test set accuracy = 0.924700
 epoch 47/200. Took 0.62337 seconds. 
  Full-batch training loss = 0.078891, test loss = 0.252681
  Training set accuracy = 0.989000, Test set accuracy = 0.924100
 epoch 48/200. Took 0.56333 seconds. 
  Full-batch training loss = 0.076194, test loss = 0.252312
  Training set accuracy = 0.988500, Test set accuracy = 0.925200
 epoch 49/200. Took 0.5622 seconds. 
  Full-batch training loss = 0.075122, test loss = 0.252818
  Training set accuracy = 0.991500, Test set accuracy = 0.924700
 epoch 50/200. Took 0.55842 seconds. 
  Full-batch training loss = 0.072346, test loss = 0.251121
  Training set accuracy = 0.991000, Test set accuracy = 0.925300
 epoch 51/200. Took 0.55583 seconds. 
  Full-batch training loss = 0.070585, test loss = 0.251472
  Training set accuracy = 0.992000, Test set accuracy = 0.925600
 epoch 52/200. Took 0.55354 seconds. 
  Full-batch training loss = 0.068796, test loss = 0.250517
  Training set accuracy = 0.993500, Test set accuracy = 0.925600
 epoch 53/200. Took 0.57029 seconds. 
  Full-batch training loss = 0.067266, test loss = 0.250531
  Training set accuracy = 0.993500, Test set accuracy = 0.925800
 epoch 54/200. Took 0.56211 seconds. 
  Full-batch training loss = 0.065626, test loss = 0.249760
  Training set accuracy = 0.994000, Test set accuracy = 0.926100
 epoch 55/200. Took 0.55677 seconds. 
  Full-batch training loss = 0.064594, test loss = 0.250226
  Training set accuracy = 0.995000, Test set accuracy = 0.925300
 epoch 56/200. Took 0.55659 seconds. 
  Full-batch training loss = 0.062896, test loss = 0.250545
  Training set accuracy = 0.995000, Test set accuracy = 0.926200
 epoch 57/200. Took 0.56994 seconds. 
  Full-batch training loss = 0.061087, test loss = 0.249474
  Training set accuracy = 0.995500, Test set accuracy = 0.925400
 epoch 58/200. Took 0.56235 seconds. 
  Full-batch training loss = 0.059689, test loss = 0.249760
  Training set accuracy = 0.995000, Test set accuracy = 0.926800
 epoch 59/200. Took 0.56244 seconds. 
  Full-batch training loss = 0.058271, test loss = 0.249761
  Training set accuracy = 0.996000, Test set accuracy = 0.926900
 epoch 60/200. Took 0.55621 seconds. 
  Full-batch training loss = 0.057085, test loss = 0.249500
  Training set accuracy = 0.995500, Test set accuracy = 0.926700
 epoch 61/200. Took 0.55325 seconds. 
  Full-batch training loss = 0.055808, test loss = 0.249664
  Training set accuracy = 0.995500, Test set accuracy = 0.925800
 epoch 62/200. Took 0.55746 seconds. 
  Full-batch training loss = 0.054593, test loss = 0.248513
  Training set accuracy = 0.996000, Test set accuracy = 0.926800
 epoch 63/200. Took 0.56156 seconds. 
  Full-batch training loss = 0.053450, test loss = 0.249525
  Training set accuracy = 0.996000, Test set accuracy = 0.926400
 epoch 64/200. Took 0.57005 seconds. 
  Full-batch training loss = 0.052192, test loss = 0.248932
  Training set accuracy = 0.997000, Test set accuracy = 0.926400
 epoch 65/200. Took 0.55452 seconds. 
  Full-batch training loss = 0.051123, test loss = 0.249067
  Training set accuracy = 0.996500, Test set accuracy = 0.926900
 epoch 66/200. Took 0.55367 seconds. 
  Full-batch training loss = 0.050543, test loss = 0.249164
  Training set accuracy = 0.997000, Test set accuracy = 0.928300
 epoch 67/200. Took 0.55807 seconds. 
  Full-batch training loss = 0.048997, test loss = 0.248980
  Training set accuracy = 0.997000, Test set accuracy = 0.927300
 epoch 68/200. Took 0.55146 seconds. 
  Full-batch training loss = 0.047969, test loss = 0.248959
  Training set accuracy = 0.997000, Test set accuracy = 0.927000
 epoch 69/200. Took 0.5556 seconds. 
  Full-batch training loss = 0.046987, test loss = 0.249058
  Training set accuracy = 0.997000, Test set accuracy = 0.926900
 epoch 70/200. Took 0.55501 seconds. 
  Full-batch training loss = 0.046111, test loss = 0.248868
  Training set accuracy = 0.997500, Test set accuracy = 0.927600
 epoch 71/200. Took 0.55734 seconds. 
  Full-batch training loss = 0.045183, test loss = 0.248794
  Training set accuracy = 0.997500, Test set accuracy = 0.927200
 epoch 72/200. Took 0.55718 seconds. 
  Full-batch training loss = 0.044286, test loss = 0.249234
  Training set accuracy = 0.998000, Test set accuracy = 0.927400
 epoch 73/200. Took 0.56109 seconds. 
  Full-batch training loss = 0.043637, test loss = 0.248788
  Training set accuracy = 0.998000, Test set accuracy = 0.927800
 epoch 74/200. Took 0.56859 seconds. 
  Full-batch training loss = 0.042516, test loss = 0.248494
  Training set accuracy = 0.998000, Test set accuracy = 0.928300
 epoch 75/200. Took 0.57094 seconds. 
  Full-batch training loss = 0.041825, test loss = 0.249148
  Training set accuracy = 0.998500, Test set accuracy = 0.927000
 epoch 76/200. Took 0.55739 seconds. 
  Full-batch training loss = 0.040936, test loss = 0.248775
  Training set accuracy = 0.998500, Test set accuracy = 0.927100
 epoch 77/200. Took 0.55838 seconds. 
  Full-batch training loss = 0.040214, test loss = 0.249105
  Training set accuracy = 0.998500, Test set accuracy = 0.928100
 epoch 78/200. Took 0.55723 seconds. 
  Full-batch training loss = 0.039436, test loss = 0.248581
  Training set accuracy = 0.998500, Test set accuracy = 0.928200
 epoch 79/200. Took 0.55451 seconds. 
  Full-batch training loss = 0.038657, test loss = 0.248473
  Training set accuracy = 0.998500, Test set accuracy = 0.928200
 epoch 80/200. Took 0.56345 seconds. 
  Full-batch training loss = 0.037920, test loss = 0.248723
  Training set accuracy = 0.999000, Test set accuracy = 0.928300
 epoch 81/200. Took 0.55549 seconds. 
  Full-batch training loss = 0.037306, test loss = 0.248790
  Training set accuracy = 0.999000, Test set accuracy = 0.927800
 epoch 82/200. Took 0.56754 seconds. 
  Full-batch training loss = 0.036596, test loss = 0.248879
  Training set accuracy = 0.999000, Test set accuracy = 0.928400
 epoch 83/200. Took 0.55896 seconds. 
  Full-batch training loss = 0.036020, test loss = 0.249222
  Training set accuracy = 0.999000, Test set accuracy = 0.928000
 epoch 84/200. Took 0.56766 seconds. 
  Full-batch training loss = 0.035325, test loss = 0.248930
  Training set accuracy = 0.999000, Test set accuracy = 0.927900
 epoch 85/200. Took 0.563 seconds. 
  Full-batch training loss = 0.034793, test loss = 0.248972
  Training set accuracy = 0.999000, Test set accuracy = 0.928400
 epoch 86/200. Took 0.55581 seconds. 
  Full-batch training loss = 0.034214, test loss = 0.249300
  Training set accuracy = 0.999000, Test set accuracy = 0.928400
 epoch 87/200. Took 0.55749 seconds. 
  Full-batch training loss = 0.033516, test loss = 0.249247
  Training set accuracy = 0.999000, Test set accuracy = 0.928800
 epoch 88/200. Took 0.55444 seconds. 
  Full-batch training loss = 0.033033, test loss = 0.249049
  Training set accuracy = 0.999000, Test set accuracy = 0.928800
 epoch 89/200. Took 0.55418 seconds. 
  Full-batch training loss = 0.032465, test loss = 0.249211
  Training set accuracy = 0.999000, Test set accuracy = 0.928800
 epoch 90/200. Took 0.55292 seconds. 
  Full-batch training loss = 0.032001, test loss = 0.249415
  Training set accuracy = 0.999000, Test set accuracy = 0.928300
 epoch 91/200. Took 0.55601 seconds. 
  Full-batch training loss = 0.031403, test loss = 0.249295
  Training set accuracy = 0.999500, Test set accuracy = 0.928400
 epoch 92/200. Took 0.55631 seconds. 
  Full-batch training loss = 0.030870, test loss = 0.249620
  Training set accuracy = 0.999000, Test set accuracy = 0.928800
 epoch 93/200. Took 0.55995 seconds. 
  Full-batch training loss = 0.030307, test loss = 0.249512
  Training set accuracy = 0.999000, Test set accuracy = 0.928600
 epoch 94/200. Took 0.56059 seconds. 
  Full-batch training loss = 0.029840, test loss = 0.249600
  Training set accuracy = 0.999500, Test set accuracy = 0.929100
 epoch 95/200. Took 0.55817 seconds. 
  Full-batch training loss = 0.029437, test loss = 0.249855
  Training set accuracy = 0.999000, Test set accuracy = 0.928700
 epoch 96/200. Took 0.56113 seconds. 
  Full-batch training loss = 0.028919, test loss = 0.249963
  Training set accuracy = 0.999500, Test set accuracy = 0.929300
 epoch 97/200. Took 0.5529 seconds. 
  Full-batch training loss = 0.028454, test loss = 0.249767
  Training set accuracy = 0.999000, Test set accuracy = 0.929600
 epoch 98/200. Took 0.5569 seconds. 
  Full-batch training loss = 0.028036, test loss = 0.249947
  Training set accuracy = 0.999500, Test set accuracy = 0.929500
 epoch 99/200. Took 0.56108 seconds. 
  Full-batch training loss = 0.027571, test loss = 0.249981
  Training set accuracy = 0.999500, Test set accuracy = 0.929200
 epoch 100/200. Took 0.56124 seconds. 
  Full-batch training loss = 0.027195, test loss = 0.250328
  Training set accuracy = 0.999500, Test set accuracy = 0.929400
 epoch 101/200. Took 0.56466 seconds. 
  Full-batch training loss = 0.026757, test loss = 0.250143
  Training set accuracy = 0.999500, Test set accuracy = 0.929600
 epoch 102/200. Took 0.55793 seconds. 
  Full-batch training loss = 0.026351, test loss = 0.250307
  Training set accuracy = 0.999500, Test set accuracy = 0.929200
 epoch 103/200. Took 0.55693 seconds. 
  Full-batch training loss = 0.025991, test loss = 0.250519
  Training set accuracy = 0.999500, Test set accuracy = 0.928900
 epoch 104/200. Took 0.55647 seconds. 
  Full-batch training loss = 0.025656, test loss = 0.250874
  Training set accuracy = 0.999500, Test set accuracy = 0.929200
 epoch 105/200. Took 0.55742 seconds. 
  Full-batch training loss = 0.025242, test loss = 0.250949
  Training set accuracy = 0.999500, Test set accuracy = 0.929500
 epoch 106/200. Took 0.55493 seconds. 
  Full-batch training loss = 0.024863, test loss = 0.250737
  Training set accuracy = 0.999500, Test set accuracy = 0.929300
 epoch 107/200. Took 0.55667 seconds. 
  Full-batch training loss = 0.024500, test loss = 0.250973
  Training set accuracy = 0.999500, Test set accuracy = 0.930000
 epoch 108/200. Took 0.56199 seconds. 
  Full-batch training loss = 0.024144, test loss = 0.250736
  Training set accuracy = 0.999500, Test set accuracy = 0.929600
 epoch 109/200. Took 0.55185 seconds. 
  Full-batch training loss = 0.023837, test loss = 0.251213
  Training set accuracy = 0.999500, Test set accuracy = 0.929000
 epoch 110/200. Took 0.55778 seconds. 
  Full-batch training loss = 0.023573, test loss = 0.251034
  Training set accuracy = 0.999500, Test set accuracy = 0.929600
 epoch 111/200. Took 0.55842 seconds. 
  Full-batch training loss = 0.023138, test loss = 0.251148
  Training set accuracy = 0.999500, Test set accuracy = 0.929300
 epoch 112/200. Took 0.55368 seconds. 
  Full-batch training loss = 0.022842, test loss = 0.251436
  Training set accuracy = 0.999500, Test set accuracy = 0.929600
 epoch 113/200. Took 0.55562 seconds. 
  Full-batch training loss = 0.022615, test loss = 0.251845
  Training set accuracy = 0.999500, Test set accuracy = 0.929700
 epoch 114/200. Took 0.5526 seconds. 
  Full-batch training loss = 0.022213, test loss = 0.251815
  Training set accuracy = 0.999500, Test set accuracy = 0.929900
 epoch 115/200. Took 0.55458 seconds. 
  Full-batch training loss = 0.021985, test loss = 0.251963
  Training set accuracy = 0.999500, Test set accuracy = 0.929900
 epoch 116/200. Took 0.56087 seconds. 
  Full-batch training loss = 0.021695, test loss = 0.252127
  Training set accuracy = 0.999500, Test set accuracy = 0.929300
 epoch 117/200. Took 0.55854 seconds. 
  Full-batch training loss = 0.021328, test loss = 0.251698
  Training set accuracy = 0.999500, Test set accuracy = 0.930000
 epoch 118/200. Took 0.5553 seconds. 
  Full-batch training loss = 0.021086, test loss = 0.252118
  Training set accuracy = 0.999500, Test set accuracy = 0.930500
 epoch 119/200. Took 0.55777 seconds. 
  Full-batch training loss = 0.020797, test loss = 0.252240
  Training set accuracy = 0.999500, Test set accuracy = 0.930200
 epoch 120/200. Took 0.55786 seconds. 
  Full-batch training loss = 0.020517, test loss = 0.252516
  Training set accuracy = 0.999500, Test set accuracy = 0.930000
 epoch 121/200. Took 0.56361 seconds. 
  Full-batch training loss = 0.020252, test loss = 0.252167
  Training set accuracy = 0.999500, Test set accuracy = 0.930300
 epoch 122/200. Took 0.55875 seconds. 
  Full-batch training loss = 0.020014, test loss = 0.252414
  Training set accuracy = 0.999500, Test set accuracy = 0.929900
 epoch 123/200. Took 0.5585 seconds. 
  Full-batch training loss = 0.019761, test loss = 0.252675
  Training set accuracy = 0.999500, Test set accuracy = 0.929700
 epoch 124/200. Took 0.55679 seconds. 
  Full-batch training loss = 0.019501, test loss = 0.252707
  Training set accuracy = 0.999500, Test set accuracy = 0.930300
 epoch 125/200. Took 0.55815 seconds. 
  Full-batch training loss = 0.019264, test loss = 0.252871
  Training set accuracy = 0.999500, Test set accuracy = 0.930000
 epoch 126/200. Took 0.55704 seconds. 
  Full-batch training loss = 0.019013, test loss = 0.252879
  Training set accuracy = 0.999500, Test set accuracy = 0.930000
 epoch 127/200. Took 0.55505 seconds. 
  Full-batch training loss = 0.018795, test loss = 0.253009
  Training set accuracy = 0.999500, Test set accuracy = 0.930000
 epoch 128/200. Took 0.55262 seconds. 
  Full-batch training loss = 0.018585, test loss = 0.253455
  Training set accuracy = 0.999500, Test set accuracy = 0.930400
 epoch 129/200. Took 0.55487 seconds. 
  Full-batch training loss = 0.018356, test loss = 0.253470
  Training set accuracy = 0.999500, Test set accuracy = 0.930100
 epoch 130/200. Took 0.55498 seconds. 
  Full-batch training loss = 0.018113, test loss = 0.253455
  Training set accuracy = 0.999500, Test set accuracy = 0.929900
 epoch 131/200. Took 0.56122 seconds. 
  Full-batch training loss = 0.017924, test loss = 0.253577
  Training set accuracy = 0.999500, Test set accuracy = 0.930200
 epoch 132/200. Took 0.55698 seconds. 
  Full-batch training loss = 0.017710, test loss = 0.253872
  Training set accuracy = 0.999500, Test set accuracy = 0.930700
 epoch 133/200. Took 0.56138 seconds. 
  Full-batch training loss = 0.017501, test loss = 0.254013
  Training set accuracy = 0.999500, Test set accuracy = 0.930700
 epoch 134/200. Took 0.55784 seconds. 
  Full-batch training loss = 0.017298, test loss = 0.253973
  Training set accuracy = 0.999500, Test set accuracy = 0.930000
 epoch 135/200. Took 0.55958 seconds. 
  Full-batch training loss = 0.017093, test loss = 0.254189
  Training set accuracy = 0.999500, Test set accuracy = 0.929800
 epoch 136/200. Took 0.5599 seconds. 
  Full-batch training loss = 0.016913, test loss = 0.253938
  Training set accuracy = 0.999500, Test set accuracy = 0.930400
 epoch 137/200. Took 0.55701 seconds. 
  Full-batch training loss = 0.016708, test loss = 0.254097
  Training set accuracy = 0.999500, Test set accuracy = 0.930100
 epoch 138/200. Took 0.55821 seconds. 
  Full-batch training loss = 0.016524, test loss = 0.254376
  Training set accuracy = 0.999500, Test set accuracy = 0.930400
 epoch 139/200. Took 0.55347 seconds. 
  Full-batch training loss = 0.016353, test loss = 0.254643
  Training set accuracy = 0.999500, Test set accuracy = 0.930400
 epoch 140/200. Took 0.56246 seconds. 
  Full-batch training loss = 0.016195, test loss = 0.254726
  Training set accuracy = 0.999500, Test set accuracy = 0.930100
 epoch 141/200. Took 0.55661 seconds. 
  Full-batch training loss = 0.015983, test loss = 0.254587
  Training set accuracy = 0.999500, Test set accuracy = 0.930700
 epoch 142/200. Took 0.556 seconds. 
  Full-batch training loss = 0.015811, test loss = 0.254922
  Training set accuracy = 0.999500, Test set accuracy = 0.930300
 epoch 143/200. Took 0.55629 seconds. 
  Full-batch training loss = 0.015648, test loss = 0.255067
  Training set accuracy = 0.999500, Test set accuracy = 0.930500
 epoch 144/200. Took 0.55747 seconds. 
  Full-batch training loss = 0.015497, test loss = 0.255123
  Training set accuracy = 0.999500, Test set accuracy = 0.930400
 epoch 145/200. Took 0.55832 seconds. 
  Full-batch training loss = 0.015331, test loss = 0.255369
  Training set accuracy = 1.000000, Test set accuracy = 0.930700
 epoch 146/200. Took 0.55887 seconds. 
  Full-batch training loss = 0.015183, test loss = 0.255397
  Training set accuracy = 0.999500, Test set accuracy = 0.930500
 epoch 147/200. Took 0.55617 seconds. 
  Full-batch training loss = 0.014984, test loss = 0.255468
  Training set accuracy = 0.999500, Test set accuracy = 0.930800
 epoch 148/200. Took 0.55289 seconds. 
  Full-batch training loss = 0.014825, test loss = 0.255708
  Training set accuracy = 0.999500, Test set accuracy = 0.930400
 epoch 149/200. Took 0.55676 seconds. 
  Full-batch training loss = 0.014686, test loss = 0.255691
  Training set accuracy = 0.999500, Test set accuracy = 0.930700
 epoch 150/200. Took 0.55512 seconds. 
  Full-batch training loss = 0.014532, test loss = 0.255912
  Training set accuracy = 1.000000, Test set accuracy = 0.930600
 epoch 151/200. Took 0.57195 seconds. 
  Full-batch training loss = 0.014388, test loss = 0.255988
  Training set accuracy = 1.000000, Test set accuracy = 0.931100
 epoch 152/200. Took 0.56537 seconds. 
  Full-batch training loss = 0.014233, test loss = 0.256234
  Training set accuracy = 0.999500, Test set accuracy = 0.930700
 epoch 153/200. Took 0.55512 seconds. 
  Full-batch training loss = 0.014092, test loss = 0.256220
  Training set accuracy = 1.000000, Test set accuracy = 0.930800
 epoch 154/200. Took 0.5612 seconds. 
  Full-batch training loss = 0.013957, test loss = 0.256389
  Training set accuracy = 1.000000, Test set accuracy = 0.930700
 epoch 155/200. Took 0.56769 seconds. 
  Full-batch training loss = 0.013806, test loss = 0.256509
  Training set accuracy = 1.000000, Test set accuracy = 0.931000
 epoch 156/200. Took 0.59646 seconds. 
  Full-batch training loss = 0.013672, test loss = 0.256549
  Training set accuracy = 1.000000, Test set accuracy = 0.931000
 epoch 157/200. Took 0.56447 seconds. 
  Full-batch training loss = 0.013537, test loss = 0.256607
  Training set accuracy = 1.000000, Test set accuracy = 0.931100
 epoch 158/200. Took 0.55516 seconds. 
  Full-batch training loss = 0.013411, test loss = 0.256762
  Training set accuracy = 1.000000, Test set accuracy = 0.930900
 epoch 159/200. Took 0.55271 seconds. 
  Full-batch training loss = 0.013280, test loss = 0.256918
  Training set accuracy = 1.000000, Test set accuracy = 0.930900
 epoch 160/200. Took 0.55572 seconds. 
  Full-batch training loss = 0.013149, test loss = 0.256983
  Training set accuracy = 1.000000, Test set accuracy = 0.931100
 epoch 161/200. Took 0.5808 seconds. 
  Full-batch training loss = 0.013028, test loss = 0.257226
  Training set accuracy = 1.000000, Test set accuracy = 0.931100
 epoch 162/200. Took 0.56418 seconds. 
  Full-batch training loss = 0.012918, test loss = 0.257371
  Training set accuracy = 1.000000, Test set accuracy = 0.931000
 epoch 163/200. Took 0.56469 seconds. 
  Full-batch training loss = 0.012785, test loss = 0.257276
  Training set accuracy = 1.000000, Test set accuracy = 0.931200
 epoch 164/200. Took 0.56593 seconds. 
  Full-batch training loss = 0.012663, test loss = 0.257520
  Training set accuracy = 1.000000, Test set accuracy = 0.930800
 epoch 165/200. Took 0.55671 seconds. 
  Full-batch training loss = 0.012555, test loss = 0.257568
  Training set accuracy = 1.000000, Test set accuracy = 0.931100
 epoch 166/200. Took 0.55644 seconds. 
  Full-batch training loss = 0.012441, test loss = 0.257796
  Training set accuracy = 1.000000, Test set accuracy = 0.931100
 epoch 167/200. Took 0.55705 seconds. 
  Full-batch training loss = 0.012319, test loss = 0.257777
  Training set accuracy = 1.000000, Test set accuracy = 0.931000
 epoch 168/200. Took 0.55749 seconds. 
  Full-batch training loss = 0.012209, test loss = 0.257878
  Training set accuracy = 1.000000, Test set accuracy = 0.931200
 epoch 169/200. Took 0.57283 seconds. 
  Full-batch training loss = 0.012099, test loss = 0.257986
  Training set accuracy = 1.000000, Test set accuracy = 0.931200
 epoch 170/200. Took 0.55652 seconds. 
  Full-batch training loss = 0.011988, test loss = 0.258239
  Training set accuracy = 1.000000, Test set accuracy = 0.931100
 epoch 171/200. Took 0.55209 seconds. 
  Full-batch training loss = 0.011883, test loss = 0.258169
  Training set accuracy = 1.000000, Test set accuracy = 0.931400
 epoch 172/200. Took 0.55329 seconds. 
  Full-batch training loss = 0.011778, test loss = 0.258445
  Training set accuracy = 1.000000, Test set accuracy = 0.931200
 epoch 173/200. Took 0.55533 seconds. 
  Full-batch training loss = 0.011679, test loss = 0.258638
  Training set accuracy = 1.000000, Test set accuracy = 0.931200
 epoch 174/200. Took 0.55663 seconds. 
  Full-batch training loss = 0.011568, test loss = 0.258535
  Training set accuracy = 1.000000, Test set accuracy = 0.931400
 epoch 175/200. Took 0.56142 seconds. 
  Full-batch training loss = 0.011490, test loss = 0.258918
  Training set accuracy = 1.000000, Test set accuracy = 0.931400
 epoch 176/200. Took 0.55835 seconds. 
  Full-batch training loss = 0.011371, test loss = 0.258798
  Training set accuracy = 1.000000, Test set accuracy = 0.931400
 epoch 177/200. Took 0.55443 seconds. 
  Full-batch training loss = 0.011273, test loss = 0.258975
  Training set accuracy = 1.000000, Test set accuracy = 0.931100
 epoch 178/200. Took 0.5522 seconds. 
  Full-batch training loss = 0.011181, test loss = 0.259070
  Training set accuracy = 1.000000, Test set accuracy = 0.931500
 epoch 179/200. Took 0.55937 seconds. 
  Full-batch training loss = 0.011083, test loss = 0.259186
  Training set accuracy = 1.000000, Test set accuracy = 0.931400
 epoch 180/200. Took 0.56048 seconds. 
  Full-batch training loss = 0.010988, test loss = 0.259256
  Training set accuracy = 1.000000, Test set accuracy = 0.931200
 epoch 181/200. Took 0.56003 seconds. 
  Full-batch training loss = 0.010901, test loss = 0.259497
  Training set accuracy = 1.000000, Test set accuracy = 0.931400
 epoch 182/200. Took 0.55446 seconds. 
  Full-batch training loss = 0.010809, test loss = 0.259537
  Training set accuracy = 1.000000, Test set accuracy = 0.931100
 epoch 183/200. Took 0.55816 seconds. 
  Full-batch training loss = 0.010723, test loss = 0.259648
  Training set accuracy = 1.000000, Test set accuracy = 0.931200
 epoch 184/200. Took 0.56685 seconds. 
  Full-batch training loss = 0.010628, test loss = 0.259794
  Training set accuracy = 1.000000, Test set accuracy = 0.931100
 epoch 185/200. Took 0.55772 seconds. 
  Full-batch training loss = 0.010543, test loss = 0.259776
  Training set accuracy = 1.000000, Test set accuracy = 0.931300
 epoch 186/200. Took 0.55007 seconds. 
  Full-batch training loss = 0.010458, test loss = 0.260023
  Training set accuracy = 1.000000, Test set accuracy = 0.931400
 epoch 187/200. Took 0.55498 seconds. 
  Full-batch training loss = 0.010378, test loss = 0.259913
  Training set accuracy = 1.000000, Test set accuracy = 0.931400
 epoch 188/200. Took 0.56178 seconds. 
  Full-batch training loss = 0.010290, test loss = 0.260186
  Training set accuracy = 1.000000, Test set accuracy = 0.931300
 epoch 189/200. Took 0.58242 seconds. 
  Full-batch training loss = 0.010210, test loss = 0.260476
  Training set accuracy = 1.000000, Test set accuracy = 0.931000
 epoch 190/200. Took 0.56809 seconds. 
  Full-batch training loss = 0.010132, test loss = 0.260272
  Training set accuracy = 1.000000, Test set accuracy = 0.931400
 epoch 191/200. Took 0.55829 seconds. 
  Full-batch training loss = 0.010048, test loss = 0.260445
  Training set accuracy = 1.000000, Test set accuracy = 0.931300
 epoch 192/200. Took 0.55985 seconds. 
  Full-batch training loss = 0.009970, test loss = 0.260600
  Training set accuracy = 1.000000, Test set accuracy = 0.931300
 epoch 193/200. Took 0.56217 seconds. 
  Full-batch training loss = 0.009894, test loss = 0.260791
  Training set accuracy = 1.000000, Test set accuracy = 0.931200
 epoch 194/200. Took 0.55885 seconds. 
  Full-batch training loss = 0.009816, test loss = 0.260859
  Training set accuracy = 1.000000, Test set accuracy = 0.931300
 epoch 195/200. Took 0.55679 seconds. 
  Full-batch training loss = 0.009744, test loss = 0.260912
  Training set accuracy = 1.000000, Test set accuracy = 0.931200
 epoch 196/200. Took 0.55429 seconds. 
  Full-batch training loss = 0.009669, test loss = 0.260996
  Training set accuracy = 1.000000, Test set accuracy = 0.931300
 epoch 197/200. Took 0.55948 seconds. 
  Full-batch training loss = 0.009596, test loss = 0.261224
  Training set accuracy = 1.000000, Test set accuracy = 0.931400
 epoch 198/200. Took 0.55638 seconds. 
  Full-batch training loss = 0.009523, test loss = 0.261233
  Training set accuracy = 1.000000, Test set accuracy = 0.931300
 epoch 199/200. Took 0.56131 seconds. 
  Full-batch training loss = 0.009452, test loss = 0.261350
  Training set accuracy = 1.000000, Test set accuracy = 0.931300
 epoch 200/200. Took 0.55622 seconds. 
  Full-batch training loss = 0.009381, test loss = 0.261551
  Training set accuracy = 1.000000, Test set accuracy = 0.931400
Elapsed time is 436.846354 seconds.
End Training
