==========================================================
  Architecture is 500 500 500 // 3 layer x 500 neuron
----------------------------------------------------------
Execution 125/270
----------------------------------------------------------
* ReducedData	5000
* PreTrainRBM	true
	-> Epochs	50
	-> LearningRate	0.10
* Fine-tunning
	-> Epochs	200
	-> LearningRate	0.20
==========================================================
Start Training
Number of training examples: 5000  BatchSize: 100
Number of inputs: 784  Number of outputs: 10
Number of hidden layers: 3 (500  500  500)
Training binary-binary RBM in layer 1 (784  500) with CD1 for 50 epochs
 epoch 1/50. Took 0.54707 seconds. Average reconstruction error is: 35.6151
 epoch 2/50. Took 0.53633 seconds. Average reconstruction error is: 19.0329
 epoch 3/50. Took 0.53991 seconds. Average reconstruction error is: 15.7788
 epoch 4/50. Took 0.53628 seconds. Average reconstruction error is: 14.091
 epoch 5/50. Took 0.54181 seconds. Average reconstruction error is: 12.9669
 epoch 6/50. Took 0.53742 seconds. Average reconstruction error is: 12.1098
 epoch 7/50. Took 0.54431 seconds. Average reconstruction error is: 11.529
 epoch 8/50. Took 0.53688 seconds. Average reconstruction error is: 10.9537
 epoch 9/50. Took 0.53587 seconds. Average reconstruction error is: 10.5839
 epoch 10/50. Took 0.53761 seconds. Average reconstruction error is: 10.1931
 epoch 11/50. Took 0.53551 seconds. Average reconstruction error is: 9.8392
 epoch 12/50. Took 0.54104 seconds. Average reconstruction error is: 9.6571
 epoch 13/50. Took 0.54328 seconds. Average reconstruction error is: 9.3858
 epoch 14/50. Took 0.55288 seconds. Average reconstruction error is: 9.1791
 epoch 15/50. Took 0.54405 seconds. Average reconstruction error is: 9.0304
 epoch 16/50. Took 0.53437 seconds. Average reconstruction error is: 8.8543
 epoch 17/50. Took 0.5407 seconds. Average reconstruction error is: 8.7208
 epoch 18/50. Took 0.54015 seconds. Average reconstruction error is: 8.5673
 epoch 19/50. Took 0.53408 seconds. Average reconstruction error is: 8.4452
 epoch 20/50. Took 0.54671 seconds. Average reconstruction error is: 8.3553
 epoch 21/50. Took 0.54075 seconds. Average reconstruction error is: 8.228
 epoch 22/50. Took 0.54047 seconds. Average reconstruction error is: 8.2833
 epoch 23/50. Took 0.5392 seconds. Average reconstruction error is: 8.1714
 epoch 24/50. Took 0.53895 seconds. Average reconstruction error is: 8.105
 epoch 25/50. Took 0.54735 seconds. Average reconstruction error is: 8.0431
 epoch 26/50. Took 0.54191 seconds. Average reconstruction error is: 7.934
 epoch 27/50. Took 0.54129 seconds. Average reconstruction error is: 7.924
 epoch 28/50. Took 0.5373 seconds. Average reconstruction error is: 7.8278
 epoch 29/50. Took 0.54506 seconds. Average reconstruction error is: 7.8037
 epoch 30/50. Took 0.54333 seconds. Average reconstruction error is: 7.7599
 epoch 31/50. Took 0.53582 seconds. Average reconstruction error is: 7.7252
 epoch 32/50. Took 0.54069 seconds. Average reconstruction error is: 7.7103
 epoch 33/50. Took 0.54328 seconds. Average reconstruction error is: 7.6278
 epoch 34/50. Took 0.53992 seconds. Average reconstruction error is: 7.6315
 epoch 35/50. Took 0.54853 seconds. Average reconstruction error is: 7.6078
 epoch 36/50. Took 0.54195 seconds. Average reconstruction error is: 7.5953
 epoch 37/50. Took 0.54335 seconds. Average reconstruction error is: 7.5385
 epoch 38/50. Took 0.53745 seconds. Average reconstruction error is: 7.4898
 epoch 39/50. Took 0.53496 seconds. Average reconstruction error is: 7.4487
 epoch 40/50. Took 0.54194 seconds. Average reconstruction error is: 7.4938
 epoch 41/50. Took 0.54002 seconds. Average reconstruction error is: 7.414
 epoch 42/50. Took 0.53447 seconds. Average reconstruction error is: 7.3663
 epoch 43/50. Took 0.53596 seconds. Average reconstruction error is: 7.3883
 epoch 44/50. Took 0.5447 seconds. Average reconstruction error is: 7.4187
 epoch 45/50. Took 0.54363 seconds. Average reconstruction error is: 7.3293
 epoch 46/50. Took 0.5385 seconds. Average reconstruction error is: 7.3605
 epoch 47/50. Took 0.53464 seconds. Average reconstruction error is: 7.2788
 epoch 48/50. Took 0.54099 seconds. Average reconstruction error is: 7.316
 epoch 49/50. Took 0.53343 seconds. Average reconstruction error is: 7.3015
 epoch 50/50. Took 0.5408 seconds. Average reconstruction error is: 7.2683
Training binary-binary RBM in layer 2 (500  500) with CD1 for 50 epochs
 epoch 1/50. Took 0.37274 seconds. Average reconstruction error is: 34.6004
 epoch 2/50. Took 0.37418 seconds. Average reconstruction error is: 19.2838
 epoch 3/50. Took 0.38029 seconds. Average reconstruction error is: 15.7207
 epoch 4/50. Took 0.3797 seconds. Average reconstruction error is: 14.0171
 epoch 5/50. Took 0.37836 seconds. Average reconstruction error is: 13.0595
 epoch 6/50. Took 0.38284 seconds. Average reconstruction error is: 12.3749
 epoch 7/50. Took 0.38143 seconds. Average reconstruction error is: 11.9041
 epoch 8/50. Took 0.38235 seconds. Average reconstruction error is: 11.5139
 epoch 9/50. Took 0.38381 seconds. Average reconstruction error is: 11.1738
 epoch 10/50. Took 0.37658 seconds. Average reconstruction error is: 10.8967
 epoch 11/50. Took 0.38356 seconds. Average reconstruction error is: 10.6882
 epoch 12/50. Took 0.37816 seconds. Average reconstruction error is: 10.5308
 epoch 13/50. Took 0.38054 seconds. Average reconstruction error is: 10.3301
 epoch 14/50. Took 0.37886 seconds. Average reconstruction error is: 10.2008
 epoch 15/50. Took 0.38244 seconds. Average reconstruction error is: 10.0815
 epoch 16/50. Took 0.3874 seconds. Average reconstruction error is: 9.9955
 epoch 17/50. Took 0.39408 seconds. Average reconstruction error is: 9.8698
 epoch 18/50. Took 0.37908 seconds. Average reconstruction error is: 9.7586
 epoch 19/50. Took 0.37929 seconds. Average reconstruction error is: 9.6582
 epoch 20/50. Took 0.386 seconds. Average reconstruction error is: 9.5517
 epoch 21/50. Took 0.37578 seconds. Average reconstruction error is: 9.4736
 epoch 22/50. Took 0.38231 seconds. Average reconstruction error is: 9.3728
 epoch 23/50. Took 0.38183 seconds. Average reconstruction error is: 9.3556
 epoch 24/50. Took 0.3767 seconds. Average reconstruction error is: 9.2783
 epoch 25/50. Took 0.37811 seconds. Average reconstruction error is: 9.1667
 epoch 26/50. Took 0.3787 seconds. Average reconstruction error is: 9.1342
 epoch 27/50. Took 0.37815 seconds. Average reconstruction error is: 9.0566
 epoch 28/50. Took 0.37956 seconds. Average reconstruction error is: 9.0075
 epoch 29/50. Took 0.37643 seconds. Average reconstruction error is: 8.9743
 epoch 30/50. Took 0.37786 seconds. Average reconstruction error is: 8.8823
 epoch 31/50. Took 0.38443 seconds. Average reconstruction error is: 8.8747
 epoch 32/50. Took 0.38018 seconds. Average reconstruction error is: 8.7791
 epoch 33/50. Took 0.37875 seconds. Average reconstruction error is: 8.6911
 epoch 34/50. Took 0.37949 seconds. Average reconstruction error is: 8.6963
 epoch 35/50. Took 0.37822 seconds. Average reconstruction error is: 8.6184
 epoch 36/50. Took 0.37921 seconds. Average reconstruction error is: 8.6115
 epoch 37/50. Took 0.37718 seconds. Average reconstruction error is: 8.5676
 epoch 38/50. Took 0.38014 seconds. Average reconstruction error is: 8.525
 epoch 39/50. Took 0.38257 seconds. Average reconstruction error is: 8.5372
 epoch 40/50. Took 0.38276 seconds. Average reconstruction error is: 8.4645
 epoch 41/50. Took 0.38327 seconds. Average reconstruction error is: 8.4306
 epoch 42/50. Took 0.38398 seconds. Average reconstruction error is: 8.3289
 epoch 43/50. Took 0.37799 seconds. Average reconstruction error is: 8.2766
 epoch 44/50. Took 0.37778 seconds. Average reconstruction error is: 8.2349
 epoch 45/50. Took 0.37976 seconds. Average reconstruction error is: 8.2497
 epoch 46/50. Took 0.37934 seconds. Average reconstruction error is: 8.1862
 epoch 47/50. Took 0.37924 seconds. Average reconstruction error is: 8.1633
 epoch 48/50. Took 0.37818 seconds. Average reconstruction error is: 8.1064
 epoch 49/50. Took 0.37754 seconds. Average reconstruction error is: 8.0865
 epoch 50/50. Took 0.37949 seconds. Average reconstruction error is: 8.0769
Training binary-binary RBM in layer 3 (500  500) with CD1 for 50 epochs
 epoch 1/50. Took 0.36783 seconds. Average reconstruction error is: 24.6866
 epoch 2/50. Took 0.37175 seconds. Average reconstruction error is: 11.8068
 epoch 3/50. Took 0.37472 seconds. Average reconstruction error is: 9.4538
 epoch 4/50. Took 0.37016 seconds. Average reconstruction error is: 8.3715
 epoch 5/50. Took 0.37645 seconds. Average reconstruction error is: 7.7705
 epoch 6/50. Took 0.37095 seconds. Average reconstruction error is: 7.3298
 epoch 7/50. Took 0.37638 seconds. Average reconstruction error is: 7.035
 epoch 8/50. Took 0.37888 seconds. Average reconstruction error is: 6.8029
 epoch 9/50. Took 0.37565 seconds. Average reconstruction error is: 6.6834
 epoch 10/50. Took 0.37727 seconds. Average reconstruction error is: 6.493
 epoch 11/50. Took 0.37425 seconds. Average reconstruction error is: 6.3657
 epoch 12/50. Took 0.37164 seconds. Average reconstruction error is: 6.2723
 epoch 13/50. Took 0.37101 seconds. Average reconstruction error is: 6.202
 epoch 14/50. Took 0.37605 seconds. Average reconstruction error is: 6.2157
 epoch 15/50. Took 0.37257 seconds. Average reconstruction error is: 6.1085
 epoch 16/50. Took 0.37566 seconds. Average reconstruction error is: 6.0409
 epoch 17/50. Took 0.37665 seconds. Average reconstruction error is: 6.0648
 epoch 18/50. Took 0.376 seconds. Average reconstruction error is: 5.924
 epoch 19/50. Took 0.375 seconds. Average reconstruction error is: 5.9076
 epoch 20/50. Took 0.37487 seconds. Average reconstruction error is: 5.8856
 epoch 21/50. Took 0.37436 seconds. Average reconstruction error is: 5.8557
 epoch 22/50. Took 0.376 seconds. Average reconstruction error is: 5.8485
 epoch 23/50. Took 0.3807 seconds. Average reconstruction error is: 5.8221
 epoch 24/50. Took 0.376 seconds. Average reconstruction error is: 5.7475
 epoch 25/50. Took 0.3722 seconds. Average reconstruction error is: 5.7619
 epoch 26/50. Took 0.37619 seconds. Average reconstruction error is: 5.7408
 epoch 27/50. Took 0.37177 seconds. Average reconstruction error is: 5.6911
 epoch 28/50. Took 0.3741 seconds. Average reconstruction error is: 5.6797
 epoch 29/50. Took 0.37573 seconds. Average reconstruction error is: 5.6962
 epoch 30/50. Took 0.37684 seconds. Average reconstruction error is: 5.6399
 epoch 31/50. Took 0.3752 seconds. Average reconstruction error is: 5.6398
 epoch 32/50. Took 0.37408 seconds. Average reconstruction error is: 5.6365
 epoch 33/50. Took 0.37308 seconds. Average reconstruction error is: 5.6077
 epoch 34/50. Took 0.37668 seconds. Average reconstruction error is: 5.5745
 epoch 35/50. Took 0.37731 seconds. Average reconstruction error is: 5.5172
 epoch 36/50. Took 0.37814 seconds. Average reconstruction error is: 5.5779
 epoch 37/50. Took 0.37398 seconds. Average reconstruction error is: 5.5671
 epoch 38/50. Took 0.37639 seconds. Average reconstruction error is: 5.5656
 epoch 39/50. Took 0.37357 seconds. Average reconstruction error is: 5.4853
 epoch 40/50. Took 0.37059 seconds. Average reconstruction error is: 5.532
 epoch 41/50. Took 0.37349 seconds. Average reconstruction error is: 5.4733
 epoch 42/50. Took 0.37706 seconds. Average reconstruction error is: 5.4776
 epoch 43/50. Took 0.37233 seconds. Average reconstruction error is: 5.4983
 epoch 44/50. Took 0.37708 seconds. Average reconstruction error is: 5.4799
 epoch 45/50. Took 0.36731 seconds. Average reconstruction error is: 5.463
 epoch 46/50. Took 0.37242 seconds. Average reconstruction error is: 5.4346
 epoch 47/50. Took 0.37321 seconds. Average reconstruction error is: 5.4283
 epoch 48/50. Took 0.37735 seconds. Average reconstruction error is: 5.4579
 epoch 49/50. Took 0.37443 seconds. Average reconstruction error is: 5.4629
 epoch 50/50. Took 0.3727 seconds. Average reconstruction error is: 5.4306
Training NN  (784  500  500  500   10) with BackPropagation for 200 epochs
 epoch 1/200. Took 0.85571 seconds. 
  Full-batch training loss = 0.263565, test loss = 0.288596
  Training set accuracy = 0.924000, Test set accuracy = 0.918700
 epoch 2/200. Took 0.87394 seconds. 
  Full-batch training loss = 0.204454, test loss = 0.250503
  Training set accuracy = 0.941600, Test set accuracy = 0.930500
 epoch 3/200. Took 0.86499 seconds. 
  Full-batch training loss = 0.163934, test loss = 0.230945
  Training set accuracy = 0.954200, Test set accuracy = 0.933500
 epoch 4/200. Took 0.87344 seconds. 
  Full-batch training loss = 0.144087, test loss = 0.219949
  Training set accuracy = 0.957000, Test set accuracy = 0.933400
 epoch 5/200. Took 0.8714 seconds. 
  Full-batch training loss = 0.118207, test loss = 0.205299
  Training set accuracy = 0.969200, Test set accuracy = 0.939800
 epoch 6/200. Took 0.86437 seconds. 
  Full-batch training loss = 0.102265, test loss = 0.201946
  Training set accuracy = 0.974600, Test set accuracy = 0.941600
 epoch 7/200. Took 0.87043 seconds. 
  Full-batch training loss = 0.096213, test loss = 0.205433
  Training set accuracy = 0.976400, Test set accuracy = 0.939600
 epoch 8/200. Took 0.9003 seconds. 
  Full-batch training loss = 0.081844, test loss = 0.197724
  Training set accuracy = 0.979600, Test set accuracy = 0.942600
 epoch 9/200. Took 0.86804 seconds. 
  Full-batch training loss = 0.072003, test loss = 0.195447
  Training set accuracy = 0.986000, Test set accuracy = 0.942700
 epoch 10/200. Took 0.86793 seconds. 
  Full-batch training loss = 0.058011, test loss = 0.184823
  Training set accuracy = 0.990600, Test set accuracy = 0.947000
 epoch 11/200. Took 0.87001 seconds. 
  Full-batch training loss = 0.050748, test loss = 0.184849
  Training set accuracy = 0.992200, Test set accuracy = 0.947700
 epoch 12/200. Took 0.86891 seconds. 
  Full-batch training loss = 0.045629, test loss = 0.182816
  Training set accuracy = 0.992600, Test set accuracy = 0.947900
 epoch 13/200. Took 0.86678 seconds. 
  Full-batch training loss = 0.041351, test loss = 0.185141
  Training set accuracy = 0.993600, Test set accuracy = 0.947000
 epoch 14/200. Took 0.8693 seconds. 
  Full-batch training loss = 0.036802, test loss = 0.180722
  Training set accuracy = 0.995000, Test set accuracy = 0.947900
 epoch 15/200. Took 0.87129 seconds. 
  Full-batch training loss = 0.033390, test loss = 0.183195
  Training set accuracy = 0.995600, Test set accuracy = 0.948600
 epoch 16/200. Took 0.87749 seconds. 
  Full-batch training loss = 0.033348, test loss = 0.186381
  Training set accuracy = 0.996200, Test set accuracy = 0.946700
 epoch 17/200. Took 0.87754 seconds. 
  Full-batch training loss = 0.026672, test loss = 0.181480
  Training set accuracy = 0.997400, Test set accuracy = 0.948800
 epoch 18/200. Took 0.87291 seconds. 
  Full-batch training loss = 0.024475, test loss = 0.181917
  Training set accuracy = 0.997800, Test set accuracy = 0.949500
 epoch 19/200. Took 0.8684 seconds. 
  Full-batch training loss = 0.022733, test loss = 0.181736
  Training set accuracy = 0.999200, Test set accuracy = 0.949500
 epoch 20/200. Took 0.87061 seconds. 
  Full-batch training loss = 0.020663, test loss = 0.179956
  Training set accuracy = 0.999800, Test set accuracy = 0.950200
 epoch 21/200. Took 0.89998 seconds. 
  Full-batch training loss = 0.019771, test loss = 0.184391
  Training set accuracy = 0.999600, Test set accuracy = 0.948700
 epoch 22/200. Took 0.8687 seconds. 
  Full-batch training loss = 0.019002, test loss = 0.186048
  Training set accuracy = 0.999400, Test set accuracy = 0.949900
 epoch 23/200. Took 0.86637 seconds. 
  Full-batch training loss = 0.016830, test loss = 0.184445
  Training set accuracy = 0.999000, Test set accuracy = 0.949600
 epoch 24/200. Took 0.86837 seconds. 
  Full-batch training loss = 0.014991, test loss = 0.182518
  Training set accuracy = 0.999800, Test set accuracy = 0.951300
 epoch 25/200. Took 0.8707 seconds. 
  Full-batch training loss = 0.014149, test loss = 0.183472
  Training set accuracy = 0.999800, Test set accuracy = 0.950600
 epoch 26/200. Took 0.88008 seconds. 
  Full-batch training loss = 0.013477, test loss = 0.186389
  Training set accuracy = 1.000000, Test set accuracy = 0.949500
 epoch 27/200. Took 0.87177 seconds. 
  Full-batch training loss = 0.013018, test loss = 0.185832
  Training set accuracy = 0.999800, Test set accuracy = 0.949200
 epoch 28/200. Took 0.87067 seconds. 
  Full-batch training loss = 0.011675, test loss = 0.184067
  Training set accuracy = 1.000000, Test set accuracy = 0.950900
 epoch 29/200. Took 0.87073 seconds. 
  Full-batch training loss = 0.011210, test loss = 0.184964
  Training set accuracy = 0.999800, Test set accuracy = 0.950100
 epoch 30/200. Took 0.87205 seconds. 
  Full-batch training loss = 0.010573, test loss = 0.185452
  Training set accuracy = 1.000000, Test set accuracy = 0.950500
 epoch 31/200. Took 0.87452 seconds. 
  Full-batch training loss = 0.010074, test loss = 0.185607
  Training set accuracy = 1.000000, Test set accuracy = 0.951200
 epoch 32/200. Took 0.8711 seconds. 
  Full-batch training loss = 0.009541, test loss = 0.185101
  Training set accuracy = 1.000000, Test set accuracy = 0.952000
 epoch 33/200. Took 0.85736 seconds. 
  Full-batch training loss = 0.009070, test loss = 0.185926
  Training set accuracy = 1.000000, Test set accuracy = 0.952000
 epoch 34/200. Took 0.8723 seconds. 
  Full-batch training loss = 0.008884, test loss = 0.187814
  Training set accuracy = 1.000000, Test set accuracy = 0.950800
 epoch 35/200. Took 0.86378 seconds. 
  Full-batch training loss = 0.008198, test loss = 0.186998
  Training set accuracy = 1.000000, Test set accuracy = 0.951800
 epoch 36/200. Took 0.87736 seconds. 
  Full-batch training loss = 0.008136, test loss = 0.187407
  Training set accuracy = 1.000000, Test set accuracy = 0.950800
 epoch 37/200. Took 0.86067 seconds. 
  Full-batch training loss = 0.007647, test loss = 0.187076
  Training set accuracy = 1.000000, Test set accuracy = 0.950800
 epoch 38/200. Took 0.87515 seconds. 
  Full-batch training loss = 0.007271, test loss = 0.188202
  Training set accuracy = 1.000000, Test set accuracy = 0.951500
 epoch 39/200. Took 0.87243 seconds. 
  Full-batch training loss = 0.007023, test loss = 0.188570
  Training set accuracy = 1.000000, Test set accuracy = 0.951300
 epoch 40/200. Took 0.87286 seconds. 
  Full-batch training loss = 0.006722, test loss = 0.189080
  Training set accuracy = 1.000000, Test set accuracy = 0.951700
 epoch 41/200. Took 0.87611 seconds. 
  Full-batch training loss = 0.006533, test loss = 0.189748
  Training set accuracy = 1.000000, Test set accuracy = 0.951200
 epoch 42/200. Took 0.87332 seconds. 
  Full-batch training loss = 0.006199, test loss = 0.189418
  Training set accuracy = 1.000000, Test set accuracy = 0.951800
 epoch 43/200. Took 0.85906 seconds. 
  Full-batch training loss = 0.005978, test loss = 0.189581
  Training set accuracy = 1.000000, Test set accuracy = 0.952000
 epoch 44/200. Took 0.88368 seconds. 
  Full-batch training loss = 0.005824, test loss = 0.190174
  Training set accuracy = 1.000000, Test set accuracy = 0.951900
 epoch 45/200. Took 0.862 seconds. 
  Full-batch training loss = 0.005635, test loss = 0.189984
  Training set accuracy = 1.000000, Test set accuracy = 0.951800
 epoch 46/200. Took 0.87245 seconds. 
  Full-batch training loss = 0.005421, test loss = 0.189987
  Training set accuracy = 1.000000, Test set accuracy = 0.951800
 epoch 47/200. Took 0.87638 seconds. 
  Full-batch training loss = 0.005280, test loss = 0.191205
  Training set accuracy = 1.000000, Test set accuracy = 0.951900
 epoch 48/200. Took 0.87154 seconds. 
  Full-batch training loss = 0.005144, test loss = 0.191395
  Training set accuracy = 1.000000, Test set accuracy = 0.952700
 epoch 49/200. Took 0.86462 seconds. 
  Full-batch training loss = 0.004971, test loss = 0.191756
  Training set accuracy = 1.000000, Test set accuracy = 0.952000
 epoch 50/200. Took 0.87966 seconds. 
  Full-batch training loss = 0.004850, test loss = 0.191465
  Training set accuracy = 1.000000, Test set accuracy = 0.951600
 epoch 51/200. Took 0.87072 seconds. 
  Full-batch training loss = 0.004671, test loss = 0.192311
  Training set accuracy = 1.000000, Test set accuracy = 0.952200
 epoch 52/200. Took 0.8707 seconds. 
  Full-batch training loss = 0.004570, test loss = 0.192748
  Training set accuracy = 1.000000, Test set accuracy = 0.952500
 epoch 53/200. Took 0.86729 seconds. 
  Full-batch training loss = 0.004449, test loss = 0.192878
  Training set accuracy = 1.000000, Test set accuracy = 0.952700
 epoch 54/200. Took 0.86403 seconds. 
  Full-batch training loss = 0.004291, test loss = 0.192138
  Training set accuracy = 1.000000, Test set accuracy = 0.952500
 epoch 55/200. Took 0.87952 seconds. 
  Full-batch training loss = 0.004178, test loss = 0.192736
  Training set accuracy = 1.000000, Test set accuracy = 0.952300
 epoch 56/200. Took 0.87797 seconds. 
  Full-batch training loss = 0.004070, test loss = 0.193215
  Training set accuracy = 1.000000, Test set accuracy = 0.952900
 epoch 57/200. Took 0.87933 seconds. 
  Full-batch training loss = 0.004053, test loss = 0.193374
  Training set accuracy = 1.000000, Test set accuracy = 0.951900
 epoch 58/200. Took 0.86991 seconds. 
  Full-batch training loss = 0.003873, test loss = 0.193672
  Training set accuracy = 1.000000, Test set accuracy = 0.952500
 epoch 59/200. Took 0.8706 seconds. 
  Full-batch training loss = 0.003797, test loss = 0.193826
  Training set accuracy = 1.000000, Test set accuracy = 0.952800
 epoch 60/200. Took 0.85746 seconds. 
  Full-batch training loss = 0.003690, test loss = 0.194041
  Training set accuracy = 1.000000, Test set accuracy = 0.952500
 epoch 61/200. Took 0.86197 seconds. 
  Full-batch training loss = 0.003611, test loss = 0.194201
  Training set accuracy = 1.000000, Test set accuracy = 0.952300
 epoch 62/200. Took 0.86757 seconds. 
  Full-batch training loss = 0.003525, test loss = 0.194522
  Training set accuracy = 1.000000, Test set accuracy = 0.953000
 epoch 63/200. Took 0.86241 seconds. 
  Full-batch training loss = 0.003456, test loss = 0.194919
  Training set accuracy = 1.000000, Test set accuracy = 0.952500
 epoch 64/200. Took 0.86004 seconds. 
  Full-batch training loss = 0.003377, test loss = 0.195280
  Training set accuracy = 1.000000, Test set accuracy = 0.952900
 epoch 65/200. Took 0.92065 seconds. 
  Full-batch training loss = 0.003312, test loss = 0.195466
  Training set accuracy = 1.000000, Test set accuracy = 0.952500
 epoch 66/200. Took 0.87047 seconds. 
  Full-batch training loss = 0.003228, test loss = 0.195498
  Training set accuracy = 1.000000, Test set accuracy = 0.952500
 epoch 67/200. Took 0.87234 seconds. 
  Full-batch training loss = 0.003174, test loss = 0.195998
  Training set accuracy = 1.000000, Test set accuracy = 0.953000
 epoch 68/200. Took 0.86078 seconds. 
  Full-batch training loss = 0.003101, test loss = 0.196115
  Training set accuracy = 1.000000, Test set accuracy = 0.953100
 epoch 69/200. Took 0.86892 seconds. 
  Full-batch training loss = 0.003037, test loss = 0.196053
  Training set accuracy = 1.000000, Test set accuracy = 0.953300
 epoch 70/200. Took 0.86273 seconds. 
  Full-batch training loss = 0.002985, test loss = 0.196017
  Training set accuracy = 1.000000, Test set accuracy = 0.952800
 epoch 71/200. Took 0.86099 seconds. 
  Full-batch training loss = 0.002927, test loss = 0.196760
  Training set accuracy = 1.000000, Test set accuracy = 0.952600
 epoch 72/200. Took 0.87526 seconds. 
  Full-batch training loss = 0.002867, test loss = 0.197191
  Training set accuracy = 1.000000, Test set accuracy = 0.953300
 epoch 73/200. Took 0.86335 seconds. 
  Full-batch training loss = 0.002808, test loss = 0.197273
  Training set accuracy = 1.000000, Test set accuracy = 0.953300
 epoch 74/200. Took 0.8756 seconds. 
  Full-batch training loss = 0.002765, test loss = 0.197375
  Training set accuracy = 1.000000, Test set accuracy = 0.953200
 epoch 75/200. Took 0.85267 seconds. 
  Full-batch training loss = 0.002716, test loss = 0.197273
  Training set accuracy = 1.000000, Test set accuracy = 0.953500
 epoch 76/200. Took 0.87341 seconds. 
  Full-batch training loss = 0.002661, test loss = 0.197953
  Training set accuracy = 1.000000, Test set accuracy = 0.953200
 epoch 77/200. Took 0.85754 seconds. 
  Full-batch training loss = 0.002611, test loss = 0.198090
  Training set accuracy = 1.000000, Test set accuracy = 0.953100
 epoch 78/200. Took 0.87094 seconds. 
  Full-batch training loss = 0.002582, test loss = 0.198239
  Training set accuracy = 1.000000, Test set accuracy = 0.952600
 epoch 79/200. Took 0.87746 seconds. 
  Full-batch training loss = 0.002524, test loss = 0.198122
  Training set accuracy = 1.000000, Test set accuracy = 0.953300
 epoch 80/200. Took 0.86746 seconds. 
  Full-batch training loss = 0.002484, test loss = 0.198447
  Training set accuracy = 1.000000, Test set accuracy = 0.953100
 epoch 81/200. Took 0.86924 seconds. 
  Full-batch training loss = 0.002437, test loss = 0.198769
  Training set accuracy = 1.000000, Test set accuracy = 0.953200
 epoch 82/200. Took 0.87666 seconds. 
  Full-batch training loss = 0.002402, test loss = 0.198890
  Training set accuracy = 1.000000, Test set accuracy = 0.953300
 epoch 83/200. Took 0.87285 seconds. 
  Full-batch training loss = 0.002361, test loss = 0.199415
  Training set accuracy = 1.000000, Test set accuracy = 0.953200
 epoch 84/200. Took 0.87663 seconds. 
  Full-batch training loss = 0.002319, test loss = 0.199203
  Training set accuracy = 1.000000, Test set accuracy = 0.953200
 epoch 85/200. Took 0.87377 seconds. 
  Full-batch training loss = 0.002285, test loss = 0.199396
  Training set accuracy = 1.000000, Test set accuracy = 0.953200
 epoch 86/200. Took 0.85795 seconds. 
  Full-batch training loss = 0.002249, test loss = 0.199770
  Training set accuracy = 1.000000, Test set accuracy = 0.952800
 epoch 87/200. Took 0.87357 seconds. 
  Full-batch training loss = 0.002215, test loss = 0.199780
  Training set accuracy = 1.000000, Test set accuracy = 0.953000
 epoch 88/200. Took 0.86354 seconds. 
  Full-batch training loss = 0.002180, test loss = 0.200015
  Training set accuracy = 1.000000, Test set accuracy = 0.953400
 epoch 89/200. Took 0.86082 seconds. 
  Full-batch training loss = 0.002148, test loss = 0.200300
  Training set accuracy = 1.000000, Test set accuracy = 0.953300
 epoch 90/200. Took 0.88087 seconds. 
  Full-batch training loss = 0.002115, test loss = 0.200263
  Training set accuracy = 1.000000, Test set accuracy = 0.953400
 epoch 91/200. Took 0.87099 seconds. 
  Full-batch training loss = 0.002083, test loss = 0.200602
  Training set accuracy = 1.000000, Test set accuracy = 0.953500
 epoch 92/200. Took 0.86145 seconds. 
  Full-batch training loss = 0.002058, test loss = 0.200787
  Training set accuracy = 1.000000, Test set accuracy = 0.952700
 epoch 93/200. Took 0.88145 seconds. 
  Full-batch training loss = 0.002023, test loss = 0.200721
  Training set accuracy = 1.000000, Test set accuracy = 0.953100
 epoch 94/200. Took 0.87588 seconds. 
  Full-batch training loss = 0.001996, test loss = 0.200993
  Training set accuracy = 1.000000, Test set accuracy = 0.953600
 epoch 95/200. Took 0.86855 seconds. 
  Full-batch training loss = 0.001968, test loss = 0.201098
  Training set accuracy = 1.000000, Test set accuracy = 0.953500
 epoch 96/200. Took 0.88256 seconds. 
  Full-batch training loss = 0.001940, test loss = 0.201550
  Training set accuracy = 1.000000, Test set accuracy = 0.953500
 epoch 97/200. Took 0.8715 seconds. 
  Full-batch training loss = 0.001913, test loss = 0.201517
  Training set accuracy = 1.000000, Test set accuracy = 0.953300
 epoch 98/200. Took 0.86956 seconds. 
  Full-batch training loss = 0.001888, test loss = 0.201538
  Training set accuracy = 1.000000, Test set accuracy = 0.953400
 epoch 99/200. Took 0.87172 seconds. 
  Full-batch training loss = 0.001862, test loss = 0.201937
  Training set accuracy = 1.000000, Test set accuracy = 0.953100
 epoch 100/200. Took 0.85481 seconds. 
  Full-batch training loss = 0.001838, test loss = 0.202135
  Training set accuracy = 1.000000, Test set accuracy = 0.953300
 epoch 101/200. Took 0.86202 seconds. 
  Full-batch training loss = 0.001814, test loss = 0.202226
  Training set accuracy = 1.000000, Test set accuracy = 0.953500
 epoch 102/200. Took 0.86619 seconds. 
  Full-batch training loss = 0.001790, test loss = 0.202303
  Training set accuracy = 1.000000, Test set accuracy = 0.953500
 epoch 103/200. Took 0.86471 seconds. 
  Full-batch training loss = 0.001769, test loss = 0.202553
  Training set accuracy = 1.000000, Test set accuracy = 0.953300
 epoch 104/200. Took 0.86473 seconds. 
  Full-batch training loss = 0.001745, test loss = 0.202576
  Training set accuracy = 1.000000, Test set accuracy = 0.953700
 epoch 105/200. Took 0.86186 seconds. 
  Full-batch training loss = 0.001724, test loss = 0.202781
  Training set accuracy = 1.000000, Test set accuracy = 0.953400
 epoch 106/200. Took 0.8714 seconds. 
  Full-batch training loss = 0.001702, test loss = 0.202851
  Training set accuracy = 1.000000, Test set accuracy = 0.953700
 epoch 107/200. Took 0.864 seconds. 
  Full-batch training loss = 0.001680, test loss = 0.203294
  Training set accuracy = 1.000000, Test set accuracy = 0.953500
 epoch 108/200. Took 0.86707 seconds. 
  Full-batch training loss = 0.001660, test loss = 0.203318
  Training set accuracy = 1.000000, Test set accuracy = 0.953700
 epoch 109/200. Took 0.8781 seconds. 
  Full-batch training loss = 0.001642, test loss = 0.203419
  Training set accuracy = 1.000000, Test set accuracy = 0.953500
 epoch 110/200. Took 0.88349 seconds. 
  Full-batch training loss = 0.001620, test loss = 0.203487
  Training set accuracy = 1.000000, Test set accuracy = 0.953500
 epoch 111/200. Took 0.87872 seconds. 
  Full-batch training loss = 0.001601, test loss = 0.203658
  Training set accuracy = 1.000000, Test set accuracy = 0.953400
 epoch 112/200. Took 0.87076 seconds. 
  Full-batch training loss = 0.001582, test loss = 0.203796
  Training set accuracy = 1.000000, Test set accuracy = 0.953700
 epoch 113/200. Took 0.87303 seconds. 
  Full-batch training loss = 0.001565, test loss = 0.203885
  Training set accuracy = 1.000000, Test set accuracy = 0.953700
 epoch 114/200. Took 0.87578 seconds. 
  Full-batch training loss = 0.001546, test loss = 0.204098
  Training set accuracy = 1.000000, Test set accuracy = 0.953500
 epoch 115/200. Took 0.86464 seconds. 
  Full-batch training loss = 0.001530, test loss = 0.204281
  Training set accuracy = 1.000000, Test set accuracy = 0.953500
 epoch 116/200. Took 0.8639 seconds. 
  Full-batch training loss = 0.001512, test loss = 0.204363
  Training set accuracy = 1.000000, Test set accuracy = 0.953700
 epoch 117/200. Took 0.85813 seconds. 
  Full-batch training loss = 0.001496, test loss = 0.204592
  Training set accuracy = 1.000000, Test set accuracy = 0.953500
 epoch 118/200. Took 0.86676 seconds. 
  Full-batch training loss = 0.001479, test loss = 0.204602
  Training set accuracy = 1.000000, Test set accuracy = 0.953600
 epoch 119/200. Took 0.86826 seconds. 
  Full-batch training loss = 0.001462, test loss = 0.204863
  Training set accuracy = 1.000000, Test set accuracy = 0.953800
 epoch 120/200. Took 0.86012 seconds. 
  Full-batch training loss = 0.001449, test loss = 0.204901
  Training set accuracy = 1.000000, Test set accuracy = 0.953500
 epoch 121/200. Took 0.86227 seconds. 
  Full-batch training loss = 0.001431, test loss = 0.205013
  Training set accuracy = 1.000000, Test set accuracy = 0.953700
 epoch 122/200. Took 0.86721 seconds. 
  Full-batch training loss = 0.001416, test loss = 0.205251
  Training set accuracy = 1.000000, Test set accuracy = 0.953600
 epoch 123/200. Took 0.88542 seconds. 
  Full-batch training loss = 0.001401, test loss = 0.205269
  Training set accuracy = 1.000000, Test set accuracy = 0.953600
 epoch 124/200. Took 0.86805 seconds. 
  Full-batch training loss = 0.001386, test loss = 0.205441
  Training set accuracy = 1.000000, Test set accuracy = 0.953800
 epoch 125/200. Took 0.86348 seconds. 
  Full-batch training loss = 0.001373, test loss = 0.205595
  Training set accuracy = 1.000000, Test set accuracy = 0.953700
 epoch 126/200. Took 0.87417 seconds. 
  Full-batch training loss = 0.001358, test loss = 0.205587
  Training set accuracy = 1.000000, Test set accuracy = 0.953600
 epoch 127/200. Took 0.88343 seconds. 
  Full-batch training loss = 0.001344, test loss = 0.205738
  Training set accuracy = 1.000000, Test set accuracy = 0.953500
 epoch 128/200. Took 0.86366 seconds. 
  Full-batch training loss = 0.001331, test loss = 0.206041
  Training set accuracy = 1.000000, Test set accuracy = 0.953700
 epoch 129/200. Took 0.86396 seconds. 
  Full-batch training loss = 0.001317, test loss = 0.205971
  Training set accuracy = 1.000000, Test set accuracy = 0.953600
 epoch 130/200. Took 0.87754 seconds. 
  Full-batch training loss = 0.001304, test loss = 0.206095
  Training set accuracy = 1.000000, Test set accuracy = 0.953800
 epoch 131/200. Took 0.87783 seconds. 
  Full-batch training loss = 0.001292, test loss = 0.206309
  Training set accuracy = 1.000000, Test set accuracy = 0.953800
 epoch 132/200. Took 0.86343 seconds. 
  Full-batch training loss = 0.001279, test loss = 0.206456
  Training set accuracy = 1.000000, Test set accuracy = 0.953800
 epoch 133/200. Took 0.86798 seconds. 
  Full-batch training loss = 0.001267, test loss = 0.206380
  Training set accuracy = 1.000000, Test set accuracy = 0.953600
 epoch 134/200. Took 0.86533 seconds. 
  Full-batch training loss = 0.001255, test loss = 0.206759
  Training set accuracy = 1.000000, Test set accuracy = 0.953700
 epoch 135/200. Took 0.86665 seconds. 
  Full-batch training loss = 0.001242, test loss = 0.206833
  Training set accuracy = 1.000000, Test set accuracy = 0.953700
 epoch 136/200. Took 0.87173 seconds. 
  Full-batch training loss = 0.001232, test loss = 0.206703
  Training set accuracy = 1.000000, Test set accuracy = 0.953400
 epoch 137/200. Took 0.86464 seconds. 
  Full-batch training loss = 0.001219, test loss = 0.206899
  Training set accuracy = 1.000000, Test set accuracy = 0.953500
 epoch 138/200. Took 0.8693 seconds. 
  Full-batch training loss = 0.001208, test loss = 0.207118
  Training set accuracy = 1.000000, Test set accuracy = 0.953700
 epoch 139/200. Took 0.95144 seconds. 
  Full-batch training loss = 0.001197, test loss = 0.207077
  Training set accuracy = 1.000000, Test set accuracy = 0.953600
 epoch 140/200. Took 0.8821 seconds. 
  Full-batch training loss = 0.001186, test loss = 0.207296
  Training set accuracy = 1.000000, Test set accuracy = 0.953600
 epoch 141/200. Took 0.86925 seconds. 
  Full-batch training loss = 0.001175, test loss = 0.207437
  Training set accuracy = 1.000000, Test set accuracy = 0.953700
 epoch 142/200. Took 0.87932 seconds. 
  Full-batch training loss = 0.001164, test loss = 0.207489
  Training set accuracy = 1.000000, Test set accuracy = 0.953700
 epoch 143/200. Took 0.8614 seconds. 
  Full-batch training loss = 0.001154, test loss = 0.207577
  Training set accuracy = 1.000000, Test set accuracy = 0.953800
 epoch 144/200. Took 0.86786 seconds. 
  Full-batch training loss = 0.001144, test loss = 0.207763
  Training set accuracy = 1.000000, Test set accuracy = 0.953400
 epoch 145/200. Took 0.87224 seconds. 
  Full-batch training loss = 0.001134, test loss = 0.207941
  Training set accuracy = 1.000000, Test set accuracy = 0.953700
 epoch 146/200. Took 0.86835 seconds. 
  Full-batch training loss = 0.001124, test loss = 0.208022
  Training set accuracy = 1.000000, Test set accuracy = 0.953600
 epoch 147/200. Took 0.87238 seconds. 
  Full-batch training loss = 0.001114, test loss = 0.208062
  Training set accuracy = 1.000000, Test set accuracy = 0.953600
 epoch 148/200. Took 0.87941 seconds. 
  Full-batch training loss = 0.001104, test loss = 0.208226
  Training set accuracy = 1.000000, Test set accuracy = 0.953500
 epoch 149/200. Took 0.86492 seconds. 
  Full-batch training loss = 0.001095, test loss = 0.208331
  Training set accuracy = 1.000000, Test set accuracy = 0.953800
 epoch 150/200. Took 0.86622 seconds. 
  Full-batch training loss = 0.001086, test loss = 0.208457
  Training set accuracy = 1.000000, Test set accuracy = 0.953500
 epoch 151/200. Took 0.88146 seconds. 
  Full-batch training loss = 0.001076, test loss = 0.208453
  Training set accuracy = 1.000000, Test set accuracy = 0.953600
 epoch 152/200. Took 0.87445 seconds. 
  Full-batch training loss = 0.001067, test loss = 0.208540
  Training set accuracy = 1.000000, Test set accuracy = 0.953600
 epoch 153/200. Took 0.86393 seconds. 
  Full-batch training loss = 0.001058, test loss = 0.208725
  Training set accuracy = 1.000000, Test set accuracy = 0.953700
 epoch 154/200. Took 0.86112 seconds. 
  Full-batch training loss = 0.001050, test loss = 0.208849
  Training set accuracy = 1.000000, Test set accuracy = 0.953700
 epoch 155/200. Took 0.86326 seconds. 
  Full-batch training loss = 0.001041, test loss = 0.208944
  Training set accuracy = 1.000000, Test set accuracy = 0.953600
 epoch 156/200. Took 0.86935 seconds. 
  Full-batch training loss = 0.001032, test loss = 0.209102
  Training set accuracy = 1.000000, Test set accuracy = 0.953800
 epoch 157/200. Took 0.87672 seconds. 
  Full-batch training loss = 0.001024, test loss = 0.209074
  Training set accuracy = 1.000000, Test set accuracy = 0.953600
 epoch 158/200. Took 0.86915 seconds. 
  Full-batch training loss = 0.001016, test loss = 0.209342
  Training set accuracy = 1.000000, Test set accuracy = 0.953700
 epoch 159/200. Took 0.86494 seconds. 
  Full-batch training loss = 0.001008, test loss = 0.209195
  Training set accuracy = 1.000000, Test set accuracy = 0.953600
 epoch 160/200. Took 0.86657 seconds. 
  Full-batch training loss = 0.001000, test loss = 0.209469
  Training set accuracy = 1.000000, Test set accuracy = 0.953500
 epoch 161/200. Took 0.86365 seconds. 
  Full-batch training loss = 0.000992, test loss = 0.209566
  Training set accuracy = 1.000000, Test set accuracy = 0.953700
 epoch 162/200. Took 0.88788 seconds. 
  Full-batch training loss = 0.000984, test loss = 0.209699
  Training set accuracy = 1.000000, Test set accuracy = 0.953400
 epoch 163/200. Took 0.86606 seconds. 
  Full-batch training loss = 0.000977, test loss = 0.209755
  Training set accuracy = 1.000000, Test set accuracy = 0.953500
 epoch 164/200. Took 0.86989 seconds. 
  Full-batch training loss = 0.000969, test loss = 0.209812
  Training set accuracy = 1.000000, Test set accuracy = 0.953200
 epoch 165/200. Took 0.8601 seconds. 
  Full-batch training loss = 0.000962, test loss = 0.209936
  Training set accuracy = 1.000000, Test set accuracy = 0.953800
 epoch 166/200. Took 0.86169 seconds. 
  Full-batch training loss = 0.000954, test loss = 0.209978
  Training set accuracy = 1.000000, Test set accuracy = 0.953600
 epoch 167/200. Took 0.86009 seconds. 
  Full-batch training loss = 0.000947, test loss = 0.210094
  Training set accuracy = 1.000000, Test set accuracy = 0.953600
 epoch 168/200. Took 0.86913 seconds. 
  Full-batch training loss = 0.000940, test loss = 0.210220
  Training set accuracy = 1.000000, Test set accuracy = 0.953700
 epoch 169/200. Took 0.86805 seconds. 
  Full-batch training loss = 0.000933, test loss = 0.210267
  Training set accuracy = 1.000000, Test set accuracy = 0.953700
 epoch 170/200. Took 0.87592 seconds. 
  Full-batch training loss = 0.000926, test loss = 0.210365
  Training set accuracy = 1.000000, Test set accuracy = 0.953600
 epoch 171/200. Took 0.87364 seconds. 
  Full-batch training loss = 0.000919, test loss = 0.210431
  Training set accuracy = 1.000000, Test set accuracy = 0.953900
 epoch 172/200. Took 0.86856 seconds. 
  Full-batch training loss = 0.000912, test loss = 0.210608
  Training set accuracy = 1.000000, Test set accuracy = 0.953600
 epoch 173/200. Took 0.86343 seconds. 
  Full-batch training loss = 0.000906, test loss = 0.210763
  Training set accuracy = 1.000000, Test set accuracy = 0.953700
 epoch 174/200. Took 0.86058 seconds. 
  Full-batch training loss = 0.000899, test loss = 0.210788
  Training set accuracy = 1.000000, Test set accuracy = 0.953800
 epoch 175/200. Took 0.91724 seconds. 
  Full-batch training loss = 0.000893, test loss = 0.210911
  Training set accuracy = 1.000000, Test set accuracy = 0.953800
 epoch 176/200. Took 0.87479 seconds. 
  Full-batch training loss = 0.000886, test loss = 0.210926
  Training set accuracy = 1.000000, Test set accuracy = 0.953900
 epoch 177/200. Took 0.86259 seconds. 
  Full-batch training loss = 0.000880, test loss = 0.211073
  Training set accuracy = 1.000000, Test set accuracy = 0.953600
 epoch 178/200. Took 0.85726 seconds. 
  Full-batch training loss = 0.000874, test loss = 0.211134
  Training set accuracy = 1.000000, Test set accuracy = 0.953600
 epoch 179/200. Took 0.8755 seconds. 
  Full-batch training loss = 0.000868, test loss = 0.211281
  Training set accuracy = 1.000000, Test set accuracy = 0.953600
 epoch 180/200. Took 0.86299 seconds. 
  Full-batch training loss = 0.000862, test loss = 0.211401
  Training set accuracy = 1.000000, Test set accuracy = 0.953700
 epoch 181/200. Took 0.86202 seconds. 
  Full-batch training loss = 0.000856, test loss = 0.211389
  Training set accuracy = 1.000000, Test set accuracy = 0.953600
 epoch 182/200. Took 0.86659 seconds. 
  Full-batch training loss = 0.000850, test loss = 0.211492
  Training set accuracy = 1.000000, Test set accuracy = 0.953500
 epoch 183/200. Took 0.87377 seconds. 
  Full-batch training loss = 0.000844, test loss = 0.211631
  Training set accuracy = 1.000000, Test set accuracy = 0.953800
 epoch 184/200. Took 0.86165 seconds. 
  Full-batch training loss = 0.000838, test loss = 0.211708
  Training set accuracy = 1.000000, Test set accuracy = 0.953800
 epoch 185/200. Took 0.88643 seconds. 
  Full-batch training loss = 0.000833, test loss = 0.211807
  Training set accuracy = 1.000000, Test set accuracy = 0.953600
 epoch 186/200. Took 0.87307 seconds. 
  Full-batch training loss = 0.000827, test loss = 0.211790
  Training set accuracy = 1.000000, Test set accuracy = 0.953800
 epoch 187/200. Took 0.87327 seconds. 
  Full-batch training loss = 0.000821, test loss = 0.211982
  Training set accuracy = 1.000000, Test set accuracy = 0.953700
 epoch 188/200. Took 0.87935 seconds. 
  Full-batch training loss = 0.000816, test loss = 0.212000
  Training set accuracy = 1.000000, Test set accuracy = 0.953800
 epoch 189/200. Took 0.86953 seconds. 
  Full-batch training loss = 0.000811, test loss = 0.212112
  Training set accuracy = 1.000000, Test set accuracy = 0.953500
 epoch 190/200. Took 0.88033 seconds. 
  Full-batch training loss = 0.000805, test loss = 0.212172
  Training set accuracy = 1.000000, Test set accuracy = 0.953800
 epoch 191/200. Took 0.87828 seconds. 
  Full-batch training loss = 0.000800, test loss = 0.212253
  Training set accuracy = 1.000000, Test set accuracy = 0.953600
 epoch 192/200. Took 0.86921 seconds. 
  Full-batch training loss = 0.000795, test loss = 0.212386
  Training set accuracy = 1.000000, Test set accuracy = 0.953600
 epoch 193/200. Took 0.86737 seconds. 
  Full-batch training loss = 0.000789, test loss = 0.212412
  Training set accuracy = 1.000000, Test set accuracy = 0.953600
 epoch 194/200. Took 0.87124 seconds. 
  Full-batch training loss = 0.000784, test loss = 0.212510
  Training set accuracy = 1.000000, Test set accuracy = 0.953900
 epoch 195/200. Took 0.8705 seconds. 
  Full-batch training loss = 0.000779, test loss = 0.212583
  Training set accuracy = 1.000000, Test set accuracy = 0.953800
 epoch 196/200. Took 0.87169 seconds. 
  Full-batch training loss = 0.000774, test loss = 0.212675
  Training set accuracy = 1.000000, Test set accuracy = 0.953600
 epoch 197/200. Took 0.87465 seconds. 
  Full-batch training loss = 0.000769, test loss = 0.212704
  Training set accuracy = 1.000000, Test set accuracy = 0.953500
 epoch 198/200. Took 0.87 seconds. 
  Full-batch training loss = 0.000765, test loss = 0.212918
  Training set accuracy = 1.000000, Test set accuracy = 0.953800
 epoch 199/200. Took 0.87008 seconds. 
  Full-batch training loss = 0.000760, test loss = 0.212974
  Training set accuracy = 1.000000, Test set accuracy = 0.953600
 epoch 200/200. Took 0.88104 seconds. 
  Full-batch training loss = 0.000755, test loss = 0.213006
  Training set accuracy = 1.000000, Test set accuracy = 0.953700
Elapsed time is 457.243932 seconds.
End Training
