==========================================================
  Architecture is 500 500 500 // 3 layer x 500 neuron
----------------------------------------------------------
Execution 35/270
----------------------------------------------------------
* ReducedData	2000
* PreTrainRBM	true
	-> Epochs	50
	-> LearningRate	0.10
* Fine-tunning
	-> Epochs	200
	-> LearningRate	0.20
==========================================================
Start Training
Number of training examples: 2000  BatchSize: 100
Number of inputs: 784  Number of outputs: 10
Number of hidden layers: 3 (500  500  500)
Training binary-binary RBM in layer 1 (784  500) with CD1 for 50 epochs
 epoch 1/50. Took 0.19854 seconds. Average reconstruction error is: 50.4495
 epoch 2/50. Took 0.19585 seconds. Average reconstruction error is: 26.6193
 epoch 3/50. Took 0.19822 seconds. Average reconstruction error is: 21.4385
 epoch 4/50. Took 0.19801 seconds. Average reconstruction error is: 18.7196
 epoch 5/50. Took 0.19967 seconds. Average reconstruction error is: 17.0049
 epoch 6/50. Took 0.19909 seconds. Average reconstruction error is: 15.7515
 epoch 7/50. Took 0.19933 seconds. Average reconstruction error is: 14.7013
 epoch 8/50. Took 0.19667 seconds. Average reconstruction error is: 13.9018
 epoch 9/50. Took 0.19884 seconds. Average reconstruction error is: 13.2855
 epoch 10/50. Took 0.20162 seconds. Average reconstruction error is: 12.7239
 epoch 11/50. Took 0.20078 seconds. Average reconstruction error is: 12.2451
 epoch 12/50. Took 0.19954 seconds. Average reconstruction error is: 11.7787
 epoch 13/50. Took 0.20171 seconds. Average reconstruction error is: 11.4485
 epoch 14/50. Took 0.19965 seconds. Average reconstruction error is: 11.0732
 epoch 15/50. Took 0.20118 seconds. Average reconstruction error is: 10.8199
 epoch 16/50. Took 0.19888 seconds. Average reconstruction error is: 10.5723
 epoch 17/50. Took 0.20021 seconds. Average reconstruction error is: 10.2002
 epoch 18/50. Took 0.19902 seconds. Average reconstruction error is: 9.9374
 epoch 19/50. Took 0.1997 seconds. Average reconstruction error is: 9.7433
 epoch 20/50. Took 0.19661 seconds. Average reconstruction error is: 9.6018
 epoch 21/50. Took 0.20204 seconds. Average reconstruction error is: 9.3292
 epoch 22/50. Took 0.20754 seconds. Average reconstruction error is: 9.2929
 epoch 23/50. Took 0.20047 seconds. Average reconstruction error is: 9.1318
 epoch 24/50. Took 0.19974 seconds. Average reconstruction error is: 8.9301
 epoch 25/50. Took 0.19784 seconds. Average reconstruction error is: 8.7587
 epoch 26/50. Took 0.20104 seconds. Average reconstruction error is: 8.6923
 epoch 27/50. Took 0.19737 seconds. Average reconstruction error is: 8.5098
 epoch 28/50. Took 0.19923 seconds. Average reconstruction error is: 8.4883
 epoch 29/50. Took 0.20052 seconds. Average reconstruction error is: 8.3408
 epoch 30/50. Took 0.19991 seconds. Average reconstruction error is: 8.241
 epoch 31/50. Took 0.19957 seconds. Average reconstruction error is: 8.1677
 epoch 32/50. Took 0.20013 seconds. Average reconstruction error is: 8.0277
 epoch 33/50. Took 0.20169 seconds. Average reconstruction error is: 7.9529
 epoch 34/50. Took 0.20076 seconds. Average reconstruction error is: 7.9135
 epoch 35/50. Took 0.20051 seconds. Average reconstruction error is: 7.8744
 epoch 36/50. Took 0.19782 seconds. Average reconstruction error is: 7.7693
 epoch 37/50. Took 0.19988 seconds. Average reconstruction error is: 7.6849
 epoch 38/50. Took 0.20208 seconds. Average reconstruction error is: 7.6112
 epoch 39/50. Took 0.2001 seconds. Average reconstruction error is: 7.5079
 epoch 40/50. Took 0.20093 seconds. Average reconstruction error is: 7.4918
 epoch 41/50. Took 0.19918 seconds. Average reconstruction error is: 7.3739
 epoch 42/50. Took 0.2029 seconds. Average reconstruction error is: 7.3883
 epoch 43/50. Took 0.20061 seconds. Average reconstruction error is: 7.3526
 epoch 44/50. Took 0.20097 seconds. Average reconstruction error is: 7.2714
 epoch 45/50. Took 0.20168 seconds. Average reconstruction error is: 7.1806
 epoch 46/50. Took 0.20063 seconds. Average reconstruction error is: 7.1293
 epoch 47/50. Took 0.20518 seconds. Average reconstruction error is: 7.1369
 epoch 48/50. Took 0.20777 seconds. Average reconstruction error is: 7.1231
 epoch 49/50. Took 0.20638 seconds. Average reconstruction error is: 7.0514
 epoch 50/50. Took 0.20067 seconds. Average reconstruction error is: 7.0176
Training binary-binary RBM in layer 2 (500  500) with CD1 for 50 epochs
 epoch 1/50. Took 0.1306 seconds. Average reconstruction error is: 43.6933
 epoch 2/50. Took 0.13325 seconds. Average reconstruction error is: 25.2438
 epoch 3/50. Took 0.13393 seconds. Average reconstruction error is: 20.2753
 epoch 4/50. Took 0.1351 seconds. Average reconstruction error is: 17.3153
 epoch 5/50. Took 0.13432 seconds. Average reconstruction error is: 15.2774
 epoch 6/50. Took 0.13316 seconds. Average reconstruction error is: 14.0008
 epoch 7/50. Took 0.13351 seconds. Average reconstruction error is: 13.0333
 epoch 8/50. Took 0.13377 seconds. Average reconstruction error is: 12.2594
 epoch 9/50. Took 0.13122 seconds. Average reconstruction error is: 11.7588
 epoch 10/50. Took 0.13412 seconds. Average reconstruction error is: 11.2235
 epoch 11/50. Took 0.1348 seconds. Average reconstruction error is: 10.9065
 epoch 12/50. Took 0.13487 seconds. Average reconstruction error is: 10.534
 epoch 13/50. Took 0.13382 seconds. Average reconstruction error is: 10.3068
 epoch 14/50. Took 0.13392 seconds. Average reconstruction error is: 10.0038
 epoch 15/50. Took 0.13205 seconds. Average reconstruction error is: 9.8235
 epoch 16/50. Took 0.13463 seconds. Average reconstruction error is: 9.6492
 epoch 17/50. Took 0.1367 seconds. Average reconstruction error is: 9.4985
 epoch 18/50. Took 0.13489 seconds. Average reconstruction error is: 9.2603
 epoch 19/50. Took 0.13223 seconds. Average reconstruction error is: 9.1331
 epoch 20/50. Took 0.13518 seconds. Average reconstruction error is: 8.9658
 epoch 21/50. Took 0.13292 seconds. Average reconstruction error is: 8.8625
 epoch 22/50. Took 0.13365 seconds. Average reconstruction error is: 8.7586
 epoch 23/50. Took 0.13349 seconds. Average reconstruction error is: 8.6474
 epoch 24/50. Took 0.13187 seconds. Average reconstruction error is: 8.5746
 epoch 25/50. Took 0.1325 seconds. Average reconstruction error is: 8.4992
 epoch 26/50. Took 0.13183 seconds. Average reconstruction error is: 8.3962
 epoch 27/50. Took 0.13082 seconds. Average reconstruction error is: 8.2597
 epoch 28/50. Took 0.13278 seconds. Average reconstruction error is: 8.3131
 epoch 29/50. Took 0.13297 seconds. Average reconstruction error is: 8.3139
 epoch 30/50. Took 0.13137 seconds. Average reconstruction error is: 8.1667
 epoch 31/50. Took 0.1335 seconds. Average reconstruction error is: 8.074
 epoch 32/50. Took 0.13342 seconds. Average reconstruction error is: 8.016
 epoch 33/50. Took 0.1328 seconds. Average reconstruction error is: 7.9287
 epoch 34/50. Took 0.13252 seconds. Average reconstruction error is: 7.8802
 epoch 35/50. Took 0.13332 seconds. Average reconstruction error is: 7.865
 epoch 36/50. Took 0.13254 seconds. Average reconstruction error is: 7.8006
 epoch 37/50. Took 0.13154 seconds. Average reconstruction error is: 7.7498
 epoch 38/50. Took 0.13235 seconds. Average reconstruction error is: 7.7227
 epoch 39/50. Took 0.1345 seconds. Average reconstruction error is: 7.7117
 epoch 40/50. Took 0.13285 seconds. Average reconstruction error is: 7.6299
 epoch 41/50. Took 0.13082 seconds. Average reconstruction error is: 7.6391
 epoch 42/50. Took 0.13116 seconds. Average reconstruction error is: 7.5889
 epoch 43/50. Took 0.13345 seconds. Average reconstruction error is: 7.5494
 epoch 44/50. Took 0.1343 seconds. Average reconstruction error is: 7.5056
 epoch 45/50. Took 0.13278 seconds. Average reconstruction error is: 7.4849
 epoch 46/50. Took 0.13266 seconds. Average reconstruction error is: 7.451
 epoch 47/50. Took 0.13348 seconds. Average reconstruction error is: 7.4034
 epoch 48/50. Took 0.13155 seconds. Average reconstruction error is: 7.4156
 epoch 49/50. Took 0.13281 seconds. Average reconstruction error is: 7.3486
 epoch 50/50. Took 0.13107 seconds. Average reconstruction error is: 7.3513
Training binary-binary RBM in layer 3 (500  500) with CD1 for 50 epochs
 epoch 1/50. Took 0.13534 seconds. Average reconstruction error is: 35.2477
 epoch 2/50. Took 0.13547 seconds. Average reconstruction error is: 17.3838
 epoch 3/50. Took 0.13668 seconds. Average reconstruction error is: 13.3393
 epoch 4/50. Took 0.13776 seconds. Average reconstruction error is: 11.2036
 epoch 5/50. Took 0.13712 seconds. Average reconstruction error is: 9.9785
 epoch 6/50. Took 0.13872 seconds. Average reconstruction error is: 9.1088
 epoch 7/50. Took 0.1372 seconds. Average reconstruction error is: 8.4696
 epoch 8/50. Took 0.13518 seconds. Average reconstruction error is: 8.0069
 epoch 9/50. Took 0.1372 seconds. Average reconstruction error is: 7.7109
 epoch 10/50. Took 0.13795 seconds. Average reconstruction error is: 7.3695
 epoch 11/50. Took 0.1382 seconds. Average reconstruction error is: 7.1328
 epoch 12/50. Took 0.14124 seconds. Average reconstruction error is: 6.9617
 epoch 13/50. Took 0.13741 seconds. Average reconstruction error is: 6.8319
 epoch 14/50. Took 0.13696 seconds. Average reconstruction error is: 6.7149
 epoch 15/50. Took 0.13869 seconds. Average reconstruction error is: 6.6057
 epoch 16/50. Took 0.13885 seconds. Average reconstruction error is: 6.4775
 epoch 17/50. Took 0.14264 seconds. Average reconstruction error is: 6.3624
 epoch 18/50. Took 0.14073 seconds. Average reconstruction error is: 6.3052
 epoch 19/50. Took 0.13669 seconds. Average reconstruction error is: 6.1936
 epoch 20/50. Took 0.13735 seconds. Average reconstruction error is: 6.1301
 epoch 21/50. Took 0.1392 seconds. Average reconstruction error is: 6.0882
 epoch 22/50. Took 0.13884 seconds. Average reconstruction error is: 6.0796
 epoch 23/50. Took 0.13626 seconds. Average reconstruction error is: 6.0182
 epoch 24/50. Took 0.13671 seconds. Average reconstruction error is: 5.9011
 epoch 25/50. Took 0.13933 seconds. Average reconstruction error is: 5.8962
 epoch 26/50. Took 0.13636 seconds. Average reconstruction error is: 5.8735
 epoch 27/50. Took 0.13697 seconds. Average reconstruction error is: 5.8056
 epoch 28/50. Took 0.13681 seconds. Average reconstruction error is: 5.7465
 epoch 29/50. Took 0.13721 seconds. Average reconstruction error is: 5.7256
 epoch 30/50. Took 0.13784 seconds. Average reconstruction error is: 5.6753
 epoch 31/50. Took 0.13838 seconds. Average reconstruction error is: 5.6931
 epoch 32/50. Took 0.13805 seconds. Average reconstruction error is: 5.6794
 epoch 33/50. Took 0.13777 seconds. Average reconstruction error is: 5.6524
 epoch 34/50. Took 0.14047 seconds. Average reconstruction error is: 5.6031
 epoch 35/50. Took 0.13864 seconds. Average reconstruction error is: 5.5981
 epoch 36/50. Took 0.13912 seconds. Average reconstruction error is: 5.549
 epoch 37/50. Took 0.13877 seconds. Average reconstruction error is: 5.5146
 epoch 38/50. Took 0.13497 seconds. Average reconstruction error is: 5.5094
 epoch 39/50. Took 0.13607 seconds. Average reconstruction error is: 5.5289
 epoch 40/50. Took 0.13732 seconds. Average reconstruction error is: 5.5346
 epoch 41/50. Took 0.13762 seconds. Average reconstruction error is: 5.4801
 epoch 42/50. Took 0.13578 seconds. Average reconstruction error is: 5.4935
 epoch 43/50. Took 0.13667 seconds. Average reconstruction error is: 5.3974
 epoch 44/50. Took 0.13984 seconds. Average reconstruction error is: 5.4338
 epoch 45/50. Took 0.13634 seconds. Average reconstruction error is: 5.4401
 epoch 46/50. Took 0.13544 seconds. Average reconstruction error is: 5.3584
 epoch 47/50. Took 0.1359 seconds. Average reconstruction error is: 5.3647
 epoch 48/50. Took 0.13707 seconds. Average reconstruction error is: 5.3493
 epoch 49/50. Took 0.13725 seconds. Average reconstruction error is: 5.346
 epoch 50/50. Took 0.13672 seconds. Average reconstruction error is: 5.286
Training NN  (784  500  500  500   10) with BackPropagation for 200 epochs
 epoch 1/200. Took 0.31355 seconds. 
  Full-batch training loss = 0.411915, test loss = 0.425439
  Training set accuracy = 0.877000, Test set accuracy = 0.871400
 epoch 2/200. Took 0.31584 seconds. 
  Full-batch training loss = 0.298310, test loss = 0.348172
  Training set accuracy = 0.918000, Test set accuracy = 0.899900
 epoch 3/200. Took 0.31302 seconds. 
  Full-batch training loss = 0.254314, test loss = 0.316389
  Training set accuracy = 0.931000, Test set accuracy = 0.906600
 epoch 4/200. Took 0.32316 seconds. 
  Full-batch training loss = 0.217246, test loss = 0.297256
  Training set accuracy = 0.940000, Test set accuracy = 0.913200
 epoch 5/200. Took 0.3183 seconds. 
  Full-batch training loss = 0.185263, test loss = 0.286263
  Training set accuracy = 0.951500, Test set accuracy = 0.915000
 epoch 6/200. Took 0.31629 seconds. 
  Full-batch training loss = 0.168021, test loss = 0.281328
  Training set accuracy = 0.961000, Test set accuracy = 0.916200
 epoch 7/200. Took 0.31712 seconds. 
  Full-batch training loss = 0.145510, test loss = 0.271922
  Training set accuracy = 0.970000, Test set accuracy = 0.921600
 epoch 8/200. Took 0.31436 seconds. 
  Full-batch training loss = 0.130318, test loss = 0.263362
  Training set accuracy = 0.971000, Test set accuracy = 0.922300
 epoch 9/200. Took 0.31644 seconds. 
  Full-batch training loss = 0.119203, test loss = 0.264587
  Training set accuracy = 0.975000, Test set accuracy = 0.921000
 epoch 10/200. Took 0.31715 seconds. 
  Full-batch training loss = 0.106901, test loss = 0.263752
  Training set accuracy = 0.978000, Test set accuracy = 0.921800
 epoch 11/200. Took 0.31547 seconds. 
  Full-batch training loss = 0.092553, test loss = 0.258047
  Training set accuracy = 0.985000, Test set accuracy = 0.924300
 epoch 12/200. Took 0.31938 seconds. 
  Full-batch training loss = 0.082335, test loss = 0.251866
  Training set accuracy = 0.987000, Test set accuracy = 0.925000
 epoch 13/200. Took 0.31625 seconds. 
  Full-batch training loss = 0.075415, test loss = 0.257416
  Training set accuracy = 0.990000, Test set accuracy = 0.925200
 epoch 14/200. Took 0.31804 seconds. 
  Full-batch training loss = 0.073472, test loss = 0.263037
  Training set accuracy = 0.990000, Test set accuracy = 0.925100
 epoch 15/200. Took 0.31863 seconds. 
  Full-batch training loss = 0.059693, test loss = 0.249116
  Training set accuracy = 0.993500, Test set accuracy = 0.927000
 epoch 16/200. Took 0.33048 seconds. 
  Full-batch training loss = 0.057285, test loss = 0.257435
  Training set accuracy = 0.995500, Test set accuracy = 0.925900
 epoch 17/200. Took 0.31375 seconds. 
  Full-batch training loss = 0.051369, test loss = 0.250624
  Training set accuracy = 0.996000, Test set accuracy = 0.927700
 epoch 18/200. Took 0.31897 seconds. 
  Full-batch training loss = 0.047387, test loss = 0.253201
  Training set accuracy = 0.997000, Test set accuracy = 0.927900
 epoch 19/200. Took 0.31199 seconds. 
  Full-batch training loss = 0.042213, test loss = 0.254916
  Training set accuracy = 0.996500, Test set accuracy = 0.926800
 epoch 20/200. Took 0.31764 seconds. 
  Full-batch training loss = 0.038363, test loss = 0.252282
  Training set accuracy = 0.998500, Test set accuracy = 0.927600
 epoch 21/200. Took 0.31598 seconds. 
  Full-batch training loss = 0.035515, test loss = 0.252732
  Training set accuracy = 0.998500, Test set accuracy = 0.927700
 epoch 22/200. Took 0.32039 seconds. 
  Full-batch training loss = 0.033334, test loss = 0.252774
  Training set accuracy = 0.999000, Test set accuracy = 0.927800
 epoch 23/200. Took 0.31606 seconds. 
  Full-batch training loss = 0.032396, test loss = 0.253909
  Training set accuracy = 0.999000, Test set accuracy = 0.928000
 epoch 24/200. Took 0.31559 seconds. 
  Full-batch training loss = 0.029419, test loss = 0.252786
  Training set accuracy = 1.000000, Test set accuracy = 0.928200
 epoch 25/200. Took 0.32197 seconds. 
  Full-batch training loss = 0.027272, test loss = 0.253575
  Training set accuracy = 1.000000, Test set accuracy = 0.928600
 epoch 26/200. Took 0.32257 seconds. 
  Full-batch training loss = 0.025141, test loss = 0.254098
  Training set accuracy = 1.000000, Test set accuracy = 0.929400
 epoch 27/200. Took 0.31795 seconds. 
  Full-batch training loss = 0.024196, test loss = 0.257143
  Training set accuracy = 1.000000, Test set accuracy = 0.927200
 epoch 28/200. Took 0.31474 seconds. 
  Full-batch training loss = 0.022276, test loss = 0.254779
  Training set accuracy = 1.000000, Test set accuracy = 0.929800
 epoch 29/200. Took 0.31552 seconds. 
  Full-batch training loss = 0.021065, test loss = 0.255309
  Training set accuracy = 1.000000, Test set accuracy = 0.930400
 epoch 30/200. Took 0.31537 seconds. 
  Full-batch training loss = 0.020527, test loss = 0.258721
  Training set accuracy = 1.000000, Test set accuracy = 0.929400
 epoch 31/200. Took 0.31954 seconds. 
  Full-batch training loss = 0.019073, test loss = 0.255733
  Training set accuracy = 1.000000, Test set accuracy = 0.930500
 epoch 32/200. Took 0.31327 seconds. 
  Full-batch training loss = 0.017946, test loss = 0.256844
  Training set accuracy = 1.000000, Test set accuracy = 0.928800
 epoch 33/200. Took 0.32076 seconds. 
  Full-batch training loss = 0.017095, test loss = 0.257456
  Training set accuracy = 1.000000, Test set accuracy = 0.929500
 epoch 34/200. Took 0.32071 seconds. 
  Full-batch training loss = 0.016280, test loss = 0.257493
  Training set accuracy = 1.000000, Test set accuracy = 0.929500
 epoch 35/200. Took 0.31756 seconds. 
  Full-batch training loss = 0.015601, test loss = 0.258342
  Training set accuracy = 1.000000, Test set accuracy = 0.930300
 epoch 36/200. Took 0.31892 seconds. 
  Full-batch training loss = 0.014976, test loss = 0.258730
  Training set accuracy = 1.000000, Test set accuracy = 0.929400
 epoch 37/200. Took 0.31768 seconds. 
  Full-batch training loss = 0.014365, test loss = 0.259595
  Training set accuracy = 1.000000, Test set accuracy = 0.930100
 epoch 38/200. Took 0.3189 seconds. 
  Full-batch training loss = 0.013769, test loss = 0.259801
  Training set accuracy = 1.000000, Test set accuracy = 0.930400
 epoch 39/200. Took 0.31909 seconds. 
  Full-batch training loss = 0.013244, test loss = 0.260161
  Training set accuracy = 1.000000, Test set accuracy = 0.930600
 epoch 40/200. Took 0.31377 seconds. 
  Full-batch training loss = 0.012764, test loss = 0.260822
  Training set accuracy = 1.000000, Test set accuracy = 0.930100
 epoch 41/200. Took 0.31615 seconds. 
  Full-batch training loss = 0.012283, test loss = 0.261263
  Training set accuracy = 1.000000, Test set accuracy = 0.930600
 epoch 42/200. Took 0.31225 seconds. 
  Full-batch training loss = 0.011836, test loss = 0.261615
  Training set accuracy = 1.000000, Test set accuracy = 0.929800
 epoch 43/200. Took 0.32327 seconds. 
  Full-batch training loss = 0.011402, test loss = 0.261842
  Training set accuracy = 1.000000, Test set accuracy = 0.930400
 epoch 44/200. Took 0.31655 seconds. 
  Full-batch training loss = 0.011044, test loss = 0.261997
  Training set accuracy = 1.000000, Test set accuracy = 0.930800
 epoch 45/200. Took 0.31807 seconds. 
  Full-batch training loss = 0.010656, test loss = 0.262860
  Training set accuracy = 1.000000, Test set accuracy = 0.930100
 epoch 46/200. Took 0.31931 seconds. 
  Full-batch training loss = 0.010326, test loss = 0.263823
  Training set accuracy = 1.000000, Test set accuracy = 0.930500
 epoch 47/200. Took 0.31543 seconds. 
  Full-batch training loss = 0.010052, test loss = 0.263872
  Training set accuracy = 1.000000, Test set accuracy = 0.930500
 epoch 48/200. Took 0.3165 seconds. 
  Full-batch training loss = 0.009717, test loss = 0.264760
  Training set accuracy = 1.000000, Test set accuracy = 0.930000
 epoch 49/200. Took 0.31538 seconds. 
  Full-batch training loss = 0.009423, test loss = 0.264725
  Training set accuracy = 1.000000, Test set accuracy = 0.930300
 epoch 50/200. Took 0.31904 seconds. 
  Full-batch training loss = 0.009172, test loss = 0.265926
  Training set accuracy = 1.000000, Test set accuracy = 0.930400
 epoch 51/200. Took 0.31829 seconds. 
  Full-batch training loss = 0.008875, test loss = 0.265789
  Training set accuracy = 1.000000, Test set accuracy = 0.930300
 epoch 52/200. Took 0.3219 seconds. 
  Full-batch training loss = 0.008647, test loss = 0.265699
  Training set accuracy = 1.000000, Test set accuracy = 0.930600
 epoch 53/200. Took 0.32068 seconds. 
  Full-batch training loss = 0.008405, test loss = 0.266991
  Training set accuracy = 1.000000, Test set accuracy = 0.930300
 epoch 54/200. Took 0.31857 seconds. 
  Full-batch training loss = 0.008187, test loss = 0.267099
  Training set accuracy = 1.000000, Test set accuracy = 0.930800
 epoch 55/200. Took 0.33188 seconds. 
  Full-batch training loss = 0.007968, test loss = 0.267076
  Training set accuracy = 1.000000, Test set accuracy = 0.930800
 epoch 56/200. Took 0.31901 seconds. 
  Full-batch training loss = 0.007800, test loss = 0.268540
  Training set accuracy = 1.000000, Test set accuracy = 0.930300
 epoch 57/200. Took 0.32012 seconds. 
  Full-batch training loss = 0.007584, test loss = 0.268489
  Training set accuracy = 1.000000, Test set accuracy = 0.930900
 epoch 58/200. Took 0.31844 seconds. 
  Full-batch training loss = 0.007391, test loss = 0.268790
  Training set accuracy = 1.000000, Test set accuracy = 0.930700
 epoch 59/200. Took 0.31737 seconds. 
  Full-batch training loss = 0.007214, test loss = 0.269154
  Training set accuracy = 1.000000, Test set accuracy = 0.930900
 epoch 60/200. Took 0.31917 seconds. 
  Full-batch training loss = 0.007054, test loss = 0.269047
  Training set accuracy = 1.000000, Test set accuracy = 0.930800
 epoch 61/200. Took 0.33441 seconds. 
  Full-batch training loss = 0.006878, test loss = 0.269492
  Training set accuracy = 1.000000, Test set accuracy = 0.931000
 epoch 62/200. Took 0.31596 seconds. 
  Full-batch training loss = 0.006728, test loss = 0.270110
  Training set accuracy = 1.000000, Test set accuracy = 0.931000
 epoch 63/200. Took 0.31793 seconds. 
  Full-batch training loss = 0.006575, test loss = 0.270565
  Training set accuracy = 1.000000, Test set accuracy = 0.931000
 epoch 64/200. Took 0.31377 seconds. 
  Full-batch training loss = 0.006436, test loss = 0.271069
  Training set accuracy = 1.000000, Test set accuracy = 0.931000
 epoch 65/200. Took 0.3196 seconds. 
  Full-batch training loss = 0.006306, test loss = 0.271723
  Training set accuracy = 1.000000, Test set accuracy = 0.930700
 epoch 66/200. Took 0.31334 seconds. 
  Full-batch training loss = 0.006156, test loss = 0.271583
  Training set accuracy = 1.000000, Test set accuracy = 0.931100
 epoch 67/200. Took 0.32145 seconds. 
  Full-batch training loss = 0.006030, test loss = 0.272132
  Training set accuracy = 1.000000, Test set accuracy = 0.931200
 epoch 68/200. Took 0.31543 seconds. 
  Full-batch training loss = 0.005913, test loss = 0.272660
  Training set accuracy = 1.000000, Test set accuracy = 0.930800
 epoch 69/200. Took 0.31944 seconds. 
  Full-batch training loss = 0.005787, test loss = 0.272380
  Training set accuracy = 1.000000, Test set accuracy = 0.931200
 epoch 70/200. Took 0.31716 seconds. 
  Full-batch training loss = 0.005673, test loss = 0.273022
  Training set accuracy = 1.000000, Test set accuracy = 0.931200
 epoch 71/200. Took 0.3131 seconds. 
  Full-batch training loss = 0.005564, test loss = 0.273408
  Training set accuracy = 1.000000, Test set accuracy = 0.931800
 epoch 72/200. Took 0.32125 seconds. 
  Full-batch training loss = 0.005459, test loss = 0.273888
  Training set accuracy = 1.000000, Test set accuracy = 0.930900
 epoch 73/200. Took 0.31877 seconds. 
  Full-batch training loss = 0.005356, test loss = 0.273914
  Training set accuracy = 1.000000, Test set accuracy = 0.931100
 epoch 74/200. Took 0.31779 seconds. 
  Full-batch training loss = 0.005254, test loss = 0.274169
  Training set accuracy = 1.000000, Test set accuracy = 0.931300
 epoch 75/200. Took 0.31437 seconds. 
  Full-batch training loss = 0.005157, test loss = 0.274786
  Training set accuracy = 1.000000, Test set accuracy = 0.931500
 epoch 76/200. Took 0.31785 seconds. 
  Full-batch training loss = 0.005068, test loss = 0.274840
  Training set accuracy = 1.000000, Test set accuracy = 0.931200
 epoch 77/200. Took 0.31707 seconds. 
  Full-batch training loss = 0.004981, test loss = 0.275432
  Training set accuracy = 1.000000, Test set accuracy = 0.931200
 epoch 78/200. Took 0.31871 seconds. 
  Full-batch training loss = 0.004893, test loss = 0.275816
  Training set accuracy = 1.000000, Test set accuracy = 0.931300
 epoch 79/200. Took 0.31818 seconds. 
  Full-batch training loss = 0.004808, test loss = 0.276030
  Training set accuracy = 1.000000, Test set accuracy = 0.931400
 epoch 80/200. Took 0.32281 seconds. 
  Full-batch training loss = 0.004728, test loss = 0.276209
  Training set accuracy = 1.000000, Test set accuracy = 0.931200
 epoch 81/200. Took 0.31265 seconds. 
  Full-batch training loss = 0.004646, test loss = 0.276344
  Training set accuracy = 1.000000, Test set accuracy = 0.931400
 epoch 82/200. Took 0.31537 seconds. 
  Full-batch training loss = 0.004569, test loss = 0.276777
  Training set accuracy = 1.000000, Test set accuracy = 0.931800
 epoch 83/200. Took 0.32047 seconds. 
  Full-batch training loss = 0.004497, test loss = 0.276974
  Training set accuracy = 1.000000, Test set accuracy = 0.931500
 epoch 84/200. Took 0.31423 seconds. 
  Full-batch training loss = 0.004424, test loss = 0.277399
  Training set accuracy = 1.000000, Test set accuracy = 0.931100
 epoch 85/200. Took 0.31672 seconds. 
  Full-batch training loss = 0.004355, test loss = 0.277860
  Training set accuracy = 1.000000, Test set accuracy = 0.931700
 epoch 86/200. Took 0.31274 seconds. 
  Full-batch training loss = 0.004289, test loss = 0.277917
  Training set accuracy = 1.000000, Test set accuracy = 0.931100
 epoch 87/200. Took 0.32002 seconds. 
  Full-batch training loss = 0.004218, test loss = 0.278349
  Training set accuracy = 1.000000, Test set accuracy = 0.931200
 epoch 88/200. Took 0.31842 seconds. 
  Full-batch training loss = 0.004154, test loss = 0.278461
  Training set accuracy = 1.000000, Test set accuracy = 0.931500
 epoch 89/200. Took 0.32748 seconds. 
  Full-batch training loss = 0.004091, test loss = 0.278558
  Training set accuracy = 1.000000, Test set accuracy = 0.931600
 epoch 90/200. Took 0.31508 seconds. 
  Full-batch training loss = 0.004030, test loss = 0.278928
  Training set accuracy = 1.000000, Test set accuracy = 0.931400
 epoch 91/200. Took 0.32041 seconds. 
  Full-batch training loss = 0.003975, test loss = 0.279356
  Training set accuracy = 1.000000, Test set accuracy = 0.931200
 epoch 92/200. Took 0.31563 seconds. 
  Full-batch training loss = 0.003914, test loss = 0.279486
  Training set accuracy = 1.000000, Test set accuracy = 0.931600
 epoch 93/200. Took 0.31764 seconds. 
  Full-batch training loss = 0.003858, test loss = 0.279816
  Training set accuracy = 1.000000, Test set accuracy = 0.931900
 epoch 94/200. Took 0.31777 seconds. 
  Full-batch training loss = 0.003803, test loss = 0.280154
  Training set accuracy = 1.000000, Test set accuracy = 0.931600
 epoch 95/200. Took 0.32167 seconds. 
  Full-batch training loss = 0.003751, test loss = 0.280316
  Training set accuracy = 1.000000, Test set accuracy = 0.931600
 epoch 96/200. Took 0.31731 seconds. 
  Full-batch training loss = 0.003698, test loss = 0.280496
  Training set accuracy = 1.000000, Test set accuracy = 0.931800
 epoch 97/200. Took 0.31361 seconds. 
  Full-batch training loss = 0.003646, test loss = 0.280985
  Training set accuracy = 1.000000, Test set accuracy = 0.931700
 epoch 98/200. Took 0.31535 seconds. 
  Full-batch training loss = 0.003599, test loss = 0.281170
  Training set accuracy = 1.000000, Test set accuracy = 0.932000
 epoch 99/200. Took 0.31661 seconds. 
  Full-batch training loss = 0.003550, test loss = 0.281363
  Training set accuracy = 1.000000, Test set accuracy = 0.931700
 epoch 100/200. Took 0.31639 seconds. 
  Full-batch training loss = 0.003504, test loss = 0.281742
  Training set accuracy = 1.000000, Test set accuracy = 0.931800
 epoch 101/200. Took 0.31973 seconds. 
  Full-batch training loss = 0.003457, test loss = 0.281951
  Training set accuracy = 1.000000, Test set accuracy = 0.932100
 epoch 102/200. Took 0.31742 seconds. 
  Full-batch training loss = 0.003413, test loss = 0.281967
  Training set accuracy = 1.000000, Test set accuracy = 0.931800
 epoch 103/200. Took 0.31041 seconds. 
  Full-batch training loss = 0.003369, test loss = 0.282253
  Training set accuracy = 1.000000, Test set accuracy = 0.931700
 epoch 104/200. Took 0.3159 seconds. 
  Full-batch training loss = 0.003325, test loss = 0.282686
  Training set accuracy = 1.000000, Test set accuracy = 0.932000
 epoch 105/200. Took 0.31947 seconds. 
  Full-batch training loss = 0.003284, test loss = 0.282764
  Training set accuracy = 1.000000, Test set accuracy = 0.931900
 epoch 106/200. Took 0.32096 seconds. 
  Full-batch training loss = 0.003243, test loss = 0.282965
  Training set accuracy = 1.000000, Test set accuracy = 0.932100
 epoch 107/200. Took 0.31867 seconds. 
  Full-batch training loss = 0.003203, test loss = 0.283329
  Training set accuracy = 1.000000, Test set accuracy = 0.932000
 epoch 108/200. Took 0.31816 seconds. 
  Full-batch training loss = 0.003165, test loss = 0.283671
  Training set accuracy = 1.000000, Test set accuracy = 0.931800
 epoch 109/200. Took 0.31291 seconds. 
  Full-batch training loss = 0.003126, test loss = 0.283866
  Training set accuracy = 1.000000, Test set accuracy = 0.931900
 epoch 110/200. Took 0.31508 seconds. 
  Full-batch training loss = 0.003089, test loss = 0.283970
  Training set accuracy = 1.000000, Test set accuracy = 0.931800
 epoch 111/200. Took 0.31456 seconds. 
  Full-batch training loss = 0.003053, test loss = 0.284126
  Training set accuracy = 1.000000, Test set accuracy = 0.932000
 epoch 112/200. Took 0.3195 seconds. 
  Full-batch training loss = 0.003016, test loss = 0.284414
  Training set accuracy = 1.000000, Test set accuracy = 0.932000
 epoch 113/200. Took 0.31911 seconds. 
  Full-batch training loss = 0.002983, test loss = 0.284908
  Training set accuracy = 1.000000, Test set accuracy = 0.931600
 epoch 114/200. Took 0.31638 seconds. 
  Full-batch training loss = 0.002947, test loss = 0.284890
  Training set accuracy = 1.000000, Test set accuracy = 0.931800
 epoch 115/200. Took 0.32002 seconds. 
  Full-batch training loss = 0.002916, test loss = 0.285060
  Training set accuracy = 1.000000, Test set accuracy = 0.931800
 epoch 116/200. Took 0.31769 seconds. 
  Full-batch training loss = 0.002881, test loss = 0.285331
  Training set accuracy = 1.000000, Test set accuracy = 0.931900
 epoch 117/200. Took 0.31988 seconds. 
  Full-batch training loss = 0.002850, test loss = 0.285660
  Training set accuracy = 1.000000, Test set accuracy = 0.931900
 epoch 118/200. Took 0.31535 seconds. 
  Full-batch training loss = 0.002819, test loss = 0.285762
  Training set accuracy = 1.000000, Test set accuracy = 0.932100
 epoch 119/200. Took 0.33092 seconds. 
  Full-batch training loss = 0.002787, test loss = 0.285902
  Training set accuracy = 1.000000, Test set accuracy = 0.932100
 epoch 120/200. Took 0.31226 seconds. 
  Full-batch training loss = 0.002758, test loss = 0.286233
  Training set accuracy = 1.000000, Test set accuracy = 0.931700
 epoch 121/200. Took 0.31419 seconds. 
  Full-batch training loss = 0.002726, test loss = 0.286404
  Training set accuracy = 1.000000, Test set accuracy = 0.932100
 epoch 122/200. Took 0.31496 seconds. 
  Full-batch training loss = 0.002698, test loss = 0.286561
  Training set accuracy = 1.000000, Test set accuracy = 0.932200
 epoch 123/200. Took 0.32025 seconds. 
  Full-batch training loss = 0.002670, test loss = 0.286800
  Training set accuracy = 1.000000, Test set accuracy = 0.931900
 epoch 124/200. Took 0.32171 seconds. 
  Full-batch training loss = 0.002642, test loss = 0.286760
  Training set accuracy = 1.000000, Test set accuracy = 0.932000
 epoch 125/200. Took 0.31944 seconds. 
  Full-batch training loss = 0.002615, test loss = 0.287020
  Training set accuracy = 1.000000, Test set accuracy = 0.931800
 epoch 126/200. Took 0.31904 seconds. 
  Full-batch training loss = 0.002588, test loss = 0.287332
  Training set accuracy = 1.000000, Test set accuracy = 0.931800
 epoch 127/200. Took 0.31798 seconds. 
  Full-batch training loss = 0.002561, test loss = 0.287542
  Training set accuracy = 1.000000, Test set accuracy = 0.932400
 epoch 128/200. Took 0.31985 seconds. 
  Full-batch training loss = 0.002535, test loss = 0.287786
  Training set accuracy = 1.000000, Test set accuracy = 0.932100
 epoch 129/200. Took 0.31968 seconds. 
  Full-batch training loss = 0.002510, test loss = 0.287934
  Training set accuracy = 1.000000, Test set accuracy = 0.931700
 epoch 130/200. Took 0.3158 seconds. 
  Full-batch training loss = 0.002486, test loss = 0.288361
  Training set accuracy = 1.000000, Test set accuracy = 0.932100
 epoch 131/200. Took 0.31016 seconds. 
  Full-batch training loss = 0.002461, test loss = 0.288342
  Training set accuracy = 1.000000, Test set accuracy = 0.932300
 epoch 132/200. Took 0.31759 seconds. 
  Full-batch training loss = 0.002437, test loss = 0.288536
  Training set accuracy = 1.000000, Test set accuracy = 0.931900
 epoch 133/200. Took 0.31456 seconds. 
  Full-batch training loss = 0.002413, test loss = 0.288832
  Training set accuracy = 1.000000, Test set accuracy = 0.932000
 epoch 134/200. Took 0.32665 seconds. 
  Full-batch training loss = 0.002390, test loss = 0.288961
  Training set accuracy = 1.000000, Test set accuracy = 0.932000
 epoch 135/200. Took 0.31618 seconds. 
  Full-batch training loss = 0.002367, test loss = 0.289157
  Training set accuracy = 1.000000, Test set accuracy = 0.931900
 epoch 136/200. Took 0.31559 seconds. 
  Full-batch training loss = 0.002344, test loss = 0.289234
  Training set accuracy = 1.000000, Test set accuracy = 0.932000
 epoch 137/200. Took 0.31716 seconds. 
  Full-batch training loss = 0.002322, test loss = 0.289464
  Training set accuracy = 1.000000, Test set accuracy = 0.931600
 epoch 138/200. Took 0.31927 seconds. 
  Full-batch training loss = 0.002301, test loss = 0.289729
  Training set accuracy = 1.000000, Test set accuracy = 0.932000
 epoch 139/200. Took 0.31444 seconds. 
  Full-batch training loss = 0.002280, test loss = 0.289744
  Training set accuracy = 1.000000, Test set accuracy = 0.931800
 epoch 140/200. Took 0.3193 seconds. 
  Full-batch training loss = 0.002259, test loss = 0.290140
  Training set accuracy = 1.000000, Test set accuracy = 0.931900
 epoch 141/200. Took 0.31885 seconds. 
  Full-batch training loss = 0.002238, test loss = 0.290122
  Training set accuracy = 1.000000, Test set accuracy = 0.931700
 epoch 142/200. Took 0.31858 seconds. 
  Full-batch training loss = 0.002218, test loss = 0.290363
  Training set accuracy = 1.000000, Test set accuracy = 0.932100
 epoch 143/200. Took 0.32286 seconds. 
  Full-batch training loss = 0.002198, test loss = 0.290414
  Training set accuracy = 1.000000, Test set accuracy = 0.932000
 epoch 144/200. Took 0.32371 seconds. 
  Full-batch training loss = 0.002179, test loss = 0.290783
  Training set accuracy = 1.000000, Test set accuracy = 0.931900
 epoch 145/200. Took 0.31805 seconds. 
  Full-batch training loss = 0.002159, test loss = 0.290823
  Training set accuracy = 1.000000, Test set accuracy = 0.932000
 epoch 146/200. Took 0.31643 seconds. 
  Full-batch training loss = 0.002141, test loss = 0.290938
  Training set accuracy = 1.000000, Test set accuracy = 0.932300
 epoch 147/200. Took 0.31598 seconds. 
  Full-batch training loss = 0.002122, test loss = 0.291261
  Training set accuracy = 1.000000, Test set accuracy = 0.932300
 epoch 148/200. Took 0.31663 seconds. 
  Full-batch training loss = 0.002103, test loss = 0.291408
  Training set accuracy = 1.000000, Test set accuracy = 0.931800
 epoch 149/200. Took 0.31849 seconds. 
  Full-batch training loss = 0.002086, test loss = 0.291593
  Training set accuracy = 1.000000, Test set accuracy = 0.932200
 epoch 150/200. Took 0.31998 seconds. 
  Full-batch training loss = 0.002068, test loss = 0.291788
  Training set accuracy = 1.000000, Test set accuracy = 0.931900
 epoch 151/200. Took 0.32316 seconds. 
  Full-batch training loss = 0.002051, test loss = 0.292041
  Training set accuracy = 1.000000, Test set accuracy = 0.932000
 epoch 152/200. Took 0.34642 seconds. 
  Full-batch training loss = 0.002033, test loss = 0.292011
  Training set accuracy = 1.000000, Test set accuracy = 0.932200
 epoch 153/200. Took 0.31887 seconds. 
  Full-batch training loss = 0.002016, test loss = 0.292251
  Training set accuracy = 1.000000, Test set accuracy = 0.932200
 epoch 154/200. Took 0.31902 seconds. 
  Full-batch training loss = 0.002000, test loss = 0.292414
  Training set accuracy = 1.000000, Test set accuracy = 0.931900
 epoch 155/200. Took 0.31464 seconds. 
  Full-batch training loss = 0.001983, test loss = 0.292541
  Training set accuracy = 1.000000, Test set accuracy = 0.931900
 epoch 156/200. Took 0.31349 seconds. 
  Full-batch training loss = 0.001967, test loss = 0.292870
  Training set accuracy = 1.000000, Test set accuracy = 0.931900
 epoch 157/200. Took 0.31483 seconds. 
  Full-batch training loss = 0.001951, test loss = 0.292768
  Training set accuracy = 1.000000, Test set accuracy = 0.932300
 epoch 158/200. Took 0.32822 seconds. 
  Full-batch training loss = 0.001935, test loss = 0.293002
  Training set accuracy = 1.000000, Test set accuracy = 0.932000
 epoch 159/200. Took 0.31832 seconds. 
  Full-batch training loss = 0.001920, test loss = 0.293290
  Training set accuracy = 1.000000, Test set accuracy = 0.932100
 epoch 160/200. Took 0.31866 seconds. 
  Full-batch training loss = 0.001904, test loss = 0.293417
  Training set accuracy = 1.000000, Test set accuracy = 0.932000
 epoch 161/200. Took 0.3164 seconds. 
  Full-batch training loss = 0.001890, test loss = 0.293506
  Training set accuracy = 1.000000, Test set accuracy = 0.932000
 epoch 162/200. Took 0.31907 seconds. 
  Full-batch training loss = 0.001875, test loss = 0.293636
  Training set accuracy = 1.000000, Test set accuracy = 0.931900
 epoch 163/200. Took 0.31766 seconds. 
  Full-batch training loss = 0.001860, test loss = 0.293823
  Training set accuracy = 1.000000, Test set accuracy = 0.932100
 epoch 164/200. Took 0.31404 seconds. 
  Full-batch training loss = 0.001846, test loss = 0.294080
  Training set accuracy = 1.000000, Test set accuracy = 0.932200
 epoch 165/200. Took 0.32422 seconds. 
  Full-batch training loss = 0.001832, test loss = 0.294154
  Training set accuracy = 1.000000, Test set accuracy = 0.932300
 epoch 166/200. Took 0.31672 seconds. 
  Full-batch training loss = 0.001818, test loss = 0.294338
  Training set accuracy = 1.000000, Test set accuracy = 0.932200
 epoch 167/200. Took 0.31463 seconds. 
  Full-batch training loss = 0.001804, test loss = 0.294475
  Training set accuracy = 1.000000, Test set accuracy = 0.932100
 epoch 168/200. Took 0.31701 seconds. 
  Full-batch training loss = 0.001791, test loss = 0.294634
  Training set accuracy = 1.000000, Test set accuracy = 0.932200
 epoch 169/200. Took 0.3177 seconds. 
  Full-batch training loss = 0.001777, test loss = 0.294772
  Training set accuracy = 1.000000, Test set accuracy = 0.932200
 epoch 170/200. Took 0.31693 seconds. 
  Full-batch training loss = 0.001764, test loss = 0.294781
  Training set accuracy = 1.000000, Test set accuracy = 0.932400
 epoch 171/200. Took 0.31757 seconds. 
  Full-batch training loss = 0.001751, test loss = 0.295088
  Training set accuracy = 1.000000, Test set accuracy = 0.932200
 epoch 172/200. Took 0.3174 seconds. 
  Full-batch training loss = 0.001738, test loss = 0.295195
  Training set accuracy = 1.000000, Test set accuracy = 0.932200
 epoch 173/200. Took 0.31706 seconds. 
  Full-batch training loss = 0.001725, test loss = 0.295350
  Training set accuracy = 1.000000, Test set accuracy = 0.932200
 epoch 174/200. Took 0.31919 seconds. 
  Full-batch training loss = 0.001713, test loss = 0.295526
  Training set accuracy = 1.000000, Test set accuracy = 0.932300
 epoch 175/200. Took 0.32041 seconds. 
  Full-batch training loss = 0.001700, test loss = 0.295609
  Training set accuracy = 1.000000, Test set accuracy = 0.932100
 epoch 176/200. Took 0.31752 seconds. 
  Full-batch training loss = 0.001688, test loss = 0.295729
  Training set accuracy = 1.000000, Test set accuracy = 0.932400
 epoch 177/200. Took 0.32056 seconds. 
  Full-batch training loss = 0.001676, test loss = 0.295877
  Training set accuracy = 1.000000, Test set accuracy = 0.932500
 epoch 178/200. Took 0.31808 seconds. 
  Full-batch training loss = 0.001664, test loss = 0.295985
  Training set accuracy = 1.000000, Test set accuracy = 0.932200
 epoch 179/200. Took 0.32725 seconds. 
  Full-batch training loss = 0.001653, test loss = 0.296251
  Training set accuracy = 1.000000, Test set accuracy = 0.932300
 epoch 180/200. Took 0.31536 seconds. 
  Full-batch training loss = 0.001641, test loss = 0.296355
  Training set accuracy = 1.000000, Test set accuracy = 0.932300
 epoch 181/200. Took 0.32174 seconds. 
  Full-batch training loss = 0.001629, test loss = 0.296517
  Training set accuracy = 1.000000, Test set accuracy = 0.932300
 epoch 182/200. Took 0.31725 seconds. 
  Full-batch training loss = 0.001618, test loss = 0.296651
  Training set accuracy = 1.000000, Test set accuracy = 0.932500
 epoch 183/200. Took 0.3138 seconds. 
  Full-batch training loss = 0.001607, test loss = 0.296744
  Training set accuracy = 1.000000, Test set accuracy = 0.932200
 epoch 184/200. Took 0.31677 seconds. 
  Full-batch training loss = 0.001596, test loss = 0.297022
  Training set accuracy = 1.000000, Test set accuracy = 0.932400
 epoch 185/200. Took 0.31653 seconds. 
  Full-batch training loss = 0.001585, test loss = 0.296910
  Training set accuracy = 1.000000, Test set accuracy = 0.932500
 epoch 186/200. Took 0.31634 seconds. 
  Full-batch training loss = 0.001575, test loss = 0.297160
  Training set accuracy = 1.000000, Test set accuracy = 0.932700
 epoch 187/200. Took 0.3342 seconds. 
  Full-batch training loss = 0.001564, test loss = 0.297393
  Training set accuracy = 1.000000, Test set accuracy = 0.932500
 epoch 188/200. Took 0.31609 seconds. 
  Full-batch training loss = 0.001554, test loss = 0.297434
  Training set accuracy = 1.000000, Test set accuracy = 0.932500
 epoch 189/200. Took 0.31254 seconds. 
  Full-batch training loss = 0.001543, test loss = 0.297531
  Training set accuracy = 1.000000, Test set accuracy = 0.932400
 epoch 190/200. Took 0.31827 seconds. 
  Full-batch training loss = 0.001533, test loss = 0.297701
  Training set accuracy = 1.000000, Test set accuracy = 0.932600
 epoch 191/200. Took 0.31646 seconds. 
  Full-batch training loss = 0.001523, test loss = 0.297857
  Training set accuracy = 1.000000, Test set accuracy = 0.932400
 epoch 192/200. Took 0.31808 seconds. 
  Full-batch training loss = 0.001513, test loss = 0.298071
  Training set accuracy = 1.000000, Test set accuracy = 0.932600
 epoch 193/200. Took 0.31845 seconds. 
  Full-batch training loss = 0.001503, test loss = 0.298077
  Training set accuracy = 1.000000, Test set accuracy = 0.932600
 epoch 194/200. Took 0.32764 seconds. 
  Full-batch training loss = 0.001493, test loss = 0.298306
  Training set accuracy = 1.000000, Test set accuracy = 0.932700
 epoch 195/200. Took 0.31737 seconds. 
  Full-batch training loss = 0.001484, test loss = 0.298385
  Training set accuracy = 1.000000, Test set accuracy = 0.932600
 epoch 196/200. Took 0.31887 seconds. 
  Full-batch training loss = 0.001474, test loss = 0.298534
  Training set accuracy = 1.000000, Test set accuracy = 0.932500
 epoch 197/200. Took 0.31637 seconds. 
  Full-batch training loss = 0.001465, test loss = 0.298719
  Training set accuracy = 1.000000, Test set accuracy = 0.932800
 epoch 198/200. Took 0.31653 seconds. 
  Full-batch training loss = 0.001456, test loss = 0.298689
  Training set accuracy = 1.000000, Test set accuracy = 0.932700
 epoch 199/200. Took 0.31705 seconds. 
  Full-batch training loss = 0.001447, test loss = 0.298977
  Training set accuracy = 1.000000, Test set accuracy = 0.932500
 epoch 200/200. Took 0.31631 seconds. 
  Full-batch training loss = 0.001438, test loss = 0.298951
  Training set accuracy = 1.000000, Test set accuracy = 0.933000
Elapsed time is 243.639374 seconds.
End Training
