==========================================================
  Architecture is 500 500 500 // 3 layer x 500 neuron
----------------------------------------------------------
Execution 76/270
----------------------------------------------------------
* ReducedData	2000
* PreTrainRBM	true
	-> Epochs	50
	-> LearningRate	0.05
* Fine-tunning
	-> Epochs	500
	-> LearningRate	0.10
==========================================================
Start Training
Number of training examples: 2000  BatchSize: 100
Number of inputs: 784  Number of outputs: 10
Number of hidden layers: 3 (500  500  500)
Training binary-binary RBM in layer 1 (784  500) with CD1 for 50 epochs
 epoch 1/50. Took 0.35242 seconds. Average reconstruction error is: 52.7008
 epoch 2/50. Took 0.32387 seconds. Average reconstruction error is: 29.9083
 epoch 3/50. Took 0.32741 seconds. Average reconstruction error is: 23.8633
 epoch 4/50. Took 0.33033 seconds. Average reconstruction error is: 20.7286
 epoch 5/50. Took 0.32361 seconds. Average reconstruction error is: 18.5538
 epoch 6/50. Took 0.32402 seconds. Average reconstruction error is: 17.035
 epoch 7/50. Took 0.32327 seconds. Average reconstruction error is: 15.9028
 epoch 8/50. Took 0.31961 seconds. Average reconstruction error is: 14.9593
 epoch 9/50. Took 0.32669 seconds. Average reconstruction error is: 14.2998
 epoch 10/50. Took 0.32478 seconds. Average reconstruction error is: 13.6191
 epoch 11/50. Took 0.32355 seconds. Average reconstruction error is: 13.0996
 epoch 12/50. Took 0.32826 seconds. Average reconstruction error is: 12.654
 epoch 13/50. Took 0.32765 seconds. Average reconstruction error is: 12.2193
 epoch 14/50. Took 0.32507 seconds. Average reconstruction error is: 11.8897
 epoch 15/50. Took 0.32774 seconds. Average reconstruction error is: 11.5399
 epoch 16/50. Took 0.32761 seconds. Average reconstruction error is: 11.2645
 epoch 17/50. Took 0.34724 seconds. Average reconstruction error is: 10.9462
 epoch 18/50. Took 0.34299 seconds. Average reconstruction error is: 10.7294
 epoch 19/50. Took 0.34273 seconds. Average reconstruction error is: 10.5304
 epoch 20/50. Took 0.34268 seconds. Average reconstruction error is: 10.3708
 epoch 21/50. Took 0.34268 seconds. Average reconstruction error is: 10.1984
 epoch 22/50. Took 0.33642 seconds. Average reconstruction error is: 9.92
 epoch 23/50. Took 0.34638 seconds. Average reconstruction error is: 9.7776
 epoch 24/50. Took 0.34099 seconds. Average reconstruction error is: 9.6057
 epoch 25/50. Took 0.34432 seconds. Average reconstruction error is: 9.4605
 epoch 26/50. Took 0.34714 seconds. Average reconstruction error is: 9.3203
 epoch 27/50. Took 0.34524 seconds. Average reconstruction error is: 9.1509
 epoch 28/50. Took 0.34491 seconds. Average reconstruction error is: 9.0308
 epoch 29/50. Took 0.34926 seconds. Average reconstruction error is: 8.9283
 epoch 30/50. Took 0.34128 seconds. Average reconstruction error is: 8.8603
 epoch 31/50. Took 0.33942 seconds. Average reconstruction error is: 8.6837
 epoch 32/50. Took 0.34541 seconds. Average reconstruction error is: 8.5985
 epoch 33/50. Took 0.34611 seconds. Average reconstruction error is: 8.5216
 epoch 34/50. Took 0.34397 seconds. Average reconstruction error is: 8.3774
 epoch 35/50. Took 0.34261 seconds. Average reconstruction error is: 8.3093
 epoch 36/50. Took 0.34819 seconds. Average reconstruction error is: 8.2986
 epoch 37/50. Took 0.34123 seconds. Average reconstruction error is: 8.1298
 epoch 38/50. Took 0.34428 seconds. Average reconstruction error is: 8.0631
 epoch 39/50. Took 0.34068 seconds. Average reconstruction error is: 8.0305
 epoch 40/50. Took 0.34584 seconds. Average reconstruction error is: 7.9756
 epoch 41/50. Took 0.34332 seconds. Average reconstruction error is: 7.845
 epoch 42/50. Took 0.34655 seconds. Average reconstruction error is: 7.8118
 epoch 43/50. Took 0.34349 seconds. Average reconstruction error is: 7.7441
 epoch 44/50. Took 0.34404 seconds. Average reconstruction error is: 7.6555
 epoch 45/50. Took 0.34036 seconds. Average reconstruction error is: 7.6374
 epoch 46/50. Took 0.35043 seconds. Average reconstruction error is: 7.5464
 epoch 47/50. Took 0.34325 seconds. Average reconstruction error is: 7.4555
 epoch 48/50. Took 0.34098 seconds. Average reconstruction error is: 7.4158
 epoch 49/50. Took 0.34868 seconds. Average reconstruction error is: 7.3265
 epoch 50/50. Took 0.34465 seconds. Average reconstruction error is: 7.3702
Training binary-binary RBM in layer 2 (500  500) with CD1 for 50 epochs
 epoch 1/50. Took 0.25114 seconds. Average reconstruction error is: 48.719
 epoch 2/50. Took 0.2521 seconds. Average reconstruction error is: 29.741
 epoch 3/50. Took 0.32432 seconds. Average reconstruction error is: 23.2083
 epoch 4/50. Took 0.25696 seconds. Average reconstruction error is: 19.552
 epoch 5/50. Took 0.25328 seconds. Average reconstruction error is: 17.3927
 epoch 6/50. Took 0.25281 seconds. Average reconstruction error is: 15.6821
 epoch 7/50. Took 0.24947 seconds. Average reconstruction error is: 14.5153
 epoch 8/50. Took 0.24207 seconds. Average reconstruction error is: 13.6674
 epoch 9/50. Took 0.24817 seconds. Average reconstruction error is: 12.8667
 epoch 10/50. Took 0.25232 seconds. Average reconstruction error is: 12.313
 epoch 11/50. Took 0.25422 seconds. Average reconstruction error is: 11.7866
 epoch 12/50. Took 0.25088 seconds. Average reconstruction error is: 11.2955
 epoch 13/50. Took 0.26504 seconds. Average reconstruction error is: 11.0115
 epoch 14/50. Took 0.27028 seconds. Average reconstruction error is: 10.7496
 epoch 15/50. Took 0.27805 seconds. Average reconstruction error is: 10.4394
 epoch 16/50. Took 0.26824 seconds. Average reconstruction error is: 10.2344
 epoch 17/50. Took 0.245 seconds. Average reconstruction error is: 10.035
 epoch 18/50. Took 0.25018 seconds. Average reconstruction error is: 9.8625
 epoch 19/50. Took 0.24609 seconds. Average reconstruction error is: 9.7216
 epoch 20/50. Took 0.2534 seconds. Average reconstruction error is: 9.5801
 epoch 21/50. Took 0.25151 seconds. Average reconstruction error is: 9.4147
 epoch 22/50. Took 0.24579 seconds. Average reconstruction error is: 9.311
 epoch 23/50. Took 0.25005 seconds. Average reconstruction error is: 9.2382
 epoch 24/50. Took 0.2464 seconds. Average reconstruction error is: 9.1164
 epoch 25/50. Took 0.25246 seconds. Average reconstruction error is: 9.0291
 epoch 26/50. Took 0.25846 seconds. Average reconstruction error is: 8.941
 epoch 27/50. Took 0.24352 seconds. Average reconstruction error is: 8.889
 epoch 28/50. Took 0.25041 seconds. Average reconstruction error is: 8.8434
 epoch 29/50. Took 0.24911 seconds. Average reconstruction error is: 8.7485
 epoch 30/50. Took 0.25054 seconds. Average reconstruction error is: 8.6799
 epoch 31/50. Took 0.2481 seconds. Average reconstruction error is: 8.6692
 epoch 32/50. Took 0.24674 seconds. Average reconstruction error is: 8.5495
 epoch 33/50. Took 0.25096 seconds. Average reconstruction error is: 8.5651
 epoch 34/50. Took 0.24819 seconds. Average reconstruction error is: 8.4817
 epoch 35/50. Took 0.24551 seconds. Average reconstruction error is: 8.4438
 epoch 36/50. Took 0.24672 seconds. Average reconstruction error is: 8.4316
 epoch 37/50. Took 0.2453 seconds. Average reconstruction error is: 8.3971
 epoch 38/50. Took 0.24731 seconds. Average reconstruction error is: 8.3131
 epoch 39/50. Took 0.24516 seconds. Average reconstruction error is: 8.3392
 epoch 40/50. Took 0.25055 seconds. Average reconstruction error is: 8.221
 epoch 41/50. Took 0.25167 seconds. Average reconstruction error is: 8.1552
 epoch 42/50. Took 0.25857 seconds. Average reconstruction error is: 8.1074
 epoch 43/50. Took 0.25622 seconds. Average reconstruction error is: 8.1568
 epoch 44/50. Took 0.25638 seconds. Average reconstruction error is: 8.136
 epoch 45/50. Took 0.25413 seconds. Average reconstruction error is: 8.0846
 epoch 46/50. Took 0.25635 seconds. Average reconstruction error is: 8.0836
 epoch 47/50. Took 0.2526 seconds. Average reconstruction error is: 8.0379
 epoch 48/50. Took 0.24774 seconds. Average reconstruction error is: 8.0036
 epoch 49/50. Took 0.24999 seconds. Average reconstruction error is: 7.9484
 epoch 50/50. Took 0.24588 seconds. Average reconstruction error is: 7.9909
Training binary-binary RBM in layer 3 (500  500) with CD1 for 50 epochs
 epoch 1/50. Took 0.27115 seconds. Average reconstruction error is: 42.2853
 epoch 2/50. Took 0.24854 seconds. Average reconstruction error is: 23.9636
 epoch 3/50. Took 0.24678 seconds. Average reconstruction error is: 18.0325
 epoch 4/50. Took 0.25198 seconds. Average reconstruction error is: 14.982
 epoch 5/50. Took 0.24512 seconds. Average reconstruction error is: 13.0992
 epoch 6/50. Took 0.25229 seconds. Average reconstruction error is: 11.7388
 epoch 7/50. Took 0.24628 seconds. Average reconstruction error is: 10.8309
 epoch 8/50. Took 0.25252 seconds. Average reconstruction error is: 10.1694
 epoch 9/50. Took 0.25134 seconds. Average reconstruction error is: 9.5139
 epoch 10/50. Took 0.25148 seconds. Average reconstruction error is: 9.0146
 epoch 11/50. Took 0.25207 seconds. Average reconstruction error is: 8.6796
 epoch 12/50. Took 0.24955 seconds. Average reconstruction error is: 8.4072
 epoch 13/50. Took 0.25164 seconds. Average reconstruction error is: 8.1789
 epoch 14/50. Took 0.2458 seconds. Average reconstruction error is: 7.9422
 epoch 15/50. Took 0.25438 seconds. Average reconstruction error is: 7.7661
 epoch 16/50. Took 0.25369 seconds. Average reconstruction error is: 7.6091
 epoch 17/50. Took 0.26549 seconds. Average reconstruction error is: 7.5236
 epoch 18/50. Took 0.25765 seconds. Average reconstruction error is: 7.3774
 epoch 19/50. Took 0.24913 seconds. Average reconstruction error is: 7.2964
 epoch 20/50. Took 0.24507 seconds. Average reconstruction error is: 7.1108
 epoch 21/50. Took 0.24992 seconds. Average reconstruction error is: 7.0256
 epoch 22/50. Took 0.25283 seconds. Average reconstruction error is: 6.9507
 epoch 23/50. Took 0.25012 seconds. Average reconstruction error is: 6.8615
 epoch 24/50. Took 0.251 seconds. Average reconstruction error is: 6.8783
 epoch 25/50. Took 0.2504 seconds. Average reconstruction error is: 6.8039
 epoch 26/50. Took 0.25082 seconds. Average reconstruction error is: 6.7988
 epoch 27/50. Took 0.2542 seconds. Average reconstruction error is: 6.738
 epoch 28/50. Took 0.2557 seconds. Average reconstruction error is: 6.6417
 epoch 29/50. Took 0.25748 seconds. Average reconstruction error is: 6.6153
 epoch 30/50. Took 0.24879 seconds. Average reconstruction error is: 6.5254
 epoch 31/50. Took 0.25263 seconds. Average reconstruction error is: 6.5561
 epoch 32/50. Took 0.25177 seconds. Average reconstruction error is: 6.5423
 epoch 33/50. Took 0.25713 seconds. Average reconstruction error is: 6.4512
 epoch 34/50. Took 0.2498 seconds. Average reconstruction error is: 6.429
 epoch 35/50. Took 0.24847 seconds. Average reconstruction error is: 6.4399
 epoch 36/50. Took 0.25068 seconds. Average reconstruction error is: 6.3458
 epoch 37/50. Took 0.24853 seconds. Average reconstruction error is: 6.3754
 epoch 38/50. Took 0.25423 seconds. Average reconstruction error is: 6.3575
 epoch 39/50. Took 0.25143 seconds. Average reconstruction error is: 6.3156
 epoch 40/50. Took 0.24909 seconds. Average reconstruction error is: 6.2591
 epoch 41/50. Took 0.25327 seconds. Average reconstruction error is: 6.2456
 epoch 42/50. Took 0.24946 seconds. Average reconstruction error is: 6.3037
 epoch 43/50. Took 0.24522 seconds. Average reconstruction error is: 6.2425
 epoch 44/50. Took 0.25415 seconds. Average reconstruction error is: 6.2999
 epoch 45/50. Took 0.25361 seconds. Average reconstruction error is: 6.2285
 epoch 46/50. Took 0.25482 seconds. Average reconstruction error is: 6.2714
 epoch 47/50. Took 0.25629 seconds. Average reconstruction error is: 6.1709
 epoch 48/50. Took 0.25424 seconds. Average reconstruction error is: 6.2197
 epoch 49/50. Took 0.25016 seconds. Average reconstruction error is: 6.1455
 epoch 50/50. Took 0.25233 seconds. Average reconstruction error is: 6.0837
Training NN  (784  500  500  500   10) with BackPropagation for 500 epochs
 epoch 1/500. Took 0.51613 seconds. 
  Full-batch training loss = 0.490732, test loss = 0.497806
  Training set accuracy = 0.854000, Test set accuracy = 0.858600
 epoch 2/500. Took 0.63319 seconds. 
  Full-batch training loss = 0.353601, test loss = 0.386217
  Training set accuracy = 0.901000, Test set accuracy = 0.889800
 epoch 3/500. Took 0.55952 seconds. 
  Full-batch training loss = 0.294024, test loss = 0.347978
  Training set accuracy = 0.919500, Test set accuracy = 0.898000
 epoch 4/500. Took 0.5609 seconds. 
  Full-batch training loss = 0.254506, test loss = 0.315901
  Training set accuracy = 0.934000, Test set accuracy = 0.908100
 epoch 5/500. Took 0.55661 seconds. 
  Full-batch training loss = 0.231122, test loss = 0.302280
  Training set accuracy = 0.942500, Test set accuracy = 0.911700
 epoch 6/500. Took 0.56143 seconds. 
  Full-batch training loss = 0.218878, test loss = 0.301478
  Training set accuracy = 0.945500, Test set accuracy = 0.908800
 epoch 7/500. Took 0.571 seconds. 
  Full-batch training loss = 0.211785, test loss = 0.297785
  Training set accuracy = 0.938500, Test set accuracy = 0.909400
 epoch 8/500. Took 0.5598 seconds. 
  Full-batch training loss = 0.186646, test loss = 0.285791
  Training set accuracy = 0.950000, Test set accuracy = 0.914000
 epoch 9/500. Took 0.55908 seconds. 
  Full-batch training loss = 0.165814, test loss = 0.270599
  Training set accuracy = 0.960000, Test set accuracy = 0.917500
 epoch 10/500. Took 0.56748 seconds. 
  Full-batch training loss = 0.151263, test loss = 0.265563
  Training set accuracy = 0.963000, Test set accuracy = 0.918500
 epoch 11/500. Took 0.55803 seconds. 
  Full-batch training loss = 0.145471, test loss = 0.267054
  Training set accuracy = 0.964500, Test set accuracy = 0.917900
 epoch 12/500. Took 0.55653 seconds. 
  Full-batch training loss = 0.133214, test loss = 0.259398
  Training set accuracy = 0.970500, Test set accuracy = 0.920100
 epoch 13/500. Took 0.55798 seconds. 
  Full-batch training loss = 0.125933, test loss = 0.260761
  Training set accuracy = 0.970500, Test set accuracy = 0.921200
 epoch 14/500. Took 0.58279 seconds. 
  Full-batch training loss = 0.117192, test loss = 0.256948
  Training set accuracy = 0.975000, Test set accuracy = 0.921400
 epoch 15/500. Took 0.56981 seconds. 
  Full-batch training loss = 0.113031, test loss = 0.262821
  Training set accuracy = 0.975000, Test set accuracy = 0.918500
 epoch 16/500. Took 0.55829 seconds. 
  Full-batch training loss = 0.104525, test loss = 0.254494
  Training set accuracy = 0.981500, Test set accuracy = 0.922000
 epoch 17/500. Took 0.5681 seconds. 
  Full-batch training loss = 0.100899, test loss = 0.252655
  Training set accuracy = 0.980000, Test set accuracy = 0.922800
 epoch 18/500. Took 0.56494 seconds. 
  Full-batch training loss = 0.094650, test loss = 0.253314
  Training set accuracy = 0.981000, Test set accuracy = 0.922600
 epoch 19/500. Took 0.56918 seconds. 
  Full-batch training loss = 0.088592, test loss = 0.252896
  Training set accuracy = 0.983500, Test set accuracy = 0.923100
 epoch 20/500. Took 0.56369 seconds. 
  Full-batch training loss = 0.082259, test loss = 0.250183
  Training set accuracy = 0.984500, Test set accuracy = 0.923600
 epoch 21/500. Took 0.56642 seconds. 
  Full-batch training loss = 0.076193, test loss = 0.247321
  Training set accuracy = 0.986500, Test set accuracy = 0.923700
 epoch 22/500. Took 0.55772 seconds. 
  Full-batch training loss = 0.073587, test loss = 0.246522
  Training set accuracy = 0.987000, Test set accuracy = 0.923900
 epoch 23/500. Took 0.57331 seconds. 
  Full-batch training loss = 0.068723, test loss = 0.247246
  Training set accuracy = 0.989500, Test set accuracy = 0.925700
 epoch 24/500. Took 0.55926 seconds. 
  Full-batch training loss = 0.066106, test loss = 0.246641
  Training set accuracy = 0.991000, Test set accuracy = 0.924600
 epoch 25/500. Took 0.56377 seconds. 
  Full-batch training loss = 0.061410, test loss = 0.244600
  Training set accuracy = 0.993000, Test set accuracy = 0.925300
 epoch 26/500. Took 0.55925 seconds. 
  Full-batch training loss = 0.059793, test loss = 0.247689
  Training set accuracy = 0.991500, Test set accuracy = 0.925800
 epoch 27/500. Took 0.5573 seconds. 
  Full-batch training loss = 0.054992, test loss = 0.243042
  Training set accuracy = 0.993500, Test set accuracy = 0.926000
 epoch 28/500. Took 0.56128 seconds. 
  Full-batch training loss = 0.052545, test loss = 0.244638
  Training set accuracy = 0.995000, Test set accuracy = 0.925100
 epoch 29/500. Took 0.56365 seconds. 
  Full-batch training loss = 0.051672, test loss = 0.247729
  Training set accuracy = 0.995000, Test set accuracy = 0.924700
 epoch 30/500. Took 0.55516 seconds. 
  Full-batch training loss = 0.046808, test loss = 0.244238
  Training set accuracy = 0.997500, Test set accuracy = 0.926300
 epoch 31/500. Took 0.55479 seconds. 
  Full-batch training loss = 0.046041, test loss = 0.245005
  Training set accuracy = 0.996000, Test set accuracy = 0.925100
 epoch 32/500. Took 0.56161 seconds. 
  Full-batch training loss = 0.043161, test loss = 0.243460
  Training set accuracy = 0.996500, Test set accuracy = 0.926800
 epoch 33/500. Took 0.56655 seconds. 
  Full-batch training loss = 0.042489, test loss = 0.247433
  Training set accuracy = 0.997500, Test set accuracy = 0.924400
 epoch 34/500. Took 0.5613 seconds. 
  Full-batch training loss = 0.039350, test loss = 0.244774
  Training set accuracy = 0.998000, Test set accuracy = 0.927000
 epoch 35/500. Took 0.5576 seconds. 
  Full-batch training loss = 0.037439, test loss = 0.243852
  Training set accuracy = 0.997500, Test set accuracy = 0.926900
 epoch 36/500. Took 0.55926 seconds. 
  Full-batch training loss = 0.035717, test loss = 0.244305
  Training set accuracy = 0.998500, Test set accuracy = 0.927200
 epoch 37/500. Took 0.55591 seconds. 
  Full-batch training loss = 0.034559, test loss = 0.245642
  Training set accuracy = 0.998000, Test set accuracy = 0.925800
 epoch 38/500. Took 0.56353 seconds. 
  Full-batch training loss = 0.033295, test loss = 0.245525
  Training set accuracy = 0.998000, Test set accuracy = 0.926800
 epoch 39/500. Took 0.56153 seconds. 
  Full-batch training loss = 0.032217, test loss = 0.247005
  Training set accuracy = 0.998500, Test set accuracy = 0.927100
 epoch 40/500. Took 0.56377 seconds. 
  Full-batch training loss = 0.030821, test loss = 0.244990
  Training set accuracy = 0.999500, Test set accuracy = 0.926200
 epoch 41/500. Took 0.55979 seconds. 
  Full-batch training loss = 0.029931, test loss = 0.247018
  Training set accuracy = 0.998500, Test set accuracy = 0.926500
 epoch 42/500. Took 0.55901 seconds. 
  Full-batch training loss = 0.028532, test loss = 0.246914
  Training set accuracy = 0.999000, Test set accuracy = 0.926800
 epoch 43/500. Took 0.55872 seconds. 
  Full-batch training loss = 0.027128, test loss = 0.245723
  Training set accuracy = 0.999500, Test set accuracy = 0.928200
 epoch 44/500. Took 0.55739 seconds. 
  Full-batch training loss = 0.026214, test loss = 0.246923
  Training set accuracy = 0.999500, Test set accuracy = 0.927300
 epoch 45/500. Took 0.56233 seconds. 
  Full-batch training loss = 0.025370, test loss = 0.246116
  Training set accuracy = 0.999500, Test set accuracy = 0.927800
 epoch 46/500. Took 0.55799 seconds. 
  Full-batch training loss = 0.024480, test loss = 0.246504
  Training set accuracy = 0.999500, Test set accuracy = 0.928800
 epoch 47/500. Took 0.55658 seconds. 
  Full-batch training loss = 0.023766, test loss = 0.247493
  Training set accuracy = 0.999500, Test set accuracy = 0.927100
 epoch 48/500. Took 0.5606 seconds. 
  Full-batch training loss = 0.022710, test loss = 0.247040
  Training set accuracy = 0.999500, Test set accuracy = 0.928500
 epoch 49/500. Took 0.56678 seconds. 
  Full-batch training loss = 0.022125, test loss = 0.247830
  Training set accuracy = 0.999500, Test set accuracy = 0.928000
 epoch 50/500. Took 0.55597 seconds. 
  Full-batch training loss = 0.022450, test loss = 0.250474
  Training set accuracy = 0.999500, Test set accuracy = 0.928400
 epoch 51/500. Took 0.55459 seconds. 
  Full-batch training loss = 0.020773, test loss = 0.248256
  Training set accuracy = 0.999500, Test set accuracy = 0.927900
 epoch 52/500. Took 0.56674 seconds. 
  Full-batch training loss = 0.021142, test loss = 0.250606
  Training set accuracy = 0.999500, Test set accuracy = 0.928500
 epoch 53/500. Took 0.56789 seconds. 
  Full-batch training loss = 0.019529, test loss = 0.248580
  Training set accuracy = 0.999500, Test set accuracy = 0.928400
 epoch 54/500. Took 0.56371 seconds. 
  Full-batch training loss = 0.018964, test loss = 0.249263
  Training set accuracy = 0.999500, Test set accuracy = 0.929000
 epoch 55/500. Took 0.58205 seconds. 
  Full-batch training loss = 0.018396, test loss = 0.248809
  Training set accuracy = 0.999500, Test set accuracy = 0.929000
 epoch 56/500. Took 0.55744 seconds. 
  Full-batch training loss = 0.017806, test loss = 0.249578
  Training set accuracy = 0.999500, Test set accuracy = 0.928900
 epoch 57/500. Took 0.55863 seconds. 
  Full-batch training loss = 0.017705, test loss = 0.251489
  Training set accuracy = 0.999500, Test set accuracy = 0.928700
 epoch 58/500. Took 0.55748 seconds. 
  Full-batch training loss = 0.016880, test loss = 0.249638
  Training set accuracy = 0.999500, Test set accuracy = 0.928600
 epoch 59/500. Took 0.5576 seconds. 
  Full-batch training loss = 0.016473, test loss = 0.250349
  Training set accuracy = 0.999500, Test set accuracy = 0.929200
 epoch 60/500. Took 0.56359 seconds. 
  Full-batch training loss = 0.016076, test loss = 0.250174
  Training set accuracy = 0.999500, Test set accuracy = 0.929100
 epoch 61/500. Took 0.55918 seconds. 
  Full-batch training loss = 0.015641, test loss = 0.250584
  Training set accuracy = 0.999500, Test set accuracy = 0.928700
 epoch 62/500. Took 0.56292 seconds. 
  Full-batch training loss = 0.015671, test loss = 0.252475
  Training set accuracy = 1.000000, Test set accuracy = 0.929400
 epoch 63/500. Took 0.56294 seconds. 
  Full-batch training loss = 0.014923, test loss = 0.251447
  Training set accuracy = 0.999500, Test set accuracy = 0.928700
 epoch 64/500. Took 0.56104 seconds. 
  Full-batch training loss = 0.014540, test loss = 0.251997
  Training set accuracy = 1.000000, Test set accuracy = 0.929200
 epoch 65/500. Took 0.55991 seconds. 
  Full-batch training loss = 0.014169, test loss = 0.251975
  Training set accuracy = 1.000000, Test set accuracy = 0.929600
 epoch 66/500. Took 0.56053 seconds. 
  Full-batch training loss = 0.013888, test loss = 0.252359
  Training set accuracy = 1.000000, Test set accuracy = 0.928600
 epoch 67/500. Took 0.56471 seconds. 
  Full-batch training loss = 0.013581, test loss = 0.252647
  Training set accuracy = 1.000000, Test set accuracy = 0.928900
 epoch 68/500. Took 0.55992 seconds. 
  Full-batch training loss = 0.013245, test loss = 0.252761
  Training set accuracy = 1.000000, Test set accuracy = 0.929100
 epoch 69/500. Took 0.5558 seconds. 
  Full-batch training loss = 0.013289, test loss = 0.254132
  Training set accuracy = 1.000000, Test set accuracy = 0.929200
 epoch 70/500. Took 0.55955 seconds. 
  Full-batch training loss = 0.012667, test loss = 0.253223
  Training set accuracy = 1.000000, Test set accuracy = 0.928800
 epoch 71/500. Took 0.55733 seconds. 
  Full-batch training loss = 0.012375, test loss = 0.253004
  Training set accuracy = 1.000000, Test set accuracy = 0.929200
 epoch 72/500. Took 0.56239 seconds. 
  Full-batch training loss = 0.012125, test loss = 0.253365
  Training set accuracy = 1.000000, Test set accuracy = 0.929600
 epoch 73/500. Took 0.55536 seconds. 
  Full-batch training loss = 0.012055, test loss = 0.254630
  Training set accuracy = 1.000000, Test set accuracy = 0.929600
 epoch 74/500. Took 0.55431 seconds. 
  Full-batch training loss = 0.011615, test loss = 0.254634
  Training set accuracy = 1.000000, Test set accuracy = 0.929300
 epoch 75/500. Took 0.55613 seconds. 
  Full-batch training loss = 0.011411, test loss = 0.254698
  Training set accuracy = 1.000000, Test set accuracy = 0.929600
 epoch 76/500. Took 0.5585 seconds. 
  Full-batch training loss = 0.011190, test loss = 0.255181
  Training set accuracy = 1.000000, Test set accuracy = 0.930000
 epoch 77/500. Took 0.63351 seconds. 
  Full-batch training loss = 0.010968, test loss = 0.254960
  Training set accuracy = 1.000000, Test set accuracy = 0.929300
 epoch 78/500. Took 0.55964 seconds. 
  Full-batch training loss = 0.010725, test loss = 0.255454
  Training set accuracy = 1.000000, Test set accuracy = 0.929600
 epoch 79/500. Took 0.56961 seconds. 
  Full-batch training loss = 0.010558, test loss = 0.256073
  Training set accuracy = 1.000000, Test set accuracy = 0.929800
 epoch 80/500. Took 0.55777 seconds. 
  Full-batch training loss = 0.010351, test loss = 0.255710
  Training set accuracy = 1.000000, Test set accuracy = 0.929700
 epoch 81/500. Took 0.55799 seconds. 
  Full-batch training loss = 0.010140, test loss = 0.255982
  Training set accuracy = 1.000000, Test set accuracy = 0.929400
 epoch 82/500. Took 0.56726 seconds. 
  Full-batch training loss = 0.009969, test loss = 0.256786
  Training set accuracy = 1.000000, Test set accuracy = 0.929200
 epoch 83/500. Took 0.55529 seconds. 
  Full-batch training loss = 0.009808, test loss = 0.256896
  Training set accuracy = 1.000000, Test set accuracy = 0.929600
 epoch 84/500. Took 0.56136 seconds. 
  Full-batch training loss = 0.009614, test loss = 0.256811
  Training set accuracy = 1.000000, Test set accuracy = 0.929600
 epoch 85/500. Took 0.56505 seconds. 
  Full-batch training loss = 0.009445, test loss = 0.257176
  Training set accuracy = 1.000000, Test set accuracy = 0.929900
 epoch 86/500. Took 0.55384 seconds. 
  Full-batch training loss = 0.009275, test loss = 0.257786
  Training set accuracy = 1.000000, Test set accuracy = 0.929400
 epoch 87/500. Took 0.56953 seconds. 
  Full-batch training loss = 0.009239, test loss = 0.257921
  Training set accuracy = 1.000000, Test set accuracy = 0.930100
 epoch 88/500. Took 0.55347 seconds. 
  Full-batch training loss = 0.008962, test loss = 0.257808
  Training set accuracy = 1.000000, Test set accuracy = 0.929700
 epoch 89/500. Took 0.55348 seconds. 
  Full-batch training loss = 0.008868, test loss = 0.258360
  Training set accuracy = 1.000000, Test set accuracy = 0.930100
 epoch 90/500. Took 0.56951 seconds. 
  Full-batch training loss = 0.008681, test loss = 0.258037
  Training set accuracy = 1.000000, Test set accuracy = 0.930000
 epoch 91/500. Took 0.5571 seconds. 
  Full-batch training loss = 0.008534, test loss = 0.258718
  Training set accuracy = 1.000000, Test set accuracy = 0.929900
 epoch 92/500. Took 0.55657 seconds. 
  Full-batch training loss = 0.008405, test loss = 0.258685
  Training set accuracy = 1.000000, Test set accuracy = 0.930000
 epoch 93/500. Took 0.56454 seconds. 
  Full-batch training loss = 0.008264, test loss = 0.259280
  Training set accuracy = 1.000000, Test set accuracy = 0.929500
 epoch 94/500. Took 0.55369 seconds. 
  Full-batch training loss = 0.008138, test loss = 0.259268
  Training set accuracy = 1.000000, Test set accuracy = 0.929700
 epoch 95/500. Took 0.55555 seconds. 
  Full-batch training loss = 0.008010, test loss = 0.259575
  Training set accuracy = 1.000000, Test set accuracy = 0.929800
 epoch 96/500. Took 0.55091 seconds. 
  Full-batch training loss = 0.007901, test loss = 0.259708
  Training set accuracy = 1.000000, Test set accuracy = 0.929500
 epoch 97/500. Took 0.5601 seconds. 
  Full-batch training loss = 0.007767, test loss = 0.259949
  Training set accuracy = 1.000000, Test set accuracy = 0.929700
 epoch 98/500. Took 0.56199 seconds. 
  Full-batch training loss = 0.007657, test loss = 0.260158
  Training set accuracy = 1.000000, Test set accuracy = 0.930400
 epoch 99/500. Took 0.56319 seconds. 
  Full-batch training loss = 0.007554, test loss = 0.260273
  Training set accuracy = 1.000000, Test set accuracy = 0.929700
 epoch 100/500. Took 0.55758 seconds. 
  Full-batch training loss = 0.007446, test loss = 0.260588
  Training set accuracy = 1.000000, Test set accuracy = 0.929900
 epoch 101/500. Took 0.55279 seconds. 
  Full-batch training loss = 0.007324, test loss = 0.260911
  Training set accuracy = 1.000000, Test set accuracy = 0.929900
 epoch 102/500. Took 0.55848 seconds. 
  Full-batch training loss = 0.007245, test loss = 0.261195
  Training set accuracy = 1.000000, Test set accuracy = 0.930200
 epoch 103/500. Took 0.56109 seconds. 
  Full-batch training loss = 0.007121, test loss = 0.261171
  Training set accuracy = 1.000000, Test set accuracy = 0.930000
 epoch 104/500. Took 0.56178 seconds. 
  Full-batch training loss = 0.007020, test loss = 0.261273
  Training set accuracy = 1.000000, Test set accuracy = 0.930300
 epoch 105/500. Took 0.55935 seconds. 
  Full-batch training loss = 0.006926, test loss = 0.261598
  Training set accuracy = 1.000000, Test set accuracy = 0.930300
 epoch 106/500. Took 0.55172 seconds. 
  Full-batch training loss = 0.006831, test loss = 0.261857
  Training set accuracy = 1.000000, Test set accuracy = 0.930200
 epoch 107/500. Took 0.556 seconds. 
  Full-batch training loss = 0.006750, test loss = 0.262251
  Training set accuracy = 1.000000, Test set accuracy = 0.930100
 epoch 108/500. Took 0.55747 seconds. 
  Full-batch training loss = 0.006650, test loss = 0.262167
  Training set accuracy = 1.000000, Test set accuracy = 0.930400
 epoch 109/500. Took 0.56105 seconds. 
  Full-batch training loss = 0.006561, test loss = 0.262559
  Training set accuracy = 1.000000, Test set accuracy = 0.930600
 epoch 110/500. Took 0.56684 seconds. 
  Full-batch training loss = 0.006484, test loss = 0.262770
  Training set accuracy = 1.000000, Test set accuracy = 0.930300
 epoch 111/500. Took 0.55769 seconds. 
  Full-batch training loss = 0.006398, test loss = 0.262910
  Training set accuracy = 1.000000, Test set accuracy = 0.930600
 epoch 112/500. Took 0.55703 seconds. 
  Full-batch training loss = 0.006319, test loss = 0.263254
  Training set accuracy = 1.000000, Test set accuracy = 0.929700
 epoch 113/500. Took 0.56185 seconds. 
  Full-batch training loss = 0.006246, test loss = 0.263195
  Training set accuracy = 1.000000, Test set accuracy = 0.930800
 epoch 114/500. Took 0.55724 seconds. 
  Full-batch training loss = 0.006157, test loss = 0.263387
  Training set accuracy = 1.000000, Test set accuracy = 0.930500
 epoch 115/500. Took 0.55919 seconds. 
  Full-batch training loss = 0.006080, test loss = 0.263603
  Training set accuracy = 1.000000, Test set accuracy = 0.930900
 epoch 116/500. Took 0.55569 seconds. 
  Full-batch training loss = 0.006009, test loss = 0.263715
  Training set accuracy = 1.000000, Test set accuracy = 0.930900
 epoch 117/500. Took 0.55697 seconds. 
  Full-batch training loss = 0.005940, test loss = 0.264063
  Training set accuracy = 1.000000, Test set accuracy = 0.930200
 epoch 118/500. Took 0.55505 seconds. 
  Full-batch training loss = 0.005863, test loss = 0.264223
  Training set accuracy = 1.000000, Test set accuracy = 0.930400
 epoch 119/500. Took 0.55521 seconds. 
  Full-batch training loss = 0.005793, test loss = 0.264369
  Training set accuracy = 1.000000, Test set accuracy = 0.930600
 epoch 120/500. Took 0.55863 seconds. 
  Full-batch training loss = 0.005725, test loss = 0.264550
  Training set accuracy = 1.000000, Test set accuracy = 0.930400
 epoch 121/500. Took 0.56017 seconds. 
  Full-batch training loss = 0.005673, test loss = 0.264990
  Training set accuracy = 1.000000, Test set accuracy = 0.930800
 epoch 122/500. Took 0.56583 seconds. 
  Full-batch training loss = 0.005592, test loss = 0.264879
  Training set accuracy = 1.000000, Test set accuracy = 0.930600
 epoch 123/500. Took 0.56514 seconds. 
  Full-batch training loss = 0.005528, test loss = 0.265028
  Training set accuracy = 1.000000, Test set accuracy = 0.930500
 epoch 124/500. Took 0.55695 seconds. 
  Full-batch training loss = 0.005464, test loss = 0.265220
  Training set accuracy = 1.000000, Test set accuracy = 0.930300
 epoch 125/500. Took 0.56608 seconds. 
  Full-batch training loss = 0.005404, test loss = 0.265438
  Training set accuracy = 1.000000, Test set accuracy = 0.930600
 epoch 126/500. Took 0.56274 seconds. 
  Full-batch training loss = 0.005349, test loss = 0.265727
  Training set accuracy = 1.000000, Test set accuracy = 0.930200
 epoch 127/500. Took 0.5615 seconds. 
  Full-batch training loss = 0.005293, test loss = 0.265800
  Training set accuracy = 1.000000, Test set accuracy = 0.931100
 epoch 128/500. Took 0.55782 seconds. 
  Full-batch training loss = 0.005229, test loss = 0.265984
  Training set accuracy = 1.000000, Test set accuracy = 0.930600
 epoch 129/500. Took 0.55616 seconds. 
  Full-batch training loss = 0.005169, test loss = 0.266258
  Training set accuracy = 1.000000, Test set accuracy = 0.930500
 epoch 130/500. Took 0.5591 seconds. 
  Full-batch training loss = 0.005116, test loss = 0.266494
  Training set accuracy = 1.000000, Test set accuracy = 0.931000
 epoch 131/500. Took 0.5613 seconds. 
  Full-batch training loss = 0.005062, test loss = 0.266721
  Training set accuracy = 1.000000, Test set accuracy = 0.931000
 epoch 132/500. Took 0.55766 seconds. 
  Full-batch training loss = 0.005008, test loss = 0.266883
  Training set accuracy = 1.000000, Test set accuracy = 0.930500
 epoch 133/500. Took 0.55134 seconds. 
  Full-batch training loss = 0.004953, test loss = 0.266936
  Training set accuracy = 1.000000, Test set accuracy = 0.930400
 epoch 134/500. Took 0.55834 seconds. 
  Full-batch training loss = 0.004902, test loss = 0.267044
  Training set accuracy = 1.000000, Test set accuracy = 0.931000
 epoch 135/500. Took 0.56019 seconds. 
  Full-batch training loss = 0.004852, test loss = 0.267153
  Training set accuracy = 1.000000, Test set accuracy = 0.930900
 epoch 136/500. Took 0.55748 seconds. 
  Full-batch training loss = 0.004803, test loss = 0.267360
  Training set accuracy = 1.000000, Test set accuracy = 0.931200
 epoch 137/500. Took 0.55582 seconds. 
  Full-batch training loss = 0.004755, test loss = 0.267665
  Training set accuracy = 1.000000, Test set accuracy = 0.930900
 epoch 138/500. Took 0.62353 seconds. 
  Full-batch training loss = 0.004705, test loss = 0.267739
  Training set accuracy = 1.000000, Test set accuracy = 0.930600
 epoch 139/500. Took 0.56397 seconds. 
  Full-batch training loss = 0.004660, test loss = 0.267862
  Training set accuracy = 1.000000, Test set accuracy = 0.930600
 epoch 140/500. Took 0.55985 seconds. 
  Full-batch training loss = 0.004615, test loss = 0.268249
  Training set accuracy = 1.000000, Test set accuracy = 0.931100
 epoch 141/500. Took 0.55512 seconds. 
  Full-batch training loss = 0.004570, test loss = 0.268209
  Training set accuracy = 1.000000, Test set accuracy = 0.930200
 epoch 142/500. Took 0.55824 seconds. 
  Full-batch training loss = 0.004523, test loss = 0.268349
  Training set accuracy = 1.000000, Test set accuracy = 0.930800
 epoch 143/500. Took 0.56473 seconds. 
  Full-batch training loss = 0.004480, test loss = 0.268648
  Training set accuracy = 1.000000, Test set accuracy = 0.930800
 epoch 144/500. Took 0.55936 seconds. 
  Full-batch training loss = 0.004437, test loss = 0.268751
  Training set accuracy = 1.000000, Test set accuracy = 0.931000
 epoch 145/500. Took 0.55592 seconds. 
  Full-batch training loss = 0.004397, test loss = 0.268857
  Training set accuracy = 1.000000, Test set accuracy = 0.930900
 epoch 146/500. Took 0.56406 seconds. 
  Full-batch training loss = 0.004354, test loss = 0.269053
  Training set accuracy = 1.000000, Test set accuracy = 0.930900
 epoch 147/500. Took 0.56077 seconds. 
  Full-batch training loss = 0.004313, test loss = 0.269148
  Training set accuracy = 1.000000, Test set accuracy = 0.930700
 epoch 148/500. Took 0.55625 seconds. 
  Full-batch training loss = 0.004273, test loss = 0.269498
  Training set accuracy = 1.000000, Test set accuracy = 0.931100
 epoch 149/500. Took 0.56003 seconds. 
  Full-batch training loss = 0.004234, test loss = 0.269586
  Training set accuracy = 1.000000, Test set accuracy = 0.931100
 epoch 150/500. Took 0.55537 seconds. 
  Full-batch training loss = 0.004195, test loss = 0.269695
  Training set accuracy = 1.000000, Test set accuracy = 0.930900
 epoch 151/500. Took 0.56144 seconds. 
  Full-batch training loss = 0.004155, test loss = 0.269800
  Training set accuracy = 1.000000, Test set accuracy = 0.931000
 epoch 152/500. Took 0.55881 seconds. 
  Full-batch training loss = 0.004118, test loss = 0.270024
  Training set accuracy = 1.000000, Test set accuracy = 0.931200
 epoch 153/500. Took 0.5497 seconds. 
  Full-batch training loss = 0.004082, test loss = 0.270100
  Training set accuracy = 1.000000, Test set accuracy = 0.930900
 epoch 154/500. Took 0.56969 seconds. 
  Full-batch training loss = 0.004046, test loss = 0.270289
  Training set accuracy = 1.000000, Test set accuracy = 0.931000
 epoch 155/500. Took 0.55679 seconds. 
  Full-batch training loss = 0.004011, test loss = 0.270309
  Training set accuracy = 1.000000, Test set accuracy = 0.931000
 epoch 156/500. Took 0.56796 seconds. 
  Full-batch training loss = 0.003974, test loss = 0.270650
  Training set accuracy = 1.000000, Test set accuracy = 0.930900
 epoch 157/500. Took 0.55676 seconds. 
  Full-batch training loss = 0.003941, test loss = 0.270746
  Training set accuracy = 1.000000, Test set accuracy = 0.931200
 epoch 158/500. Took 0.57495 seconds. 
  Full-batch training loss = 0.003907, test loss = 0.270883
  Training set accuracy = 1.000000, Test set accuracy = 0.931300
 epoch 159/500. Took 0.55663 seconds. 
  Full-batch training loss = 0.003874, test loss = 0.271151
  Training set accuracy = 1.000000, Test set accuracy = 0.930700
 epoch 160/500. Took 0.55528 seconds. 
  Full-batch training loss = 0.003840, test loss = 0.271270
  Training set accuracy = 1.000000, Test set accuracy = 0.931100
 epoch 161/500. Took 0.56117 seconds. 
  Full-batch training loss = 0.003808, test loss = 0.271411
  Training set accuracy = 1.000000, Test set accuracy = 0.931200
 epoch 162/500. Took 0.56913 seconds. 
  Full-batch training loss = 0.003774, test loss = 0.271472
  Training set accuracy = 1.000000, Test set accuracy = 0.931200
 epoch 163/500. Took 0.56471 seconds. 
  Full-batch training loss = 0.003745, test loss = 0.271488
  Training set accuracy = 1.000000, Test set accuracy = 0.931200
 epoch 164/500. Took 0.5626 seconds. 
  Full-batch training loss = 0.003713, test loss = 0.271677
  Training set accuracy = 1.000000, Test set accuracy = 0.931100
 epoch 165/500. Took 0.55918 seconds. 
  Full-batch training loss = 0.003682, test loss = 0.271884
  Training set accuracy = 1.000000, Test set accuracy = 0.931000
 epoch 166/500. Took 0.55275 seconds. 
  Full-batch training loss = 0.003651, test loss = 0.272090
  Training set accuracy = 1.000000, Test set accuracy = 0.931300
 epoch 167/500. Took 0.57205 seconds. 
  Full-batch training loss = 0.003623, test loss = 0.272095
  Training set accuracy = 1.000000, Test set accuracy = 0.931500
 epoch 168/500. Took 0.55757 seconds. 
  Full-batch training loss = 0.003594, test loss = 0.272223
  Training set accuracy = 1.000000, Test set accuracy = 0.931400
 epoch 169/500. Took 0.5601 seconds. 
  Full-batch training loss = 0.003564, test loss = 0.272281
  Training set accuracy = 1.000000, Test set accuracy = 0.931400
 epoch 170/500. Took 0.55759 seconds. 
  Full-batch training loss = 0.003535, test loss = 0.272639
  Training set accuracy = 1.000000, Test set accuracy = 0.931400
 epoch 171/500. Took 0.55507 seconds. 
  Full-batch training loss = 0.003508, test loss = 0.272715
  Training set accuracy = 1.000000, Test set accuracy = 0.931400
 epoch 172/500. Took 0.56073 seconds. 
  Full-batch training loss = 0.003481, test loss = 0.272869
  Training set accuracy = 1.000000, Test set accuracy = 0.931400
 epoch 173/500. Took 0.56856 seconds. 
  Full-batch training loss = 0.003455, test loss = 0.273023
  Training set accuracy = 1.000000, Test set accuracy = 0.931200
 epoch 174/500. Took 0.56773 seconds. 
  Full-batch training loss = 0.003426, test loss = 0.273071
  Training set accuracy = 1.000000, Test set accuracy = 0.931400
 epoch 175/500. Took 0.57156 seconds. 
  Full-batch training loss = 0.003401, test loss = 0.273354
  Training set accuracy = 1.000000, Test set accuracy = 0.931400
 epoch 176/500. Took 0.56172 seconds. 
  Full-batch training loss = 0.003374, test loss = 0.273360
  Training set accuracy = 1.000000, Test set accuracy = 0.931400
 epoch 177/500. Took 0.5606 seconds. 
  Full-batch training loss = 0.003348, test loss = 0.273575
  Training set accuracy = 1.000000, Test set accuracy = 0.931200
 epoch 178/500. Took 0.56558 seconds. 
  Full-batch training loss = 0.003323, test loss = 0.273680
  Training set accuracy = 1.000000, Test set accuracy = 0.931300
 epoch 179/500. Took 0.55737 seconds. 
  Full-batch training loss = 0.003298, test loss = 0.273811
  Training set accuracy = 1.000000, Test set accuracy = 0.931300
 epoch 180/500. Took 0.57029 seconds. 
  Full-batch training loss = 0.003273, test loss = 0.273987
  Training set accuracy = 1.000000, Test set accuracy = 0.931400
 epoch 181/500. Took 0.56103 seconds. 
  Full-batch training loss = 0.003249, test loss = 0.274036
  Training set accuracy = 1.000000, Test set accuracy = 0.931300
 epoch 182/500. Took 0.57072 seconds. 
  Full-batch training loss = 0.003225, test loss = 0.274166
  Training set accuracy = 1.000000, Test set accuracy = 0.931400
 epoch 183/500. Took 0.56119 seconds. 
  Full-batch training loss = 0.003202, test loss = 0.274220
  Training set accuracy = 1.000000, Test set accuracy = 0.931400
 epoch 184/500. Took 0.56051 seconds. 
  Full-batch training loss = 0.003179, test loss = 0.274413
  Training set accuracy = 1.000000, Test set accuracy = 0.931400
 epoch 185/500. Took 0.55561 seconds. 
  Full-batch training loss = 0.003155, test loss = 0.274582
  Training set accuracy = 1.000000, Test set accuracy = 0.931600
 epoch 186/500. Took 0.55829 seconds. 
  Full-batch training loss = 0.003133, test loss = 0.274644
  Training set accuracy = 1.000000, Test set accuracy = 0.931300
 epoch 187/500. Took 0.56315 seconds. 
  Full-batch training loss = 0.003110, test loss = 0.274867
  Training set accuracy = 1.000000, Test set accuracy = 0.931700
 epoch 188/500. Took 0.57695 seconds. 
  Full-batch training loss = 0.003088, test loss = 0.275067
  Training set accuracy = 1.000000, Test set accuracy = 0.931500
 epoch 189/500. Took 0.55354 seconds. 
  Full-batch training loss = 0.003067, test loss = 0.275058
  Training set accuracy = 1.000000, Test set accuracy = 0.931700
 epoch 190/500. Took 0.55889 seconds. 
  Full-batch training loss = 0.003044, test loss = 0.275134
  Training set accuracy = 1.000000, Test set accuracy = 0.931300
 epoch 191/500. Took 0.56322 seconds. 
  Full-batch training loss = 0.003023, test loss = 0.275225
  Training set accuracy = 1.000000, Test set accuracy = 0.931600
 epoch 192/500. Took 0.58131 seconds. 
  Full-batch training loss = 0.003002, test loss = 0.275414
  Training set accuracy = 1.000000, Test set accuracy = 0.931600
 epoch 193/500. Took 0.55727 seconds. 
  Full-batch training loss = 0.002981, test loss = 0.275678
  Training set accuracy = 1.000000, Test set accuracy = 0.931700
 epoch 194/500. Took 0.55911 seconds. 
  Full-batch training loss = 0.002960, test loss = 0.275562
  Training set accuracy = 1.000000, Test set accuracy = 0.931500
 epoch 195/500. Took 0.56549 seconds. 
  Full-batch training loss = 0.002942, test loss = 0.275747
  Training set accuracy = 1.000000, Test set accuracy = 0.931500
 epoch 196/500. Took 0.55357 seconds. 
  Full-batch training loss = 0.002920, test loss = 0.275893
  Training set accuracy = 1.000000, Test set accuracy = 0.931500
 epoch 197/500. Took 0.57859 seconds. 
  Full-batch training loss = 0.002900, test loss = 0.276072
  Training set accuracy = 1.000000, Test set accuracy = 0.931500
 epoch 198/500. Took 0.56664 seconds. 
  Full-batch training loss = 0.002881, test loss = 0.276165
  Training set accuracy = 1.000000, Test set accuracy = 0.931800
 epoch 199/500. Took 0.55715 seconds. 
  Full-batch training loss = 0.002862, test loss = 0.276398
  Training set accuracy = 1.000000, Test set accuracy = 0.931600
 epoch 200/500. Took 0.55674 seconds. 
  Full-batch training loss = 0.002842, test loss = 0.276374
  Training set accuracy = 1.000000, Test set accuracy = 0.931600
 epoch 201/500. Took 0.5583 seconds. 
  Full-batch training loss = 0.002824, test loss = 0.276607
  Training set accuracy = 1.000000, Test set accuracy = 0.931600
 epoch 202/500. Took 0.55343 seconds. 
  Full-batch training loss = 0.002805, test loss = 0.276742
  Training set accuracy = 1.000000, Test set accuracy = 0.931900
 epoch 203/500. Took 0.56852 seconds. 
  Full-batch training loss = 0.002787, test loss = 0.276750
  Training set accuracy = 1.000000, Test set accuracy = 0.931500
 epoch 204/500. Took 0.5554 seconds. 
  Full-batch training loss = 0.002769, test loss = 0.276871
  Training set accuracy = 1.000000, Test set accuracy = 0.931700
 epoch 205/500. Took 0.55321 seconds. 
  Full-batch training loss = 0.002751, test loss = 0.277029
  Training set accuracy = 1.000000, Test set accuracy = 0.931900
 epoch 206/500. Took 0.56014 seconds. 
  Full-batch training loss = 0.002733, test loss = 0.277056
  Training set accuracy = 1.000000, Test set accuracy = 0.931600
 epoch 207/500. Took 0.55715 seconds. 
  Full-batch training loss = 0.002717, test loss = 0.277302
  Training set accuracy = 1.000000, Test set accuracy = 0.931800
 epoch 208/500. Took 0.56676 seconds. 
  Full-batch training loss = 0.002698, test loss = 0.277339
  Training set accuracy = 1.000000, Test set accuracy = 0.931800
 epoch 209/500. Took 0.58529 seconds. 
  Full-batch training loss = 0.002681, test loss = 0.277460
  Training set accuracy = 1.000000, Test set accuracy = 0.931800
 epoch 210/500. Took 0.55908 seconds. 
  Full-batch training loss = 0.002665, test loss = 0.277598
  Training set accuracy = 1.000000, Test set accuracy = 0.931900
 epoch 211/500. Took 0.5571 seconds. 
  Full-batch training loss = 0.002648, test loss = 0.277613
  Training set accuracy = 1.000000, Test set accuracy = 0.931700
 epoch 212/500. Took 0.5583 seconds. 
  Full-batch training loss = 0.002631, test loss = 0.277759
  Training set accuracy = 1.000000, Test set accuracy = 0.931700
 epoch 213/500. Took 0.54957 seconds. 
  Full-batch training loss = 0.002614, test loss = 0.277954
  Training set accuracy = 1.000000, Test set accuracy = 0.931800
 epoch 214/500. Took 0.56222 seconds. 
  Full-batch training loss = 0.002599, test loss = 0.277965
  Training set accuracy = 1.000000, Test set accuracy = 0.931900
 epoch 215/500. Took 0.55735 seconds. 
  Full-batch training loss = 0.002583, test loss = 0.278201
  Training set accuracy = 1.000000, Test set accuracy = 0.931800
 epoch 216/500. Took 0.55775 seconds. 
  Full-batch training loss = 0.002566, test loss = 0.278284
  Training set accuracy = 1.000000, Test set accuracy = 0.931900
 epoch 217/500. Took 0.5663 seconds. 
  Full-batch training loss = 0.002551, test loss = 0.278329
  Training set accuracy = 1.000000, Test set accuracy = 0.931800
 epoch 218/500. Took 0.55712 seconds. 
  Full-batch training loss = 0.002535, test loss = 0.278469
  Training set accuracy = 1.000000, Test set accuracy = 0.931900
 epoch 219/500. Took 0.55935 seconds. 
  Full-batch training loss = 0.002520, test loss = 0.278493
  Training set accuracy = 1.000000, Test set accuracy = 0.931800
 epoch 220/500. Took 0.56297 seconds. 
  Full-batch training loss = 0.002505, test loss = 0.278603
  Training set accuracy = 1.000000, Test set accuracy = 0.932000
 epoch 221/500. Took 0.55876 seconds. 
  Full-batch training loss = 0.002491, test loss = 0.278783
  Training set accuracy = 1.000000, Test set accuracy = 0.932000
 epoch 222/500. Took 0.55727 seconds. 
  Full-batch training loss = 0.002476, test loss = 0.279003
  Training set accuracy = 1.000000, Test set accuracy = 0.931900
 epoch 223/500. Took 0.5808 seconds. 
  Full-batch training loss = 0.002461, test loss = 0.279020
  Training set accuracy = 1.000000, Test set accuracy = 0.931900
 epoch 224/500. Took 0.56149 seconds. 
  Full-batch training loss = 0.002446, test loss = 0.279111
  Training set accuracy = 1.000000, Test set accuracy = 0.931900
 epoch 225/500. Took 0.56488 seconds. 
  Full-batch training loss = 0.002432, test loss = 0.279342
  Training set accuracy = 1.000000, Test set accuracy = 0.931800
 epoch 226/500. Took 0.55954 seconds. 
  Full-batch training loss = 0.002418, test loss = 0.279272
  Training set accuracy = 1.000000, Test set accuracy = 0.931800
 epoch 227/500. Took 0.55756 seconds. 
  Full-batch training loss = 0.002404, test loss = 0.279392
  Training set accuracy = 1.000000, Test set accuracy = 0.932000
 epoch 228/500. Took 0.55689 seconds. 
  Full-batch training loss = 0.002390, test loss = 0.279596
  Training set accuracy = 1.000000, Test set accuracy = 0.931900
 epoch 229/500. Took 0.56471 seconds. 
  Full-batch training loss = 0.002376, test loss = 0.279722
  Training set accuracy = 1.000000, Test set accuracy = 0.931900
 epoch 230/500. Took 0.57058 seconds. 
  Full-batch training loss = 0.002362, test loss = 0.279746
  Training set accuracy = 1.000000, Test set accuracy = 0.932000
 epoch 231/500. Took 0.56519 seconds. 
  Full-batch training loss = 0.002350, test loss = 0.279946
  Training set accuracy = 1.000000, Test set accuracy = 0.932000
 epoch 232/500. Took 0.55878 seconds. 
  Full-batch training loss = 0.002336, test loss = 0.279854
  Training set accuracy = 1.000000, Test set accuracy = 0.932100
 epoch 233/500. Took 0.6469 seconds. 
  Full-batch training loss = 0.002323, test loss = 0.280001
  Training set accuracy = 1.000000, Test set accuracy = 0.932000
 epoch 234/500. Took 0.5684 seconds. 
  Full-batch training loss = 0.002310, test loss = 0.280141
  Training set accuracy = 1.000000, Test set accuracy = 0.931900
 epoch 235/500. Took 0.55529 seconds. 
  Full-batch training loss = 0.002297, test loss = 0.280292
  Training set accuracy = 1.000000, Test set accuracy = 0.932000
 epoch 236/500. Took 0.5588 seconds. 
  Full-batch training loss = 0.002284, test loss = 0.280376
  Training set accuracy = 1.000000, Test set accuracy = 0.932100
 epoch 237/500. Took 0.56336 seconds. 
  Full-batch training loss = 0.002272, test loss = 0.280488
  Training set accuracy = 1.000000, Test set accuracy = 0.932100
 epoch 238/500. Took 0.56009 seconds. 
  Full-batch training loss = 0.002259, test loss = 0.280547
  Training set accuracy = 1.000000, Test set accuracy = 0.932000
 epoch 239/500. Took 0.56254 seconds. 
  Full-batch training loss = 0.002247, test loss = 0.280682
  Training set accuracy = 1.000000, Test set accuracy = 0.932000
 epoch 240/500. Took 0.56556 seconds. 
  Full-batch training loss = 0.002234, test loss = 0.280744
  Training set accuracy = 1.000000, Test set accuracy = 0.932100
 epoch 241/500. Took 0.56699 seconds. 
  Full-batch training loss = 0.002222, test loss = 0.280851
  Training set accuracy = 1.000000, Test set accuracy = 0.932000
 epoch 242/500. Took 0.55982 seconds. 
  Full-batch training loss = 0.002211, test loss = 0.280899
  Training set accuracy = 1.000000, Test set accuracy = 0.932100
 epoch 243/500. Took 0.56927 seconds. 
  Full-batch training loss = 0.002198, test loss = 0.281063
  Training set accuracy = 1.000000, Test set accuracy = 0.932000
 epoch 244/500. Took 0.55776 seconds. 
  Full-batch training loss = 0.002187, test loss = 0.281114
  Training set accuracy = 1.000000, Test set accuracy = 0.932100
 epoch 245/500. Took 0.5523 seconds. 
  Full-batch training loss = 0.002176, test loss = 0.281223
  Training set accuracy = 1.000000, Test set accuracy = 0.931900
 epoch 246/500. Took 0.55541 seconds. 
  Full-batch training loss = 0.002164, test loss = 0.281403
  Training set accuracy = 1.000000, Test set accuracy = 0.932100
 epoch 247/500. Took 0.55989 seconds. 
  Full-batch training loss = 0.002152, test loss = 0.281527
  Training set accuracy = 1.000000, Test set accuracy = 0.932100
 epoch 248/500. Took 0.5576 seconds. 
  Full-batch training loss = 0.002141, test loss = 0.281549
  Training set accuracy = 1.000000, Test set accuracy = 0.932100
 epoch 249/500. Took 0.55519 seconds. 
  Full-batch training loss = 0.002130, test loss = 0.281629
  Training set accuracy = 1.000000, Test set accuracy = 0.931900
 epoch 250/500. Took 0.55497 seconds. 
  Full-batch training loss = 0.002119, test loss = 0.281706
  Training set accuracy = 1.000000, Test set accuracy = 0.932000
 epoch 251/500. Took 0.55385 seconds. 
  Full-batch training loss = 0.002107, test loss = 0.281891
  Training set accuracy = 1.000000, Test set accuracy = 0.932100
 epoch 252/500. Took 0.55699 seconds. 
  Full-batch training loss = 0.002097, test loss = 0.281892
  Training set accuracy = 1.000000, Test set accuracy = 0.932100
 epoch 253/500. Took 0.55397 seconds. 
  Full-batch training loss = 0.002086, test loss = 0.281989
  Training set accuracy = 1.000000, Test set accuracy = 0.931800
 epoch 254/500. Took 0.5625 seconds. 
  Full-batch training loss = 0.002075, test loss = 0.282070
  Training set accuracy = 1.000000, Test set accuracy = 0.932100
 epoch 255/500. Took 0.55809 seconds. 
  Full-batch training loss = 0.002065, test loss = 0.282250
  Training set accuracy = 1.000000, Test set accuracy = 0.932000
 epoch 256/500. Took 0.56059 seconds. 
  Full-batch training loss = 0.002054, test loss = 0.282273
  Training set accuracy = 1.000000, Test set accuracy = 0.931900
 epoch 257/500. Took 0.57185 seconds. 
  Full-batch training loss = 0.002044, test loss = 0.282333
  Training set accuracy = 1.000000, Test set accuracy = 0.932000
 epoch 258/500. Took 0.55607 seconds. 
  Full-batch training loss = 0.002034, test loss = 0.282481
  Training set accuracy = 1.000000, Test set accuracy = 0.932000
 epoch 259/500. Took 0.55678 seconds. 
  Full-batch training loss = 0.002023, test loss = 0.282540
  Training set accuracy = 1.000000, Test set accuracy = 0.932100
 epoch 260/500. Took 0.55324 seconds. 
  Full-batch training loss = 0.002013, test loss = 0.282645
  Training set accuracy = 1.000000, Test set accuracy = 0.932000
 epoch 261/500. Took 0.55703 seconds. 
  Full-batch training loss = 0.002003, test loss = 0.282763
  Training set accuracy = 1.000000, Test set accuracy = 0.932100
 epoch 262/500. Took 0.56663 seconds. 
  Full-batch training loss = 0.001993, test loss = 0.282872
  Training set accuracy = 1.000000, Test set accuracy = 0.932200
 epoch 263/500. Took 0.55601 seconds. 
  Full-batch training loss = 0.001983, test loss = 0.282870
  Training set accuracy = 1.000000, Test set accuracy = 0.931900
 epoch 264/500. Took 0.55545 seconds. 
  Full-batch training loss = 0.001975, test loss = 0.283035
  Training set accuracy = 1.000000, Test set accuracy = 0.932200
 epoch 265/500. Took 0.55661 seconds. 
  Full-batch training loss = 0.001964, test loss = 0.283148
  Training set accuracy = 1.000000, Test set accuracy = 0.932000
 epoch 266/500. Took 0.55681 seconds. 
  Full-batch training loss = 0.001954, test loss = 0.283254
  Training set accuracy = 1.000000, Test set accuracy = 0.931900
 epoch 267/500. Took 0.55994 seconds. 
  Full-batch training loss = 0.001945, test loss = 0.283381
  Training set accuracy = 1.000000, Test set accuracy = 0.932100
 epoch 268/500. Took 0.55885 seconds. 
  Full-batch training loss = 0.001936, test loss = 0.283332
  Training set accuracy = 1.000000, Test set accuracy = 0.931900
 epoch 269/500. Took 0.55482 seconds. 
  Full-batch training loss = 0.001926, test loss = 0.283473
  Training set accuracy = 1.000000, Test set accuracy = 0.932000
 epoch 270/500. Took 0.55391 seconds. 
  Full-batch training loss = 0.001917, test loss = 0.283556
  Training set accuracy = 1.000000, Test set accuracy = 0.932200
 epoch 271/500. Took 0.5577 seconds. 
  Full-batch training loss = 0.001908, test loss = 0.283633
  Training set accuracy = 1.000000, Test set accuracy = 0.932000
 epoch 272/500. Took 0.55543 seconds. 
  Full-batch training loss = 0.001899, test loss = 0.283610
  Training set accuracy = 1.000000, Test set accuracy = 0.931900
 epoch 273/500. Took 0.55847 seconds. 
  Full-batch training loss = 0.001890, test loss = 0.283875
  Training set accuracy = 1.000000, Test set accuracy = 0.932200
 epoch 274/500. Took 0.56438 seconds. 
  Full-batch training loss = 0.001881, test loss = 0.283956
  Training set accuracy = 1.000000, Test set accuracy = 0.932000
 epoch 275/500. Took 0.55954 seconds. 
  Full-batch training loss = 0.001872, test loss = 0.284037
  Training set accuracy = 1.000000, Test set accuracy = 0.932100
 epoch 276/500. Took 0.5672 seconds. 
  Full-batch training loss = 0.001863, test loss = 0.283999
  Training set accuracy = 1.000000, Test set accuracy = 0.932000
 epoch 277/500. Took 0.55933 seconds. 
  Full-batch training loss = 0.001855, test loss = 0.284215
  Training set accuracy = 1.000000, Test set accuracy = 0.932100
 epoch 278/500. Took 0.55897 seconds. 
  Full-batch training loss = 0.001846, test loss = 0.284236
  Training set accuracy = 1.000000, Test set accuracy = 0.932300
 epoch 279/500. Took 0.55801 seconds. 
  Full-batch training loss = 0.001837, test loss = 0.284332
  Training set accuracy = 1.000000, Test set accuracy = 0.932100
 epoch 280/500. Took 0.55336 seconds. 
  Full-batch training loss = 0.001829, test loss = 0.284472
  Training set accuracy = 1.000000, Test set accuracy = 0.932300
 epoch 281/500. Took 0.55774 seconds. 
  Full-batch training loss = 0.001820, test loss = 0.284571
  Training set accuracy = 1.000000, Test set accuracy = 0.932300
 epoch 282/500. Took 0.55585 seconds. 
  Full-batch training loss = 0.001812, test loss = 0.284530
  Training set accuracy = 1.000000, Test set accuracy = 0.932000
 epoch 283/500. Took 0.55927 seconds. 
  Full-batch training loss = 0.001804, test loss = 0.284721
  Training set accuracy = 1.000000, Test set accuracy = 0.932400
 epoch 284/500. Took 0.5651 seconds. 
  Full-batch training loss = 0.001796, test loss = 0.284784
  Training set accuracy = 1.000000, Test set accuracy = 0.932100
 epoch 285/500. Took 0.56371 seconds. 
  Full-batch training loss = 0.001788, test loss = 0.284883
  Training set accuracy = 1.000000, Test set accuracy = 0.932300
 epoch 286/500. Took 0.62255 seconds. 
  Full-batch training loss = 0.001780, test loss = 0.284995
  Training set accuracy = 1.000000, Test set accuracy = 0.932200
 epoch 287/500. Took 0.56342 seconds. 
  Full-batch training loss = 0.001772, test loss = 0.285079
  Training set accuracy = 1.000000, Test set accuracy = 0.932000
 epoch 288/500. Took 0.57054 seconds. 
  Full-batch training loss = 0.001764, test loss = 0.285138
  Training set accuracy = 1.000000, Test set accuracy = 0.932200
 epoch 289/500. Took 0.56982 seconds. 
  Full-batch training loss = 0.001756, test loss = 0.285196
  Training set accuracy = 1.000000, Test set accuracy = 0.932300
 epoch 290/500. Took 0.55768 seconds. 
  Full-batch training loss = 0.001748, test loss = 0.285283
  Training set accuracy = 1.000000, Test set accuracy = 0.932300
 epoch 291/500. Took 0.55919 seconds. 
  Full-batch training loss = 0.001740, test loss = 0.285398
  Training set accuracy = 1.000000, Test set accuracy = 0.932200
 epoch 292/500. Took 0.55883 seconds. 
  Full-batch training loss = 0.001733, test loss = 0.285504
  Training set accuracy = 1.000000, Test set accuracy = 0.932400
 epoch 293/500. Took 0.5588 seconds. 
  Full-batch training loss = 0.001725, test loss = 0.285567
  Training set accuracy = 1.000000, Test set accuracy = 0.932200
 epoch 294/500. Took 0.56455 seconds. 
  Full-batch training loss = 0.001718, test loss = 0.285582
  Training set accuracy = 1.000000, Test set accuracy = 0.932200
 epoch 295/500. Took 0.55887 seconds. 
  Full-batch training loss = 0.001710, test loss = 0.285688
  Training set accuracy = 1.000000, Test set accuracy = 0.932000
 epoch 296/500. Took 0.55851 seconds. 
  Full-batch training loss = 0.001703, test loss = 0.285796
  Training set accuracy = 1.000000, Test set accuracy = 0.932200
 epoch 297/500. Took 0.55668 seconds. 
  Full-batch training loss = 0.001695, test loss = 0.285876
  Training set accuracy = 1.000000, Test set accuracy = 0.932300
 epoch 298/500. Took 0.5605 seconds. 
  Full-batch training loss = 0.001688, test loss = 0.285950
  Training set accuracy = 1.000000, Test set accuracy = 0.932000
 epoch 299/500. Took 0.55646 seconds. 
  Full-batch training loss = 0.001681, test loss = 0.286025
  Training set accuracy = 1.000000, Test set accuracy = 0.932300
 epoch 300/500. Took 0.55473 seconds. 
  Full-batch training loss = 0.001674, test loss = 0.286097
  Training set accuracy = 1.000000, Test set accuracy = 0.932300
 epoch 301/500. Took 0.56334 seconds. 
  Full-batch training loss = 0.001666, test loss = 0.286113
  Training set accuracy = 1.000000, Test set accuracy = 0.932300
 epoch 302/500. Took 0.55773 seconds. 
  Full-batch training loss = 0.001659, test loss = 0.286279
  Training set accuracy = 1.000000, Test set accuracy = 0.932300
 epoch 303/500. Took 0.55962 seconds. 
  Full-batch training loss = 0.001652, test loss = 0.286305
  Training set accuracy = 1.000000, Test set accuracy = 0.932300
 epoch 304/500. Took 0.55831 seconds. 
  Full-batch training loss = 0.001645, test loss = 0.286438
  Training set accuracy = 1.000000, Test set accuracy = 0.932300
 epoch 305/500. Took 0.55936 seconds. 
  Full-batch training loss = 0.001638, test loss = 0.286472
  Training set accuracy = 1.000000, Test set accuracy = 0.932300
 epoch 306/500. Took 0.5543 seconds. 
  Full-batch training loss = 0.001631, test loss = 0.286527
  Training set accuracy = 1.000000, Test set accuracy = 0.932300
 epoch 307/500. Took 0.55666 seconds. 
  Full-batch training loss = 0.001625, test loss = 0.286687
  Training set accuracy = 1.000000, Test set accuracy = 0.932300
 epoch 308/500. Took 0.55613 seconds. 
  Full-batch training loss = 0.001618, test loss = 0.286687
  Training set accuracy = 1.000000, Test set accuracy = 0.932300
 epoch 309/500. Took 0.56128 seconds. 
  Full-batch training loss = 0.001612, test loss = 0.286860
  Training set accuracy = 1.000000, Test set accuracy = 0.932500
 epoch 310/500. Took 0.55574 seconds. 
  Full-batch training loss = 0.001605, test loss = 0.286908
  Training set accuracy = 1.000000, Test set accuracy = 0.932300
 epoch 311/500. Took 0.55655 seconds. 
  Full-batch training loss = 0.001598, test loss = 0.287032
  Training set accuracy = 1.000000, Test set accuracy = 0.932300
 epoch 312/500. Took 0.55698 seconds. 
  Full-batch training loss = 0.001591, test loss = 0.287061
  Training set accuracy = 1.000000, Test set accuracy = 0.932300
 epoch 313/500. Took 0.55378 seconds. 
  Full-batch training loss = 0.001585, test loss = 0.287144
  Training set accuracy = 1.000000, Test set accuracy = 0.932300
 epoch 314/500. Took 0.55698 seconds. 
  Full-batch training loss = 0.001579, test loss = 0.287246
  Training set accuracy = 1.000000, Test set accuracy = 0.932300
 epoch 315/500. Took 0.55458 seconds. 
  Full-batch training loss = 0.001572, test loss = 0.287323
  Training set accuracy = 1.000000, Test set accuracy = 0.932500
 epoch 316/500. Took 0.55936 seconds. 
  Full-batch training loss = 0.001566, test loss = 0.287355
  Training set accuracy = 1.000000, Test set accuracy = 0.932300
 epoch 317/500. Took 0.55453 seconds. 
  Full-batch training loss = 0.001559, test loss = 0.287426
  Training set accuracy = 1.000000, Test set accuracy = 0.932300
 epoch 318/500. Took 0.55282 seconds. 
  Full-batch training loss = 0.001553, test loss = 0.287520
  Training set accuracy = 1.000000, Test set accuracy = 0.932200
 epoch 319/500. Took 0.55483 seconds. 
  Full-batch training loss = 0.001547, test loss = 0.287560
  Training set accuracy = 1.000000, Test set accuracy = 0.932300
 epoch 320/500. Took 0.55167 seconds. 
  Full-batch training loss = 0.001541, test loss = 0.287696
  Training set accuracy = 1.000000, Test set accuracy = 0.932300
 epoch 321/500. Took 0.55338 seconds. 
  Full-batch training loss = 0.001535, test loss = 0.287711
  Training set accuracy = 1.000000, Test set accuracy = 0.932300
 epoch 322/500. Took 0.55898 seconds. 
  Full-batch training loss = 0.001529, test loss = 0.287828
  Training set accuracy = 1.000000, Test set accuracy = 0.932300
 epoch 323/500. Took 0.55605 seconds. 
  Full-batch training loss = 0.001522, test loss = 0.287879
  Training set accuracy = 1.000000, Test set accuracy = 0.932300
 epoch 324/500. Took 0.56186 seconds. 
  Full-batch training loss = 0.001517, test loss = 0.287938
  Training set accuracy = 1.000000, Test set accuracy = 0.932300
 epoch 325/500. Took 0.55479 seconds. 
  Full-batch training loss = 0.001511, test loss = 0.288038
  Training set accuracy = 1.000000, Test set accuracy = 0.932300
 epoch 326/500. Took 0.56077 seconds. 
  Full-batch training loss = 0.001505, test loss = 0.288101
  Training set accuracy = 1.000000, Test set accuracy = 0.932300
 epoch 327/500. Took 0.55677 seconds. 
  Full-batch training loss = 0.001499, test loss = 0.288108
  Training set accuracy = 1.000000, Test set accuracy = 0.932300
 epoch 328/500. Took 0.55453 seconds. 
  Full-batch training loss = 0.001493, test loss = 0.288223
  Training set accuracy = 1.000000, Test set accuracy = 0.932300
 epoch 329/500. Took 0.55806 seconds. 
  Full-batch training loss = 0.001487, test loss = 0.288345
  Training set accuracy = 1.000000, Test set accuracy = 0.932300
 epoch 330/500. Took 0.55813 seconds. 
  Full-batch training loss = 0.001482, test loss = 0.288451
  Training set accuracy = 1.000000, Test set accuracy = 0.932200
 epoch 331/500. Took 0.55247 seconds. 
  Full-batch training loss = 0.001476, test loss = 0.288568
  Training set accuracy = 1.000000, Test set accuracy = 0.932300
 epoch 332/500. Took 0.55669 seconds. 
  Full-batch training loss = 0.001470, test loss = 0.288538
  Training set accuracy = 1.000000, Test set accuracy = 0.932300
 epoch 333/500. Took 0.55529 seconds. 
  Full-batch training loss = 0.001465, test loss = 0.288583
  Training set accuracy = 1.000000, Test set accuracy = 0.932300
 epoch 334/500. Took 0.55229 seconds. 
  Full-batch training loss = 0.001459, test loss = 0.288701
  Training set accuracy = 1.000000, Test set accuracy = 0.932300
 epoch 335/500. Took 0.55454 seconds. 
  Full-batch training loss = 0.001453, test loss = 0.288790
  Training set accuracy = 1.000000, Test set accuracy = 0.932300
 epoch 336/500. Took 0.55725 seconds. 
  Full-batch training loss = 0.001448, test loss = 0.288908
  Training set accuracy = 1.000000, Test set accuracy = 0.932300
 epoch 337/500. Took 0.56632 seconds. 
  Full-batch training loss = 0.001442, test loss = 0.288871
  Training set accuracy = 1.000000, Test set accuracy = 0.932300
 epoch 338/500. Took 0.56114 seconds. 
  Full-batch training loss = 0.001437, test loss = 0.288978
  Training set accuracy = 1.000000, Test set accuracy = 0.932300
 epoch 339/500. Took 0.56362 seconds. 
  Full-batch training loss = 0.001432, test loss = 0.289131
  Training set accuracy = 1.000000, Test set accuracy = 0.932200
 epoch 340/500. Took 0.55514 seconds. 
  Full-batch training loss = 0.001426, test loss = 0.289139
  Training set accuracy = 1.000000, Test set accuracy = 0.932200
 epoch 341/500. Took 0.56303 seconds. 
  Full-batch training loss = 0.001421, test loss = 0.289181
  Training set accuracy = 1.000000, Test set accuracy = 0.932200
 epoch 342/500. Took 0.55551 seconds. 
  Full-batch training loss = 0.001415, test loss = 0.289280
  Training set accuracy = 1.000000, Test set accuracy = 0.932300
 epoch 343/500. Took 0.55701 seconds. 
  Full-batch training loss = 0.001410, test loss = 0.289391
  Training set accuracy = 1.000000, Test set accuracy = 0.932300
 epoch 344/500. Took 0.55486 seconds. 
  Full-batch training loss = 0.001405, test loss = 0.289443
  Training set accuracy = 1.000000, Test set accuracy = 0.932300
 epoch 345/500. Took 0.55939 seconds. 
  Full-batch training loss = 0.001400, test loss = 0.289480
  Training set accuracy = 1.000000, Test set accuracy = 0.932300
 epoch 346/500. Took 0.55732 seconds. 
  Full-batch training loss = 0.001395, test loss = 0.289499
  Training set accuracy = 1.000000, Test set accuracy = 0.932400
 epoch 347/500. Took 0.5644 seconds. 
  Full-batch training loss = 0.001390, test loss = 0.289594
  Training set accuracy = 1.000000, Test set accuracy = 0.932500
 epoch 348/500. Took 0.55761 seconds. 
  Full-batch training loss = 0.001385, test loss = 0.289654
  Training set accuracy = 1.000000, Test set accuracy = 0.932300
 epoch 349/500. Took 0.55928 seconds. 
  Full-batch training loss = 0.001380, test loss = 0.289760
  Training set accuracy = 1.000000, Test set accuracy = 0.932400
 epoch 350/500. Took 0.55947 seconds. 
  Full-batch training loss = 0.001375, test loss = 0.289860
  Training set accuracy = 1.000000, Test set accuracy = 0.932200
 epoch 351/500. Took 0.55736 seconds. 
  Full-batch training loss = 0.001370, test loss = 0.289877
  Training set accuracy = 1.000000, Test set accuracy = 0.932300
 epoch 352/500. Took 0.56054 seconds. 
  Full-batch training loss = 0.001365, test loss = 0.290008
  Training set accuracy = 1.000000, Test set accuracy = 0.932400
 epoch 353/500. Took 0.56427 seconds. 
  Full-batch training loss = 0.001360, test loss = 0.290025
  Training set accuracy = 1.000000, Test set accuracy = 0.932400
 epoch 354/500. Took 0.6338 seconds. 
  Full-batch training loss = 0.001355, test loss = 0.290083
  Training set accuracy = 1.000000, Test set accuracy = 0.932200
 epoch 355/500. Took 0.55664 seconds. 
  Full-batch training loss = 0.001350, test loss = 0.290154
  Training set accuracy = 1.000000, Test set accuracy = 0.932300
 epoch 356/500. Took 0.55412 seconds. 
  Full-batch training loss = 0.001345, test loss = 0.290206
  Training set accuracy = 1.000000, Test set accuracy = 0.932300
 epoch 357/500. Took 0.55511 seconds. 
  Full-batch training loss = 0.001340, test loss = 0.290311
  Training set accuracy = 1.000000, Test set accuracy = 0.932300
 epoch 358/500. Took 0.55531 seconds. 
  Full-batch training loss = 0.001336, test loss = 0.290373
  Training set accuracy = 1.000000, Test set accuracy = 0.932400
 epoch 359/500. Took 0.55999 seconds. 
  Full-batch training loss = 0.001331, test loss = 0.290458
  Training set accuracy = 1.000000, Test set accuracy = 0.932300
 epoch 360/500. Took 0.56041 seconds. 
  Full-batch training loss = 0.001326, test loss = 0.290505
  Training set accuracy = 1.000000, Test set accuracy = 0.932200
 epoch 361/500. Took 0.55017 seconds. 
  Full-batch training loss = 0.001322, test loss = 0.290597
  Training set accuracy = 1.000000, Test set accuracy = 0.932300
 epoch 362/500. Took 0.55993 seconds. 
  Full-batch training loss = 0.001317, test loss = 0.290674
  Training set accuracy = 1.000000, Test set accuracy = 0.932400
 epoch 363/500. Took 0.56563 seconds. 
  Full-batch training loss = 0.001312, test loss = 0.290745
  Training set accuracy = 1.000000, Test set accuracy = 0.932400
 epoch 364/500. Took 0.55935 seconds. 
  Full-batch training loss = 0.001308, test loss = 0.290833
  Training set accuracy = 1.000000, Test set accuracy = 0.932300
 epoch 365/500. Took 0.56025 seconds. 
  Full-batch training loss = 0.001303, test loss = 0.290873
  Training set accuracy = 1.000000, Test set accuracy = 0.932300
 epoch 366/500. Took 0.55325 seconds. 
  Full-batch training loss = 0.001299, test loss = 0.290898
  Training set accuracy = 1.000000, Test set accuracy = 0.932200
 epoch 367/500. Took 0.55829 seconds. 
  Full-batch training loss = 0.001294, test loss = 0.290982
  Training set accuracy = 1.000000, Test set accuracy = 0.932300
 epoch 368/500. Took 0.55461 seconds. 
  Full-batch training loss = 0.001290, test loss = 0.291077
  Training set accuracy = 1.000000, Test set accuracy = 0.932400
 epoch 369/500. Took 0.55748 seconds. 
  Full-batch training loss = 0.001286, test loss = 0.291093
  Training set accuracy = 1.000000, Test set accuracy = 0.932100
 epoch 370/500. Took 0.55607 seconds. 
  Full-batch training loss = 0.001281, test loss = 0.291175
  Training set accuracy = 1.000000, Test set accuracy = 0.932400
 epoch 371/500. Took 0.56116 seconds. 
  Full-batch training loss = 0.001277, test loss = 0.291192
  Training set accuracy = 1.000000, Test set accuracy = 0.932300
 epoch 372/500. Took 0.56275 seconds. 
  Full-batch training loss = 0.001273, test loss = 0.291244
  Training set accuracy = 1.000000, Test set accuracy = 0.932100
 epoch 373/500. Took 0.56443 seconds. 
  Full-batch training loss = 0.001268, test loss = 0.291330
  Training set accuracy = 1.000000, Test set accuracy = 0.932200
 epoch 374/500. Took 0.55861 seconds. 
  Full-batch training loss = 0.001264, test loss = 0.291440
  Training set accuracy = 1.000000, Test set accuracy = 0.932200
 epoch 375/500. Took 0.5693 seconds. 
  Full-batch training loss = 0.001260, test loss = 0.291529
  Training set accuracy = 1.000000, Test set accuracy = 0.932200
 epoch 376/500. Took 0.55529 seconds. 
  Full-batch training loss = 0.001255, test loss = 0.291572
  Training set accuracy = 1.000000, Test set accuracy = 0.932200
 epoch 377/500. Took 0.55088 seconds. 
  Full-batch training loss = 0.001251, test loss = 0.291616
  Training set accuracy = 1.000000, Test set accuracy = 0.932100
 epoch 378/500. Took 0.55707 seconds. 
  Full-batch training loss = 0.001247, test loss = 0.291684
  Training set accuracy = 1.000000, Test set accuracy = 0.932200
 epoch 379/500. Took 0.55422 seconds. 
  Full-batch training loss = 0.001243, test loss = 0.291775
  Training set accuracy = 1.000000, Test set accuracy = 0.932300
 epoch 380/500. Took 0.55734 seconds. 
  Full-batch training loss = 0.001239, test loss = 0.291847
  Training set accuracy = 1.000000, Test set accuracy = 0.932200
 epoch 381/500. Took 0.55299 seconds. 
  Full-batch training loss = 0.001235, test loss = 0.291853
  Training set accuracy = 1.000000, Test set accuracy = 0.932100
 epoch 382/500. Took 0.55199 seconds. 
  Full-batch training loss = 0.001231, test loss = 0.291908
  Training set accuracy = 1.000000, Test set accuracy = 0.932100
 epoch 383/500. Took 0.5547 seconds. 
  Full-batch training loss = 0.001226, test loss = 0.292031
  Training set accuracy = 1.000000, Test set accuracy = 0.932200
 epoch 384/500. Took 0.55456 seconds. 
  Full-batch training loss = 0.001222, test loss = 0.292123
  Training set accuracy = 1.000000, Test set accuracy = 0.932200
 epoch 385/500. Took 0.57035 seconds. 
  Full-batch training loss = 0.001218, test loss = 0.292138
  Training set accuracy = 1.000000, Test set accuracy = 0.932400
 epoch 386/500. Took 0.55606 seconds. 
  Full-batch training loss = 0.001215, test loss = 0.292219
  Training set accuracy = 1.000000, Test set accuracy = 0.932500
 epoch 387/500. Took 0.55974 seconds. 
  Full-batch training loss = 0.001211, test loss = 0.292266
  Training set accuracy = 1.000000, Test set accuracy = 0.932100
 epoch 388/500. Took 0.55945 seconds. 
  Full-batch training loss = 0.001207, test loss = 0.292331
  Training set accuracy = 1.000000, Test set accuracy = 0.932300
 epoch 389/500. Took 0.55998 seconds. 
  Full-batch training loss = 0.001203, test loss = 0.292337
  Training set accuracy = 1.000000, Test set accuracy = 0.932300
 epoch 390/500. Took 0.56853 seconds. 
  Full-batch training loss = 0.001199, test loss = 0.292440
  Training set accuracy = 1.000000, Test set accuracy = 0.932300
 epoch 391/500. Took 0.56197 seconds. 
  Full-batch training loss = 0.001195, test loss = 0.292523
  Training set accuracy = 1.000000, Test set accuracy = 0.932200
 epoch 392/500. Took 0.55766 seconds. 
  Full-batch training loss = 0.001191, test loss = 0.292580
  Training set accuracy = 1.000000, Test set accuracy = 0.932300
 epoch 393/500. Took 0.55922 seconds. 
  Full-batch training loss = 0.001187, test loss = 0.292653
  Training set accuracy = 1.000000, Test set accuracy = 0.932200
 epoch 394/500. Took 0.55566 seconds. 
  Full-batch training loss = 0.001183, test loss = 0.292743
  Training set accuracy = 1.000000, Test set accuracy = 0.932300
 epoch 395/500. Took 0.56362 seconds. 
  Full-batch training loss = 0.001180, test loss = 0.292812
  Training set accuracy = 1.000000, Test set accuracy = 0.932400
 epoch 396/500. Took 0.55844 seconds. 
  Full-batch training loss = 0.001176, test loss = 0.292826
  Training set accuracy = 1.000000, Test set accuracy = 0.932300
 epoch 397/500. Took 0.56405 seconds. 
  Full-batch training loss = 0.001172, test loss = 0.292910
  Training set accuracy = 1.000000, Test set accuracy = 0.932300
 epoch 398/500. Took 0.55538 seconds. 
  Full-batch training loss = 0.001169, test loss = 0.292971
  Training set accuracy = 1.000000, Test set accuracy = 0.932400
 epoch 399/500. Took 0.55794 seconds. 
  Full-batch training loss = 0.001165, test loss = 0.292995
  Training set accuracy = 1.000000, Test set accuracy = 0.932300
 epoch 400/500. Took 0.56036 seconds. 
  Full-batch training loss = 0.001161, test loss = 0.293078
  Training set accuracy = 1.000000, Test set accuracy = 0.932300
 epoch 401/500. Took 0.5592 seconds. 
  Full-batch training loss = 0.001158, test loss = 0.293130
  Training set accuracy = 1.000000, Test set accuracy = 0.932300
 epoch 402/500. Took 0.55337 seconds. 
  Full-batch training loss = 0.001154, test loss = 0.293209
  Training set accuracy = 1.000000, Test set accuracy = 0.932400
 epoch 403/500. Took 0.56264 seconds. 
  Full-batch training loss = 0.001150, test loss = 0.293243
  Training set accuracy = 1.000000, Test set accuracy = 0.932300
 epoch 404/500. Took 0.5571 seconds. 
  Full-batch training loss = 0.001147, test loss = 0.293318
  Training set accuracy = 1.000000, Test set accuracy = 0.932300
 epoch 405/500. Took 0.56768 seconds. 
  Full-batch training loss = 0.001143, test loss = 0.293377
  Training set accuracy = 1.000000, Test set accuracy = 0.932300
 epoch 406/500. Took 0.55581 seconds. 
  Full-batch training loss = 0.001140, test loss = 0.293478
  Training set accuracy = 1.000000, Test set accuracy = 0.932300
 epoch 407/500. Took 0.55584 seconds. 
  Full-batch training loss = 0.001136, test loss = 0.293507
  Training set accuracy = 1.000000, Test set accuracy = 0.932300
 epoch 408/500. Took 0.55891 seconds. 
  Full-batch training loss = 0.001133, test loss = 0.293541
  Training set accuracy = 1.000000, Test set accuracy = 0.932300
 epoch 409/500. Took 0.56305 seconds. 
  Full-batch training loss = 0.001129, test loss = 0.293580
  Training set accuracy = 1.000000, Test set accuracy = 0.932300
 epoch 410/500. Took 0.55368 seconds. 
  Full-batch training loss = 0.001126, test loss = 0.293673
  Training set accuracy = 1.000000, Test set accuracy = 0.932300
 epoch 411/500. Took 0.55775 seconds. 
  Full-batch training loss = 0.001122, test loss = 0.293710
  Training set accuracy = 1.000000, Test set accuracy = 0.932300
 epoch 412/500. Took 0.55056 seconds. 
  Full-batch training loss = 0.001119, test loss = 0.293815
  Training set accuracy = 1.000000, Test set accuracy = 0.932200
 epoch 413/500. Took 0.55132 seconds. 
  Full-batch training loss = 0.001115, test loss = 0.293853
  Training set accuracy = 1.000000, Test set accuracy = 0.932300
 epoch 414/500. Took 0.55705 seconds. 
  Full-batch training loss = 0.001112, test loss = 0.293932
  Training set accuracy = 1.000000, Test set accuracy = 0.932300
 epoch 415/500. Took 0.57551 seconds. 
  Full-batch training loss = 0.001109, test loss = 0.293947
  Training set accuracy = 1.000000, Test set accuracy = 0.932300
 epoch 416/500. Took 0.56144 seconds. 
  Full-batch training loss = 0.001105, test loss = 0.293992
  Training set accuracy = 1.000000, Test set accuracy = 0.932300
 epoch 417/500. Took 0.55878 seconds. 
  Full-batch training loss = 0.001102, test loss = 0.294063
  Training set accuracy = 1.000000, Test set accuracy = 0.932300
 epoch 418/500. Took 0.55665 seconds. 
  Full-batch training loss = 0.001099, test loss = 0.294150
  Training set accuracy = 1.000000, Test set accuracy = 0.932300
 epoch 419/500. Took 0.5537 seconds. 
  Full-batch training loss = 0.001096, test loss = 0.294229
  Training set accuracy = 1.000000, Test set accuracy = 0.932300
 epoch 420/500. Took 0.56379 seconds. 
  Full-batch training loss = 0.001092, test loss = 0.294319
  Training set accuracy = 1.000000, Test set accuracy = 0.932300
 epoch 421/500. Took 0.55992 seconds. 
  Full-batch training loss = 0.001089, test loss = 0.294318
  Training set accuracy = 1.000000, Test set accuracy = 0.932300
 epoch 422/500. Took 0.6288 seconds. 
  Full-batch training loss = 0.001086, test loss = 0.294388
  Training set accuracy = 1.000000, Test set accuracy = 0.932300
 epoch 423/500. Took 0.55999 seconds. 
  Full-batch training loss = 0.001083, test loss = 0.294429
  Training set accuracy = 1.000000, Test set accuracy = 0.932400
 epoch 424/500. Took 0.56821 seconds. 
  Full-batch training loss = 0.001079, test loss = 0.294505
  Training set accuracy = 1.000000, Test set accuracy = 0.932300
 epoch 425/500. Took 0.5635 seconds. 
  Full-batch training loss = 0.001076, test loss = 0.294549
  Training set accuracy = 1.000000, Test set accuracy = 0.932300
 epoch 426/500. Took 0.55801 seconds. 
  Full-batch training loss = 0.001073, test loss = 0.294609
  Training set accuracy = 1.000000, Test set accuracy = 0.932200
 epoch 427/500. Took 0.56565 seconds. 
  Full-batch training loss = 0.001070, test loss = 0.294671
  Training set accuracy = 1.000000, Test set accuracy = 0.932200
 epoch 428/500. Took 0.55383 seconds. 
  Full-batch training loss = 0.001067, test loss = 0.294713
  Training set accuracy = 1.000000, Test set accuracy = 0.932300
 epoch 429/500. Took 0.55967 seconds. 
  Full-batch training loss = 0.001064, test loss = 0.294770
  Training set accuracy = 1.000000, Test set accuracy = 0.932300
 epoch 430/500. Took 0.56157 seconds. 
  Full-batch training loss = 0.001061, test loss = 0.294825
  Training set accuracy = 1.000000, Test set accuracy = 0.932300
 epoch 431/500. Took 0.56635 seconds. 
  Full-batch training loss = 0.001057, test loss = 0.294887
  Training set accuracy = 1.000000, Test set accuracy = 0.932300
 epoch 432/500. Took 0.55589 seconds. 
  Full-batch training loss = 0.001054, test loss = 0.294964
  Training set accuracy = 1.000000, Test set accuracy = 0.932200
 epoch 433/500. Took 0.55755 seconds. 
  Full-batch training loss = 0.001051, test loss = 0.295006
  Training set accuracy = 1.000000, Test set accuracy = 0.932300
 epoch 434/500. Took 0.57521 seconds. 
  Full-batch training loss = 0.001048, test loss = 0.295037
  Training set accuracy = 1.000000, Test set accuracy = 0.932300
 epoch 435/500. Took 0.5538 seconds. 
  Full-batch training loss = 0.001045, test loss = 0.295094
  Training set accuracy = 1.000000, Test set accuracy = 0.932400
 epoch 436/500. Took 0.55851 seconds. 
  Full-batch training loss = 0.001042, test loss = 0.295170
  Training set accuracy = 1.000000, Test set accuracy = 0.932200
 epoch 437/500. Took 0.56049 seconds. 
  Full-batch training loss = 0.001039, test loss = 0.295212
  Training set accuracy = 1.000000, Test set accuracy = 0.932200
 epoch 438/500. Took 0.58576 seconds. 
  Full-batch training loss = 0.001036, test loss = 0.295241
  Training set accuracy = 1.000000, Test set accuracy = 0.932200
 epoch 439/500. Took 0.55736 seconds. 
  Full-batch training loss = 0.001034, test loss = 0.295311
  Training set accuracy = 1.000000, Test set accuracy = 0.932300
 epoch 440/500. Took 0.55848 seconds. 
  Full-batch training loss = 0.001030, test loss = 0.295392
  Training set accuracy = 1.000000, Test set accuracy = 0.932300
 epoch 441/500. Took 0.55681 seconds. 
  Full-batch training loss = 0.001028, test loss = 0.295430
  Training set accuracy = 1.000000, Test set accuracy = 0.932300
 epoch 442/500. Took 0.55305 seconds. 
  Full-batch training loss = 0.001025, test loss = 0.295514
  Training set accuracy = 1.000000, Test set accuracy = 0.932300
 epoch 443/500. Took 0.56565 seconds. 
  Full-batch training loss = 0.001022, test loss = 0.295533
  Training set accuracy = 1.000000, Test set accuracy = 0.932200
 epoch 444/500. Took 0.54865 seconds. 
  Full-batch training loss = 0.001019, test loss = 0.295650
  Training set accuracy = 1.000000, Test set accuracy = 0.932200
 epoch 445/500. Took 0.56137 seconds. 
  Full-batch training loss = 0.001016, test loss = 0.295625
  Training set accuracy = 1.000000, Test set accuracy = 0.932300
 epoch 446/500. Took 0.56114 seconds. 
  Full-batch training loss = 0.001013, test loss = 0.295724
  Training set accuracy = 1.000000, Test set accuracy = 0.932200
 epoch 447/500. Took 0.55234 seconds. 
  Full-batch training loss = 0.001010, test loss = 0.295806
  Training set accuracy = 1.000000, Test set accuracy = 0.932300
 epoch 448/500. Took 0.56055 seconds. 
  Full-batch training loss = 0.001008, test loss = 0.295810
  Training set accuracy = 1.000000, Test set accuracy = 0.932200
 epoch 449/500. Took 0.55914 seconds. 
  Full-batch training loss = 0.001005, test loss = 0.295829
  Training set accuracy = 1.000000, Test set accuracy = 0.932200
 epoch 450/500. Took 0.55564 seconds. 
  Full-batch training loss = 0.001002, test loss = 0.295936
  Training set accuracy = 1.000000, Test set accuracy = 0.932300
 epoch 451/500. Took 0.56029 seconds. 
  Full-batch training loss = 0.000999, test loss = 0.295989
  Training set accuracy = 1.000000, Test set accuracy = 0.932200
 epoch 452/500. Took 0.55894 seconds. 
  Full-batch training loss = 0.000996, test loss = 0.296042
  Training set accuracy = 1.000000, Test set accuracy = 0.932200
 epoch 453/500. Took 0.56051 seconds. 
  Full-batch training loss = 0.000994, test loss = 0.296093
  Training set accuracy = 1.000000, Test set accuracy = 0.932300
 epoch 454/500. Took 0.56084 seconds. 
  Full-batch training loss = 0.000991, test loss = 0.296138
  Training set accuracy = 1.000000, Test set accuracy = 0.932300
 epoch 455/500. Took 0.55936 seconds. 
  Full-batch training loss = 0.000988, test loss = 0.296189
  Training set accuracy = 1.000000, Test set accuracy = 0.932200
 epoch 456/500. Took 0.55961 seconds. 
  Full-batch training loss = 0.000986, test loss = 0.296283
  Training set accuracy = 1.000000, Test set accuracy = 0.932200
 epoch 457/500. Took 0.55839 seconds. 
  Full-batch training loss = 0.000983, test loss = 0.296319
  Training set accuracy = 1.000000, Test set accuracy = 0.932300
 epoch 458/500. Took 0.55691 seconds. 
  Full-batch training loss = 0.000980, test loss = 0.296359
  Training set accuracy = 1.000000, Test set accuracy = 0.932200
 epoch 459/500. Took 0.558 seconds. 
  Full-batch training loss = 0.000977, test loss = 0.296392
  Training set accuracy = 1.000000, Test set accuracy = 0.932300
 epoch 460/500. Took 0.56429 seconds. 
  Full-batch training loss = 0.000975, test loss = 0.296474
  Training set accuracy = 1.000000, Test set accuracy = 0.932300
 epoch 461/500. Took 0.55375 seconds. 
  Full-batch training loss = 0.000972, test loss = 0.296562
  Training set accuracy = 1.000000, Test set accuracy = 0.932300
 epoch 462/500. Took 0.55408 seconds. 
  Full-batch training loss = 0.000970, test loss = 0.296622
  Training set accuracy = 1.000000, Test set accuracy = 0.932200
 epoch 463/500. Took 0.55867 seconds. 
  Full-batch training loss = 0.000967, test loss = 0.296606
  Training set accuracy = 1.000000, Test set accuracy = 0.932300
 epoch 464/500. Took 0.55939 seconds. 
  Full-batch training loss = 0.000964, test loss = 0.296687
  Training set accuracy = 1.000000, Test set accuracy = 0.932400
 epoch 465/500. Took 0.55819 seconds. 
  Full-batch training loss = 0.000962, test loss = 0.296707
  Training set accuracy = 1.000000, Test set accuracy = 0.932200
 epoch 466/500. Took 0.55452 seconds. 
  Full-batch training loss = 0.000959, test loss = 0.296800
  Training set accuracy = 1.000000, Test set accuracy = 0.932200
 epoch 467/500. Took 0.56798 seconds. 
  Full-batch training loss = 0.000957, test loss = 0.296810
  Training set accuracy = 1.000000, Test set accuracy = 0.932200
 epoch 468/500. Took 0.55869 seconds. 
  Full-batch training loss = 0.000954, test loss = 0.296865
  Training set accuracy = 1.000000, Test set accuracy = 0.932300
 epoch 469/500. Took 0.55457 seconds. 
  Full-batch training loss = 0.000952, test loss = 0.296958
  Training set accuracy = 1.000000, Test set accuracy = 0.932400
 epoch 470/500. Took 0.55879 seconds. 
  Full-batch training loss = 0.000949, test loss = 0.297028
  Training set accuracy = 1.000000, Test set accuracy = 0.932300
 epoch 471/500. Took 0.56192 seconds. 
  Full-batch training loss = 0.000947, test loss = 0.297029
  Training set accuracy = 1.000000, Test set accuracy = 0.932200
 epoch 472/500. Took 0.55817 seconds. 
  Full-batch training loss = 0.000944, test loss = 0.297083
  Training set accuracy = 1.000000, Test set accuracy = 0.932200
 epoch 473/500. Took 0.56215 seconds. 
  Full-batch training loss = 0.000942, test loss = 0.297132
  Training set accuracy = 1.000000, Test set accuracy = 0.932200
 epoch 474/500. Took 0.56723 seconds. 
  Full-batch training loss = 0.000939, test loss = 0.297181
  Training set accuracy = 1.000000, Test set accuracy = 0.932200
 epoch 475/500. Took 0.56869 seconds. 
  Full-batch training loss = 0.000937, test loss = 0.297226
  Training set accuracy = 1.000000, Test set accuracy = 0.932200
 epoch 476/500. Took 0.55545 seconds. 
  Full-batch training loss = 0.000934, test loss = 0.297322
  Training set accuracy = 1.000000, Test set accuracy = 0.932200
 epoch 477/500. Took 0.55989 seconds. 
  Full-batch training loss = 0.000932, test loss = 0.297369
  Training set accuracy = 1.000000, Test set accuracy = 0.932200
 epoch 478/500. Took 0.55966 seconds. 
  Full-batch training loss = 0.000929, test loss = 0.297383
  Training set accuracy = 1.000000, Test set accuracy = 0.932200
 epoch 479/500. Took 0.55295 seconds. 
  Full-batch training loss = 0.000927, test loss = 0.297470
  Training set accuracy = 1.000000, Test set accuracy = 0.932200
 epoch 480/500. Took 0.55393 seconds. 
  Full-batch training loss = 0.000925, test loss = 0.297503
  Training set accuracy = 1.000000, Test set accuracy = 0.932200
 epoch 481/500. Took 0.56783 seconds. 
  Full-batch training loss = 0.000922, test loss = 0.297531
  Training set accuracy = 1.000000, Test set accuracy = 0.932200
 epoch 482/500. Took 0.57052 seconds. 
  Full-batch training loss = 0.000920, test loss = 0.297621
  Training set accuracy = 1.000000, Test set accuracy = 0.932300
 epoch 483/500. Took 0.62591 seconds. 
  Full-batch training loss = 0.000917, test loss = 0.297643
  Training set accuracy = 1.000000, Test set accuracy = 0.932200
 epoch 484/500. Took 0.5607 seconds. 
  Full-batch training loss = 0.000915, test loss = 0.297730
  Training set accuracy = 1.000000, Test set accuracy = 0.932200
 epoch 485/500. Took 0.56123 seconds. 
  Full-batch training loss = 0.000913, test loss = 0.297762
  Training set accuracy = 1.000000, Test set accuracy = 0.932200
 epoch 486/500. Took 0.55726 seconds. 
  Full-batch training loss = 0.000910, test loss = 0.297815
  Training set accuracy = 1.000000, Test set accuracy = 0.932200
 epoch 487/500. Took 0.55448 seconds. 
  Full-batch training loss = 0.000908, test loss = 0.297832
  Training set accuracy = 1.000000, Test set accuracy = 0.932200
 epoch 488/500. Took 0.55993 seconds. 
  Full-batch training loss = 0.000906, test loss = 0.297905
  Training set accuracy = 1.000000, Test set accuracy = 0.932200
 epoch 489/500. Took 0.56736 seconds. 
  Full-batch training loss = 0.000903, test loss = 0.297945
  Training set accuracy = 1.000000, Test set accuracy = 0.932400
 epoch 490/500. Took 0.5702 seconds. 
  Full-batch training loss = 0.000901, test loss = 0.298007
  Training set accuracy = 1.000000, Test set accuracy = 0.932200
 epoch 491/500. Took 0.55388 seconds. 
  Full-batch training loss = 0.000899, test loss = 0.298063
  Training set accuracy = 1.000000, Test set accuracy = 0.932200
 epoch 492/500. Took 0.56878 seconds. 
  Full-batch training loss = 0.000897, test loss = 0.298074
  Training set accuracy = 1.000000, Test set accuracy = 0.932300
 epoch 493/500. Took 0.55733 seconds. 
  Full-batch training loss = 0.000894, test loss = 0.298143
  Training set accuracy = 1.000000, Test set accuracy = 0.932300
 epoch 494/500. Took 0.56202 seconds. 
  Full-batch training loss = 0.000892, test loss = 0.298211
  Training set accuracy = 1.000000, Test set accuracy = 0.932200
 epoch 495/500. Took 0.56035 seconds. 
  Full-batch training loss = 0.000890, test loss = 0.298234
  Training set accuracy = 1.000000, Test set accuracy = 0.932200
 epoch 496/500. Took 0.55559 seconds. 
  Full-batch training loss = 0.000888, test loss = 0.298302
  Training set accuracy = 1.000000, Test set accuracy = 0.932200
 epoch 497/500. Took 0.58107 seconds. 
  Full-batch training loss = 0.000885, test loss = 0.298320
  Training set accuracy = 1.000000, Test set accuracy = 0.932200
 epoch 498/500. Took 0.55704 seconds. 
  Full-batch training loss = 0.000883, test loss = 0.298398
  Training set accuracy = 1.000000, Test set accuracy = 0.932200
 epoch 499/500. Took 0.55881 seconds. 
  Full-batch training loss = 0.000881, test loss = 0.298498
  Training set accuracy = 1.000000, Test set accuracy = 0.932200
 epoch 500/500. Took 0.56292 seconds. 
  Full-batch training loss = 0.000879, test loss = 0.298511
  Training set accuracy = 1.000000, Test set accuracy = 0.932300
Elapsed time is 1034.030651 seconds.
End Training
