==========================================================
  Architecture is 500 500 500 // 3 layer x 500 neuron
----------------------------------------------------------
Execution 126/270
----------------------------------------------------------
* ReducedData	5000
* PreTrainRBM	true
	-> Epochs	50
	-> LearningRate	0.05
* Fine-tunning
	-> Epochs	200
	-> LearningRate	0.20
==========================================================
Start Training
Number of training examples: 5000  BatchSize: 100
Number of inputs: 784  Number of outputs: 10
Number of hidden layers: 3 (500  500  500)
Training binary-binary RBM in layer 1 (784  500) with CD1 for 50 epochs
 epoch 1/50. Took 0.54589 seconds. Average reconstruction error is: 38.1389
 epoch 2/50. Took 0.54091 seconds. Average reconstruction error is: 20.6422
 epoch 3/50. Took 0.54288 seconds. Average reconstruction error is: 16.7747
 epoch 4/50. Took 0.54504 seconds. Average reconstruction error is: 14.7363
 epoch 5/50. Took 0.53729 seconds. Average reconstruction error is: 13.5175
 epoch 6/50. Took 0.53675 seconds. Average reconstruction error is: 12.5756
 epoch 7/50. Took 0.54779 seconds. Average reconstruction error is: 11.8269
 epoch 8/50. Took 0.54086 seconds. Average reconstruction error is: 11.2968
 epoch 9/50. Took 0.54887 seconds. Average reconstruction error is: 10.7861
 epoch 10/50. Took 0.53962 seconds. Average reconstruction error is: 10.4557
 epoch 11/50. Took 0.54663 seconds. Average reconstruction error is: 10.1006
 epoch 12/50. Took 0.55109 seconds. Average reconstruction error is: 9.8016
 epoch 13/50. Took 0.54295 seconds. Average reconstruction error is: 9.544
 epoch 14/50. Took 0.55708 seconds. Average reconstruction error is: 9.3349
 epoch 15/50. Took 0.54136 seconds. Average reconstruction error is: 9.1395
 epoch 16/50. Took 0.53935 seconds. Average reconstruction error is: 8.9476
 epoch 17/50. Took 0.5427 seconds. Average reconstruction error is: 8.8202
 epoch 18/50. Took 0.53992 seconds. Average reconstruction error is: 8.6526
 epoch 19/50. Took 0.54151 seconds. Average reconstruction error is: 8.5335
 epoch 20/50. Took 0.5424 seconds. Average reconstruction error is: 8.4532
 epoch 21/50. Took 0.5416 seconds. Average reconstruction error is: 8.3151
 epoch 22/50. Took 0.54129 seconds. Average reconstruction error is: 8.2081
 epoch 23/50. Took 0.54331 seconds. Average reconstruction error is: 8.1549
 epoch 24/50. Took 0.53101 seconds. Average reconstruction error is: 8.043
 epoch 25/50. Took 0.54181 seconds. Average reconstruction error is: 7.9593
 epoch 26/50. Took 0.54147 seconds. Average reconstruction error is: 7.9206
 epoch 27/50. Took 0.54078 seconds. Average reconstruction error is: 7.8661
 epoch 28/50. Took 0.54764 seconds. Average reconstruction error is: 7.8132
 epoch 29/50. Took 0.54486 seconds. Average reconstruction error is: 7.7507
 epoch 30/50. Took 0.54985 seconds. Average reconstruction error is: 7.6546
 epoch 31/50. Took 0.54451 seconds. Average reconstruction error is: 7.6079
 epoch 32/50. Took 0.54312 seconds. Average reconstruction error is: 7.6114
 epoch 33/50. Took 0.53559 seconds. Average reconstruction error is: 7.5838
 epoch 34/50. Took 0.54565 seconds. Average reconstruction error is: 7.5403
 epoch 35/50. Took 0.54351 seconds. Average reconstruction error is: 7.4915
 epoch 36/50. Took 0.53861 seconds. Average reconstruction error is: 7.4265
 epoch 37/50. Took 0.54183 seconds. Average reconstruction error is: 7.4118
 epoch 38/50. Took 0.53694 seconds. Average reconstruction error is: 7.3538
 epoch 39/50. Took 0.54476 seconds. Average reconstruction error is: 7.3366
 epoch 40/50. Took 0.54455 seconds. Average reconstruction error is: 7.3343
 epoch 41/50. Took 0.54633 seconds. Average reconstruction error is: 7.3349
 epoch 42/50. Took 0.54917 seconds. Average reconstruction error is: 7.3102
 epoch 43/50. Took 0.55322 seconds. Average reconstruction error is: 7.2157
 epoch 44/50. Took 0.55179 seconds. Average reconstruction error is: 7.2673
 epoch 45/50. Took 0.54882 seconds. Average reconstruction error is: 7.1753
 epoch 46/50. Took 0.54439 seconds. Average reconstruction error is: 7.2363
 epoch 47/50. Took 0.54092 seconds. Average reconstruction error is: 7.1678
 epoch 48/50. Took 0.54588 seconds. Average reconstruction error is: 7.1305
 epoch 49/50. Took 0.53553 seconds. Average reconstruction error is: 7.0981
 epoch 50/50. Took 0.53947 seconds. Average reconstruction error is: 7.1393
Training binary-binary RBM in layer 2 (500  500) with CD1 for 50 epochs
 epoch 1/50. Took 0.37239 seconds. Average reconstruction error is: 39.7271
 epoch 2/50. Took 0.37342 seconds. Average reconstruction error is: 22.4181
 epoch 3/50. Took 0.37286 seconds. Average reconstruction error is: 17.8192
 epoch 4/50. Took 0.37796 seconds. Average reconstruction error is: 15.6432
 epoch 5/50. Took 0.37596 seconds. Average reconstruction error is: 14.2545
 epoch 6/50. Took 0.37639 seconds. Average reconstruction error is: 13.374
 epoch 7/50. Took 0.37599 seconds. Average reconstruction error is: 12.7454
 epoch 8/50. Took 0.37627 seconds. Average reconstruction error is: 12.336
 epoch 9/50. Took 0.37456 seconds. Average reconstruction error is: 11.9561
 epoch 10/50. Took 0.37594 seconds. Average reconstruction error is: 11.6318
 epoch 11/50. Took 0.3732 seconds. Average reconstruction error is: 11.3413
 epoch 12/50. Took 0.37801 seconds. Average reconstruction error is: 11.1585
 epoch 13/50. Took 0.37622 seconds. Average reconstruction error is: 11.0189
 epoch 14/50. Took 0.37405 seconds. Average reconstruction error is: 10.8654
 epoch 15/50. Took 0.37436 seconds. Average reconstruction error is: 10.6375
 epoch 16/50. Took 0.37427 seconds. Average reconstruction error is: 10.6126
 epoch 17/50. Took 0.3752 seconds. Average reconstruction error is: 10.5079
 epoch 18/50. Took 0.37197 seconds. Average reconstruction error is: 10.3975
 epoch 19/50. Took 0.37681 seconds. Average reconstruction error is: 10.2656
 epoch 20/50. Took 0.37885 seconds. Average reconstruction error is: 10.1929
 epoch 21/50. Took 0.37325 seconds. Average reconstruction error is: 10.1221
 epoch 22/50. Took 0.37717 seconds. Average reconstruction error is: 10.016
 epoch 23/50. Took 0.37271 seconds. Average reconstruction error is: 9.965
 epoch 24/50. Took 0.37658 seconds. Average reconstruction error is: 9.8669
 epoch 25/50. Took 0.37289 seconds. Average reconstruction error is: 9.8382
 epoch 26/50. Took 0.37215 seconds. Average reconstruction error is: 9.7239
 epoch 27/50. Took 0.37899 seconds. Average reconstruction error is: 9.7163
 epoch 28/50. Took 0.37161 seconds. Average reconstruction error is: 9.6717
 epoch 29/50. Took 0.37299 seconds. Average reconstruction error is: 9.6061
 epoch 30/50. Took 0.37557 seconds. Average reconstruction error is: 9.5363
 epoch 31/50. Took 0.37451 seconds. Average reconstruction error is: 9.4721
 epoch 32/50. Took 0.37235 seconds. Average reconstruction error is: 9.5037
 epoch 33/50. Took 0.37509 seconds. Average reconstruction error is: 9.398
 epoch 34/50. Took 0.37387 seconds. Average reconstruction error is: 9.2851
 epoch 35/50. Took 0.37269 seconds. Average reconstruction error is: 9.2855
 epoch 36/50. Took 0.37225 seconds. Average reconstruction error is: 9.2754
 epoch 37/50. Took 0.37185 seconds. Average reconstruction error is: 9.1464
 epoch 38/50. Took 0.37437 seconds. Average reconstruction error is: 9.1519
 epoch 39/50. Took 0.37128 seconds. Average reconstruction error is: 9.1064
 epoch 40/50. Took 0.374 seconds. Average reconstruction error is: 9.05
 epoch 41/50. Took 0.37739 seconds. Average reconstruction error is: 9.0371
 epoch 42/50. Took 0.37335 seconds. Average reconstruction error is: 8.9437
 epoch 43/50. Took 0.37376 seconds. Average reconstruction error is: 8.9614
 epoch 44/50. Took 0.377 seconds. Average reconstruction error is: 8.9188
 epoch 45/50. Took 0.37003 seconds. Average reconstruction error is: 8.8621
 epoch 46/50. Took 0.3779 seconds. Average reconstruction error is: 8.861
 epoch 47/50. Took 0.3739 seconds. Average reconstruction error is: 8.8022
 epoch 48/50. Took 0.37311 seconds. Average reconstruction error is: 8.7857
 epoch 49/50. Took 0.37219 seconds. Average reconstruction error is: 8.7202
 epoch 50/50. Took 0.37232 seconds. Average reconstruction error is: 8.6904
Training binary-binary RBM in layer 3 (500  500) with CD1 for 50 epochs
 epoch 1/50. Took 0.37456 seconds. Average reconstruction error is: 31.0547
 epoch 2/50. Took 0.3798 seconds. Average reconstruction error is: 15.729
 epoch 3/50. Took 0.37993 seconds. Average reconstruction error is: 12.2048
 epoch 4/50. Took 0.37899 seconds. Average reconstruction error is: 10.5658
 epoch 5/50. Took 0.37734 seconds. Average reconstruction error is: 9.5565
 epoch 6/50. Took 0.37937 seconds. Average reconstruction error is: 8.9127
 epoch 7/50. Took 0.37637 seconds. Average reconstruction error is: 8.5014
 epoch 8/50. Took 0.37684 seconds. Average reconstruction error is: 8.1513
 epoch 9/50. Took 0.37716 seconds. Average reconstruction error is: 7.8424
 epoch 10/50. Took 0.37877 seconds. Average reconstruction error is: 7.6644
 epoch 11/50. Took 0.37678 seconds. Average reconstruction error is: 7.5092
 epoch 12/50. Took 0.37597 seconds. Average reconstruction error is: 7.3404
 epoch 13/50. Took 0.37391 seconds. Average reconstruction error is: 7.2801
 epoch 14/50. Took 0.37759 seconds. Average reconstruction error is: 7.179
 epoch 15/50. Took 0.37593 seconds. Average reconstruction error is: 7.1231
 epoch 16/50. Took 0.37649 seconds. Average reconstruction error is: 7.0358
 epoch 17/50. Took 0.37909 seconds. Average reconstruction error is: 6.971
 epoch 18/50. Took 0.38062 seconds. Average reconstruction error is: 6.9156
 epoch 19/50. Took 0.37694 seconds. Average reconstruction error is: 6.8962
 epoch 20/50. Took 0.38314 seconds. Average reconstruction error is: 6.8613
 epoch 21/50. Took 0.37505 seconds. Average reconstruction error is: 6.7905
 epoch 22/50. Took 0.37629 seconds. Average reconstruction error is: 6.8197
 epoch 23/50. Took 0.37727 seconds. Average reconstruction error is: 6.7494
 epoch 24/50. Took 0.37654 seconds. Average reconstruction error is: 6.7286
 epoch 25/50. Took 0.37959 seconds. Average reconstruction error is: 6.7215
 epoch 26/50. Took 0.37948 seconds. Average reconstruction error is: 6.6553
 epoch 27/50. Took 0.37745 seconds. Average reconstruction error is: 6.6363
 epoch 28/50. Took 0.37751 seconds. Average reconstruction error is: 6.5909
 epoch 29/50. Took 0.37479 seconds. Average reconstruction error is: 6.6016
 epoch 30/50. Took 0.37518 seconds. Average reconstruction error is: 6.6064
 epoch 31/50. Took 0.37964 seconds. Average reconstruction error is: 6.5274
 epoch 32/50. Took 0.37925 seconds. Average reconstruction error is: 6.5492
 epoch 33/50. Took 0.37834 seconds. Average reconstruction error is: 6.5517
 epoch 34/50. Took 0.37774 seconds. Average reconstruction error is: 6.5158
 epoch 35/50. Took 0.37474 seconds. Average reconstruction error is: 6.4697
 epoch 36/50. Took 0.37641 seconds. Average reconstruction error is: 6.4519
 epoch 37/50. Took 0.37977 seconds. Average reconstruction error is: 6.4742
 epoch 38/50. Took 0.38042 seconds. Average reconstruction error is: 6.4666
 epoch 39/50. Took 0.3767 seconds. Average reconstruction error is: 6.4286
 epoch 40/50. Took 0.3747 seconds. Average reconstruction error is: 6.4263
 epoch 41/50. Took 0.37771 seconds. Average reconstruction error is: 6.3853
 epoch 42/50. Took 0.37442 seconds. Average reconstruction error is: 6.3594
 epoch 43/50. Took 0.3763 seconds. Average reconstruction error is: 6.3548
 epoch 44/50. Took 0.37955 seconds. Average reconstruction error is: 6.374
 epoch 45/50. Took 0.37635 seconds. Average reconstruction error is: 6.3859
 epoch 46/50. Took 0.38095 seconds. Average reconstruction error is: 6.3606
 epoch 47/50. Took 0.37286 seconds. Average reconstruction error is: 6.3321
 epoch 48/50. Took 0.37758 seconds. Average reconstruction error is: 6.3562
 epoch 49/50. Took 0.38269 seconds. Average reconstruction error is: 6.3138
 epoch 50/50. Took 0.37642 seconds. Average reconstruction error is: 6.2577
Training NN  (784  500  500  500   10) with BackPropagation for 200 epochs
 epoch 1/200. Took 0.86399 seconds. 
  Full-batch training loss = 0.278533, test loss = 0.307265
  Training set accuracy = 0.914800, Test set accuracy = 0.909500
 epoch 2/200. Took 0.86033 seconds. 
  Full-batch training loss = 0.206584, test loss = 0.263902
  Training set accuracy = 0.940400, Test set accuracy = 0.921500
 epoch 3/200. Took 0.87481 seconds. 
  Full-batch training loss = 0.167130, test loss = 0.236717
  Training set accuracy = 0.954600, Test set accuracy = 0.929900
 epoch 4/200. Took 0.86969 seconds. 
  Full-batch training loss = 0.130310, test loss = 0.213826
  Training set accuracy = 0.967000, Test set accuracy = 0.936800
 epoch 5/200. Took 0.86619 seconds. 
  Full-batch training loss = 0.105718, test loss = 0.201612
  Training set accuracy = 0.974400, Test set accuracy = 0.942300
 epoch 6/200. Took 0.88214 seconds. 
  Full-batch training loss = 0.099275, test loss = 0.205700
  Training set accuracy = 0.976800, Test set accuracy = 0.939000
 epoch 7/200. Took 0.87684 seconds. 
  Full-batch training loss = 0.081548, test loss = 0.188886
  Training set accuracy = 0.982600, Test set accuracy = 0.943200
 epoch 8/200. Took 0.86333 seconds. 
  Full-batch training loss = 0.067776, test loss = 0.186185
  Training set accuracy = 0.985800, Test set accuracy = 0.945500
 epoch 9/200. Took 0.85084 seconds. 
  Full-batch training loss = 0.058255, test loss = 0.182599
  Training set accuracy = 0.989000, Test set accuracy = 0.946700
 epoch 10/200. Took 0.87704 seconds. 
  Full-batch training loss = 0.058373, test loss = 0.185930
  Training set accuracy = 0.989000, Test set accuracy = 0.945200
 epoch 11/200. Took 0.86191 seconds. 
  Full-batch training loss = 0.048284, test loss = 0.181724
  Training set accuracy = 0.992400, Test set accuracy = 0.946000
 epoch 12/200. Took 0.86293 seconds. 
  Full-batch training loss = 0.039201, test loss = 0.176127
  Training set accuracy = 0.995400, Test set accuracy = 0.947300
 epoch 13/200. Took 0.87102 seconds. 
  Full-batch training loss = 0.037006, test loss = 0.177636
  Training set accuracy = 0.994800, Test set accuracy = 0.948900
 epoch 14/200. Took 0.86209 seconds. 
  Full-batch training loss = 0.030287, test loss = 0.177091
  Training set accuracy = 0.996800, Test set accuracy = 0.949100
 epoch 15/200. Took 0.86788 seconds. 
  Full-batch training loss = 0.027766, test loss = 0.176778
  Training set accuracy = 0.997400, Test set accuracy = 0.950400
 epoch 16/200. Took 0.87428 seconds. 
  Full-batch training loss = 0.026767, test loss = 0.179403
  Training set accuracy = 0.998000, Test set accuracy = 0.947700
 epoch 17/200. Took 0.87377 seconds. 
  Full-batch training loss = 0.022344, test loss = 0.175972
  Training set accuracy = 0.998800, Test set accuracy = 0.950700
 epoch 18/200. Took 0.87503 seconds. 
  Full-batch training loss = 0.020125, test loss = 0.176743
  Training set accuracy = 0.999000, Test set accuracy = 0.950800
 epoch 19/200. Took 0.88142 seconds. 
  Full-batch training loss = 0.018611, test loss = 0.178122
  Training set accuracy = 0.999000, Test set accuracy = 0.951300
 epoch 20/200. Took 0.86349 seconds. 
  Full-batch training loss = 0.016676, test loss = 0.175411
  Training set accuracy = 0.999200, Test set accuracy = 0.950600
 epoch 21/200. Took 0.87992 seconds. 
  Full-batch training loss = 0.015923, test loss = 0.178036
  Training set accuracy = 0.999600, Test set accuracy = 0.950100
 epoch 22/200. Took 0.8754 seconds. 
  Full-batch training loss = 0.014342, test loss = 0.176708
  Training set accuracy = 0.999200, Test set accuracy = 0.951200
 epoch 23/200. Took 0.87287 seconds. 
  Full-batch training loss = 0.013931, test loss = 0.179721
  Training set accuracy = 1.000000, Test set accuracy = 0.950400
 epoch 24/200. Took 0.87251 seconds. 
  Full-batch training loss = 0.012943, test loss = 0.179121
  Training set accuracy = 0.999800, Test set accuracy = 0.950300
 epoch 25/200. Took 0.87238 seconds. 
  Full-batch training loss = 0.012159, test loss = 0.180275
  Training set accuracy = 0.999800, Test set accuracy = 0.949600
 epoch 26/200. Took 0.87094 seconds. 
  Full-batch training loss = 0.010877, test loss = 0.179869
  Training set accuracy = 1.000000, Test set accuracy = 0.951400
 epoch 27/200. Took 0.87716 seconds. 
  Full-batch training loss = 0.010922, test loss = 0.179044
  Training set accuracy = 0.999800, Test set accuracy = 0.951900
 epoch 28/200. Took 0.87674 seconds. 
  Full-batch training loss = 0.009625, test loss = 0.179109
  Training set accuracy = 1.000000, Test set accuracy = 0.951800
 epoch 29/200. Took 0.87971 seconds. 
  Full-batch training loss = 0.009114, test loss = 0.179102
  Training set accuracy = 1.000000, Test set accuracy = 0.951600
 epoch 30/200. Took 0.86112 seconds. 
  Full-batch training loss = 0.009005, test loss = 0.181429
  Training set accuracy = 0.999800, Test set accuracy = 0.951600
 epoch 31/200. Took 0.87057 seconds. 
  Full-batch training loss = 0.007983, test loss = 0.180207
  Training set accuracy = 1.000000, Test set accuracy = 0.951900
 epoch 32/200. Took 0.86937 seconds. 
  Full-batch training loss = 0.007642, test loss = 0.180624
  Training set accuracy = 1.000000, Test set accuracy = 0.952500
 epoch 33/200. Took 0.86501 seconds. 
  Full-batch training loss = 0.007269, test loss = 0.179738
  Training set accuracy = 1.000000, Test set accuracy = 0.952300
 epoch 34/200. Took 0.87566 seconds. 
  Full-batch training loss = 0.007244, test loss = 0.182507
  Training set accuracy = 1.000000, Test set accuracy = 0.952400
 epoch 35/200. Took 0.86282 seconds. 
  Full-batch training loss = 0.006728, test loss = 0.183024
  Training set accuracy = 1.000000, Test set accuracy = 0.952100
 epoch 36/200. Took 0.8655 seconds. 
  Full-batch training loss = 0.006425, test loss = 0.180832
  Training set accuracy = 1.000000, Test set accuracy = 0.952800
 epoch 37/200. Took 0.87321 seconds. 
  Full-batch training loss = 0.006202, test loss = 0.181828
  Training set accuracy = 1.000000, Test set accuracy = 0.952800
 epoch 38/200. Took 0.86257 seconds. 
  Full-batch training loss = 0.005890, test loss = 0.182873
  Training set accuracy = 1.000000, Test set accuracy = 0.952800
 epoch 39/200. Took 0.85556 seconds. 
  Full-batch training loss = 0.005722, test loss = 0.181901
  Training set accuracy = 1.000000, Test set accuracy = 0.952800
 epoch 40/200. Took 0.87597 seconds. 
  Full-batch training loss = 0.005477, test loss = 0.183588
  Training set accuracy = 1.000000, Test set accuracy = 0.953500
 epoch 41/200. Took 0.87536 seconds. 
  Full-batch training loss = 0.005232, test loss = 0.183395
  Training set accuracy = 1.000000, Test set accuracy = 0.953500
 epoch 42/200. Took 0.90231 seconds. 
  Full-batch training loss = 0.005076, test loss = 0.184326
  Training set accuracy = 1.000000, Test set accuracy = 0.952500
 epoch 43/200. Took 0.87553 seconds. 
  Full-batch training loss = 0.004858, test loss = 0.184111
  Training set accuracy = 1.000000, Test set accuracy = 0.953400
 epoch 44/200. Took 0.86936 seconds. 
  Full-batch training loss = 0.004763, test loss = 0.184441
  Training set accuracy = 1.000000, Test set accuracy = 0.953200
 epoch 45/200. Took 0.86588 seconds. 
  Full-batch training loss = 0.004592, test loss = 0.185223
  Training set accuracy = 1.000000, Test set accuracy = 0.953200
 epoch 46/200. Took 0.87249 seconds. 
  Full-batch training loss = 0.004480, test loss = 0.184948
  Training set accuracy = 1.000000, Test set accuracy = 0.953200
 epoch 47/200. Took 0.87162 seconds. 
  Full-batch training loss = 0.004309, test loss = 0.185090
  Training set accuracy = 1.000000, Test set accuracy = 0.953300
 epoch 48/200. Took 0.87535 seconds. 
  Full-batch training loss = 0.004146, test loss = 0.185603
  Training set accuracy = 1.000000, Test set accuracy = 0.953400
 epoch 49/200. Took 0.86072 seconds. 
  Full-batch training loss = 0.004093, test loss = 0.186995
  Training set accuracy = 1.000000, Test set accuracy = 0.952900
 epoch 50/200. Took 0.8668 seconds. 
  Full-batch training loss = 0.003957, test loss = 0.186327
  Training set accuracy = 1.000000, Test set accuracy = 0.952700
 epoch 51/200. Took 0.86968 seconds. 
  Full-batch training loss = 0.003807, test loss = 0.186530
  Training set accuracy = 1.000000, Test set accuracy = 0.953800
 epoch 52/200. Took 0.86207 seconds. 
  Full-batch training loss = 0.003721, test loss = 0.187289
  Training set accuracy = 1.000000, Test set accuracy = 0.953800
 epoch 53/200. Took 0.86118 seconds. 
  Full-batch training loss = 0.003616, test loss = 0.187570
  Training set accuracy = 1.000000, Test set accuracy = 0.952400
 epoch 54/200. Took 0.8697 seconds. 
  Full-batch training loss = 0.003546, test loss = 0.187232
  Training set accuracy = 1.000000, Test set accuracy = 0.953800
 epoch 55/200. Took 0.86981 seconds. 
  Full-batch training loss = 0.003440, test loss = 0.187889
  Training set accuracy = 1.000000, Test set accuracy = 0.953800
 epoch 56/200. Took 0.87661 seconds. 
  Full-batch training loss = 0.003348, test loss = 0.188448
  Training set accuracy = 1.000000, Test set accuracy = 0.953100
 epoch 57/200. Took 0.8589 seconds. 
  Full-batch training loss = 0.003265, test loss = 0.188590
  Training set accuracy = 1.000000, Test set accuracy = 0.954300
 epoch 58/200. Took 0.87281 seconds. 
  Full-batch training loss = 0.003184, test loss = 0.188279
  Training set accuracy = 1.000000, Test set accuracy = 0.953500
 epoch 59/200. Took 0.87666 seconds. 
  Full-batch training loss = 0.003120, test loss = 0.188936
  Training set accuracy = 1.000000, Test set accuracy = 0.953100
 epoch 60/200. Took 0.86862 seconds. 
  Full-batch training loss = 0.003038, test loss = 0.189026
  Training set accuracy = 1.000000, Test set accuracy = 0.953500
 epoch 61/200. Took 0.87837 seconds. 
  Full-batch training loss = 0.002960, test loss = 0.189417
  Training set accuracy = 1.000000, Test set accuracy = 0.953300
 epoch 62/200. Took 0.86857 seconds. 
  Full-batch training loss = 0.002895, test loss = 0.189906
  Training set accuracy = 1.000000, Test set accuracy = 0.953100
 epoch 63/200. Took 0.87084 seconds. 
  Full-batch training loss = 0.002847, test loss = 0.189727
  Training set accuracy = 1.000000, Test set accuracy = 0.954000
 epoch 64/200. Took 0.86753 seconds. 
  Full-batch training loss = 0.002806, test loss = 0.189754
  Training set accuracy = 1.000000, Test set accuracy = 0.954300
 epoch 65/200. Took 0.88637 seconds. 
  Full-batch training loss = 0.002728, test loss = 0.190428
  Training set accuracy = 1.000000, Test set accuracy = 0.952800
 epoch 66/200. Took 0.86509 seconds. 
  Full-batch training loss = 0.002663, test loss = 0.190478
  Training set accuracy = 1.000000, Test set accuracy = 0.953500
 epoch 67/200. Took 0.87833 seconds. 
  Full-batch training loss = 0.002615, test loss = 0.190403
  Training set accuracy = 1.000000, Test set accuracy = 0.953700
 epoch 68/200. Took 0.86961 seconds. 
  Full-batch training loss = 0.002554, test loss = 0.191522
  Training set accuracy = 1.000000, Test set accuracy = 0.953400
 epoch 69/200. Took 0.86314 seconds. 
  Full-batch training loss = 0.002507, test loss = 0.191657
  Training set accuracy = 1.000000, Test set accuracy = 0.953000
 epoch 70/200. Took 0.8719 seconds. 
  Full-batch training loss = 0.002456, test loss = 0.191569
  Training set accuracy = 1.000000, Test set accuracy = 0.953500
 epoch 71/200. Took 0.87372 seconds. 
  Full-batch training loss = 0.002408, test loss = 0.191669
  Training set accuracy = 1.000000, Test set accuracy = 0.953700
 epoch 72/200. Took 0.87026 seconds. 
  Full-batch training loss = 0.002364, test loss = 0.192024
  Training set accuracy = 1.000000, Test set accuracy = 0.953200
 epoch 73/200. Took 0.8659 seconds. 
  Full-batch training loss = 0.002329, test loss = 0.192775
  Training set accuracy = 1.000000, Test set accuracy = 0.953100
 epoch 74/200. Took 0.87227 seconds. 
  Full-batch training loss = 0.002282, test loss = 0.192710
  Training set accuracy = 1.000000, Test set accuracy = 0.953000
 epoch 75/200. Took 0.8735 seconds. 
  Full-batch training loss = 0.002235, test loss = 0.192994
  Training set accuracy = 1.000000, Test set accuracy = 0.953300
 epoch 76/200. Took 0.86938 seconds. 
  Full-batch training loss = 0.002197, test loss = 0.192478
  Training set accuracy = 1.000000, Test set accuracy = 0.953500
 epoch 77/200. Took 0.87038 seconds. 
  Full-batch training loss = 0.002166, test loss = 0.193571
  Training set accuracy = 1.000000, Test set accuracy = 0.953400
 epoch 78/200. Took 0.87062 seconds. 
  Full-batch training loss = 0.002122, test loss = 0.193462
  Training set accuracy = 1.000000, Test set accuracy = 0.953400
 epoch 79/200. Took 0.8594 seconds. 
  Full-batch training loss = 0.002086, test loss = 0.193307
  Training set accuracy = 1.000000, Test set accuracy = 0.953600
 epoch 80/200. Took 0.87191 seconds. 
  Full-batch training loss = 0.002049, test loss = 0.193585
  Training set accuracy = 1.000000, Test set accuracy = 0.953500
 epoch 81/200. Took 0.8615 seconds. 
  Full-batch training loss = 0.002018, test loss = 0.194004
  Training set accuracy = 1.000000, Test set accuracy = 0.953500
 epoch 82/200. Took 0.87054 seconds. 
  Full-batch training loss = 0.001988, test loss = 0.193978
  Training set accuracy = 1.000000, Test set accuracy = 0.954200
 epoch 83/200. Took 0.87767 seconds. 
  Full-batch training loss = 0.001954, test loss = 0.194596
  Training set accuracy = 1.000000, Test set accuracy = 0.953600
 epoch 84/200. Took 0.87432 seconds. 
  Full-batch training loss = 0.001939, test loss = 0.194355
  Training set accuracy = 1.000000, Test set accuracy = 0.954000
 epoch 85/200. Took 0.87236 seconds. 
  Full-batch training loss = 0.001892, test loss = 0.194776
  Training set accuracy = 1.000000, Test set accuracy = 0.953500
 epoch 86/200. Took 0.881 seconds. 
  Full-batch training loss = 0.001862, test loss = 0.194958
  Training set accuracy = 1.000000, Test set accuracy = 0.953300
 epoch 87/200. Took 0.86097 seconds. 
  Full-batch training loss = 0.001834, test loss = 0.195192
  Training set accuracy = 1.000000, Test set accuracy = 0.953300
 epoch 88/200. Took 0.86657 seconds. 
  Full-batch training loss = 0.001806, test loss = 0.195163
  Training set accuracy = 1.000000, Test set accuracy = 0.953400
 epoch 89/200. Took 0.86049 seconds. 
  Full-batch training loss = 0.001780, test loss = 0.195484
  Training set accuracy = 1.000000, Test set accuracy = 0.953100
 epoch 90/200. Took 0.86348 seconds. 
  Full-batch training loss = 0.001755, test loss = 0.195817
  Training set accuracy = 1.000000, Test set accuracy = 0.953600
 epoch 91/200. Took 0.869 seconds. 
  Full-batch training loss = 0.001729, test loss = 0.195600
  Training set accuracy = 1.000000, Test set accuracy = 0.953800
 epoch 92/200. Took 0.87343 seconds. 
  Full-batch training loss = 0.001704, test loss = 0.196005
  Training set accuracy = 1.000000, Test set accuracy = 0.953500
 epoch 93/200. Took 0.87397 seconds. 
  Full-batch training loss = 0.001681, test loss = 0.196317
  Training set accuracy = 1.000000, Test set accuracy = 0.952900
 epoch 94/200. Took 0.87629 seconds. 
  Full-batch training loss = 0.001655, test loss = 0.196344
  Training set accuracy = 1.000000, Test set accuracy = 0.953400
 epoch 95/200. Took 0.8782 seconds. 
  Full-batch training loss = 0.001635, test loss = 0.196400
  Training set accuracy = 1.000000, Test set accuracy = 0.953200
 epoch 96/200. Took 0.87231 seconds. 
  Full-batch training loss = 0.001610, test loss = 0.196560
  Training set accuracy = 1.000000, Test set accuracy = 0.953600
 epoch 97/200. Took 0.85741 seconds. 
  Full-batch training loss = 0.001590, test loss = 0.196714
  Training set accuracy = 1.000000, Test set accuracy = 0.953600
 epoch 98/200. Took 0.86809 seconds. 
  Full-batch training loss = 0.001569, test loss = 0.197376
  Training set accuracy = 1.000000, Test set accuracy = 0.953200
 epoch 99/200. Took 0.87186 seconds. 
  Full-batch training loss = 0.001550, test loss = 0.197298
  Training set accuracy = 1.000000, Test set accuracy = 0.953900
 epoch 100/200. Took 0.86535 seconds. 
  Full-batch training loss = 0.001529, test loss = 0.197067
  Training set accuracy = 1.000000, Test set accuracy = 0.953500
 epoch 101/200. Took 0.86783 seconds. 
  Full-batch training loss = 0.001509, test loss = 0.197274
  Training set accuracy = 1.000000, Test set accuracy = 0.953600
 epoch 102/200. Took 0.87153 seconds. 
  Full-batch training loss = 0.001488, test loss = 0.197625
  Training set accuracy = 1.000000, Test set accuracy = 0.953700
 epoch 103/200. Took 0.86434 seconds. 
  Full-batch training loss = 0.001468, test loss = 0.197679
  Training set accuracy = 1.000000, Test set accuracy = 0.953600
 epoch 104/200. Took 0.86249 seconds. 
  Full-batch training loss = 0.001451, test loss = 0.198066
  Training set accuracy = 1.000000, Test set accuracy = 0.953500
 epoch 105/200. Took 0.87512 seconds. 
  Full-batch training loss = 0.001435, test loss = 0.198214
  Training set accuracy = 1.000000, Test set accuracy = 0.953800
 epoch 106/200. Took 0.87663 seconds. 
  Full-batch training loss = 0.001418, test loss = 0.198620
  Training set accuracy = 1.000000, Test set accuracy = 0.953200
 epoch 107/200. Took 0.87227 seconds. 
  Full-batch training loss = 0.001399, test loss = 0.198418
  Training set accuracy = 1.000000, Test set accuracy = 0.953500
 epoch 108/200. Took 0.91607 seconds. 
  Full-batch training loss = 0.001383, test loss = 0.198843
  Training set accuracy = 1.000000, Test set accuracy = 0.953600
 epoch 109/200. Took 0.87592 seconds. 
  Full-batch training loss = 0.001365, test loss = 0.198624
  Training set accuracy = 1.000000, Test set accuracy = 0.953600
 epoch 110/200. Took 0.87307 seconds. 
  Full-batch training loss = 0.001349, test loss = 0.199073
  Training set accuracy = 1.000000, Test set accuracy = 0.953400
 epoch 111/200. Took 0.87184 seconds. 
  Full-batch training loss = 0.001334, test loss = 0.199016
  Training set accuracy = 1.000000, Test set accuracy = 0.953600
 epoch 112/200. Took 0.8808 seconds. 
  Full-batch training loss = 0.001319, test loss = 0.199299
  Training set accuracy = 1.000000, Test set accuracy = 0.953800
 epoch 113/200. Took 0.87814 seconds. 
  Full-batch training loss = 0.001303, test loss = 0.199133
  Training set accuracy = 1.000000, Test set accuracy = 0.953800
 epoch 114/200. Took 0.87116 seconds. 
  Full-batch training loss = 0.001288, test loss = 0.199612
  Training set accuracy = 1.000000, Test set accuracy = 0.953600
 epoch 115/200. Took 0.87193 seconds. 
  Full-batch training loss = 0.001275, test loss = 0.199460
  Training set accuracy = 1.000000, Test set accuracy = 0.953400
 epoch 116/200. Took 0.87407 seconds. 
  Full-batch training loss = 0.001259, test loss = 0.199654
  Training set accuracy = 1.000000, Test set accuracy = 0.953600
 epoch 117/200. Took 0.87128 seconds. 
  Full-batch training loss = 0.001247, test loss = 0.199721
  Training set accuracy = 1.000000, Test set accuracy = 0.953400
 epoch 118/200. Took 0.87142 seconds. 
  Full-batch training loss = 0.001233, test loss = 0.199887
  Training set accuracy = 1.000000, Test set accuracy = 0.953700
 epoch 119/200. Took 0.87066 seconds. 
  Full-batch training loss = 0.001219, test loss = 0.200083
  Training set accuracy = 1.000000, Test set accuracy = 0.953700
 epoch 120/200. Took 0.86815 seconds. 
  Full-batch training loss = 0.001206, test loss = 0.200407
  Training set accuracy = 1.000000, Test set accuracy = 0.953600
 epoch 121/200. Took 0.86479 seconds. 
  Full-batch training loss = 0.001194, test loss = 0.200536
  Training set accuracy = 1.000000, Test set accuracy = 0.953300
 epoch 122/200. Took 0.8771 seconds. 
  Full-batch training loss = 0.001181, test loss = 0.200831
  Training set accuracy = 1.000000, Test set accuracy = 0.953600
 epoch 123/200. Took 0.87194 seconds. 
  Full-batch training loss = 0.001168, test loss = 0.200922
  Training set accuracy = 1.000000, Test set accuracy = 0.953700
 epoch 124/200. Took 0.86674 seconds. 
  Full-batch training loss = 0.001156, test loss = 0.200896
  Training set accuracy = 1.000000, Test set accuracy = 0.953600
 epoch 125/200. Took 0.86902 seconds. 
  Full-batch training loss = 0.001144, test loss = 0.200998
  Training set accuracy = 1.000000, Test set accuracy = 0.953500
 epoch 126/200. Took 0.88079 seconds. 
  Full-batch training loss = 0.001133, test loss = 0.200987
  Training set accuracy = 1.000000, Test set accuracy = 0.953700
 epoch 127/200. Took 0.87534 seconds. 
  Full-batch training loss = 0.001121, test loss = 0.201393
  Training set accuracy = 1.000000, Test set accuracy = 0.953600
 epoch 128/200. Took 0.88237 seconds. 
  Full-batch training loss = 0.001110, test loss = 0.201496
  Training set accuracy = 1.000000, Test set accuracy = 0.953700
 epoch 129/200. Took 0.88657 seconds. 
  Full-batch training loss = 0.001100, test loss = 0.201803
  Training set accuracy = 1.000000, Test set accuracy = 0.953700
 epoch 130/200. Took 0.87825 seconds. 
  Full-batch training loss = 0.001088, test loss = 0.201766
  Training set accuracy = 1.000000, Test set accuracy = 0.953900
 epoch 131/200. Took 0.86312 seconds. 
  Full-batch training loss = 0.001077, test loss = 0.201776
  Training set accuracy = 1.000000, Test set accuracy = 0.953800
 epoch 132/200. Took 0.87299 seconds. 
  Full-batch training loss = 0.001067, test loss = 0.202017
  Training set accuracy = 1.000000, Test set accuracy = 0.953600
 epoch 133/200. Took 0.87103 seconds. 
  Full-batch training loss = 0.001057, test loss = 0.201910
  Training set accuracy = 1.000000, Test set accuracy = 0.953800
 epoch 134/200. Took 0.86754 seconds. 
  Full-batch training loss = 0.001047, test loss = 0.202027
  Training set accuracy = 1.000000, Test set accuracy = 0.953600
 epoch 135/200. Took 0.87446 seconds. 
  Full-batch training loss = 0.001037, test loss = 0.202354
  Training set accuracy = 1.000000, Test set accuracy = 0.953700
 epoch 136/200. Took 0.87327 seconds. 
  Full-batch training loss = 0.001028, test loss = 0.202391
  Training set accuracy = 1.000000, Test set accuracy = 0.954000
 epoch 137/200. Took 0.86851 seconds. 
  Full-batch training loss = 0.001018, test loss = 0.202456
  Training set accuracy = 1.000000, Test set accuracy = 0.953700
 epoch 138/200. Took 0.9124 seconds. 
  Full-batch training loss = 0.001009, test loss = 0.202714
  Training set accuracy = 1.000000, Test set accuracy = 0.953800
 epoch 139/200. Took 0.86589 seconds. 
  Full-batch training loss = 0.000999, test loss = 0.202768
  Training set accuracy = 1.000000, Test set accuracy = 0.954000
 epoch 140/200. Took 0.87235 seconds. 
  Full-batch training loss = 0.000990, test loss = 0.202913
  Training set accuracy = 1.000000, Test set accuracy = 0.954100
 epoch 141/200. Took 0.87962 seconds. 
  Full-batch training loss = 0.000981, test loss = 0.202992
  Training set accuracy = 1.000000, Test set accuracy = 0.953700
 epoch 142/200. Took 0.87425 seconds. 
  Full-batch training loss = 0.000973, test loss = 0.202949
  Training set accuracy = 1.000000, Test set accuracy = 0.954100
 epoch 143/200. Took 0.86919 seconds. 
  Full-batch training loss = 0.000965, test loss = 0.203421
  Training set accuracy = 1.000000, Test set accuracy = 0.953600
 epoch 144/200. Took 0.93138 seconds. 
  Full-batch training loss = 0.000956, test loss = 0.203480
  Training set accuracy = 1.000000, Test set accuracy = 0.953800
 epoch 145/200. Took 0.86827 seconds. 
  Full-batch training loss = 0.000947, test loss = 0.203371
  Training set accuracy = 1.000000, Test set accuracy = 0.953800
 epoch 146/200. Took 0.87969 seconds. 
  Full-batch training loss = 0.000939, test loss = 0.203597
  Training set accuracy = 1.000000, Test set accuracy = 0.953600
 epoch 147/200. Took 0.87854 seconds. 
  Full-batch training loss = 0.000931, test loss = 0.203810
  Training set accuracy = 1.000000, Test set accuracy = 0.953800
 epoch 148/200. Took 0.86344 seconds. 
  Full-batch training loss = 0.000923, test loss = 0.203891
  Training set accuracy = 1.000000, Test set accuracy = 0.953800
 epoch 149/200. Took 0.87134 seconds. 
  Full-batch training loss = 0.000915, test loss = 0.203996
  Training set accuracy = 1.000000, Test set accuracy = 0.953800
 epoch 150/200. Took 0.87213 seconds. 
  Full-batch training loss = 0.000907, test loss = 0.204065
  Training set accuracy = 1.000000, Test set accuracy = 0.953800
 epoch 151/200. Took 0.87408 seconds. 
  Full-batch training loss = 0.000900, test loss = 0.204181
  Training set accuracy = 1.000000, Test set accuracy = 0.953800
 epoch 152/200. Took 0.8719 seconds. 
  Full-batch training loss = 0.000892, test loss = 0.204252
  Training set accuracy = 1.000000, Test set accuracy = 0.954300
 epoch 153/200. Took 0.87468 seconds. 
  Full-batch training loss = 0.000885, test loss = 0.204312
  Training set accuracy = 1.000000, Test set accuracy = 0.953800
 epoch 154/200. Took 0.86411 seconds. 
  Full-batch training loss = 0.000878, test loss = 0.204465
  Training set accuracy = 1.000000, Test set accuracy = 0.954400
 epoch 155/200. Took 0.8732 seconds. 
  Full-batch training loss = 0.000871, test loss = 0.204546
  Training set accuracy = 1.000000, Test set accuracy = 0.954000
 epoch 156/200. Took 0.8761 seconds. 
  Full-batch training loss = 0.000864, test loss = 0.204627
  Training set accuracy = 1.000000, Test set accuracy = 0.954000
 epoch 157/200. Took 0.87243 seconds. 
  Full-batch training loss = 0.000857, test loss = 0.204865
  Training set accuracy = 1.000000, Test set accuracy = 0.954200
 epoch 158/200. Took 0.95508 seconds. 
  Full-batch training loss = 0.000850, test loss = 0.204929
  Training set accuracy = 1.000000, Test set accuracy = 0.954100
 epoch 159/200. Took 0.87617 seconds. 
  Full-batch training loss = 0.000844, test loss = 0.204923
  Training set accuracy = 1.000000, Test set accuracy = 0.953900
 epoch 160/200. Took 0.86228 seconds. 
  Full-batch training loss = 0.000836, test loss = 0.205144
  Training set accuracy = 1.000000, Test set accuracy = 0.954200
 epoch 161/200. Took 0.85926 seconds. 
  Full-batch training loss = 0.000830, test loss = 0.205334
  Training set accuracy = 1.000000, Test set accuracy = 0.954300
 epoch 162/200. Took 0.86856 seconds. 
  Full-batch training loss = 0.000824, test loss = 0.205372
  Training set accuracy = 1.000000, Test set accuracy = 0.953900
 epoch 163/200. Took 0.86884 seconds. 
  Full-batch training loss = 0.000817, test loss = 0.205388
  Training set accuracy = 1.000000, Test set accuracy = 0.954300
 epoch 164/200. Took 0.87316 seconds. 
  Full-batch training loss = 0.000811, test loss = 0.205624
  Training set accuracy = 1.000000, Test set accuracy = 0.954100
 epoch 165/200. Took 0.87646 seconds. 
  Full-batch training loss = 0.000805, test loss = 0.205660
  Training set accuracy = 1.000000, Test set accuracy = 0.954200
 epoch 166/200. Took 0.86313 seconds. 
  Full-batch training loss = 0.000799, test loss = 0.205761
  Training set accuracy = 1.000000, Test set accuracy = 0.954400
 epoch 167/200. Took 0.86995 seconds. 
  Full-batch training loss = 0.000793, test loss = 0.205828
  Training set accuracy = 1.000000, Test set accuracy = 0.954500
 epoch 168/200. Took 0.87624 seconds. 
  Full-batch training loss = 0.000787, test loss = 0.205912
  Training set accuracy = 1.000000, Test set accuracy = 0.954200
 epoch 169/200. Took 0.87963 seconds. 
  Full-batch training loss = 0.000781, test loss = 0.205993
  Training set accuracy = 1.000000, Test set accuracy = 0.954400
 epoch 170/200. Took 0.87661 seconds. 
  Full-batch training loss = 0.000775, test loss = 0.206210
  Training set accuracy = 1.000000, Test set accuracy = 0.954100
 epoch 171/200. Took 0.86728 seconds. 
  Full-batch training loss = 0.000770, test loss = 0.206201
  Training set accuracy = 1.000000, Test set accuracy = 0.954400
 epoch 172/200. Took 0.87784 seconds. 
  Full-batch training loss = 0.000764, test loss = 0.206398
  Training set accuracy = 1.000000, Test set accuracy = 0.954300
 epoch 173/200. Took 0.87022 seconds. 
  Full-batch training loss = 0.000758, test loss = 0.206535
  Training set accuracy = 1.000000, Test set accuracy = 0.954200
 epoch 174/200. Took 0.86425 seconds. 
  Full-batch training loss = 0.000753, test loss = 0.206588
  Training set accuracy = 1.000000, Test set accuracy = 0.954200
 epoch 175/200. Took 0.85985 seconds. 
  Full-batch training loss = 0.000748, test loss = 0.206718
  Training set accuracy = 1.000000, Test set accuracy = 0.954300
 epoch 176/200. Took 0.8751 seconds. 
  Full-batch training loss = 0.000742, test loss = 0.206744
  Training set accuracy = 1.000000, Test set accuracy = 0.954200
 epoch 177/200. Took 0.8701 seconds. 
  Full-batch training loss = 0.000737, test loss = 0.206753
  Training set accuracy = 1.000000, Test set accuracy = 0.954300
 epoch 178/200. Took 0.87777 seconds. 
  Full-batch training loss = 0.000732, test loss = 0.206792
  Training set accuracy = 1.000000, Test set accuracy = 0.954600
 epoch 179/200. Took 0.87379 seconds. 
  Full-batch training loss = 0.000727, test loss = 0.206923
  Training set accuracy = 1.000000, Test set accuracy = 0.954500
 epoch 180/200. Took 0.87148 seconds. 
  Full-batch training loss = 0.000722, test loss = 0.207114
  Training set accuracy = 1.000000, Test set accuracy = 0.954500
 epoch 181/200. Took 0.86347 seconds. 
  Full-batch training loss = 0.000717, test loss = 0.207125
  Training set accuracy = 1.000000, Test set accuracy = 0.954500
 epoch 182/200. Took 0.86839 seconds. 
  Full-batch training loss = 0.000712, test loss = 0.207214
  Training set accuracy = 1.000000, Test set accuracy = 0.954400
 epoch 183/200. Took 0.87595 seconds. 
  Full-batch training loss = 0.000707, test loss = 0.207520
  Training set accuracy = 1.000000, Test set accuracy = 0.954200
 epoch 184/200. Took 0.86497 seconds. 
  Full-batch training loss = 0.000702, test loss = 0.207502
  Training set accuracy = 1.000000, Test set accuracy = 0.954600
 epoch 185/200. Took 0.86631 seconds. 
  Full-batch training loss = 0.000697, test loss = 0.207562
  Training set accuracy = 1.000000, Test set accuracy = 0.954600
 epoch 186/200. Took 0.87756 seconds. 
  Full-batch training loss = 0.000693, test loss = 0.207683
  Training set accuracy = 1.000000, Test set accuracy = 0.954400
 epoch 187/200. Took 0.87663 seconds. 
  Full-batch training loss = 0.000688, test loss = 0.207758
  Training set accuracy = 1.000000, Test set accuracy = 0.954400
 epoch 188/200. Took 0.86801 seconds. 
  Full-batch training loss = 0.000683, test loss = 0.207857
  Training set accuracy = 1.000000, Test set accuracy = 0.954400
 epoch 189/200. Took 0.87153 seconds. 
  Full-batch training loss = 0.000679, test loss = 0.207921
  Training set accuracy = 1.000000, Test set accuracy = 0.954400
 epoch 190/200. Took 0.86742 seconds. 
  Full-batch training loss = 0.000675, test loss = 0.207947
  Training set accuracy = 1.000000, Test set accuracy = 0.954500
 epoch 191/200. Took 0.86999 seconds. 
  Full-batch training loss = 0.000671, test loss = 0.208250
  Training set accuracy = 1.000000, Test set accuracy = 0.954800
 epoch 192/200. Took 0.87826 seconds. 
  Full-batch training loss = 0.000666, test loss = 0.208222
  Training set accuracy = 1.000000, Test set accuracy = 0.954400
 epoch 193/200. Took 0.873 seconds. 
  Full-batch training loss = 0.000662, test loss = 0.208161
  Training set accuracy = 1.000000, Test set accuracy = 0.954600
 epoch 194/200. Took 0.88195 seconds. 
  Full-batch training loss = 0.000657, test loss = 0.208321
  Training set accuracy = 1.000000, Test set accuracy = 0.954600
 epoch 195/200. Took 0.87723 seconds. 
  Full-batch training loss = 0.000653, test loss = 0.208544
  Training set accuracy = 1.000000, Test set accuracy = 0.954800
 epoch 196/200. Took 0.88759 seconds. 
  Full-batch training loss = 0.000649, test loss = 0.208539
  Training set accuracy = 1.000000, Test set accuracy = 0.955000
 epoch 197/200. Took 0.86853 seconds. 
  Full-batch training loss = 0.000645, test loss = 0.208638
  Training set accuracy = 1.000000, Test set accuracy = 0.954900
 epoch 198/200. Took 0.87188 seconds. 
  Full-batch training loss = 0.000641, test loss = 0.208611
  Training set accuracy = 1.000000, Test set accuracy = 0.954600
 epoch 199/200. Took 0.87926 seconds. 
  Full-batch training loss = 0.000637, test loss = 0.208745
  Training set accuracy = 1.000000, Test set accuracy = 0.954700
 epoch 200/200. Took 0.8662 seconds. 
  Full-batch training loss = 0.000633, test loss = 0.208981
  Training set accuracy = 1.000000, Test set accuracy = 0.955000
Elapsed time is 458.595072 seconds.
End Training
