==========================================================
  Architecture is 500 500 500 // 3 layer x 500 neuron
----------------------------------------------------------
Execution 224/270
----------------------------------------------------------
* ReducedData	10000
* PreTrainRBM	true
	-> Epochs	50
	-> LearningRate	0.20
* Fine-tunning
	-> Epochs	200
	-> LearningRate	0.10
==========================================================
Start Training
Number of training examples: 10000  BatchSize: 100
Number of inputs: 784  Number of outputs: 10
Number of hidden layers: 3 (500  500  500)
Training binary-binary RBM in layer 1 (784  500) with CD1 for 50 epochs
 epoch 1/50. Took 1.1105 seconds. Average reconstruction error is: 27.5113
 epoch 2/50. Took 1.1072 seconds. Average reconstruction error is: 16.3541
 epoch 3/50. Took 1.1129 seconds. Average reconstruction error is: 14.1316
 epoch 4/50. Took 1.1024 seconds. Average reconstruction error is: 12.8852
 epoch 5/50. Took 1.1017 seconds. Average reconstruction error is: 11.9132
 epoch 6/50. Took 1.083 seconds. Average reconstruction error is: 11.2447
 epoch 7/50. Took 1.0734 seconds. Average reconstruction error is: 10.7421
 epoch 8/50. Took 1.2102 seconds. Average reconstruction error is: 10.3417
 epoch 9/50. Took 1.1077 seconds. Average reconstruction error is: 10.0338
 epoch 10/50. Took 1.2003 seconds. Average reconstruction error is: 9.8225
 epoch 11/50. Took 1.1023 seconds. Average reconstruction error is: 9.6382
 epoch 12/50. Took 1.104 seconds. Average reconstruction error is: 9.4346
 epoch 13/50. Took 1.1128 seconds. Average reconstruction error is: 9.2799
 epoch 14/50. Took 1.1352 seconds. Average reconstruction error is: 9.1674
 epoch 15/50. Took 1.121 seconds. Average reconstruction error is: 9.0984
 epoch 16/50. Took 1.109 seconds. Average reconstruction error is: 8.9246
 epoch 17/50. Took 1.1133 seconds. Average reconstruction error is: 8.8712
 epoch 18/50. Took 1.1298 seconds. Average reconstruction error is: 8.7779
 epoch 19/50. Took 1.1083 seconds. Average reconstruction error is: 8.7024
 epoch 20/50. Took 1.1132 seconds. Average reconstruction error is: 8.6502
 epoch 21/50. Took 1.1132 seconds. Average reconstruction error is: 8.5809
 epoch 22/50. Took 1.1069 seconds. Average reconstruction error is: 8.539
 epoch 23/50. Took 1.1122 seconds. Average reconstruction error is: 8.5145
 epoch 24/50. Took 1.1063 seconds. Average reconstruction error is: 8.4149
 epoch 25/50. Took 1.1031 seconds. Average reconstruction error is: 8.3473
 epoch 26/50. Took 1.1076 seconds. Average reconstruction error is: 8.3541
 epoch 27/50. Took 1.1216 seconds. Average reconstruction error is: 8.304
 epoch 28/50. Took 1.1294 seconds. Average reconstruction error is: 8.2448
 epoch 29/50. Took 1.0944 seconds. Average reconstruction error is: 8.2303
 epoch 30/50. Took 1.0905 seconds. Average reconstruction error is: 8.1984
 epoch 31/50. Took 1.1557 seconds. Average reconstruction error is: 8.2155
 epoch 32/50. Took 1.0736 seconds. Average reconstruction error is: 8.134
 epoch 33/50. Took 1.1025 seconds. Average reconstruction error is: 8.1109
 epoch 34/50. Took 1.0847 seconds. Average reconstruction error is: 8.0844
 epoch 35/50. Took 1.083 seconds. Average reconstruction error is: 8.0935
 epoch 36/50. Took 1.0768 seconds. Average reconstruction error is: 8.0472
 epoch 37/50. Took 1.0942 seconds. Average reconstruction error is: 8.0259
 epoch 38/50. Took 1.1301 seconds. Average reconstruction error is: 7.9878
 epoch 39/50. Took 1.1127 seconds. Average reconstruction error is: 7.9374
 epoch 40/50. Took 1.0939 seconds. Average reconstruction error is: 7.9457
 epoch 41/50. Took 1.0828 seconds. Average reconstruction error is: 7.9292
 epoch 42/50. Took 1.1436 seconds. Average reconstruction error is: 7.9097
 epoch 43/50. Took 1.0872 seconds. Average reconstruction error is: 7.8658
 epoch 44/50. Took 1.1305 seconds. Average reconstruction error is: 7.8484
 epoch 45/50. Took 1.1144 seconds. Average reconstruction error is: 7.851
 epoch 46/50. Took 1.1015 seconds. Average reconstruction error is: 7.7969
 epoch 47/50. Took 1.109 seconds. Average reconstruction error is: 7.8121
 epoch 48/50. Took 1.1076 seconds. Average reconstruction error is: 7.804
 epoch 49/50. Took 1.163 seconds. Average reconstruction error is: 7.7864
 epoch 50/50. Took 1.1008 seconds. Average reconstruction error is: 7.7852
Training binary-binary RBM in layer 2 (500  500) with CD1 for 50 epochs
 epoch 1/50. Took 0.78105 seconds. Average reconstruction error is: 20.2404
 epoch 2/50. Took 0.74759 seconds. Average reconstruction error is: 11.4831
 epoch 3/50. Took 0.75614 seconds. Average reconstruction error is: 10.0667
 epoch 4/50. Took 0.80389 seconds. Average reconstruction error is: 9.3549
 epoch 5/50. Took 0.77134 seconds. Average reconstruction error is: 8.9018
 epoch 6/50. Took 0.74931 seconds. Average reconstruction error is: 8.5354
 epoch 7/50. Took 0.75517 seconds. Average reconstruction error is: 8.2681
 epoch 8/50. Took 0.7423 seconds. Average reconstruction error is: 8.0329
 epoch 9/50. Took 0.74835 seconds. Average reconstruction error is: 7.8647
 epoch 10/50. Took 0.77289 seconds. Average reconstruction error is: 7.6855
 epoch 11/50. Took 0.81944 seconds. Average reconstruction error is: 7.563
 epoch 12/50. Took 0.75561 seconds. Average reconstruction error is: 7.3905
 epoch 13/50. Took 0.75479 seconds. Average reconstruction error is: 7.2838
 epoch 14/50. Took 0.74205 seconds. Average reconstruction error is: 7.1595
 epoch 15/50. Took 0.74565 seconds. Average reconstruction error is: 7.054
 epoch 16/50. Took 0.75925 seconds. Average reconstruction error is: 6.9437
 epoch 17/50. Took 0.74977 seconds. Average reconstruction error is: 6.8473
 epoch 18/50. Took 0.75456 seconds. Average reconstruction error is: 6.7712
 epoch 19/50. Took 0.75622 seconds. Average reconstruction error is: 6.6835
 epoch 20/50. Took 0.74986 seconds. Average reconstruction error is: 6.6108
 epoch 21/50. Took 0.74413 seconds. Average reconstruction error is: 6.5403
 epoch 22/50. Took 0.79566 seconds. Average reconstruction error is: 6.5291
 epoch 23/50. Took 0.75251 seconds. Average reconstruction error is: 6.4382
 epoch 24/50. Took 0.75126 seconds. Average reconstruction error is: 6.4382
 epoch 25/50. Took 0.82735 seconds. Average reconstruction error is: 6.3394
 epoch 26/50. Took 0.80651 seconds. Average reconstruction error is: 6.325
 epoch 27/50. Took 0.75435 seconds. Average reconstruction error is: 6.2589
 epoch 28/50. Took 0.80978 seconds. Average reconstruction error is: 6.1847
 epoch 29/50. Took 0.7864 seconds. Average reconstruction error is: 6.1742
 epoch 30/50. Took 0.79976 seconds. Average reconstruction error is: 6.1359
 epoch 31/50. Took 0.74068 seconds. Average reconstruction error is: 6.0691
 epoch 32/50. Took 0.74061 seconds. Average reconstruction error is: 6.0204
 epoch 33/50. Took 0.74738 seconds. Average reconstruction error is: 5.9995
 epoch 34/50. Took 0.74199 seconds. Average reconstruction error is: 5.9481
 epoch 35/50. Took 0.73484 seconds. Average reconstruction error is: 5.888
 epoch 36/50. Took 0.73962 seconds. Average reconstruction error is: 5.8476
 epoch 37/50. Took 0.74375 seconds. Average reconstruction error is: 5.8363
 epoch 38/50. Took 0.7505 seconds. Average reconstruction error is: 5.7903
 epoch 39/50. Took 0.8096 seconds. Average reconstruction error is: 5.7797
 epoch 40/50. Took 0.76543 seconds. Average reconstruction error is: 5.7644
 epoch 41/50. Took 0.75489 seconds. Average reconstruction error is: 5.7024
 epoch 42/50. Took 0.80375 seconds. Average reconstruction error is: 5.6628
 epoch 43/50. Took 0.76657 seconds. Average reconstruction error is: 5.6423
 epoch 44/50. Took 0.80247 seconds. Average reconstruction error is: 5.6188
 epoch 45/50. Took 0.80171 seconds. Average reconstruction error is: 5.6016
 epoch 46/50. Took 0.7834 seconds. Average reconstruction error is: 5.5786
 epoch 47/50. Took 0.78151 seconds. Average reconstruction error is: 5.5528
 epoch 48/50. Took 0.79435 seconds. Average reconstruction error is: 5.5348
 epoch 49/50. Took 0.7612 seconds. Average reconstruction error is: 5.5124
 epoch 50/50. Took 0.7677 seconds. Average reconstruction error is: 5.4977
Training binary-binary RBM in layer 3 (500  500) with CD1 for 50 epochs
 epoch 1/50. Took 0.79397 seconds. Average reconstruction error is: 14.3337
 epoch 2/50. Took 0.80649 seconds. Average reconstruction error is: 7.246
 epoch 3/50. Took 0.79329 seconds. Average reconstruction error is: 6.3371
 epoch 4/50. Took 0.81252 seconds. Average reconstruction error is: 5.8842
 epoch 5/50. Took 0.77281 seconds. Average reconstruction error is: 5.62
 epoch 6/50. Took 0.79783 seconds. Average reconstruction error is: 5.4433
 epoch 7/50. Took 0.83369 seconds. Average reconstruction error is: 5.2984
 epoch 8/50. Took 0.77309 seconds. Average reconstruction error is: 5.1768
 epoch 9/50. Took 0.77128 seconds. Average reconstruction error is: 5.0796
 epoch 10/50. Took 0.7713 seconds. Average reconstruction error is: 5.0006
 epoch 11/50. Took 0.75639 seconds. Average reconstruction error is: 4.9248
 epoch 12/50. Took 0.77546 seconds. Average reconstruction error is: 4.8601
 epoch 13/50. Took 0.7974 seconds. Average reconstruction error is: 4.82
 epoch 14/50. Took 0.79241 seconds. Average reconstruction error is: 4.8111
 epoch 15/50. Took 0.79127 seconds. Average reconstruction error is: 4.7248
 epoch 16/50. Took 0.81799 seconds. Average reconstruction error is: 4.6545
 epoch 17/50. Took 0.82113 seconds. Average reconstruction error is: 4.6358
 epoch 18/50. Took 0.81503 seconds. Average reconstruction error is: 4.6089
 epoch 19/50. Took 0.79256 seconds. Average reconstruction error is: 4.57
 epoch 20/50. Took 0.76854 seconds. Average reconstruction error is: 4.5759
 epoch 21/50. Took 0.75547 seconds. Average reconstruction error is: 4.5126
 epoch 22/50. Took 0.77787 seconds. Average reconstruction error is: 4.4923
 epoch 23/50. Took 0.76107 seconds. Average reconstruction error is: 4.5143
 epoch 24/50. Took 0.75916 seconds. Average reconstruction error is: 4.4563
 epoch 25/50. Took 0.77195 seconds. Average reconstruction error is: 4.4592
 epoch 26/50. Took 0.80405 seconds. Average reconstruction error is: 4.4442
 epoch 27/50. Took 0.75688 seconds. Average reconstruction error is: 4.4249
 epoch 28/50. Took 0.76915 seconds. Average reconstruction error is: 4.3615
 epoch 29/50. Took 0.77572 seconds. Average reconstruction error is: 4.3845
 epoch 30/50. Took 0.77471 seconds. Average reconstruction error is: 4.3431
 epoch 31/50. Took 0.77496 seconds. Average reconstruction error is: 4.3116
 epoch 32/50. Took 0.76035 seconds. Average reconstruction error is: 4.2818
 epoch 33/50. Took 0.76512 seconds. Average reconstruction error is: 4.2948
 epoch 34/50. Took 0.76699 seconds. Average reconstruction error is: 4.2732
 epoch 35/50. Took 0.75471 seconds. Average reconstruction error is: 4.2514
 epoch 36/50. Took 0.75389 seconds. Average reconstruction error is: 4.2689
 epoch 37/50. Took 0.80184 seconds. Average reconstruction error is: 4.2559
 epoch 38/50. Took 0.78179 seconds. Average reconstruction error is: 4.221
 epoch 39/50. Took 0.79011 seconds. Average reconstruction error is: 4.2199
 epoch 40/50. Took 0.78339 seconds. Average reconstruction error is: 4.1659
 epoch 41/50. Took 0.81727 seconds. Average reconstruction error is: 4.1701
 epoch 42/50. Took 0.77449 seconds. Average reconstruction error is: 4.1607
 epoch 43/50. Took 0.7735 seconds. Average reconstruction error is: 4.1422
 epoch 44/50. Took 0.78129 seconds. Average reconstruction error is: 4.1352
 epoch 45/50. Took 0.7653 seconds. Average reconstruction error is: 4.1198
 epoch 46/50. Took 0.78048 seconds. Average reconstruction error is: 4.115
 epoch 47/50. Took 0.7908 seconds. Average reconstruction error is: 4.1217
 epoch 48/50. Took 0.77737 seconds. Average reconstruction error is: 4.1091
 epoch 49/50. Took 0.78482 seconds. Average reconstruction error is: 4.073
 epoch 50/50. Took 0.80702 seconds. Average reconstruction error is: 4.083
Training NN  (784  500  500  500   10) with BackPropagation for 200 epochs
 epoch 1/200. Took 1.8092 seconds. 
  Full-batch training loss = 0.323703, test loss = 0.325873
  Training set accuracy = 0.913300, Test set accuracy = 0.910600
 epoch 2/200. Took 1.8243 seconds. 
  Full-batch training loss = 0.246817, test loss = 0.260702
  Training set accuracy = 0.931000, Test set accuracy = 0.925800
 epoch 3/200. Took 1.774 seconds. 
  Full-batch training loss = 0.214134, test loss = 0.237292
  Training set accuracy = 0.942500, Test set accuracy = 0.934000
 epoch 4/200. Took 1.7609 seconds. 
  Full-batch training loss = 0.187758, test loss = 0.219709
  Training set accuracy = 0.949400, Test set accuracy = 0.937100
 epoch 5/200. Took 1.7473 seconds. 
  Full-batch training loss = 0.170503, test loss = 0.205381
  Training set accuracy = 0.953500, Test set accuracy = 0.940300
 epoch 6/200. Took 1.7541 seconds. 
  Full-batch training loss = 0.154619, test loss = 0.194078
  Training set accuracy = 0.957300, Test set accuracy = 0.944300
 epoch 7/200. Took 1.8354 seconds. 
  Full-batch training loss = 0.141193, test loss = 0.189709
  Training set accuracy = 0.962600, Test set accuracy = 0.945300
 epoch 8/200. Took 1.796 seconds. 
  Full-batch training loss = 0.130805, test loss = 0.181647
  Training set accuracy = 0.964900, Test set accuracy = 0.947100
 epoch 9/200. Took 1.8911 seconds. 
  Full-batch training loss = 0.120811, test loss = 0.178836
  Training set accuracy = 0.968600, Test set accuracy = 0.947800
 epoch 10/200. Took 1.8086 seconds. 
  Full-batch training loss = 0.112964, test loss = 0.173180
  Training set accuracy = 0.970600, Test set accuracy = 0.950000
 epoch 11/200. Took 1.757 seconds. 
  Full-batch training loss = 0.104559, test loss = 0.168745
  Training set accuracy = 0.972300, Test set accuracy = 0.951400
 epoch 12/200. Took 1.8079 seconds. 
  Full-batch training loss = 0.098590, test loss = 0.167721
  Training set accuracy = 0.975300, Test set accuracy = 0.952500
 epoch 13/200. Took 1.7823 seconds. 
  Full-batch training loss = 0.092721, test loss = 0.165625
  Training set accuracy = 0.976900, Test set accuracy = 0.952000
 epoch 14/200. Took 1.8321 seconds. 
  Full-batch training loss = 0.086269, test loss = 0.160936
  Training set accuracy = 0.978800, Test set accuracy = 0.954300
 epoch 15/200. Took 1.7769 seconds. 
  Full-batch training loss = 0.084149, test loss = 0.164475
  Training set accuracy = 0.980200, Test set accuracy = 0.952500
 epoch 16/200. Took 1.826 seconds. 
  Full-batch training loss = 0.076726, test loss = 0.159074
  Training set accuracy = 0.982200, Test set accuracy = 0.953900
 epoch 17/200. Took 1.9478 seconds. 
  Full-batch training loss = 0.072261, test loss = 0.155962
  Training set accuracy = 0.983200, Test set accuracy = 0.955100
 epoch 18/200. Took 1.7546 seconds. 
  Full-batch training loss = 0.067638, test loss = 0.153730
  Training set accuracy = 0.985800, Test set accuracy = 0.955700
 epoch 19/200. Took 1.7462 seconds. 
  Full-batch training loss = 0.064819, test loss = 0.154554
  Training set accuracy = 0.987200, Test set accuracy = 0.955700
 epoch 20/200. Took 1.7531 seconds. 
  Full-batch training loss = 0.061053, test loss = 0.151568
  Training set accuracy = 0.988500, Test set accuracy = 0.956400
 epoch 21/200. Took 1.7455 seconds. 
  Full-batch training loss = 0.057547, test loss = 0.150991
  Training set accuracy = 0.989100, Test set accuracy = 0.956600
 epoch 22/200. Took 1.8123 seconds. 
  Full-batch training loss = 0.055035, test loss = 0.150869
  Training set accuracy = 0.990500, Test set accuracy = 0.956500
 epoch 23/200. Took 1.8301 seconds. 
  Full-batch training loss = 0.051432, test loss = 0.149136
  Training set accuracy = 0.991400, Test set accuracy = 0.957000
 epoch 24/200. Took 1.8015 seconds. 
  Full-batch training loss = 0.049475, test loss = 0.151558
  Training set accuracy = 0.991900, Test set accuracy = 0.956600
 epoch 25/200. Took 1.7706 seconds. 
  Full-batch training loss = 0.047304, test loss = 0.149931
  Training set accuracy = 0.991700, Test set accuracy = 0.957600
 epoch 26/200. Took 1.7566 seconds. 
  Full-batch training loss = 0.044444, test loss = 0.148125
  Training set accuracy = 0.994000, Test set accuracy = 0.956700
 epoch 27/200. Took 1.7393 seconds. 
  Full-batch training loss = 0.042302, test loss = 0.147778
  Training set accuracy = 0.994700, Test set accuracy = 0.957100
 epoch 28/200. Took 1.7509 seconds. 
  Full-batch training loss = 0.040542, test loss = 0.148107
  Training set accuracy = 0.994800, Test set accuracy = 0.957900
 epoch 29/200. Took 1.7542 seconds. 
  Full-batch training loss = 0.038190, test loss = 0.146488
  Training set accuracy = 0.995700, Test set accuracy = 0.958000
 epoch 30/200. Took 1.8486 seconds. 
  Full-batch training loss = 0.037224, test loss = 0.147228
  Training set accuracy = 0.995600, Test set accuracy = 0.958600
 epoch 31/200. Took 1.7649 seconds. 
  Full-batch training loss = 0.035221, test loss = 0.149231
  Training set accuracy = 0.995900, Test set accuracy = 0.957000
 epoch 32/200. Took 1.7575 seconds. 
  Full-batch training loss = 0.033021, test loss = 0.145831
  Training set accuracy = 0.996500, Test set accuracy = 0.959300
 epoch 33/200. Took 1.7542 seconds. 
  Full-batch training loss = 0.031757, test loss = 0.147689
  Training set accuracy = 0.996300, Test set accuracy = 0.957900
 epoch 34/200. Took 1.7481 seconds. 
  Full-batch training loss = 0.030386, test loss = 0.147604
  Training set accuracy = 0.996800, Test set accuracy = 0.957400
 epoch 35/200. Took 1.8626 seconds. 
  Full-batch training loss = 0.028846, test loss = 0.146024
  Training set accuracy = 0.996900, Test set accuracy = 0.958500
 epoch 36/200. Took 1.8119 seconds. 
  Full-batch training loss = 0.027952, test loss = 0.146614
  Training set accuracy = 0.997200, Test set accuracy = 0.959600
 epoch 37/200. Took 1.7759 seconds. 
  Full-batch training loss = 0.026729, test loss = 0.146681
  Training set accuracy = 0.997500, Test set accuracy = 0.959000
 epoch 38/200. Took 1.7842 seconds. 
  Full-batch training loss = 0.025546, test loss = 0.145702
  Training set accuracy = 0.997400, Test set accuracy = 0.958900
 epoch 39/200. Took 1.8091 seconds. 
  Full-batch training loss = 0.024636, test loss = 0.147056
  Training set accuracy = 0.997700, Test set accuracy = 0.957800
 epoch 40/200. Took 1.7844 seconds. 
  Full-batch training loss = 0.023295, test loss = 0.144536
  Training set accuracy = 0.998000, Test set accuracy = 0.960700
 epoch 41/200. Took 1.7751 seconds. 
  Full-batch training loss = 0.022331, test loss = 0.144596
  Training set accuracy = 0.998000, Test set accuracy = 0.960600
 epoch 42/200. Took 1.7468 seconds. 
  Full-batch training loss = 0.021310, test loss = 0.145370
  Training set accuracy = 0.998200, Test set accuracy = 0.959900
 epoch 43/200. Took 1.7779 seconds. 
  Full-batch training loss = 0.020572, test loss = 0.144901
  Training set accuracy = 0.998200, Test set accuracy = 0.959800
 epoch 44/200. Took 1.7597 seconds. 
  Full-batch training loss = 0.019884, test loss = 0.146160
  Training set accuracy = 0.998300, Test set accuracy = 0.959400
 epoch 45/200. Took 1.7617 seconds. 
  Full-batch training loss = 0.018925, test loss = 0.145959
  Training set accuracy = 0.998400, Test set accuracy = 0.959100
 epoch 46/200. Took 1.7566 seconds. 
  Full-batch training loss = 0.018893, test loss = 0.146943
  Training set accuracy = 0.998300, Test set accuracy = 0.959000
 epoch 47/200. Took 1.7718 seconds. 
  Full-batch training loss = 0.017817, test loss = 0.145183
  Training set accuracy = 0.998600, Test set accuracy = 0.960300
 epoch 48/200. Took 1.7436 seconds. 
  Full-batch training loss = 0.017146, test loss = 0.145855
  Training set accuracy = 0.998600, Test set accuracy = 0.960000
 epoch 49/200. Took 1.7881 seconds. 
  Full-batch training loss = 0.016384, test loss = 0.145807
  Training set accuracy = 0.998600, Test set accuracy = 0.959500
 epoch 50/200. Took 1.7962 seconds. 
  Full-batch training loss = 0.015872, test loss = 0.146042
  Training set accuracy = 0.998900, Test set accuracy = 0.960400
 epoch 51/200. Took 1.7858 seconds. 
  Full-batch training loss = 0.015417, test loss = 0.147190
  Training set accuracy = 0.999000, Test set accuracy = 0.959600
 epoch 52/200. Took 1.7645 seconds. 
  Full-batch training loss = 0.014932, test loss = 0.145354
  Training set accuracy = 0.999000, Test set accuracy = 0.960500
 epoch 53/200. Took 2.0185 seconds. 
  Full-batch training loss = 0.014330, test loss = 0.146015
  Training set accuracy = 0.999400, Test set accuracy = 0.960500
 epoch 54/200. Took 1.8453 seconds. 
  Full-batch training loss = 0.014052, test loss = 0.148143
  Training set accuracy = 0.999200, Test set accuracy = 0.959600
 epoch 55/200. Took 1.7654 seconds. 
  Full-batch training loss = 0.013462, test loss = 0.147505
  Training set accuracy = 0.999400, Test set accuracy = 0.959700
 epoch 56/200. Took 1.7558 seconds. 
  Full-batch training loss = 0.013051, test loss = 0.146700
  Training set accuracy = 0.999400, Test set accuracy = 0.959600
 epoch 57/200. Took 1.7599 seconds. 
  Full-batch training loss = 0.012574, test loss = 0.146461
  Training set accuracy = 0.999600, Test set accuracy = 0.960700
 epoch 58/200. Took 1.7815 seconds. 
  Full-batch training loss = 0.012288, test loss = 0.146753
  Training set accuracy = 0.999500, Test set accuracy = 0.960600
 epoch 59/200. Took 1.9505 seconds. 
  Full-batch training loss = 0.011905, test loss = 0.147963
  Training set accuracy = 0.999600, Test set accuracy = 0.960100
 epoch 60/200. Took 1.7857 seconds. 
  Full-batch training loss = 0.011583, test loss = 0.147130
  Training set accuracy = 0.999500, Test set accuracy = 0.960500
 epoch 61/200. Took 1.7413 seconds. 
  Full-batch training loss = 0.011255, test loss = 0.147024
  Training set accuracy = 0.999600, Test set accuracy = 0.960600
 epoch 62/200. Took 1.822 seconds. 
  Full-batch training loss = 0.010845, test loss = 0.147082
  Training set accuracy = 0.999600, Test set accuracy = 0.960200
 epoch 63/200. Took 1.7563 seconds. 
  Full-batch training loss = 0.010620, test loss = 0.147888
  Training set accuracy = 0.999700, Test set accuracy = 0.960600
 epoch 64/200. Took 1.7658 seconds. 
  Full-batch training loss = 0.010367, test loss = 0.147414
  Training set accuracy = 0.999700, Test set accuracy = 0.961000
 epoch 65/200. Took 1.7738 seconds. 
  Full-batch training loss = 0.010071, test loss = 0.148409
  Training set accuracy = 0.999800, Test set accuracy = 0.960000
 epoch 66/200. Took 1.7559 seconds. 
  Full-batch training loss = 0.009776, test loss = 0.147196
  Training set accuracy = 0.999800, Test set accuracy = 0.960700
 epoch 67/200. Took 1.7666 seconds. 
  Full-batch training loss = 0.009536, test loss = 0.148300
  Training set accuracy = 0.999800, Test set accuracy = 0.961100
 epoch 68/200. Took 1.9033 seconds. 
  Full-batch training loss = 0.009292, test loss = 0.147839
  Training set accuracy = 0.999800, Test set accuracy = 0.960900
 epoch 69/200. Took 1.7389 seconds. 
  Full-batch training loss = 0.009058, test loss = 0.148128
  Training set accuracy = 0.999800, Test set accuracy = 0.960600
 epoch 70/200. Took 1.7653 seconds. 
  Full-batch training loss = 0.008862, test loss = 0.149330
  Training set accuracy = 0.999800, Test set accuracy = 0.960500
 epoch 71/200. Took 1.7388 seconds. 
  Full-batch training loss = 0.008640, test loss = 0.148877
  Training set accuracy = 0.999800, Test set accuracy = 0.961300
 epoch 72/200. Took 1.7593 seconds. 
  Full-batch training loss = 0.008434, test loss = 0.149075
  Training set accuracy = 0.999800, Test set accuracy = 0.960600
 epoch 73/200. Took 1.8068 seconds. 
  Full-batch training loss = 0.008240, test loss = 0.148315
  Training set accuracy = 0.999800, Test set accuracy = 0.961400
 epoch 74/200. Took 1.9672 seconds. 
  Full-batch training loss = 0.008056, test loss = 0.148655
  Training set accuracy = 0.999800, Test set accuracy = 0.961100
 epoch 75/200. Took 2.0024 seconds. 
  Full-batch training loss = 0.007836, test loss = 0.149191
  Training set accuracy = 0.999800, Test set accuracy = 0.960500
 epoch 76/200. Took 1.7647 seconds. 
  Full-batch training loss = 0.007684, test loss = 0.149281
  Training set accuracy = 0.999800, Test set accuracy = 0.960600
 epoch 77/200. Took 1.7675 seconds. 
  Full-batch training loss = 0.007499, test loss = 0.148980
  Training set accuracy = 0.999800, Test set accuracy = 0.961100
 epoch 78/200. Took 1.8075 seconds. 
  Full-batch training loss = 0.007358, test loss = 0.148802
  Training set accuracy = 0.999900, Test set accuracy = 0.961400
 epoch 79/200. Took 1.7907 seconds. 
  Full-batch training loss = 0.007166, test loss = 0.149657
  Training set accuracy = 0.999800, Test set accuracy = 0.960900
 epoch 80/200. Took 1.7605 seconds. 
  Full-batch training loss = 0.007065, test loss = 0.149853
  Training set accuracy = 0.999900, Test set accuracy = 0.960300
 epoch 81/200. Took 1.7984 seconds. 
  Full-batch training loss = 0.006867, test loss = 0.149570
  Training set accuracy = 0.999900, Test set accuracy = 0.961300
 epoch 82/200. Took 1.795 seconds. 
  Full-batch training loss = 0.006724, test loss = 0.149459
  Training set accuracy = 0.999900, Test set accuracy = 0.961000
 epoch 83/200. Took 1.7464 seconds. 
  Full-batch training loss = 0.006645, test loss = 0.150184
  Training set accuracy = 1.000000, Test set accuracy = 0.961100
 epoch 84/200. Took 1.7491 seconds. 
  Full-batch training loss = 0.006474, test loss = 0.150395
  Training set accuracy = 0.999900, Test set accuracy = 0.961100
 epoch 85/200. Took 1.7707 seconds. 
  Full-batch training loss = 0.006346, test loss = 0.150133
  Training set accuracy = 1.000000, Test set accuracy = 0.961000
 epoch 86/200. Took 1.7484 seconds. 
  Full-batch training loss = 0.006212, test loss = 0.150412
  Training set accuracy = 1.000000, Test set accuracy = 0.961000
 epoch 87/200. Took 1.761 seconds. 
  Full-batch training loss = 0.006124, test loss = 0.151254
  Training set accuracy = 1.000000, Test set accuracy = 0.960900
 epoch 88/200. Took 1.7577 seconds. 
  Full-batch training loss = 0.005991, test loss = 0.150114
  Training set accuracy = 1.000000, Test set accuracy = 0.961400
 epoch 89/200. Took 1.8139 seconds. 
  Full-batch training loss = 0.005861, test loss = 0.150583
  Training set accuracy = 1.000000, Test set accuracy = 0.961100
 epoch 90/200. Took 1.7694 seconds. 
  Full-batch training loss = 0.005774, test loss = 0.150865
  Training set accuracy = 1.000000, Test set accuracy = 0.960900
 epoch 91/200. Took 1.7567 seconds. 
  Full-batch training loss = 0.005654, test loss = 0.150726
  Training set accuracy = 1.000000, Test set accuracy = 0.961000
 epoch 92/200. Took 1.7975 seconds. 
  Full-batch training loss = 0.005548, test loss = 0.150841
  Training set accuracy = 1.000000, Test set accuracy = 0.961200
 epoch 93/200. Took 1.7747 seconds. 
  Full-batch training loss = 0.005470, test loss = 0.150632
  Training set accuracy = 1.000000, Test set accuracy = 0.961300
 epoch 94/200. Took 1.7442 seconds. 
  Full-batch training loss = 0.005356, test loss = 0.150839
  Training set accuracy = 1.000000, Test set accuracy = 0.961100
 epoch 95/200. Took 1.815 seconds. 
  Full-batch training loss = 0.005275, test loss = 0.151436
  Training set accuracy = 1.000000, Test set accuracy = 0.961200
 epoch 96/200. Took 1.7811 seconds. 
  Full-batch training loss = 0.005234, test loss = 0.151536
  Training set accuracy = 1.000000, Test set accuracy = 0.960400
 epoch 97/200. Took 1.7574 seconds. 
  Full-batch training loss = 0.005099, test loss = 0.151259
  Training set accuracy = 1.000000, Test set accuracy = 0.961100
 epoch 98/200. Took 1.8208 seconds. 
  Full-batch training loss = 0.005014, test loss = 0.151588
  Training set accuracy = 1.000000, Test set accuracy = 0.961000
 epoch 99/200. Took 1.8222 seconds. 
  Full-batch training loss = 0.004925, test loss = 0.151736
  Training set accuracy = 1.000000, Test set accuracy = 0.960700
 epoch 100/200. Took 1.7803 seconds. 
  Full-batch training loss = 0.004852, test loss = 0.152117
  Training set accuracy = 1.000000, Test set accuracy = 0.961100
 epoch 101/200. Took 1.8643 seconds. 
  Full-batch training loss = 0.004772, test loss = 0.151733
  Training set accuracy = 1.000000, Test set accuracy = 0.960800
 epoch 102/200. Took 1.8788 seconds. 
  Full-batch training loss = 0.004707, test loss = 0.152150
  Training set accuracy = 1.000000, Test set accuracy = 0.961200
 epoch 103/200. Took 1.8084 seconds. 
  Full-batch training loss = 0.004623, test loss = 0.152090
  Training set accuracy = 1.000000, Test set accuracy = 0.960800
 epoch 104/200. Took 1.7952 seconds. 
  Full-batch training loss = 0.004551, test loss = 0.152332
  Training set accuracy = 1.000000, Test set accuracy = 0.960900
 epoch 105/200. Took 1.7736 seconds. 
  Full-batch training loss = 0.004497, test loss = 0.151822
  Training set accuracy = 1.000000, Test set accuracy = 0.961200
 epoch 106/200. Took 1.7577 seconds. 
  Full-batch training loss = 0.004417, test loss = 0.152097
  Training set accuracy = 1.000000, Test set accuracy = 0.961100
 epoch 107/200. Took 1.8349 seconds. 
  Full-batch training loss = 0.004351, test loss = 0.152579
  Training set accuracy = 1.000000, Test set accuracy = 0.961000
 epoch 108/200. Took 1.8074 seconds. 
  Full-batch training loss = 0.004293, test loss = 0.152613
  Training set accuracy = 1.000000, Test set accuracy = 0.961100
 epoch 109/200. Took 1.756 seconds. 
  Full-batch training loss = 0.004226, test loss = 0.152514
  Training set accuracy = 1.000000, Test set accuracy = 0.961200
 epoch 110/200. Took 1.7597 seconds. 
  Full-batch training loss = 0.004168, test loss = 0.152844
  Training set accuracy = 1.000000, Test set accuracy = 0.961000
 epoch 111/200. Took 1.8342 seconds. 
  Full-batch training loss = 0.004110, test loss = 0.152615
  Training set accuracy = 1.000000, Test set accuracy = 0.961200
 epoch 112/200. Took 1.7888 seconds. 
  Full-batch training loss = 0.004051, test loss = 0.152960
  Training set accuracy = 1.000000, Test set accuracy = 0.961000
 epoch 113/200. Took 1.8125 seconds. 
  Full-batch training loss = 0.003994, test loss = 0.153170
  Training set accuracy = 1.000000, Test set accuracy = 0.961300
 epoch 114/200. Took 1.7635 seconds. 
  Full-batch training loss = 0.003941, test loss = 0.153211
  Training set accuracy = 1.000000, Test set accuracy = 0.961200
 epoch 115/200. Took 1.7607 seconds. 
  Full-batch training loss = 0.003890, test loss = 0.153210
  Training set accuracy = 1.000000, Test set accuracy = 0.961400
 epoch 116/200. Took 1.7642 seconds. 
  Full-batch training loss = 0.003843, test loss = 0.153574
  Training set accuracy = 1.000000, Test set accuracy = 0.961300
 epoch 117/200. Took 1.781 seconds. 
  Full-batch training loss = 0.003785, test loss = 0.153674
  Training set accuracy = 1.000000, Test set accuracy = 0.961100
 epoch 118/200. Took 1.7358 seconds. 
  Full-batch training loss = 0.003739, test loss = 0.153401
  Training set accuracy = 1.000000, Test set accuracy = 0.961500
 epoch 119/200. Took 1.7658 seconds. 
  Full-batch training loss = 0.003693, test loss = 0.153800
  Training set accuracy = 1.000000, Test set accuracy = 0.961400
 epoch 120/200. Took 1.7476 seconds. 
  Full-batch training loss = 0.003640, test loss = 0.153748
  Training set accuracy = 1.000000, Test set accuracy = 0.961400
 epoch 121/200. Took 1.7608 seconds. 
  Full-batch training loss = 0.003594, test loss = 0.153899
  Training set accuracy = 1.000000, Test set accuracy = 0.961200
 epoch 122/200. Took 1.7542 seconds. 
  Full-batch training loss = 0.003550, test loss = 0.153860
  Training set accuracy = 1.000000, Test set accuracy = 0.961300
 epoch 123/200. Took 1.7498 seconds. 
  Full-batch training loss = 0.003506, test loss = 0.153993
  Training set accuracy = 1.000000, Test set accuracy = 0.961500
 epoch 124/200. Took 1.7594 seconds. 
  Full-batch training loss = 0.003464, test loss = 0.154088
  Training set accuracy = 1.000000, Test set accuracy = 0.961500
 epoch 125/200. Took 1.7479 seconds. 
  Full-batch training loss = 0.003422, test loss = 0.154146
  Training set accuracy = 1.000000, Test set accuracy = 0.961300
 epoch 126/200. Took 1.7566 seconds. 
  Full-batch training loss = 0.003385, test loss = 0.154314
  Training set accuracy = 1.000000, Test set accuracy = 0.961400
 epoch 127/200. Took 1.8165 seconds. 
  Full-batch training loss = 0.003343, test loss = 0.154692
  Training set accuracy = 1.000000, Test set accuracy = 0.961400
 epoch 128/200. Took 1.753 seconds. 
  Full-batch training loss = 0.003304, test loss = 0.154703
  Training set accuracy = 1.000000, Test set accuracy = 0.961400
 epoch 129/200. Took 1.7546 seconds. 
  Full-batch training loss = 0.003260, test loss = 0.154645
  Training set accuracy = 1.000000, Test set accuracy = 0.961300
 epoch 130/200. Took 1.7494 seconds. 
  Full-batch training loss = 0.003223, test loss = 0.154619
  Training set accuracy = 1.000000, Test set accuracy = 0.961400
 epoch 131/200. Took 1.7622 seconds. 
  Full-batch training loss = 0.003188, test loss = 0.154805
  Training set accuracy = 1.000000, Test set accuracy = 0.961400
 epoch 132/200. Took 1.7557 seconds. 
  Full-batch training loss = 0.003150, test loss = 0.154969
  Training set accuracy = 1.000000, Test set accuracy = 0.961200
 epoch 133/200. Took 1.7567 seconds. 
  Full-batch training loss = 0.003117, test loss = 0.154833
  Training set accuracy = 1.000000, Test set accuracy = 0.961200
 epoch 134/200. Took 1.7517 seconds. 
  Full-batch training loss = 0.003078, test loss = 0.155196
  Training set accuracy = 1.000000, Test set accuracy = 0.961300
 epoch 135/200. Took 1.7622 seconds. 
  Full-batch training loss = 0.003045, test loss = 0.155008
  Training set accuracy = 1.000000, Test set accuracy = 0.961600
 epoch 136/200. Took 1.7796 seconds. 
  Full-batch training loss = 0.003011, test loss = 0.155229
  Training set accuracy = 1.000000, Test set accuracy = 0.961300
 epoch 137/200. Took 1.7572 seconds. 
  Full-batch training loss = 0.002980, test loss = 0.155558
  Training set accuracy = 1.000000, Test set accuracy = 0.961300
 epoch 138/200. Took 1.7661 seconds. 
  Full-batch training loss = 0.002949, test loss = 0.155786
  Training set accuracy = 1.000000, Test set accuracy = 0.961300
 epoch 139/200. Took 1.7417 seconds. 
  Full-batch training loss = 0.002917, test loss = 0.155619
  Training set accuracy = 1.000000, Test set accuracy = 0.961400
 epoch 140/200. Took 1.7649 seconds. 
  Full-batch training loss = 0.002884, test loss = 0.155539
  Training set accuracy = 1.000000, Test set accuracy = 0.961500
 epoch 141/200. Took 1.7405 seconds. 
  Full-batch training loss = 0.002855, test loss = 0.155507
  Training set accuracy = 1.000000, Test set accuracy = 0.961600
 epoch 142/200. Took 1.7468 seconds. 
  Full-batch training loss = 0.002824, test loss = 0.155791
  Training set accuracy = 1.000000, Test set accuracy = 0.961500
 epoch 143/200. Took 1.7484 seconds. 
  Full-batch training loss = 0.002797, test loss = 0.156045
  Training set accuracy = 1.000000, Test set accuracy = 0.961400
 epoch 144/200. Took 1.7631 seconds. 
  Full-batch training loss = 0.002766, test loss = 0.155887
  Training set accuracy = 1.000000, Test set accuracy = 0.961500
 epoch 145/200. Took 1.7748 seconds. 
  Full-batch training loss = 0.002738, test loss = 0.156047
  Training set accuracy = 1.000000, Test set accuracy = 0.961200
 epoch 146/200. Took 1.7743 seconds. 
  Full-batch training loss = 0.002711, test loss = 0.156185
  Training set accuracy = 1.000000, Test set accuracy = 0.961400
 epoch 147/200. Took 1.743 seconds. 
  Full-batch training loss = 0.002684, test loss = 0.156023
  Training set accuracy = 1.000000, Test set accuracy = 0.961700
 epoch 148/200. Took 1.8767 seconds. 
  Full-batch training loss = 0.002657, test loss = 0.156338
  Training set accuracy = 1.000000, Test set accuracy = 0.961600
 epoch 149/200. Took 1.8293 seconds. 
  Full-batch training loss = 0.002631, test loss = 0.156368
  Training set accuracy = 1.000000, Test set accuracy = 0.961600
 epoch 150/200. Took 1.7514 seconds. 
  Full-batch training loss = 0.002606, test loss = 0.156462
  Training set accuracy = 1.000000, Test set accuracy = 0.961200
 epoch 151/200. Took 1.7595 seconds. 
  Full-batch training loss = 0.002581, test loss = 0.156396
  Training set accuracy = 1.000000, Test set accuracy = 0.961800
 epoch 152/200. Took 1.7707 seconds. 
  Full-batch training loss = 0.002557, test loss = 0.156706
  Training set accuracy = 1.000000, Test set accuracy = 0.961200
 epoch 153/200. Took 1.7817 seconds. 
  Full-batch training loss = 0.002531, test loss = 0.156622
  Training set accuracy = 1.000000, Test set accuracy = 0.961700
 epoch 154/200. Took 1.7896 seconds. 
  Full-batch training loss = 0.002507, test loss = 0.156649
  Training set accuracy = 1.000000, Test set accuracy = 0.961800
 epoch 155/200. Took 1.7854 seconds. 
  Full-batch training loss = 0.002484, test loss = 0.156775
  Training set accuracy = 1.000000, Test set accuracy = 0.961600
 epoch 156/200. Took 1.7549 seconds. 
  Full-batch training loss = 0.002461, test loss = 0.156604
  Training set accuracy = 1.000000, Test set accuracy = 0.962000
 epoch 157/200. Took 1.7376 seconds. 
  Full-batch training loss = 0.002438, test loss = 0.156848
  Training set accuracy = 1.000000, Test set accuracy = 0.962000
 epoch 158/200. Took 1.8075 seconds. 
  Full-batch training loss = 0.002415, test loss = 0.156960
  Training set accuracy = 1.000000, Test set accuracy = 0.961900
 epoch 159/200. Took 1.799 seconds. 
  Full-batch training loss = 0.002393, test loss = 0.157206
  Training set accuracy = 1.000000, Test set accuracy = 0.961700
 epoch 160/200. Took 1.7511 seconds. 
  Full-batch training loss = 0.002371, test loss = 0.157147
  Training set accuracy = 1.000000, Test set accuracy = 0.962000
 epoch 161/200. Took 1.8613 seconds. 
  Full-batch training loss = 0.002350, test loss = 0.157266
  Training set accuracy = 1.000000, Test set accuracy = 0.961900
 epoch 162/200. Took 1.7846 seconds. 
  Full-batch training loss = 0.002331, test loss = 0.157052
  Training set accuracy = 1.000000, Test set accuracy = 0.962100
 epoch 163/200. Took 1.7405 seconds. 
  Full-batch training loss = 0.002310, test loss = 0.157280
  Training set accuracy = 1.000000, Test set accuracy = 0.961700
 epoch 164/200. Took 1.7685 seconds. 
  Full-batch training loss = 0.002288, test loss = 0.157565
  Training set accuracy = 1.000000, Test set accuracy = 0.961700
 epoch 165/200. Took 1.7417 seconds. 
  Full-batch training loss = 0.002268, test loss = 0.157546
  Training set accuracy = 1.000000, Test set accuracy = 0.961900
 epoch 166/200. Took 1.8313 seconds. 
  Full-batch training loss = 0.002248, test loss = 0.157572
  Training set accuracy = 1.000000, Test set accuracy = 0.962000
 epoch 167/200. Took 1.7929 seconds. 
  Full-batch training loss = 0.002229, test loss = 0.157678
  Training set accuracy = 1.000000, Test set accuracy = 0.961900
 epoch 168/200. Took 1.7711 seconds. 
  Full-batch training loss = 0.002211, test loss = 0.157847
  Training set accuracy = 1.000000, Test set accuracy = 0.961700
 epoch 169/200. Took 1.7465 seconds. 
  Full-batch training loss = 0.002192, test loss = 0.158018
  Training set accuracy = 1.000000, Test set accuracy = 0.961900
 epoch 170/200. Took 1.7501 seconds. 
  Full-batch training loss = 0.002173, test loss = 0.157942
  Training set accuracy = 1.000000, Test set accuracy = 0.961800
 epoch 171/200. Took 1.757 seconds. 
  Full-batch training loss = 0.002156, test loss = 0.157919
  Training set accuracy = 1.000000, Test set accuracy = 0.961900
 epoch 172/200. Took 1.7475 seconds. 
  Full-batch training loss = 0.002137, test loss = 0.158089
  Training set accuracy = 1.000000, Test set accuracy = 0.961900
 epoch 173/200. Took 1.7547 seconds. 
  Full-batch training loss = 0.002119, test loss = 0.158062
  Training set accuracy = 1.000000, Test set accuracy = 0.961800
 epoch 174/200. Took 1.7547 seconds. 
  Full-batch training loss = 0.002103, test loss = 0.158019
  Training set accuracy = 1.000000, Test set accuracy = 0.962000
 epoch 175/200. Took 1.76 seconds. 
  Full-batch training loss = 0.002085, test loss = 0.158236
  Training set accuracy = 1.000000, Test set accuracy = 0.962000
 epoch 176/200. Took 1.7554 seconds. 
  Full-batch training loss = 0.002068, test loss = 0.158449
  Training set accuracy = 1.000000, Test set accuracy = 0.961800
 epoch 177/200. Took 1.7581 seconds. 
  Full-batch training loss = 0.002052, test loss = 0.158464
  Training set accuracy = 1.000000, Test set accuracy = 0.961700
 epoch 178/200. Took 1.7557 seconds. 
  Full-batch training loss = 0.002035, test loss = 0.158434
  Training set accuracy = 1.000000, Test set accuracy = 0.962200
 epoch 179/200. Took 1.7898 seconds. 
  Full-batch training loss = 0.002020, test loss = 0.158765
  Training set accuracy = 1.000000, Test set accuracy = 0.962000
 epoch 180/200. Took 1.7701 seconds. 
  Full-batch training loss = 0.002003, test loss = 0.158586
  Training set accuracy = 1.000000, Test set accuracy = 0.961900
 epoch 181/200. Took 1.7531 seconds. 
  Full-batch training loss = 0.001988, test loss = 0.158692
  Training set accuracy = 1.000000, Test set accuracy = 0.962000
 epoch 182/200. Took 1.7639 seconds. 
  Full-batch training loss = 0.001972, test loss = 0.158659
  Training set accuracy = 1.000000, Test set accuracy = 0.962000
 epoch 183/200. Took 1.7445 seconds. 
  Full-batch training loss = 0.001957, test loss = 0.158940
  Training set accuracy = 1.000000, Test set accuracy = 0.962000
 epoch 184/200. Took 1.7518 seconds. 
  Full-batch training loss = 0.001942, test loss = 0.158839
  Training set accuracy = 1.000000, Test set accuracy = 0.961900
 epoch 185/200. Took 1.7491 seconds. 
  Full-batch training loss = 0.001927, test loss = 0.158837
  Training set accuracy = 1.000000, Test set accuracy = 0.962100
 epoch 186/200. Took 1.7721 seconds. 
  Full-batch training loss = 0.001913, test loss = 0.159064
  Training set accuracy = 1.000000, Test set accuracy = 0.961900
 epoch 187/200. Took 1.7535 seconds. 
  Full-batch training loss = 0.001898, test loss = 0.159088
  Training set accuracy = 1.000000, Test set accuracy = 0.962000
 epoch 188/200. Took 1.7594 seconds. 
  Full-batch training loss = 0.001884, test loss = 0.159146
  Training set accuracy = 1.000000, Test set accuracy = 0.962100
 epoch 189/200. Took 1.7437 seconds. 
  Full-batch training loss = 0.001870, test loss = 0.159110
  Training set accuracy = 1.000000, Test set accuracy = 0.962000
 epoch 190/200. Took 1.7404 seconds. 
  Full-batch training loss = 0.001855, test loss = 0.159274
  Training set accuracy = 1.000000, Test set accuracy = 0.961800
 epoch 191/200. Took 1.8157 seconds. 
  Full-batch training loss = 0.001843, test loss = 0.159245
  Training set accuracy = 1.000000, Test set accuracy = 0.961900
 epoch 192/200. Took 1.7469 seconds. 
  Full-batch training loss = 0.001829, test loss = 0.159419
  Training set accuracy = 1.000000, Test set accuracy = 0.961900
 epoch 193/200. Took 1.7921 seconds. 
  Full-batch training loss = 0.001815, test loss = 0.159434
  Training set accuracy = 1.000000, Test set accuracy = 0.962000
 epoch 194/200. Took 1.7382 seconds. 
  Full-batch training loss = 0.001802, test loss = 0.159579
  Training set accuracy = 1.000000, Test set accuracy = 0.962000
 epoch 195/200. Took 1.7339 seconds. 
  Full-batch training loss = 0.001789, test loss = 0.159707
  Training set accuracy = 1.000000, Test set accuracy = 0.961900
 epoch 196/200. Took 1.7323 seconds. 
  Full-batch training loss = 0.001776, test loss = 0.159743
  Training set accuracy = 1.000000, Test set accuracy = 0.961900
 epoch 197/200. Took 1.7447 seconds. 
  Full-batch training loss = 0.001764, test loss = 0.159804
  Training set accuracy = 1.000000, Test set accuracy = 0.962100
 epoch 198/200. Took 1.7431 seconds. 
  Full-batch training loss = 0.001752, test loss = 0.159791
  Training set accuracy = 1.000000, Test set accuracy = 0.962000
 epoch 199/200. Took 1.7581 seconds. 
  Full-batch training loss = 0.001739, test loss = 0.159878
  Training set accuracy = 1.000000, Test set accuracy = 0.962000
 epoch 200/200. Took 1.7491 seconds. 
  Full-batch training loss = 0.001727, test loss = 0.159933
  Training set accuracy = 1.000000, Test set accuracy = 0.962100
Elapsed time is 771.390474 seconds.
End Training
