Loading data set: mnist_uint8.mat
Setting parameters
==========================================================
* ReducedData	10000
* PreTrainRBM	true
	-> Epochs	100
	-> LearningRate	0.20
* Fine-tunning
	-> Epochs	100
	-> LearningRate	0.20
==========================================================
Start Training
Number of training examples: 10000  BatchSize: 100
Number of inputs: 784  Number of outputs: 10
Number of hidden layers: 3 (200  200  200)
Training binary-binary RBM in layer 1 (784  200) with CD1 for 100 epochs
 epoch 1/100. Took 0.6159 seconds. Average reconstruction error is: 32.7753
 epoch 2/100. Took 0.59758 seconds. Average reconstruction error is: 19.8713
 epoch 3/100. Took 0.59551 seconds. Average reconstruction error is: 17.1736
 epoch 4/100. Took 0.60207 seconds. Average reconstruction error is: 15.553
 epoch 5/100. Took 0.60353 seconds. Average reconstruction error is: 14.4127
 epoch 6/100. Took 0.60279 seconds. Average reconstruction error is: 13.49
 epoch 7/100. Took 0.60773 seconds. Average reconstruction error is: 12.7725
 epoch 8/100. Took 0.60329 seconds. Average reconstruction error is: 12.2151
 epoch 9/100. Took 0.60239 seconds. Average reconstruction error is: 11.8017
 epoch 10/100. Took 0.60199 seconds. Average reconstruction error is: 11.4471
 epoch 11/100. Took 0.60157 seconds. Average reconstruction error is: 11.1656
 epoch 12/100. Took 0.60134 seconds. Average reconstruction error is: 10.9245
 epoch 13/100. Took 0.60015 seconds. Average reconstruction error is: 10.7528
 epoch 14/100. Took 0.60742 seconds. Average reconstruction error is: 10.5651
 epoch 15/100. Took 0.60838 seconds. Average reconstruction error is: 10.4625
 epoch 16/100. Took 0.60437 seconds. Average reconstruction error is: 10.3187
 epoch 17/100. Took 0.6037 seconds. Average reconstruction error is: 10.2219
 epoch 18/100. Took 0.60847 seconds. Average reconstruction error is: 10.0803
 epoch 19/100. Took 0.61679 seconds. Average reconstruction error is: 10.0434
 epoch 20/100. Took 0.6078 seconds. Average reconstruction error is: 9.9678
 epoch 21/100. Took 0.6037 seconds. Average reconstruction error is: 9.9117
 epoch 22/100. Took 0.59822 seconds. Average reconstruction error is: 9.836
 epoch 23/100. Took 0.6033 seconds. Average reconstruction error is: 9.7597
 epoch 24/100. Took 0.60705 seconds. Average reconstruction error is: 9.6903
 epoch 25/100. Took 0.60543 seconds. Average reconstruction error is: 9.6304
 epoch 26/100. Took 0.60025 seconds. Average reconstruction error is: 9.5718
 epoch 27/100. Took 0.60751 seconds. Average reconstruction error is: 9.5469
 epoch 28/100. Took 0.60588 seconds. Average reconstruction error is: 9.4902
 epoch 29/100. Took 0.60048 seconds. Average reconstruction error is: 9.4412
 epoch 30/100. Took 0.60442 seconds. Average reconstruction error is: 9.4085
 epoch 31/100. Took 0.60336 seconds. Average reconstruction error is: 9.3706
 epoch 32/100. Took 0.60868 seconds. Average reconstruction error is: 9.3459
 epoch 33/100. Took 0.60341 seconds. Average reconstruction error is: 9.2768
 epoch 34/100. Took 0.60582 seconds. Average reconstruction error is: 9.2411
 epoch 35/100. Took 0.60418 seconds. Average reconstruction error is: 9.2175
 epoch 36/100. Took 0.60168 seconds. Average reconstruction error is: 9.1812
 epoch 37/100. Took 0.61766 seconds. Average reconstruction error is: 9.151
 epoch 38/100. Took 0.6054 seconds. Average reconstruction error is: 9.1157
 epoch 39/100. Took 0.60268 seconds. Average reconstruction error is: 9.0898
 epoch 40/100. Took 0.60305 seconds. Average reconstruction error is: 9.0595
 epoch 41/100. Took 0.60324 seconds. Average reconstruction error is: 9.0735
 epoch 42/100. Took 0.60183 seconds. Average reconstruction error is: 9.0092
 epoch 43/100. Took 0.60324 seconds. Average reconstruction error is: 8.9562
 epoch 44/100. Took 0.60145 seconds. Average reconstruction error is: 8.9361
 epoch 45/100. Took 0.60349 seconds. Average reconstruction error is: 8.9497
 epoch 46/100. Took 0.60395 seconds. Average reconstruction error is: 8.9375
 epoch 47/100. Took 0.59883 seconds. Average reconstruction error is: 8.8484
 epoch 48/100. Took 0.60726 seconds. Average reconstruction error is: 8.8557
 epoch 49/100. Took 0.60316 seconds. Average reconstruction error is: 8.8182
 epoch 50/100. Took 0.60415 seconds. Average reconstruction error is: 8.809
 epoch 51/100. Took 0.60289 seconds. Average reconstruction error is: 8.7701
 epoch 52/100. Took 0.60428 seconds. Average reconstruction error is: 8.7597
 epoch 53/100. Took 0.60908 seconds. Average reconstruction error is: 8.7542
 epoch 54/100. Took 0.61657 seconds. Average reconstruction error is: 8.7311
 epoch 55/100. Took 0.60366 seconds. Average reconstruction error is: 8.6915
 epoch 56/100. Took 0.60412 seconds. Average reconstruction error is: 8.6612
 epoch 57/100. Took 0.60293 seconds. Average reconstruction error is: 8.6607
 epoch 58/100. Took 0.60351 seconds. Average reconstruction error is: 8.6257
 epoch 59/100. Took 0.60355 seconds. Average reconstruction error is: 8.6368
 epoch 60/100. Took 0.60372 seconds. Average reconstruction error is: 8.6279
 epoch 61/100. Took 0.60239 seconds. Average reconstruction error is: 8.5832
 epoch 62/100. Took 0.60288 seconds. Average reconstruction error is: 8.5912
 epoch 63/100. Took 0.6054 seconds. Average reconstruction error is: 8.5689
 epoch 64/100. Took 0.6027 seconds. Average reconstruction error is: 8.5385
 epoch 65/100. Took 0.60409 seconds. Average reconstruction error is: 8.5593
 epoch 66/100. Took 0.60147 seconds. Average reconstruction error is: 8.515
 epoch 67/100. Took 0.59953 seconds. Average reconstruction error is: 8.5373
 epoch 68/100. Took 0.61549 seconds. Average reconstruction error is: 8.5045
 epoch 69/100. Took 0.60311 seconds. Average reconstruction error is: 8.5082
 epoch 70/100. Took 0.60588 seconds. Average reconstruction error is: 8.4632
 epoch 71/100. Took 0.60286 seconds. Average reconstruction error is: 8.4484
 epoch 72/100. Took 0.61611 seconds. Average reconstruction error is: 8.433
 epoch 73/100. Took 0.60728 seconds. Average reconstruction error is: 8.413
 epoch 74/100. Took 0.60559 seconds. Average reconstruction error is: 8.3906
 epoch 75/100. Took 0.60179 seconds. Average reconstruction error is: 8.4177
 epoch 76/100. Took 0.60434 seconds. Average reconstruction error is: 8.4008
 epoch 77/100. Took 0.60306 seconds. Average reconstruction error is: 8.3898
 epoch 78/100. Took 0.60885 seconds. Average reconstruction error is: 8.3944
 epoch 79/100. Took 0.6028 seconds. Average reconstruction error is: 8.3555
 epoch 80/100. Took 0.60803 seconds. Average reconstruction error is: 8.3385
 epoch 81/100. Took 0.61395 seconds. Average reconstruction error is: 8.3212
 epoch 82/100. Took 0.6043 seconds. Average reconstruction error is: 8.3344
 epoch 83/100. Took 0.60339 seconds. Average reconstruction error is: 8.3057
 epoch 84/100. Took 0.60634 seconds. Average reconstruction error is: 8.2962
 epoch 85/100. Took 0.6022 seconds. Average reconstruction error is: 8.2948
 epoch 86/100. Took 0.60593 seconds. Average reconstruction error is: 8.2891
 epoch 87/100. Took 0.60689 seconds. Average reconstruction error is: 8.2679
 epoch 88/100. Took 0.60521 seconds. Average reconstruction error is: 8.2783
 epoch 89/100. Took 0.60368 seconds. Average reconstruction error is: 8.2294
 epoch 90/100. Took 0.62401 seconds. Average reconstruction error is: 8.2706
 epoch 91/100. Took 0.60295 seconds. Average reconstruction error is: 8.2411
 epoch 92/100. Took 0.60594 seconds. Average reconstruction error is: 8.2283
 epoch 93/100. Took 0.60287 seconds. Average reconstruction error is: 8.2102
 epoch 94/100. Took 0.60499 seconds. Average reconstruction error is: 8.2024
 epoch 95/100. Took 0.60204 seconds. Average reconstruction error is: 8.2181
 epoch 96/100. Took 0.60288 seconds. Average reconstruction error is: 8.19
 epoch 97/100. Took 0.60347 seconds. Average reconstruction error is: 8.2146
 epoch 98/100. Took 0.60269 seconds. Average reconstruction error is: 8.1705
 epoch 99/100. Took 0.60596 seconds. Average reconstruction error is: 8.1777
 epoch 100/100. Took 0.6076 seconds. Average reconstruction error is: 8.1711
Training binary-binary RBM in layer 2 (200  200) with CD1 for 100 epochs
 epoch 1/100. Took 0.2061 seconds. Average reconstruction error is: 14.6658
 epoch 2/100. Took 0.20558 seconds. Average reconstruction error is: 8.8876
 epoch 3/100. Took 0.20578 seconds. Average reconstruction error is: 7.8888
 epoch 4/100. Took 0.20622 seconds. Average reconstruction error is: 7.3725
 epoch 5/100. Took 0.20636 seconds. Average reconstruction error is: 7.0509
 epoch 6/100. Took 0.20644 seconds. Average reconstruction error is: 6.8
 epoch 7/100. Took 0.20627 seconds. Average reconstruction error is: 6.5828
 epoch 8/100. Took 0.20565 seconds. Average reconstruction error is: 6.4354
 epoch 9/100. Took 0.20673 seconds. Average reconstruction error is: 6.3007
 epoch 10/100. Took 0.207 seconds. Average reconstruction error is: 6.1534
 epoch 11/100. Took 0.20756 seconds. Average reconstruction error is: 6.0653
 epoch 12/100. Took 0.20504 seconds. Average reconstruction error is: 5.9369
 epoch 13/100. Took 0.20723 seconds. Average reconstruction error is: 5.8613
 epoch 14/100. Took 0.20676 seconds. Average reconstruction error is: 5.787
 epoch 15/100. Took 0.20747 seconds. Average reconstruction error is: 5.6847
 epoch 16/100. Took 0.20841 seconds. Average reconstruction error is: 5.6466
 epoch 17/100. Took 0.20881 seconds. Average reconstruction error is: 5.5738
 epoch 18/100. Took 0.21415 seconds. Average reconstruction error is: 5.51
 epoch 19/100. Took 0.20946 seconds. Average reconstruction error is: 5.4578
 epoch 20/100. Took 0.20595 seconds. Average reconstruction error is: 5.3754
 epoch 21/100. Took 0.20628 seconds. Average reconstruction error is: 5.3533
 epoch 22/100. Took 0.20654 seconds. Average reconstruction error is: 5.302
 epoch 23/100. Took 0.20803 seconds. Average reconstruction error is: 5.2503
 epoch 24/100. Took 0.20685 seconds. Average reconstruction error is: 5.219
 epoch 25/100. Took 0.20597 seconds. Average reconstruction error is: 5.2006
 epoch 26/100. Took 0.20628 seconds. Average reconstruction error is: 5.1506
 epoch 27/100. Took 0.20704 seconds. Average reconstruction error is: 5.1181
 epoch 28/100. Took 0.20706 seconds. Average reconstruction error is: 5.084
 epoch 29/100. Took 0.20728 seconds. Average reconstruction error is: 5.0426
 epoch 30/100. Took 0.20692 seconds. Average reconstruction error is: 5.03
 epoch 31/100. Took 0.20612 seconds. Average reconstruction error is: 4.9948
 epoch 32/100. Took 0.20951 seconds. Average reconstruction error is: 4.9905
 epoch 33/100. Took 0.20695 seconds. Average reconstruction error is: 4.9396
 epoch 34/100. Took 0.20715 seconds. Average reconstruction error is: 4.9084
 epoch 35/100. Took 0.20555 seconds. Average reconstruction error is: 4.9277
 epoch 36/100. Took 0.207 seconds. Average reconstruction error is: 4.8756
 epoch 37/100. Took 0.20851 seconds. Average reconstruction error is: 4.8653
 epoch 38/100. Took 0.206 seconds. Average reconstruction error is: 4.8358
 epoch 39/100. Took 0.20729 seconds. Average reconstruction error is: 4.8415
 epoch 40/100. Took 0.20765 seconds. Average reconstruction error is: 4.8023
 epoch 41/100. Took 0.20787 seconds. Average reconstruction error is: 4.787
 epoch 42/100. Took 0.20612 seconds. Average reconstruction error is: 4.7887
 epoch 43/100. Took 0.20648 seconds. Average reconstruction error is: 4.7311
 epoch 44/100. Took 0.20751 seconds. Average reconstruction error is: 4.7243
 epoch 45/100. Took 0.20551 seconds. Average reconstruction error is: 4.7115
 epoch 46/100. Took 0.20759 seconds. Average reconstruction error is: 4.6819
 epoch 47/100. Took 0.20623 seconds. Average reconstruction error is: 4.7161
 epoch 48/100. Took 0.20646 seconds. Average reconstruction error is: 4.6939
 epoch 49/100. Took 0.20642 seconds. Average reconstruction error is: 4.6693
 epoch 50/100. Took 0.20684 seconds. Average reconstruction error is: 4.6926
 epoch 51/100. Took 0.20718 seconds. Average reconstruction error is: 4.6227
 epoch 52/100. Took 0.20627 seconds. Average reconstruction error is: 4.6215
 epoch 53/100. Took 0.20618 seconds. Average reconstruction error is: 4.6292
 epoch 54/100. Took 0.20733 seconds. Average reconstruction error is: 4.5939
 epoch 55/100. Took 0.20868 seconds. Average reconstruction error is: 4.6196
 epoch 56/100. Took 0.20539 seconds. Average reconstruction error is: 4.5683
 epoch 57/100. Took 0.20758 seconds. Average reconstruction error is: 4.5851
 epoch 58/100. Took 0.20756 seconds. Average reconstruction error is: 4.5643
 epoch 59/100. Took 0.20648 seconds. Average reconstruction error is: 4.5352
 epoch 60/100. Took 0.2087 seconds. Average reconstruction error is: 4.5292
 epoch 61/100. Took 0.20936 seconds. Average reconstruction error is: 4.5284
 epoch 62/100. Took 0.2046 seconds. Average reconstruction error is: 4.5415
 epoch 63/100. Took 0.20874 seconds. Average reconstruction error is: 4.5303
 epoch 64/100. Took 0.20643 seconds. Average reconstruction error is: 4.4952
 epoch 65/100. Took 0.20844 seconds. Average reconstruction error is: 4.4863
 epoch 66/100. Took 0.20595 seconds. Average reconstruction error is: 4.4438
 epoch 67/100. Took 0.20758 seconds. Average reconstruction error is: 4.4522
 epoch 68/100. Took 0.20573 seconds. Average reconstruction error is: 4.4833
 epoch 69/100. Took 0.20554 seconds. Average reconstruction error is: 4.4713
 epoch 70/100. Took 0.20513 seconds. Average reconstruction error is: 4.4554
 epoch 71/100. Took 0.208 seconds. Average reconstruction error is: 4.4374
 epoch 72/100. Took 0.21196 seconds. Average reconstruction error is: 4.4295
 epoch 73/100. Took 0.21317 seconds. Average reconstruction error is: 4.4451
 epoch 74/100. Took 0.20539 seconds. Average reconstruction error is: 4.4304
 epoch 75/100. Took 0.20781 seconds. Average reconstruction error is: 4.428
 epoch 76/100. Took 0.20576 seconds. Average reconstruction error is: 4.4157
 epoch 77/100. Took 0.20665 seconds. Average reconstruction error is: 4.3925
 epoch 78/100. Took 0.20799 seconds. Average reconstruction error is: 4.4041
 epoch 79/100. Took 0.20845 seconds. Average reconstruction error is: 4.367
 epoch 80/100. Took 0.2076 seconds. Average reconstruction error is: 4.3771
 epoch 81/100. Took 0.20759 seconds. Average reconstruction error is: 4.3863
 epoch 82/100. Took 0.20618 seconds. Average reconstruction error is: 4.3644
 epoch 83/100. Took 0.20566 seconds. Average reconstruction error is: 4.3635
 epoch 84/100. Took 0.20738 seconds. Average reconstruction error is: 4.3629
 epoch 85/100. Took 0.20503 seconds. Average reconstruction error is: 4.3513
 epoch 86/100. Took 0.20604 seconds. Average reconstruction error is: 4.3556
 epoch 87/100. Took 0.20605 seconds. Average reconstruction error is: 4.3448
 epoch 88/100. Took 0.20826 seconds. Average reconstruction error is: 4.3598
 epoch 89/100. Took 0.20883 seconds. Average reconstruction error is: 4.3233
 epoch 90/100. Took 0.20457 seconds. Average reconstruction error is: 4.3292
 epoch 91/100. Took 0.20661 seconds. Average reconstruction error is: 4.2973
 epoch 92/100. Took 0.2074 seconds. Average reconstruction error is: 4.3202
 epoch 93/100. Took 0.20755 seconds. Average reconstruction error is: 4.3024
 epoch 94/100. Took 0.20706 seconds. Average reconstruction error is: 4.326
 epoch 95/100. Took 0.20747 seconds. Average reconstruction error is: 4.3212
 epoch 96/100. Took 0.20657 seconds. Average reconstruction error is: 4.3094
 epoch 97/100. Took 0.20803 seconds. Average reconstruction error is: 4.2882
 epoch 98/100. Took 0.2062 seconds. Average reconstruction error is: 4.2929
 epoch 99/100. Took 0.20695 seconds. Average reconstruction error is: 4.2683
 epoch 100/100. Took 0.20714 seconds. Average reconstruction error is: 4.2725
Training binary-binary RBM in layer 3 (200  200) with CD1 for 100 epochs
 epoch 1/100. Took 0.2047 seconds. Average reconstruction error is: 13.0676
 epoch 2/100. Took 0.20656 seconds. Average reconstruction error is: 7.6647
 epoch 3/100. Took 0.20542 seconds. Average reconstruction error is: 6.7201
 epoch 4/100. Took 0.20691 seconds. Average reconstruction error is: 6.2621
 epoch 5/100. Took 0.20497 seconds. Average reconstruction error is: 5.9337
 epoch 6/100. Took 0.20412 seconds. Average reconstruction error is: 5.7361
 epoch 7/100. Took 0.20843 seconds. Average reconstruction error is: 5.5741
 epoch 8/100. Took 0.20663 seconds. Average reconstruction error is: 5.4501
 epoch 9/100. Took 0.20722 seconds. Average reconstruction error is: 5.2907
 epoch 10/100. Took 0.20658 seconds. Average reconstruction error is: 5.213
 epoch 11/100. Took 0.20669 seconds. Average reconstruction error is: 5.1075
 epoch 12/100. Took 0.20807 seconds. Average reconstruction error is: 5.021
 epoch 13/100. Took 0.20938 seconds. Average reconstruction error is: 4.9736
 epoch 14/100. Took 0.20734 seconds. Average reconstruction error is: 4.9011
 epoch 15/100. Took 0.20595 seconds. Average reconstruction error is: 4.8505
 epoch 16/100. Took 0.20676 seconds. Average reconstruction error is: 4.7823
 epoch 17/100. Took 0.20798 seconds. Average reconstruction error is: 4.7375
 epoch 18/100. Took 0.20787 seconds. Average reconstruction error is: 4.7027
 epoch 19/100. Took 0.21317 seconds. Average reconstruction error is: 4.6467
 epoch 20/100. Took 0.21138 seconds. Average reconstruction error is: 4.5832
 epoch 21/100. Took 0.2077 seconds. Average reconstruction error is: 4.5546
 epoch 22/100. Took 0.20755 seconds. Average reconstruction error is: 4.5313
 epoch 23/100. Took 0.20591 seconds. Average reconstruction error is: 4.4895
 epoch 24/100. Took 0.20925 seconds. Average reconstruction error is: 4.4551
 epoch 25/100. Took 0.20646 seconds. Average reconstruction error is: 4.44
 epoch 26/100. Took 0.20744 seconds. Average reconstruction error is: 4.4065
 epoch 27/100. Took 0.20641 seconds. Average reconstruction error is: 4.3922
 epoch 28/100. Took 0.20631 seconds. Average reconstruction error is: 4.3734
 epoch 29/100. Took 0.20604 seconds. Average reconstruction error is: 4.3308
 epoch 30/100. Took 0.20546 seconds. Average reconstruction error is: 4.3241
 epoch 31/100. Took 0.2065 seconds. Average reconstruction error is: 4.2814
 epoch 32/100. Took 0.20755 seconds. Average reconstruction error is: 4.2622
 epoch 33/100. Took 0.20688 seconds. Average reconstruction error is: 4.2368
 epoch 34/100. Took 0.20692 seconds. Average reconstruction error is: 4.2136
 epoch 35/100. Took 0.20711 seconds. Average reconstruction error is: 4.2024
 epoch 36/100. Took 0.20687 seconds. Average reconstruction error is: 4.1675
 epoch 37/100. Took 0.20837 seconds. Average reconstruction error is: 4.1469
 epoch 38/100. Took 0.20739 seconds. Average reconstruction error is: 4.1327
 epoch 39/100. Took 0.20723 seconds. Average reconstruction error is: 4.1081
 epoch 40/100. Took 0.20817 seconds. Average reconstruction error is: 4.0938
 epoch 41/100. Took 0.20695 seconds. Average reconstruction error is: 4.0817
 epoch 42/100. Took 0.20739 seconds. Average reconstruction error is: 4.0374
 epoch 43/100. Took 0.20762 seconds. Average reconstruction error is: 4.039
 epoch 44/100. Took 0.20842 seconds. Average reconstruction error is: 3.9914
 epoch 45/100. Took 0.20769 seconds. Average reconstruction error is: 4.0035
 epoch 46/100. Took 0.20869 seconds. Average reconstruction error is: 3.9663
 epoch 47/100. Took 0.20673 seconds. Average reconstruction error is: 3.9548
 epoch 48/100. Took 0.20594 seconds. Average reconstruction error is: 3.9421
 epoch 49/100. Took 0.20606 seconds. Average reconstruction error is: 3.9176
 epoch 50/100. Took 0.21059 seconds. Average reconstruction error is: 3.8973
 epoch 51/100. Took 0.20905 seconds. Average reconstruction error is: 3.8873
 epoch 52/100. Took 0.20815 seconds. Average reconstruction error is: 3.9014
 epoch 53/100. Took 0.2065 seconds. Average reconstruction error is: 3.8826
 epoch 54/100. Took 0.20702 seconds. Average reconstruction error is: 3.8689
 epoch 55/100. Took 0.20633 seconds. Average reconstruction error is: 3.8452
 epoch 56/100. Took 0.20749 seconds. Average reconstruction error is: 3.8558
 epoch 57/100. Took 0.20745 seconds. Average reconstruction error is: 3.8439
 epoch 58/100. Took 0.20596 seconds. Average reconstruction error is: 3.8139
 epoch 59/100. Took 0.20878 seconds. Average reconstruction error is: 3.8074
 epoch 60/100. Took 0.20741 seconds. Average reconstruction error is: 3.8016
 epoch 61/100. Took 0.20986 seconds. Average reconstruction error is: 3.7978
 epoch 62/100. Took 0.20658 seconds. Average reconstruction error is: 3.7715
 epoch 63/100. Took 0.20763 seconds. Average reconstruction error is: 3.7481
 epoch 64/100. Took 0.20694 seconds. Average reconstruction error is: 3.7723
 epoch 65/100. Took 0.20807 seconds. Average reconstruction error is: 3.7285
 epoch 66/100. Took 0.20639 seconds. Average reconstruction error is: 3.706
 epoch 67/100. Took 0.20679 seconds. Average reconstruction error is: 3.6796
 epoch 68/100. Took 0.20695 seconds. Average reconstruction error is: 3.7131
 epoch 69/100. Took 0.20716 seconds. Average reconstruction error is: 3.6914
 epoch 70/100. Took 0.20732 seconds. Average reconstruction error is: 3.6575
 epoch 71/100. Took 0.20721 seconds. Average reconstruction error is: 3.6731
 epoch 72/100. Took 0.20558 seconds. Average reconstruction error is: 3.6314
 epoch 73/100. Took 0.20889 seconds. Average reconstruction error is: 3.6674
 epoch 74/100. Took 0.20692 seconds. Average reconstruction error is: 3.673
 epoch 75/100. Took 0.21695 seconds. Average reconstruction error is: 3.6513
 epoch 76/100. Took 0.21348 seconds. Average reconstruction error is: 3.6302
 epoch 77/100. Took 0.20719 seconds. Average reconstruction error is: 3.6125
 epoch 78/100. Took 0.20604 seconds. Average reconstruction error is: 3.603
 epoch 79/100. Took 0.20693 seconds. Average reconstruction error is: 3.5893
 epoch 80/100. Took 0.20807 seconds. Average reconstruction error is: 3.585
 epoch 81/100. Took 0.20766 seconds. Average reconstruction error is: 3.5482
 epoch 82/100. Took 0.20735 seconds. Average reconstruction error is: 3.5523
 epoch 83/100. Took 0.20709 seconds. Average reconstruction error is: 3.5571
 epoch 84/100. Took 0.20925 seconds. Average reconstruction error is: 3.5404
 epoch 85/100. Took 0.21049 seconds. Average reconstruction error is: 3.5345
 epoch 86/100. Took 0.20795 seconds. Average reconstruction error is: 3.5472
 epoch 87/100. Took 0.20665 seconds. Average reconstruction error is: 3.5283
 epoch 88/100. Took 0.21011 seconds. Average reconstruction error is: 3.5253
 epoch 89/100. Took 0.20973 seconds. Average reconstruction error is: 3.5005
 epoch 90/100. Took 0.20883 seconds. Average reconstruction error is: 3.4992
 epoch 91/100. Took 0.20993 seconds. Average reconstruction error is: 3.4965
 epoch 92/100. Took 0.20897 seconds. Average reconstruction error is: 3.4943
 epoch 93/100. Took 0.21236 seconds. Average reconstruction error is: 3.4903
 epoch 94/100. Took 0.20928 seconds. Average reconstruction error is: 3.4965
 epoch 95/100. Took 0.20767 seconds. Average reconstruction error is: 3.4652
 epoch 96/100. Took 0.20876 seconds. Average reconstruction error is: 3.4818
 epoch 97/100. Took 0.208 seconds. Average reconstruction error is: 3.4584
 epoch 98/100. Took 0.20813 seconds. Average reconstruction error is: 3.4528
 epoch 99/100. Took 0.20738 seconds. Average reconstruction error is: 3.4637
 epoch 100/100. Took 0.20836 seconds. Average reconstruction error is: 3.4268
Training NN  (784  200  200  200   10) with BackPropagation for 100 epochs
 epoch 1/100. Took 0.62747 seconds. 
  Full-batch training loss = 0.299601, test loss = 0.302240
  Training set accuracy = 0.918400, Test set accuracy = 0.916000
 epoch 2/100. Took 0.64002 seconds. 
  Full-batch training loss = 0.233237, test loss = 0.250497
  Training set accuracy = 0.936500, Test set accuracy = 0.928900
 epoch 3/100. Took 0.63881 seconds. 
  Full-batch training loss = 0.198466, test loss = 0.228363
  Training set accuracy = 0.944200, Test set accuracy = 0.932700
 epoch 4/100. Took 0.64019 seconds. 
  Full-batch training loss = 0.168807, test loss = 0.211580
  Training set accuracy = 0.956700, Test set accuracy = 0.938700
 epoch 5/100. Took 0.66479 seconds. 
  Full-batch training loss = 0.145770, test loss = 0.192820
  Training set accuracy = 0.961400, Test set accuracy = 0.943800
 epoch 6/100. Took 0.64551 seconds. 
  Full-batch training loss = 0.134000, test loss = 0.189756
  Training set accuracy = 0.962300, Test set accuracy = 0.942900
 epoch 7/100. Took 0.63758 seconds. 
  Full-batch training loss = 0.119450, test loss = 0.182177
  Training set accuracy = 0.970000, Test set accuracy = 0.946100
 epoch 8/100. Took 0.63062 seconds. 
  Full-batch training loss = 0.105706, test loss = 0.172028
  Training set accuracy = 0.973800, Test set accuracy = 0.949700
 epoch 9/100. Took 0.63497 seconds. 
  Full-batch training loss = 0.094559, test loss = 0.170324
  Training set accuracy = 0.979000, Test set accuracy = 0.948800
 epoch 10/100. Took 0.63458 seconds. 
  Full-batch training loss = 0.087002, test loss = 0.165436
  Training set accuracy = 0.980400, Test set accuracy = 0.950500
 epoch 11/100. Took 0.63468 seconds. 
  Full-batch training loss = 0.079590, test loss = 0.164295
  Training set accuracy = 0.983200, Test set accuracy = 0.950600
 epoch 12/100. Took 0.6334 seconds. 
  Full-batch training loss = 0.072580, test loss = 0.160951
  Training set accuracy = 0.984900, Test set accuracy = 0.954200
 epoch 13/100. Took 0.64613 seconds. 
  Full-batch training loss = 0.064892, test loss = 0.155300
  Training set accuracy = 0.986600, Test set accuracy = 0.955300
 epoch 14/100. Took 0.63419 seconds. 
  Full-batch training loss = 0.059365, test loss = 0.155165
  Training set accuracy = 0.987600, Test set accuracy = 0.954000
 epoch 15/100. Took 0.63363 seconds. 
  Full-batch training loss = 0.054158, test loss = 0.156881
  Training set accuracy = 0.990800, Test set accuracy = 0.954300
 epoch 16/100. Took 0.63341 seconds. 
  Full-batch training loss = 0.050610, test loss = 0.155998
  Training set accuracy = 0.990600, Test set accuracy = 0.953300
 epoch 17/100. Took 0.63865 seconds. 
  Full-batch training loss = 0.045506, test loss = 0.149963
  Training set accuracy = 0.992800, Test set accuracy = 0.956800
 epoch 18/100. Took 0.63295 seconds. 
  Full-batch training loss = 0.041740, test loss = 0.150228
  Training set accuracy = 0.994200, Test set accuracy = 0.957600
 epoch 19/100. Took 0.63436 seconds. 
  Full-batch training loss = 0.038339, test loss = 0.149826
  Training set accuracy = 0.994300, Test set accuracy = 0.957700
 epoch 20/100. Took 0.63141 seconds. 
  Full-batch training loss = 0.035435, test loss = 0.150877
  Training set accuracy = 0.995100, Test set accuracy = 0.956700
 epoch 21/100. Took 0.64068 seconds. 
  Full-batch training loss = 0.033500, test loss = 0.154639
  Training set accuracy = 0.995500, Test set accuracy = 0.954900
 epoch 22/100. Took 0.63652 seconds. 
  Full-batch training loss = 0.030113, test loss = 0.150277
  Training set accuracy = 0.996200, Test set accuracy = 0.956900
 epoch 23/100. Took 0.62983 seconds. 
  Full-batch training loss = 0.027886, test loss = 0.149882
  Training set accuracy = 0.996800, Test set accuracy = 0.957200
 epoch 24/100. Took 0.63531 seconds. 
  Full-batch training loss = 0.025782, test loss = 0.151091
  Training set accuracy = 0.997200, Test set accuracy = 0.957500
 epoch 25/100. Took 0.63225 seconds. 
  Full-batch training loss = 0.024229, test loss = 0.150947
  Training set accuracy = 0.997500, Test set accuracy = 0.956700
 epoch 26/100. Took 0.63718 seconds. 
  Full-batch training loss = 0.023008, test loss = 0.152322
  Training set accuracy = 0.997400, Test set accuracy = 0.957600
 epoch 27/100. Took 0.6307 seconds. 
  Full-batch training loss = 0.021038, test loss = 0.150340
  Training set accuracy = 0.998000, Test set accuracy = 0.958000
 epoch 28/100. Took 0.64223 seconds. 
  Full-batch training loss = 0.019670, test loss = 0.151345
  Training set accuracy = 0.998700, Test set accuracy = 0.957600
 epoch 29/100. Took 0.63906 seconds. 
  Full-batch training loss = 0.018349, test loss = 0.151246
  Training set accuracy = 0.998900, Test set accuracy = 0.957200
 epoch 30/100. Took 0.6614 seconds. 
  Full-batch training loss = 0.017198, test loss = 0.151245
  Training set accuracy = 0.999100, Test set accuracy = 0.958200
 epoch 31/100. Took 0.63818 seconds. 
  Full-batch training loss = 0.016134, test loss = 0.151196
  Training set accuracy = 0.999300, Test set accuracy = 0.958500
 epoch 32/100. Took 0.63456 seconds. 
  Full-batch training loss = 0.015096, test loss = 0.151667
  Training set accuracy = 0.999500, Test set accuracy = 0.958000
 epoch 33/100. Took 0.63946 seconds. 
  Full-batch training loss = 0.014183, test loss = 0.152857
  Training set accuracy = 0.999500, Test set accuracy = 0.957100
 epoch 34/100. Took 0.63629 seconds. 
  Full-batch training loss = 0.013577, test loss = 0.153188
  Training set accuracy = 0.999700, Test set accuracy = 0.957300
 epoch 35/100. Took 0.63622 seconds. 
  Full-batch training loss = 0.012987, test loss = 0.154099
  Training set accuracy = 0.999600, Test set accuracy = 0.957700
 epoch 36/100. Took 0.63276 seconds. 
  Full-batch training loss = 0.012302, test loss = 0.153753
  Training set accuracy = 0.999700, Test set accuracy = 0.957900
 epoch 37/100. Took 0.62916 seconds. 
  Full-batch training loss = 0.011511, test loss = 0.154444
  Training set accuracy = 0.999600, Test set accuracy = 0.957800
 epoch 38/100. Took 0.65374 seconds. 
  Full-batch training loss = 0.010962, test loss = 0.154264
  Training set accuracy = 0.999700, Test set accuracy = 0.957500
 epoch 39/100. Took 0.63783 seconds. 
  Full-batch training loss = 0.010527, test loss = 0.155296
  Training set accuracy = 0.999700, Test set accuracy = 0.957400
 epoch 40/100. Took 0.63421 seconds. 
  Full-batch training loss = 0.010061, test loss = 0.155301
  Training set accuracy = 0.999700, Test set accuracy = 0.957300
 epoch 41/100. Took 0.63452 seconds. 
  Full-batch training loss = 0.009509, test loss = 0.155358
  Training set accuracy = 0.999700, Test set accuracy = 0.957500
 epoch 42/100. Took 0.63631 seconds. 
  Full-batch training loss = 0.009280, test loss = 0.156660
  Training set accuracy = 0.999800, Test set accuracy = 0.957600
 epoch 43/100. Took 0.62615 seconds. 
  Full-batch training loss = 0.008879, test loss = 0.155752
  Training set accuracy = 0.999700, Test set accuracy = 0.958500
 epoch 44/100. Took 0.627 seconds. 
  Full-batch training loss = 0.008435, test loss = 0.156547
  Training set accuracy = 0.999700, Test set accuracy = 0.957800
 epoch 45/100. Took 0.62953 seconds. 
  Full-batch training loss = 0.008108, test loss = 0.156579
  Training set accuracy = 0.999800, Test set accuracy = 0.957300
 epoch 46/100. Took 0.63889 seconds. 
  Full-batch training loss = 0.007743, test loss = 0.157013
  Training set accuracy = 0.999800, Test set accuracy = 0.958100
 epoch 47/100. Took 0.65655 seconds. 
  Full-batch training loss = 0.007483, test loss = 0.157979
  Training set accuracy = 0.999800, Test set accuracy = 0.957400
 epoch 48/100. Took 0.63058 seconds. 
  Full-batch training loss = 0.007193, test loss = 0.157644
  Training set accuracy = 0.999900, Test set accuracy = 0.957800
 epoch 49/100. Took 0.62954 seconds. 
  Full-batch training loss = 0.006929, test loss = 0.157726
  Training set accuracy = 0.999900, Test set accuracy = 0.958100
 epoch 50/100. Took 0.63558 seconds. 
  Full-batch training loss = 0.006686, test loss = 0.158329
  Training set accuracy = 0.999900, Test set accuracy = 0.958700
 epoch 51/100. Took 0.63791 seconds. 
  Full-batch training loss = 0.006455, test loss = 0.158642
  Training set accuracy = 0.999900, Test set accuracy = 0.958200
 epoch 52/100. Took 0.63392 seconds. 
  Full-batch training loss = 0.006270, test loss = 0.158919
  Training set accuracy = 0.999900, Test set accuracy = 0.958200
 epoch 53/100. Took 0.72027 seconds. 
  Full-batch training loss = 0.006065, test loss = 0.159489
  Training set accuracy = 0.999900, Test set accuracy = 0.958000
 epoch 54/100. Took 0.64635 seconds. 
  Full-batch training loss = 0.005893, test loss = 0.159066
  Training set accuracy = 0.999900, Test set accuracy = 0.958500
 epoch 55/100. Took 0.64297 seconds. 
  Full-batch training loss = 0.005718, test loss = 0.159727
  Training set accuracy = 1.000000, Test set accuracy = 0.957900
 epoch 56/100. Took 0.63615 seconds. 
  Full-batch training loss = 0.005526, test loss = 0.160120
  Training set accuracy = 1.000000, Test set accuracy = 0.958100
 epoch 57/100. Took 0.63651 seconds. 
  Full-batch training loss = 0.005340, test loss = 0.160434
  Training set accuracy = 1.000000, Test set accuracy = 0.958300
 epoch 58/100. Took 0.63987 seconds. 
  Full-batch training loss = 0.005231, test loss = 0.161414
  Training set accuracy = 1.000000, Test set accuracy = 0.958000
 epoch 59/100. Took 0.74393 seconds. 
  Full-batch training loss = 0.005071, test loss = 0.161224
  Training set accuracy = 1.000000, Test set accuracy = 0.957800
 epoch 60/100. Took 0.63478 seconds. 
  Full-batch training loss = 0.004924, test loss = 0.161448
  Training set accuracy = 1.000000, Test set accuracy = 0.958100
 epoch 61/100. Took 0.63553 seconds. 
  Full-batch training loss = 0.004813, test loss = 0.161961
  Training set accuracy = 1.000000, Test set accuracy = 0.958400
 epoch 62/100. Took 0.63722 seconds. 
  Full-batch training loss = 0.004665, test loss = 0.161970
  Training set accuracy = 1.000000, Test set accuracy = 0.958500
 epoch 63/100. Took 0.63365 seconds. 
  Full-batch training loss = 0.004541, test loss = 0.162261
  Training set accuracy = 1.000000, Test set accuracy = 0.957900
 epoch 64/100. Took 0.63969 seconds. 
  Full-batch training loss = 0.004443, test loss = 0.162094
  Training set accuracy = 1.000000, Test set accuracy = 0.958500
 epoch 65/100. Took 0.63954 seconds. 
  Full-batch training loss = 0.004312, test loss = 0.162754
  Training set accuracy = 1.000000, Test set accuracy = 0.958600
 epoch 66/100. Took 0.63401 seconds. 
  Full-batch training loss = 0.004206, test loss = 0.163029
  Training set accuracy = 1.000000, Test set accuracy = 0.958300
 epoch 67/100. Took 0.63133 seconds. 
  Full-batch training loss = 0.004112, test loss = 0.163316
  Training set accuracy = 1.000000, Test set accuracy = 0.958100
 epoch 68/100. Took 0.63938 seconds. 
  Full-batch training loss = 0.004017, test loss = 0.163625
  Training set accuracy = 1.000000, Test set accuracy = 0.958800
 epoch 69/100. Took 0.64107 seconds. 
  Full-batch training loss = 0.003921, test loss = 0.163772
  Training set accuracy = 1.000000, Test set accuracy = 0.958400
 epoch 70/100. Took 0.62988 seconds. 
  Full-batch training loss = 0.003836, test loss = 0.164072
  Training set accuracy = 1.000000, Test set accuracy = 0.958600
 epoch 71/100. Took 0.63329 seconds. 
  Full-batch training loss = 0.003744, test loss = 0.164290
  Training set accuracy = 1.000000, Test set accuracy = 0.958300
 epoch 72/100. Took 0.63598 seconds. 
  Full-batch training loss = 0.003666, test loss = 0.164282
  Training set accuracy = 1.000000, Test set accuracy = 0.958600
 epoch 73/100. Took 0.64873 seconds. 
  Full-batch training loss = 0.003595, test loss = 0.164863
  Training set accuracy = 1.000000, Test set accuracy = 0.957800
 epoch 74/100. Took 0.63386 seconds. 
  Full-batch training loss = 0.003515, test loss = 0.164771
  Training set accuracy = 1.000000, Test set accuracy = 0.958300
 epoch 75/100. Took 0.63767 seconds. 
  Full-batch training loss = 0.003446, test loss = 0.164795
  Training set accuracy = 1.000000, Test set accuracy = 0.958400
 epoch 76/100. Took 0.63222 seconds. 
  Full-batch training loss = 0.003374, test loss = 0.165505
  Training set accuracy = 1.000000, Test set accuracy = 0.958400
 epoch 77/100. Took 0.63202 seconds. 
  Full-batch training loss = 0.003325, test loss = 0.165551
  Training set accuracy = 1.000000, Test set accuracy = 0.958300
 epoch 78/100. Took 0.6307 seconds. 
  Full-batch training loss = 0.003248, test loss = 0.165709
  Training set accuracy = 1.000000, Test set accuracy = 0.958000
 epoch 79/100. Took 0.63036 seconds. 
  Full-batch training loss = 0.003185, test loss = 0.166125
  Training set accuracy = 1.000000, Test set accuracy = 0.958500
 epoch 80/100. Took 0.62992 seconds. 
  Full-batch training loss = 0.003128, test loss = 0.166046
  Training set accuracy = 1.000000, Test set accuracy = 0.958300
 epoch 81/100. Took 0.62789 seconds. 
  Full-batch training loss = 0.003074, test loss = 0.166037
  Training set accuracy = 1.000000, Test set accuracy = 0.958600
 epoch 82/100. Took 0.63185 seconds. 
  Full-batch training loss = 0.003007, test loss = 0.166405
  Training set accuracy = 1.000000, Test set accuracy = 0.958600
 epoch 83/100. Took 0.6341 seconds. 
  Full-batch training loss = 0.002954, test loss = 0.166574
  Training set accuracy = 1.000000, Test set accuracy = 0.958400
 epoch 84/100. Took 0.63326 seconds. 
  Full-batch training loss = 0.002911, test loss = 0.166726
  Training set accuracy = 1.000000, Test set accuracy = 0.958600
 epoch 85/100. Took 0.63206 seconds. 
  Full-batch training loss = 0.002854, test loss = 0.167010
  Training set accuracy = 1.000000, Test set accuracy = 0.958700
 epoch 86/100. Took 0.63272 seconds. 
  Full-batch training loss = 0.002800, test loss = 0.167025
  Training set accuracy = 1.000000, Test set accuracy = 0.958700
 epoch 87/100. Took 0.63494 seconds. 
  Full-batch training loss = 0.002753, test loss = 0.167547
  Training set accuracy = 1.000000, Test set accuracy = 0.958800
 epoch 88/100. Took 0.6329 seconds. 
  Full-batch training loss = 0.002709, test loss = 0.167727
  Training set accuracy = 1.000000, Test set accuracy = 0.958400
 epoch 89/100. Took 0.63458 seconds. 
  Full-batch training loss = 0.002672, test loss = 0.167657
  Training set accuracy = 1.000000, Test set accuracy = 0.958700
 epoch 90/100. Took 0.63343 seconds. 
  Full-batch training loss = 0.002619, test loss = 0.168203
  Training set accuracy = 1.000000, Test set accuracy = 0.958500
 epoch 91/100. Took 0.63526 seconds. 
  Full-batch training loss = 0.002579, test loss = 0.168270
  Training set accuracy = 1.000000, Test set accuracy = 0.958600
 epoch 92/100. Took 0.63789 seconds. 
  Full-batch training loss = 0.002535, test loss = 0.168532
  Training set accuracy = 1.000000, Test set accuracy = 0.958300
 epoch 93/100. Took 0.63596 seconds. 
  Full-batch training loss = 0.002498, test loss = 0.168634
  Training set accuracy = 1.000000, Test set accuracy = 0.958300
 epoch 94/100. Took 0.64015 seconds. 
  Full-batch training loss = 0.002461, test loss = 0.168817
  Training set accuracy = 1.000000, Test set accuracy = 0.958600
 epoch 95/100. Took 0.63081 seconds. 
  Full-batch training loss = 0.002421, test loss = 0.168980
  Training set accuracy = 1.000000, Test set accuracy = 0.958300
 epoch 96/100. Took 0.63669 seconds. 
  Full-batch training loss = 0.002385, test loss = 0.169170
  Training set accuracy = 1.000000, Test set accuracy = 0.958200
 epoch 97/100. Took 0.63426 seconds. 
  Full-batch training loss = 0.002347, test loss = 0.169405
  Training set accuracy = 1.000000, Test set accuracy = 0.958400
 epoch 98/100. Took 0.62958 seconds. 
  Full-batch training loss = 0.002314, test loss = 0.169373
  Training set accuracy = 1.000000, Test set accuracy = 0.958400
 epoch 99/100. Took 0.6323 seconds. 
  Full-batch training loss = 0.002280, test loss = 0.169570
  Training set accuracy = 1.000000, Test set accuracy = 0.958500
 epoch 100/100. Took 0.63278 seconds. 
  Full-batch training loss = 0.002246, test loss = 0.169718
  Training set accuracy = 1.000000, Test set accuracy = 0.958500
Elapsed time is 228.299677 seconds.
End Training
