Number of rules: 121

L4 12.516131304612065 13.949467643571765 14.945588231731998
L2 0.7942230279667761 2.095663393929322 3.3951693065126194
L4 2.4161344020843694 2.76546075775468 3.196478461620804
L3 16.287815372438708 21.136824026781778 27.018657537277775
L3 87.76781627118912 117.14058623422297 141.57755321568033
L4 2.5166569039701367 3.274636422753453 3.9417718489999345
L3 1.583983925717185 2.8984318061607133 4.02284451680985
L3 0.30055059237458553 0.40057892610299217 0.5552953328600793
L3 1.1265804672402064 2.0379692027308183 2.964394407541638
L3 4.627316729696825 7.3023802398758715 10.414474304314217
L3 0.7457937152881824 1.1150421518293654 1.4560596356780617
L3 1.9919365067959327 2.7215171241921445 3.385294427160387
L4 1024.0576933524628 1402.1957533688094 1740.7508293235937
Class 0 CertaintyDegree 1.0

L4 12.516131304612065 13.949467643571765 14.945588231731998
L2 0.7942230279667761 2.095663393929322 3.3951693065126194
L4 2.4161344020843694 2.76546075775468 3.196478461620804
L3 16.287815372438708 21.136824026781778 27.018657537277775
L3 87.76781627118912 117.14058623422297 141.57755321568033
L4 2.5166569039701367 3.274636422753453 3.9417718489999345
L3 1.583983925717185 2.8984318061607133 4.02284451680985
L3 0.30055059237458553 0.40057892610299217 0.5552953328600793
L3 1.1265804672402064 2.0379692027308183 2.964394407541638
L3 4.627316729696825 7.3023802398758715 10.414474304314217
L3 0.7457937152881824 1.1150421518293654 1.4560596356780617
L3 1.9919365067959327 2.7215171241921445 3.385294427160387
L4 1024.0576933524628 1402.1957533688094 1740.7508293235937
Class 0 CertaintyDegree 1.0

L2 10.937253110813868 12.131001555684245 13.110196299960649
L2 0.7942230279667761 2.095663393929322 3.3951693065126194
L3 1.892882917865134 2.3925705346496575 2.8711134556130737
L3 16.287815372438708 21.136824026781778 27.018657537277775
L2 69.28343370776169 95.99843377951113 123.81074553123064
L3 1.8044990894080373 2.5015511852509356 3.2978204464443195
L3 1.583983925717185 2.8984318061607133 4.02284451680985
L3 0.30055059237458553 0.40057892610299217 0.5552953328600793
L2 0.5166288250481293 1.2401569322378667 2.140224888415512
L2 1.0477654909551328 4.395041655920894 7.544248953343706
L2 0.4885578281044043 0.8127379231353288 1.1294289271331595
L4 2.691369292669379 3.3849116407143462 4.0268699760629625
L1 -98.01237828333933 333.89053443168496 705.1344515296967
Class 1 CertaintyDegree 1.0

L2 10.937253110813868 12.131001555684245 13.110196299960649
L2 0.7942230279667761 2.095663393929322 3.3951693065126194
L3 1.892882917865134 2.3925705346496575 2.8711134556130737
L3 16.287815372438708 21.136824026781778 27.018657537277775
L2 69.28343370776169 95.99843377951113 123.81074553123064
L3 1.8044990894080373 2.5015511852509356 3.2978204464443195
L3 1.583983925717185 2.8984318061607133 4.02284451680985
L3 0.30055059237458553 0.40057892610299217 0.5552953328600793
L2 0.5166288250481293 1.2401569322378667 2.140224888415512
L2 1.0477654909551328 4.395041655920894 7.544248953343706
L2 0.4885578281044043 0.8127379231353288 1.1294289271331595
L4 2.691369292669379 3.3849116407143462 4.0268699760629625
L1 -98.01237828333933 333.89053443168496 705.1344515296967
Class 1 CertaintyDegree 1.0

L2 10.937253110813868 12.131001555684245 13.110196299960649
L2 0.7942230279667761 2.095663393929322 3.3951693065126194
L3 1.892882917865134 2.3925705346496575 2.8711134556130737
L3 16.287815372438708 21.136824026781778 27.018657537277775
L2 69.28343370776169 95.99843377951113 123.81074553123064
L3 1.8044990894080373 2.5015511852509356 3.2978204464443195
L3 1.583983925717185 2.8984318061607133 4.02284451680985
L3 0.30055059237458553 0.40057892610299217 0.5552953328600793
L2 0.5166288250481293 1.2401569322378667 2.140224888415512
L2 1.0477654909551328 4.395041655920894 7.544248953343706
L2 0.4885578281044043 0.8127379231353288 1.1294289271331595
L4 2.691369292669379 3.3849116407143462 4.0268699760629625
L1 -98.01237828333933 333.89053443168496 705.1344515296967
Class 1 CertaintyDegree 1.0

L4 12.516131304612065 13.949467643571765 14.945588231731998
L2 0.7942230279667761 2.095663393929322 3.3951693065126194
L3 1.892882917865134 2.3925705346496575 2.8711134556130737
L2 9.653515127944582 15.853541428239549 20.32089181754876
L2 69.28343370776169 95.99843377951113 123.81074553123064
L3 1.8044990894080373 2.5015511852509356 3.2978204464443195
L3 1.583983925717185 2.8984318061607133 4.02284451680985
L2 0.1487899875759685 0.24578234539435415 0.4344682561427939
L3 1.1265804672402064 2.0379692027308183 2.964394407541638
L2 1.0477654909551328 4.395041655920894 7.544248953343706
L3 0.7457937152881824 1.1150421518293654 1.4560596356780617
L3 1.9919365067959327 2.7215171241921445 3.385294427160387
L4 1024.0576933524628 1402.1957533688094 1740.7508293235937
Class 0 CertaintyDegree 1.0

L4 12.516131304612065 13.949467643571765 14.945588231731998
L2 0.7942230279667761 2.095663393929322 3.3951693065126194
L3 1.892882917865134 2.3925705346496575 2.8711134556130737
L2 9.653515127944582 15.853541428239549 20.32089181754876
L2 69.28343370776169 95.99843377951113 123.81074553123064
L3 1.8044990894080373 2.5015511852509356 3.2978204464443195
L3 1.583983925717185 2.8984318061607133 4.02284451680985
L2 0.1487899875759685 0.24578234539435415 0.4344682561427939
L3 1.1265804672402064 2.0379692027308183 2.964394407541638
L2 1.0477654909551328 4.395041655920894 7.544248953343706
L3 0.7457937152881824 1.1150421518293654 1.4560596356780617
L3 1.9919365067959327 2.7215171241921445 3.385294427160387
L4 1024.0576933524628 1402.1957533688094 1740.7508293235937
Class 0 CertaintyDegree 1.0

L4 12.516131304612065 13.949467643571765 14.945588231731998
L2 0.7942230279667761 2.095663393929322 3.3951693065126194
L3 1.892882917865134 2.3925705346496575 2.8711134556130737
L2 9.653515127944582 15.853541428239549 20.32089181754876
L2 69.28343370776169 95.99843377951113 123.81074553123064
L3 1.8044990894080373 2.5015511852509356 3.2978204464443195
L3 1.583983925717185 2.8984318061607133 4.02284451680985
L2 0.1487899875759685 0.24578234539435415 0.4344682561427939
L3 1.1265804672402064 2.0379692027308183 2.964394407541638
L2 1.0477654909551328 4.395041655920894 7.544248953343706
L3 0.7457937152881824 1.1150421518293654 1.4560596356780617
L3 1.9919365067959327 2.7215171241921445 3.385294427160387
L4 1024.0576933524628 1402.1957533688094 1740.7508293235937
Class 0 CertaintyDegree 1.0

L4 12.516131304612065 13.949467643571765 14.945588231731998
L2 0.7942230279667761 2.095663393929322 3.3951693065126194
L4 2.4161344020843694 2.76546075775468 3.196478461620804
L2 9.653515127944582 15.853541428239549 20.32089181754876
L3 87.76781627118912 117.14058623422297 141.57755321568033
L4 2.5166569039701367 3.274636422753453 3.9417718489999345
L3 1.583983925717185 2.8984318061607133 4.02284451680985
L3 0.30055059237458553 0.40057892610299217 0.5552953328600793
L3 1.1265804672402064 2.0379692027308183 2.964394407541638
L3 4.627316729696825 7.3023802398758715 10.414474304314217
L3 0.7457937152881824 1.1150421518293654 1.4560596356780617
L3 1.9919365067959327 2.7215171241921445 3.385294427160387
L4 1024.0576933524628 1402.1957533688094 1740.7508293235937
Class 0 CertaintyDegree 1.0

L3 12.114248860080568 13.014505997195762 13.97681060902169
L3 2.1969197085209458 3.041504932744118 4.7383722520024945
L3 1.892882917865134 2.3925705346496575 2.8711134556130737
L3 16.287815372438708 21.136824026781778 27.018657537277775
L3 87.76781627118912 117.14058623422297 141.57755321568033
L2 1.07297473200811 1.6954224065155215 2.509914146104739
L2 0.4688484299983101 1.5241177698064916 2.781061993269666
L2 0.1487899875759685 0.24578234539435415 0.4344682561427939
L2 0.5166288250481293 1.2401569322378667 2.140224888415512
L4 7.237414030886157 10.555047085806496 13.288564535462609
L1 0.1914075743450997 0.5222218209712641 0.8447120720923984
L1 0.6742900494915814 1.3127496137764634 2.0027935263990577
L2 185.86790582368843 709.9374287800932 1042.214454820686
Class 2 CertaintyDegree 1.0

L3 12.114248860080568 13.014505997195762 13.97681060902169
L3 2.1969197085209458 3.041504932744118 4.7383722520024945
L3 1.892882917865134 2.3925705346496575 2.8711134556130737
L3 16.287815372438708 21.136824026781778 27.018657537277775
L3 87.76781627118912 117.14058623422297 141.57755321568033
L2 1.07297473200811 1.6954224065155215 2.509914146104739
L2 0.4688484299983101 1.5241177698064916 2.781061993269666
L2 0.1487899875759685 0.24578234539435415 0.4344682561427939
L2 0.5166288250481293 1.2401569322378667 2.140224888415512
L4 7.237414030886157 10.555047085806496 13.288564535462609
L1 0.1914075743450997 0.5222218209712641 0.8447120720923984
L1 0.6742900494915814 1.3127496137764634 2.0027935263990577
L2 185.86790582368843 709.9374287800932 1042.214454820686
Class 2 CertaintyDegree 1.0

L4 12.516131304612065 13.949467643571765 14.945588231731998
L3 2.1969197085209458 3.041504932744118 4.7383722520024945
L3 1.892882917865134 2.3925705346496575 2.8711134556130737
L3 16.287815372438708 21.136824026781778 27.018657537277775
L2 69.28343370776169 95.99843377951113 123.81074553123064
L2 1.07297473200811 1.6954224065155215 2.509914146104739
L1 -0.6067105719020893 0.47057137944794103 1.1798354697727513
L3 0.30055059237458553 0.40057892610299217 0.5552953328600793
L2 0.5166288250481293 1.2401569322378667 2.140224888415512
L4 7.237414030886157 10.555047085806496 13.288564535462609
L2 0.4885578281044043 0.8127379231353288 1.1294289271331595
L2 1.2542685087325944 1.6176574889789452 2.6681099618452286
L2 185.86790582368843 709.9374287800932 1042.214454820686
Class 2 CertaintyDegree 1.0

L4 12.516131304612065 13.949467643571765 14.945588231731998
L3 2.1969197085209458 3.041504932744118 4.7383722520024945
L3 1.892882917865134 2.3925705346496575 2.8711134556130737
L3 16.287815372438708 21.136824026781778 27.018657537277775
L2 69.28343370776169 95.99843377951113 123.81074553123064
L2 1.07297473200811 1.6954224065155215 2.509914146104739
L1 -0.6067105719020893 0.47057137944794103 1.1798354697727513
L3 0.30055059237458553 0.40057892610299217 0.5552953328600793
L2 0.5166288250481293 1.2401569322378667 2.140224888415512
L4 7.237414030886157 10.555047085806496 13.288564535462609
L2 0.4885578281044043 0.8127379231353288 1.1294289271331595
L2 1.2542685087325944 1.6176574889789452 2.6681099618452286
L2 185.86790582368843 709.9374287800932 1042.214454820686
Class 2 CertaintyDegree 1.0

L4 12.516131304612065 13.949467643571765 14.945588231731998
L3 2.1969197085209458 3.041504932744118 4.7383722520024945
L3 1.892882917865134 2.3925705346496575 2.8711134556130737
L3 16.287815372438708 21.136824026781778 27.018657537277775
L2 69.28343370776169 95.99843377951113 123.81074553123064
L2 1.07297473200811 1.6954224065155215 2.509914146104739
L1 -0.6067105719020893 0.47057137944794103 1.1798354697727513
L3 0.30055059237458553 0.40057892610299217 0.5552953328600793
L2 0.5166288250481293 1.2401569322378667 2.140224888415512
L4 7.237414030886157 10.555047085806496 13.288564535462609
L2 0.4885578281044043 0.8127379231353288 1.1294289271331595
L2 1.2542685087325944 1.6176574889789452 2.6681099618452286
L2 185.86790582368843 709.9374287800932 1042.214454820686
Class 2 CertaintyDegree 1.0

L4 12.516131304612065 13.949467643571765 14.945588231731998
L3 2.1969197085209458 3.041504932744118 4.7383722520024945
L3 1.892882917865134 2.3925705346496575 2.8711134556130737
L3 16.287815372438708 21.136824026781778 27.018657537277775
L2 69.28343370776169 95.99843377951113 123.81074553123064
L2 1.07297473200811 1.6954224065155215 2.509914146104739
L1 -0.6067105719020893 0.47057137944794103 1.1798354697727513
L4 0.3969253882034986 0.5423179098163853 0.6792887609576986
L2 0.5166288250481293 1.2401569322378667 2.140224888415512
L3 4.627316729696825 7.3023802398758715 10.414474304314217
L2 0.4885578281044043 0.8127379231353288 1.1294289271331595
L2 1.2542685087325944 1.6176574889789452 2.6681099618452286
L2 185.86790582368843 709.9374287800932 1042.214454820686
Class 2 CertaintyDegree 1.0

L4 12.516131304612065 13.949467643571765 14.945588231731998
L3 2.1969197085209458 3.041504932744118 4.7383722520024945
L3 1.892882917865134 2.3925705346496575 2.8711134556130737
L3 16.287815372438708 21.136824026781778 27.018657537277775
L2 69.28343370776169 95.99843377951113 123.81074553123064
L2 1.07297473200811 1.6954224065155215 2.509914146104739
L1 -0.6067105719020893 0.47057137944794103 1.1798354697727513
L4 0.3969253882034986 0.5423179098163853 0.6792887609576986
L2 0.5166288250481293 1.2401569322378667 2.140224888415512
L3 4.627316729696825 7.3023802398758715 10.414474304314217
L2 0.4885578281044043 0.8127379231353288 1.1294289271331595
L2 1.2542685087325944 1.6176574889789452 2.6681099618452286
L2 185.86790582368843 709.9374287800932 1042.214454820686
Class 2 CertaintyDegree 1.0

L3 12.114248860080568 13.014505997195762 13.97681060902169
L2 0.7942230279667761 2.095663393929322 3.3951693065126194
L3 1.892882917865134 2.3925705346496575 2.8711134556130737
L1 6.779910363874016 10.232354347422426 15.843984116396626
L2 69.28343370776169 95.99843377951113 123.81074553123064
L3 1.8044990894080373 2.5015511852509356 3.2978204464443195
L3 1.583983925717185 2.8984318061607133 4.02284451680985
L2 0.1487899875759685 0.24578234539435415 0.4344682561427939
L2 0.5166288250481293 1.2401569322378667 2.140224888415512
L2 1.0477654909551328 4.395041655920894 7.544248953343706
L3 0.7457937152881824 1.1150421518293654 1.4560596356780617
L4 2.691369292669379 3.3849116407143462 4.0268699760629625
L3 685.1526534005135 1010.4593051817806 1375.1874882796424
Class 0 CertaintyDegree 1.0

L3 12.114248860080568 13.014505997195762 13.97681060902169
L2 0.7942230279667761 2.095663393929322 3.3951693065126194
L3 1.892882917865134 2.3925705346496575 2.8711134556130737
L1 6.779910363874016 10.232354347422426 15.843984116396626
L2 69.28343370776169 95.99843377951113 123.81074553123064
L3 1.8044990894080373 2.5015511852509356 3.2978204464443195
L3 1.583983925717185 2.8984318061607133 4.02284451680985
L2 0.1487899875759685 0.24578234539435415 0.4344682561427939
L2 0.5166288250481293 1.2401569322378667 2.140224888415512
L2 1.0477654909551328 4.395041655920894 7.544248953343706
L3 0.7457937152881824 1.1150421518293654 1.4560596356780617
L4 2.691369292669379 3.3849116407143462 4.0268699760629625
L3 685.1526534005135 1010.4593051817806 1375.1874882796424
Class 0 CertaintyDegree 1.0

L4 12.516131304612065 13.949467643571765 14.945588231731998
L2 0.7942230279667761 2.095663393929322 3.3951693065126194
L3 1.892882917865134 2.3925705346496575 2.8711134556130737
L2 9.653515127944582 15.853541428239549 20.32089181754876
L2 69.28343370776169 95.99843377951113 123.81074553123064
L4 2.5166569039701367 3.274636422753453 3.9417718489999345
L4 2.799729643472683 4.008324115636251 5.404619113591844
L2 0.1487899875759685 0.24578234539435415 0.4344682561427939
L3 1.1265804672402064 2.0379692027308183 2.964394407541638
L3 4.627316729696825 7.3023802398758715 10.414474304314217
L2 0.4885578281044043 0.8127379231353288 1.1294289271331595
L4 2.691369292669379 3.3849116407143462 4.0268699760629625
L3 685.1526534005135 1010.4593051817806 1375.1874882796424
Class 0 CertaintyDegree 1.0

L4 12.516131304612065 13.949467643571765 14.945588231731998
L2 0.7942230279667761 2.095663393929322 3.3951693065126194
L3 1.892882917865134 2.3925705346496575 2.8711134556130737
L2 9.653515127944582 15.853541428239549 20.32089181754876
L2 69.28343370776169 95.99843377951113 123.81074553123064
L4 2.5166569039701367 3.274636422753453 3.9417718489999345
L4 2.799729643472683 4.008324115636251 5.404619113591844
L2 0.1487899875759685 0.24578234539435415 0.4344682561427939
L3 1.1265804672402064 2.0379692027308183 2.964394407541638
L3 4.627316729696825 7.3023802398758715 10.414474304314217
L2 0.4885578281044043 0.8127379231353288 1.1294289271331595
L4 2.691369292669379 3.3849116407143462 4.0268699760629625
L3 685.1526534005135 1010.4593051817806 1375.1874882796424
Class 0 CertaintyDegree 1.0

L2 10.937253110813868 12.131001555684245 13.110196299960649
L2 0.7942230279667761 2.095663393929322 3.3951693065126194
L3 1.892882917865134 2.3925705346496575 2.8711134556130737
L3 16.287815372438708 21.136824026781778 27.018657537277775
L2 69.28343370776169 95.99843377951113 123.81074553123064
L2 1.07297473200811 1.6954224065155215 2.509914146104739
L2 0.4688484299983101 1.5241177698064916 2.781061993269666
L4 0.3969253882034986 0.5423179098163853 0.6792887609576986
L3 1.1265804672402064 2.0379692027308183 2.964394407541638
L2 1.0477654909551328 4.395041655920894 7.544248953343706
L3 0.7457937152881824 1.1150421518293654 1.4560596356780617
L3 1.9919365067959327 2.7215171241921445 3.385294427160387
L1 -98.01237828333933 333.89053443168496 705.1344515296967
Class 1 CertaintyDegree 1.0

L2 10.937253110813868 12.131001555684245 13.110196299960649
L2 0.7942230279667761 2.095663393929322 3.3951693065126194
L3 1.892882917865134 2.3925705346496575 2.8711134556130737
L3 16.287815372438708 21.136824026781778 27.018657537277775
L2 69.28343370776169 95.99843377951113 123.81074553123064
L2 1.07297473200811 1.6954224065155215 2.509914146104739
L2 0.4688484299983101 1.5241177698064916 2.781061993269666
L4 0.3969253882034986 0.5423179098163853 0.6792887609576986
L3 1.1265804672402064 2.0379692027308183 2.964394407541638
L2 1.0477654909551328 4.395041655920894 7.544248953343706
L3 0.7457937152881824 1.1150421518293654 1.4560596356780617
L3 1.9919365067959327 2.7215171241921445 3.385294427160387
L1 -98.01237828333933 333.89053443168496 705.1344515296967
Class 1 CertaintyDegree 1.0

L4 12.516131304612065 13.949467643571765 14.945588231731998
L2 0.7942230279667761 2.095663393929322 3.3951693065126194
L4 2.4161344020843694 2.76546075775468 3.196478461620804
L2 9.653515127944582 15.853541428239549 20.32089181754876
L2 69.28343370776169 95.99843377951113 123.81074553123064
L3 1.8044990894080373 2.5015511852509356 3.2978204464443195
L3 1.583983925717185 2.8984318061607133 4.02284451680985
L2 0.1487899875759685 0.24578234539435415 0.4344682561427939
L3 1.1265804672402064 2.0379692027308183 2.964394407541638
L2 1.0477654909551328 4.395041655920894 7.544248953343706
L3 0.7457937152881824 1.1150421518293654 1.4560596356780617
L4 2.691369292669379 3.3849116407143462 4.0268699760629625
L4 1024.0576933524628 1402.1957533688094 1740.7508293235937
Class 0 CertaintyDegree 1.0

L4 12.516131304612065 13.949467643571765 14.945588231731998
L2 0.7942230279667761 2.095663393929322 3.3951693065126194
L3 1.892882917865134 2.3925705346496575 2.8711134556130737
L2 9.653515127944582 15.853541428239549 20.32089181754876
L3 87.76781627118912 117.14058623422297 141.57755321568033
L4 2.5166569039701367 3.274636422753453 3.9417718489999345
L3 1.583983925717185 2.8984318061607133 4.02284451680985
L2 0.1487899875759685 0.24578234539435415 0.4344682561427939
L3 1.1265804672402064 2.0379692027308183 2.964394407541638
L2 1.0477654909551328 4.395041655920894 7.544248953343706
L3 0.7457937152881824 1.1150421518293654 1.4560596356780617
L5 3.2525766850391453 4.1571533609350695 4.7691207669870455
L3 685.1526534005135 1010.4593051817806 1375.1874882796424
Class 0 CertaintyDegree 1.0

L4 12.516131304612065 13.949467643571765 14.945588231731998
L2 0.7942230279667761 2.095663393929322 3.3951693065126194
L3 1.892882917865134 2.3925705346496575 2.8711134556130737
L2 9.653515127944582 15.853541428239549 20.32089181754876
L3 87.76781627118912 117.14058623422297 141.57755321568033
L4 2.5166569039701367 3.274636422753453 3.9417718489999345
L3 1.583983925717185 2.8984318061607133 4.02284451680985
L2 0.1487899875759685 0.24578234539435415 0.4344682561427939
L3 1.1265804672402064 2.0379692027308183 2.964394407541638
L2 1.0477654909551328 4.395041655920894 7.544248953343706
L3 0.7457937152881824 1.1150421518293654 1.4560596356780617
L5 3.2525766850391453 4.1571533609350695 4.7691207669870455
L3 685.1526534005135 1010.4593051817806 1375.1874882796424
Class 0 CertaintyDegree 1.0

L4 12.516131304612065 13.949467643571765 14.945588231731998
L2 0.7942230279667761 2.095663393929322 3.3951693065126194
L3 1.892882917865134 2.3925705346496575 2.8711134556130737
L2 9.653515127944582 15.853541428239549 20.32089181754876
L3 87.76781627118912 117.14058623422297 141.57755321568033
L5 3.062247274087965 3.4654963616783174 4.730349516864568
L4 2.799729643472683 4.008324115636251 5.404619113591844
L2 0.1487899875759685 0.24578234539435415 0.4344682561427939
L3 1.1265804672402064 2.0379692027308183 2.964394407541638
L3 4.627316729696825 7.3023802398758715 10.414474304314217
L3 0.7457937152881824 1.1150421518293654 1.4560596356780617
L4 2.691369292669379 3.3849116407143462 4.0268699760629625
L4 1024.0576933524628 1402.1957533688094 1740.7508293235937
Class 0 CertaintyDegree 1.0

L4 12.516131304612065 13.949467643571765 14.945588231731998
L2 0.7942230279667761 2.095663393929322 3.3951693065126194
L3 1.892882917865134 2.3925705346496575 2.8711134556130737
L2 9.653515127944582 15.853541428239549 20.32089181754876
L3 87.76781627118912 117.14058623422297 141.57755321568033
L5 3.062247274087965 3.4654963616783174 4.730349516864568
L4 2.799729643472683 4.008324115636251 5.404619113591844
L2 0.1487899875759685 0.24578234539435415 0.4344682561427939
L3 1.1265804672402064 2.0379692027308183 2.964394407541638
L3 4.627316729696825 7.3023802398758715 10.414474304314217
L3 0.7457937152881824 1.1150421518293654 1.4560596356780617
L4 2.691369292669379 3.3849116407143462 4.0268699760629625
L4 1024.0576933524628 1402.1957533688094 1740.7508293235937
Class 0 CertaintyDegree 1.0

L4 12.516131304612065 13.949467643571765 14.945588231731998
L2 0.7942230279667761 2.095663393929322 3.3951693065126194
L3 1.892882917865134 2.3925705346496575 2.8711134556130737
L2 9.653515127944582 15.853541428239549 20.32089181754876
L3 87.76781627118912 117.14058623422297 141.57755321568033
L5 3.062247274087965 3.4654963616783174 4.730349516864568
L4 2.799729643472683 4.008324115636251 5.404619113591844
L2 0.1487899875759685 0.24578234539435415 0.4344682561427939
L3 1.1265804672402064 2.0379692027308183 2.964394407541638
L3 4.627316729696825 7.3023802398758715 10.414474304314217
L3 0.7457937152881824 1.1150421518293654 1.4560596356780617
L4 2.691369292669379 3.3849116407143462 4.0268699760629625
L4 1024.0576933524628 1402.1957533688094 1740.7508293235937
Class 0 CertaintyDegree 1.0

L2 10.937253110813868 12.131001555684245 13.110196299960649
L1 -0.4391802539428732 0.9283321419655868 2.000084114578163
L4 2.4161344020843694 2.76546075775468 3.196478461620804
L3 16.287815372438708 21.136824026781778 27.018657537277775
L2 69.28343370776169 95.99843377951113 123.81074553123064
L3 1.8044990894080373 2.5015511852509356 3.2978204464443195
L3 1.583983925717185 2.8984318061607133 4.02284451680985
L2 0.1487899875759685 0.24578234539435415 0.4344682561427939
L3 1.1265804672402064 2.0379692027308183 2.964394407541638
L2 1.0477654909551328 4.395041655920894 7.544248953343706
L2 0.4885578281044043 0.8127379231353288 1.1294289271331595
L4 2.691369292669379 3.3849116407143462 4.0268699760629625
L2 185.86790582368843 709.9374287800932 1042.214454820686
Class 1 CertaintyDegree 1.0

L2 10.937253110813868 12.131001555684245 13.110196299960649
L1 -0.4391802539428732 0.9283321419655868 2.000084114578163
L4 2.4161344020843694 2.76546075775468 3.196478461620804
L3 16.287815372438708 21.136824026781778 27.018657537277775
L2 69.28343370776169 95.99843377951113 123.81074553123064
L3 1.8044990894080373 2.5015511852509356 3.2978204464443195
L3 1.583983925717185 2.8984318061607133 4.02284451680985
L2 0.1487899875759685 0.24578234539435415 0.4344682561427939
L3 1.1265804672402064 2.0379692027308183 2.964394407541638
L2 1.0477654909551328 4.395041655920894 7.544248953343706
L2 0.4885578281044043 0.8127379231353288 1.1294289271331595
L4 2.691369292669379 3.3849116407143462 4.0268699760629625
L2 185.86790582368843 709.9374287800932 1042.214454820686
Class 1 CertaintyDegree 1.0

L2 10.937253110813868 12.131001555684245 13.110196299960649
L1 -0.4391802539428732 0.9283321419655868 2.000084114578163
L4 2.4161344020843694 2.76546075775468 3.196478461620804
L3 16.287815372438708 21.136824026781778 27.018657537277775
L2 69.28343370776169 95.99843377951113 123.81074553123064
L3 1.8044990894080373 2.5015511852509356 3.2978204464443195
L3 1.583983925717185 2.8984318061607133 4.02284451680985
L2 0.1487899875759685 0.24578234539435415 0.4344682561427939
L3 1.1265804672402064 2.0379692027308183 2.964394407541638
L2 1.0477654909551328 4.395041655920894 7.544248953343706
L2 0.4885578281044043 0.8127379231353288 1.1294289271331595
L4 2.691369292669379 3.3849116407143462 4.0268699760629625
L2 185.86790582368843 709.9374287800932 1042.214454820686
Class 1 CertaintyDegree 1.0

L3 12.114248860080568 13.014505997195762 13.97681060902169
L1 -0.4391802539428732 0.9283321419655868 2.000084114578163
L3 1.892882917865134 2.3925705346496575 2.8711134556130737
L2 9.653515127944582 15.853541428239549 20.32089181754876
L3 87.76781627118912 117.14058623422297 141.57755321568033
L3 1.8044990894080373 2.5015511852509356 3.2978204464443195
L2 0.4688484299983101 1.5241177698064916 2.781061993269666
L4 0.3969253882034986 0.5423179098163853 0.6792887609576986
L1 -0.22901969961276686 0.44157021739280666 1.3260807070655485
L2 1.0477654909551328 4.395041655920894 7.544248953343706
L3 0.7457937152881824 1.1150421518293654 1.4560596356780617
L2 1.2542685087325944 1.6176574889789452 2.6681099618452286
L2 185.86790582368843 709.9374287800932 1042.214454820686
Class 1 CertaintyDegree 1.0

L3 12.114248860080568 13.014505997195762 13.97681060902169
L1 -0.4391802539428732 0.9283321419655868 2.000084114578163
L3 1.892882917865134 2.3925705346496575 2.8711134556130737
L2 9.653515127944582 15.853541428239549 20.32089181754876
L3 87.76781627118912 117.14058623422297 141.57755321568033
L3 1.8044990894080373 2.5015511852509356 3.2978204464443195
L2 0.4688484299983101 1.5241177698064916 2.781061993269666
L4 0.3969253882034986 0.5423179098163853 0.6792887609576986
L1 -0.22901969961276686 0.44157021739280666 1.3260807070655485
L2 1.0477654909551328 4.395041655920894 7.544248953343706
L3 0.7457937152881824 1.1150421518293654 1.4560596356780617
L2 1.2542685087325944 1.6176574889789452 2.6681099618452286
L2 185.86790582368843 709.9374287800932 1042.214454820686
Class 1 CertaintyDegree 1.0

L3 12.114248860080568 13.014505997195762 13.97681060902169
L1 -0.4391802539428732 0.9283321419655868 2.000084114578163
L3 1.892882917865134 2.3925705346496575 2.8711134556130737
L2 9.653515127944582 15.853541428239549 20.32089181754876
L3 87.76781627118912 117.14058623422297 141.57755321568033
L3 1.8044990894080373 2.5015511852509356 3.2978204464443195
L2 0.4688484299983101 1.5241177698064916 2.781061993269666
L4 0.3969253882034986 0.5423179098163853 0.6792887609576986
L1 -0.22901969961276686 0.44157021739280666 1.3260807070655485
L2 1.0477654909551328 4.395041655920894 7.544248953343706
L3 0.7457937152881824 1.1150421518293654 1.4560596356780617
L2 1.2542685087325944 1.6176574889789452 2.6681099618452286
L2 185.86790582368843 709.9374287800932 1042.214454820686
Class 1 CertaintyDegree 1.0

L4 12.516131304612065 13.949467643571765 14.945588231731998
L2 0.7942230279667761 2.095663393929322 3.3951693065126194
L3 1.892882917865134 2.3925705346496575 2.8711134556130737
L3 16.287815372438708 21.136824026781778 27.018657537277775
L2 69.28343370776169 95.99843377951113 123.81074553123064
L3 1.8044990894080373 2.5015511852509356 3.2978204464443195
L3 1.583983925717185 2.8984318061607133 4.02284451680985
L2 0.1487899875759685 0.24578234539435415 0.4344682561427939
L3 1.1265804672402064 2.0379692027308183 2.964394407541638
L2 1.0477654909551328 4.395041655920894 7.544248953343706
L3 0.7457937152881824 1.1150421518293654 1.4560596356780617
L4 2.691369292669379 3.3849116407143462 4.0268699760629625
L3 685.1526534005135 1010.4593051817806 1375.1874882796424
Class 0 CertaintyDegree 1.0

L4 12.516131304612065 13.949467643571765 14.945588231731998
L3 2.1969197085209458 3.041504932744118 4.7383722520024945
L4 2.4161344020843694 2.76546075775468 3.196478461620804
L4 19.563549375873226 23.840016031646954 30.74320028687871
L2 69.28343370776169 95.99843377951113 123.81074553123064
L2 1.07297473200811 1.6954224065155215 2.509914146104739
L1 -0.6067105719020893 0.47057137944794103 1.1798354697727513
L4 0.3969253882034986 0.5423179098163853 0.6792887609576986
L1 -0.22901969961276686 0.44157021739280666 1.3260807070655485
L2 1.0477654909551328 4.395041655920894 7.544248953343706
L2 0.4885578281044043 0.8127379231353288 1.1294289271331595
L2 1.2542685087325944 1.6176574889789452 2.6681099618452286
L2 185.86790582368843 709.9374287800932 1042.214454820686
Class 2 CertaintyDegree 1.0

L4 12.516131304612065 13.949467643571765 14.945588231731998
L3 2.1969197085209458 3.041504932744118 4.7383722520024945
L4 2.4161344020843694 2.76546075775468 3.196478461620804
L4 19.563549375873226 23.840016031646954 30.74320028687871
L2 69.28343370776169 95.99843377951113 123.81074553123064
L2 1.07297473200811 1.6954224065155215 2.509914146104739
L1 -0.6067105719020893 0.47057137944794103 1.1798354697727513
L4 0.3969253882034986 0.5423179098163853 0.6792887609576986
L1 -0.22901969961276686 0.44157021739280666 1.3260807070655485
L2 1.0477654909551328 4.395041655920894 7.544248953343706
L2 0.4885578281044043 0.8127379231353288 1.1294289271331595
L2 1.2542685087325944 1.6176574889789452 2.6681099618452286
L2 185.86790582368843 709.9374287800932 1042.214454820686
Class 2 CertaintyDegree 1.0

L4 12.516131304612065 13.949467643571765 14.945588231731998
L3 2.1969197085209458 3.041504932744118 4.7383722520024945
L4 2.4161344020843694 2.76546075775468 3.196478461620804
L4 19.563549375873226 23.840016031646954 30.74320028687871
L2 69.28343370776169 95.99843377951113 123.81074553123064
L2 1.07297473200811 1.6954224065155215 2.509914146104739
L1 -0.6067105719020893 0.47057137944794103 1.1798354697727513
L4 0.3969253882034986 0.5423179098163853 0.6792887609576986
L1 -0.22901969961276686 0.44157021739280666 1.3260807070655485
L2 1.0477654909551328 4.395041655920894 7.544248953343706
L2 0.4885578281044043 0.8127379231353288 1.1294289271331595
L2 1.2542685087325944 1.6176574889789452 2.6681099618452286
L2 185.86790582368843 709.9374287800932 1042.214454820686
Class 2 CertaintyDegree 1.0

L4 12.516131304612065 13.949467643571765 14.945588231731998
L2 0.7942230279667761 2.095663393929322 3.3951693065126194
L3 1.892882917865134 2.3925705346496575 2.8711134556130737
L3 16.287815372438708 21.136824026781778 27.018657537277775
L2 69.28343370776169 95.99843377951113 123.81074553123064
L3 1.8044990894080373 2.5015511852509356 3.2978204464443195
L3 1.583983925717185 2.8984318061607133 4.02284451680985
L2 0.1487899875759685 0.24578234539435415 0.4344682561427939
L3 1.1265804672402064 2.0379692027308183 2.964394407541638
L2 1.0477654909551328 4.395041655920894 7.544248953343706
L3 0.7457937152881824 1.1150421518293654 1.4560596356780617
L4 2.691369292669379 3.3849116407143462 4.0268699760629625
L3 685.1526534005135 1010.4593051817806 1375.1874882796424
Class 0 CertaintyDegree 1.0

L4 12.516131304612065 13.949467643571765 14.945588231731998
L2 0.7942230279667761 2.095663393929322 3.3951693065126194
L3 1.892882917865134 2.3925705346496575 2.8711134556130737
L2 9.653515127944582 15.853541428239549 20.32089181754876
L2 69.28343370776169 95.99843377951113 123.81074553123064
L3 1.8044990894080373 2.5015511852509356 3.2978204464443195
L3 1.583983925717185 2.8984318061607133 4.02284451680985
L2 0.1487899875759685 0.24578234539435415 0.4344682561427939
L3 1.1265804672402064 2.0379692027308183 2.964394407541638
L2 1.0477654909551328 4.395041655920894 7.544248953343706
L3 0.7457937152881824 1.1150421518293654 1.4560596356780617
L5 3.2525766850391453 4.1571533609350695 4.7691207669870455
L3 685.1526534005135 1010.4593051817806 1375.1874882796424
Class 0 CertaintyDegree 1.0

L4 12.516131304612065 13.949467643571765 14.945588231731998
L2 0.7942230279667761 2.095663393929322 3.3951693065126194
L3 1.892882917865134 2.3925705346496575 2.8711134556130737
L2 9.653515127944582 15.853541428239549 20.32089181754876
L2 69.28343370776169 95.99843377951113 123.81074553123064
L3 1.8044990894080373 2.5015511852509356 3.2978204464443195
L3 1.583983925717185 2.8984318061607133 4.02284451680985
L2 0.1487899875759685 0.24578234539435415 0.4344682561427939
L3 1.1265804672402064 2.0379692027308183 2.964394407541638
L2 1.0477654909551328 4.395041655920894 7.544248953343706
L3 0.7457937152881824 1.1150421518293654 1.4560596356780617
L5 3.2525766850391453 4.1571533609350695 4.7691207669870455
L3 685.1526534005135 1010.4593051817806 1375.1874882796424
Class 0 CertaintyDegree 1.0

L3 12.114248860080568 13.014505997195762 13.97681060902169
L2 0.7942230279667761 2.095663393929322 3.3951693065126194
L2 1.311668309480142 1.8076349203944095 2.315549432053937
L3 16.287815372438708 21.136824026781778 27.018657537277775
L2 69.28343370776169 95.99843377951113 123.81074553123064
L3 1.8044990894080373 2.5015511852509356 3.2978204464443195
L2 0.4688484299983101 1.5241177698064916 2.781061993269666
L2 0.1487899875759685 0.24578234539435415 0.4344682561427939
L2 0.5166288250481293 1.2401569322378667 2.140224888415512
L2 1.0477654909551328 4.395041655920894 7.544248953343706
L3 0.7457937152881824 1.1150421518293654 1.4560596356780617
L4 2.691369292669379 3.3849116407143462 4.0268699760629625
L2 185.86790582368843 709.9374287800932 1042.214454820686
Class 1 CertaintyDegree 1.0

L3 12.114248860080568 13.014505997195762 13.97681060902169
L2 0.7942230279667761 2.095663393929322 3.3951693065126194
L2 1.311668309480142 1.8076349203944095 2.315549432053937
L3 16.287815372438708 21.136824026781778 27.018657537277775
L2 69.28343370776169 95.99843377951113 123.81074553123064
L3 1.8044990894080373 2.5015511852509356 3.2978204464443195
L2 0.4688484299983101 1.5241177698064916 2.781061993269666
L2 0.1487899875759685 0.24578234539435415 0.4344682561427939
L2 0.5166288250481293 1.2401569322378667 2.140224888415512
L2 1.0477654909551328 4.395041655920894 7.544248953343706
L3 0.7457937152881824 1.1150421518293654 1.4560596356780617
L4 2.691369292669379 3.3849116407143462 4.0268699760629625
L2 185.86790582368843 709.9374287800932 1042.214454820686
Class 1 CertaintyDegree 1.0

L3 12.114248860080568 13.014505997195762 13.97681060902169
L2 0.7942230279667761 2.095663393929322 3.3951693065126194
L2 1.311668309480142 1.8076349203944095 2.315549432053937
L3 16.287815372438708 21.136824026781778 27.018657537277775
L2 69.28343370776169 95.99843377951113 123.81074553123064
L3 1.8044990894080373 2.5015511852509356 3.2978204464443195
L2 0.4688484299983101 1.5241177698064916 2.781061993269666
L2 0.1487899875759685 0.24578234539435415 0.4344682561427939
L2 0.5166288250481293 1.2401569322378667 2.140224888415512
L2 1.0477654909551328 4.395041655920894 7.544248953343706
L3 0.7457937152881824 1.1150421518293654 1.4560596356780617
L4 2.691369292669379 3.3849116407143462 4.0268699760629625
L2 185.86790582368843 709.9374287800932 1042.214454820686
Class 1 CertaintyDegree 1.0

L4 12.516131304612065 13.949467643571765 14.945588231731998
L2 0.7942230279667761 2.095663393929322 3.3951693065126194
L4 2.4161344020843694 2.76546075775468 3.196478461620804
L4 19.563549375873226 23.840016031646954 30.74320028687871
L2 69.28343370776169 95.99843377951113 123.81074553123064
L4 2.5166569039701367 3.274636422753453 3.9417718489999345
L3 1.583983925717185 2.8984318061607133 4.02284451680985
L2 0.1487899875759685 0.24578234539435415 0.4344682561427939
L3 1.1265804672402064 2.0379692027308183 2.964394407541638
L2 1.0477654909551328 4.395041655920894 7.544248953343706
L4 1.1332599317408731 1.4691988734109782 1.7678281532674167
L4 2.691369292669379 3.3849116407143462 4.0268699760629625
L1 -98.01237828333933 333.89053443168496 705.1344515296967
Class 1 CertaintyDegree 1.0

L4 12.516131304612065 13.949467643571765 14.945588231731998
L2 0.7942230279667761 2.095663393929322 3.3951693065126194
L4 2.4161344020843694 2.76546075775468 3.196478461620804
L4 19.563549375873226 23.840016031646954 30.74320028687871
L2 69.28343370776169 95.99843377951113 123.81074553123064
L4 2.5166569039701367 3.274636422753453 3.9417718489999345
L3 1.583983925717185 2.8984318061607133 4.02284451680985
L2 0.1487899875759685 0.24578234539435415 0.4344682561427939
L3 1.1265804672402064 2.0379692027308183 2.964394407541638
L2 1.0477654909551328 4.395041655920894 7.544248953343706
L4 1.1332599317408731 1.4691988734109782 1.7678281532674167
L4 2.691369292669379 3.3849116407143462 4.0268699760629625
L1 -98.01237828333933 333.89053443168496 705.1344515296967
Class 1 CertaintyDegree 1.0

L4 12.516131304612065 13.949467643571765 14.945588231731998
L2 0.7942230279667761 2.095663393929322 3.3951693065126194
L4 2.4161344020843694 2.76546075775468 3.196478461620804
L4 19.563549375873226 23.840016031646954 30.74320028687871
L2 69.28343370776169 95.99843377951113 123.81074553123064
L4 2.5166569039701367 3.274636422753453 3.9417718489999345
L3 1.583983925717185 2.8984318061607133 4.02284451680985
L2 0.1487899875759685 0.24578234539435415 0.4344682561427939
L3 1.1265804672402064 2.0379692027308183 2.964394407541638
L2 1.0477654909551328 4.395041655920894 7.544248953343706
L4 1.1332599317408731 1.4691988734109782 1.7678281532674167
L4 2.691369292669379 3.3849116407143462 4.0268699760629625
L1 -98.01237828333933 333.89053443168496 705.1344515296967
Class 1 CertaintyDegree 1.0

L3 12.114248860080568 13.014505997195762 13.97681060902169
L2 0.7942230279667761 2.095663393929322 3.3951693065126194
L4 2.4161344020843694 2.76546075775468 3.196478461620804
L5 25.635387049191134 28.52504156461412 35.48585533883761
L4 116.07231805444869 140.20556589186114 161.39908978918206
L4 2.5166569039701367 3.274636422753453 3.9417718489999345
L3 1.583983925717185 2.8984318061607133 4.02284451680985
L2 0.1487899875759685 0.24578234539435415 0.4344682561427939
L3 1.1265804672402064 2.0379692027308183 2.964394407541638
L2 1.0477654909551328 4.395041655920894 7.544248953343706
L4 1.1332599317408731 1.4691988734109782 1.7678281532674167
L4 2.691369292669379 3.3849116407143462 4.0268699760629625
L3 685.1526534005135 1010.4593051817806 1375.1874882796424
Class 1 CertaintyDegree 1.0

L3 12.114248860080568 13.014505997195762 13.97681060902169
L2 0.7942230279667761 2.095663393929322 3.3951693065126194
L4 2.4161344020843694 2.76546075775468 3.196478461620804
L5 25.635387049191134 28.52504156461412 35.48585533883761
L4 116.07231805444869 140.20556589186114 161.39908978918206
L4 2.5166569039701367 3.274636422753453 3.9417718489999345
L3 1.583983925717185 2.8984318061607133 4.02284451680985
L2 0.1487899875759685 0.24578234539435415 0.4344682561427939
L3 1.1265804672402064 2.0379692027308183 2.964394407541638
L2 1.0477654909551328 4.395041655920894 7.544248953343706
L4 1.1332599317408731 1.4691988734109782 1.7678281532674167
L4 2.691369292669379 3.3849116407143462 4.0268699760629625
L3 685.1526534005135 1010.4593051817806 1375.1874882796424
Class 1 CertaintyDegree 1.0

L3 12.114248860080568 13.014505997195762 13.97681060902169
L3 2.1969197085209458 3.041504932744118 4.7383722520024945
L3 1.892882917865134 2.3925705346496575 2.8711134556130737
L3 16.287815372438708 21.136824026781778 27.018657537277775
L3 87.76781627118912 117.14058623422297 141.57755321568033
L2 1.07297473200811 1.6954224065155215 2.509914146104739
L1 -0.6067105719020893 0.47057137944794103 1.1798354697727513
L3 0.30055059237458553 0.40057892610299217 0.5552953328600793
L2 0.5166288250481293 1.2401569322378667 2.140224888415512
L2 1.0477654909551328 4.395041655920894 7.544248953343706
L2 0.4885578281044043 0.8127379231353288 1.1294289271331595
L2 1.2542685087325944 1.6176574889789452 2.6681099618452286
L2 185.86790582368843 709.9374287800932 1042.214454820686
Class 2 CertaintyDegree 1.0

L3 12.114248860080568 13.014505997195762 13.97681060902169
L3 2.1969197085209458 3.041504932744118 4.7383722520024945
L3 1.892882917865134 2.3925705346496575 2.8711134556130737
L3 16.287815372438708 21.136824026781778 27.018657537277775
L3 87.76781627118912 117.14058623422297 141.57755321568033
L2 1.07297473200811 1.6954224065155215 2.509914146104739
L1 -0.6067105719020893 0.47057137944794103 1.1798354697727513
L3 0.30055059237458553 0.40057892610299217 0.5552953328600793
L2 0.5166288250481293 1.2401569322378667 2.140224888415512
L2 1.0477654909551328 4.395041655920894 7.544248953343706
L2 0.4885578281044043 0.8127379231353288 1.1294289271331595
L2 1.2542685087325944 1.6176574889789452 2.6681099618452286
L2 185.86790582368843 709.9374287800932 1042.214454820686
Class 2 CertaintyDegree 1.0

L4 12.516131304612065 13.949467643571765 14.945588231731998
L4 3.484893865613211 4.770981588973715 6.0273250147088495
L3 1.892882917865134 2.3925705346496575 2.8711134556130737
L3 16.287815372438708 21.136824026781778 27.018657537277775
L2 69.28343370776169 95.99843377951113 123.81074553123064
L1 0.33928775695335817 1.1093465387055867 1.8136947172994617
L1 -0.6067105719020893 0.47057137944794103 1.1798354697727513
L4 0.3969253882034986 0.5423179098163853 0.6792887609576986
L2 0.5166288250481293 1.2401569322378667 2.140224888415512
L3 4.627316729696825 7.3023802398758715 10.414474304314217
L2 0.4885578281044043 0.8127379231353288 1.1294289271331595
L2 1.2542685087325944 1.6176574889789452 2.6681099618452286
L2 185.86790582368843 709.9374287800932 1042.214454820686
Class 2 CertaintyDegree 1.0

L2 10.937253110813868 12.131001555684245 13.110196299960649
L1 -0.4391802539428732 0.9283321419655868 2.000084114578163
L1 0.8595310496687136 1.3084834476539267 1.7811429123177134
L1 6.779910363874016 10.232354347422426 15.843984116396626
L2 69.28343370776169 95.99843377951113 123.81074553123064
L2 1.07297473200811 1.6954224065155215 2.509914146104739
L1 -0.6067105719020893 0.47057137944794103 1.1798354697727513
L2 0.1487899875759685 0.24578234539435415 0.4344682561427939
L1 -0.22901969961276686 0.44157021739280666 1.3260807070655485
L1 -1.2450776955655003 1.5487014088211821 4.602730904417472
L3 0.7457937152881824 1.1150421518293654 1.4560596356780617
L2 1.2542685087325944 1.6176574889789452 2.6681099618452286
L2 185.86790582368843 709.9374287800932 1042.214454820686
Class 1 CertaintyDegree 1.0

L2 10.937253110813868 12.131001555684245 13.110196299960649
L1 -0.4391802539428732 0.9283321419655868 2.000084114578163
L1 0.8595310496687136 1.3084834476539267 1.7811429123177134
L1 6.779910363874016 10.232354347422426 15.843984116396626
L2 69.28343370776169 95.99843377951113 123.81074553123064
L2 1.07297473200811 1.6954224065155215 2.509914146104739
L1 -0.6067105719020893 0.47057137944794103 1.1798354697727513
L2 0.1487899875759685 0.24578234539435415 0.4344682561427939
L1 -0.22901969961276686 0.44157021739280666 1.3260807070655485
L1 -1.2450776955655003 1.5487014088211821 4.602730904417472
L3 0.7457937152881824 1.1150421518293654 1.4560596356780617
L2 1.2542685087325944 1.6176574889789452 2.6681099618452286
L2 185.86790582368843 709.9374287800932 1042.214454820686
Class 1 CertaintyDegree 1.0

L2 10.937253110813868 12.131001555684245 13.110196299960649
L1 -0.4391802539428732 0.9283321419655868 2.000084114578163
L1 0.8595310496687136 1.3084834476539267 1.7811429123177134
L1 6.779910363874016 10.232354347422426 15.843984116396626
L2 69.28343370776169 95.99843377951113 123.81074553123064
L2 1.07297473200811 1.6954224065155215 2.509914146104739
L1 -0.6067105719020893 0.47057137944794103 1.1798354697727513
L2 0.1487899875759685 0.24578234539435415 0.4344682561427939
L1 -0.22901969961276686 0.44157021739280666 1.3260807070655485
L1 -1.2450776955655003 1.5487014088211821 4.602730904417472
L3 0.7457937152881824 1.1150421518293654 1.4560596356780617
L2 1.2542685087325944 1.6176574889789452 2.6681099618452286
L2 185.86790582368843 709.9374287800932 1042.214454820686
Class 1 CertaintyDegree 1.0

L2 10.937253110813868 12.131001555684245 13.110196299960649
L1 -0.4391802539428732 0.9283321419655868 2.000084114578163
L3 1.892882917865134 2.3925705346496575 2.8711134556130737
L3 16.287815372438708 21.136824026781778 27.018657537277775
L2 69.28343370776169 95.99843377951113 123.81074553123064
L5 3.062247274087965 3.4654963616783174 4.730349516864568
L4 2.799729643472683 4.008324115636251 5.404619113591844
L2 0.1487899875759685 0.24578234539435415 0.4344682561427939
L3 1.1265804672402064 2.0379692027308183 2.964394407541638
L2 1.0477654909551328 4.395041655920894 7.544248953343706
L3 0.7457937152881824 1.1150421518293654 1.4560596356780617
L3 1.9919365067959327 2.7215171241921445 3.385294427160387
L2 185.86790582368843 709.9374287800932 1042.214454820686
Class 1 CertaintyDegree 1.0

L2 10.937253110813868 12.131001555684245 13.110196299960649
L1 -0.4391802539428732 0.9283321419655868 2.000084114578163
L3 1.892882917865134 2.3925705346496575 2.8711134556130737
L3 16.287815372438708 21.136824026781778 27.018657537277775
L2 69.28343370776169 95.99843377951113 123.81074553123064
L5 3.062247274087965 3.4654963616783174 4.730349516864568
L4 2.799729643472683 4.008324115636251 5.404619113591844
L2 0.1487899875759685 0.24578234539435415 0.4344682561427939
L3 1.1265804672402064 2.0379692027308183 2.964394407541638
L2 1.0477654909551328 4.395041655920894 7.544248953343706
L3 0.7457937152881824 1.1150421518293654 1.4560596356780617
L3 1.9919365067959327 2.7215171241921445 3.385294427160387
L2 185.86790582368843 709.9374287800932 1042.214454820686
Class 1 CertaintyDegree 1.0

L2 10.937253110813868 12.131001555684245 13.110196299960649
L1 -0.4391802539428732 0.9283321419655868 2.000084114578163
L3 1.892882917865134 2.3925705346496575 2.8711134556130737
L3 16.287815372438708 21.136824026781778 27.018657537277775
L2 69.28343370776169 95.99843377951113 123.81074553123064
L5 3.062247274087965 3.4654963616783174 4.730349516864568
L4 2.799729643472683 4.008324115636251 5.404619113591844
L2 0.1487899875759685 0.24578234539435415 0.4344682561427939
L3 1.1265804672402064 2.0379692027308183 2.964394407541638
L2 1.0477654909551328 4.395041655920894 7.544248953343706
L3 0.7457937152881824 1.1150421518293654 1.4560596356780617
L3 1.9919365067959327 2.7215171241921445 3.385294427160387
L2 185.86790582368843 709.9374287800932 1042.214454820686
Class 1 CertaintyDegree 1.0

L3 12.114248860080568 13.014505997195762 13.97681060902169
L3 2.1969197085209458 3.041504932744118 4.7383722520024945
L3 1.892882917865134 2.3925705346496575 2.8711134556130737
L3 16.287815372438708 21.136824026781778 27.018657537277775
L2 69.28343370776169 95.99843377951113 123.81074553123064
L2 1.07297473200811 1.6954224065155215 2.509914146104739
L1 -0.6067105719020893 0.47057137944794103 1.1798354697727513
L5 0.5496652614393713 0.6624810135325654 0.7851925332976911
L3 1.1265804672402064 2.0379692027308183 2.964394407541638
L4 7.237414030886157 10.555047085806496 13.288564535462609
L1 0.1914075743450997 0.5222218209712641 0.8447120720923984
L1 0.6742900494915814 1.3127496137764634 2.0027935263990577
L2 185.86790582368843 709.9374287800932 1042.214454820686
Class 2 CertaintyDegree 1.0

L3 12.114248860080568 13.014505997195762 13.97681060902169
L4 3.484893865613211 4.770981588973715 6.0273250147088495
L3 1.892882917865134 2.3925705346496575 2.8711134556130737
L3 16.287815372438708 21.136824026781778 27.018657537277775
L2 69.28343370776169 95.99843377951113 123.81074553123064
L2 1.07297473200811 1.6954224065155215 2.509914146104739
L1 -0.6067105719020893 0.47057137944794103 1.1798354697727513
L4 0.3969253882034986 0.5423179098163853 0.6792887609576986
L2 0.5166288250481293 1.2401569322378667 2.140224888415512
L3 4.627316729696825 7.3023802398758715 10.414474304314217
L1 0.1914075743450997 0.5222218209712641 0.8447120720923984
L2 1.2542685087325944 1.6176574889789452 2.6681099618452286
L2 185.86790582368843 709.9374287800932 1042.214454820686
Class 2 CertaintyDegree 1.0

L3 12.114248860080568 13.014505997195762 13.97681060902169
L4 3.484893865613211 4.770981588973715 6.0273250147088495
L3 1.892882917865134 2.3925705346496575 2.8711134556130737
L3 16.287815372438708 21.136824026781778 27.018657537277775
L2 69.28343370776169 95.99843377951113 123.81074553123064
L2 1.07297473200811 1.6954224065155215 2.509914146104739
L1 -0.6067105719020893 0.47057137944794103 1.1798354697727513
L4 0.3969253882034986 0.5423179098163853 0.6792887609576986
L2 0.5166288250481293 1.2401569322378667 2.140224888415512
L3 4.627316729696825 7.3023802398758715 10.414474304314217
L1 0.1914075743450997 0.5222218209712641 0.8447120720923984
L2 1.2542685087325944 1.6176574889789452 2.6681099618452286
L2 185.86790582368843 709.9374287800932 1042.214454820686
Class 2 CertaintyDegree 1.0

L4 12.516131304612065 13.949467643571765 14.945588231731998
L4 3.484893865613211 4.770981588973715 6.0273250147088495
L3 1.892882917865134 2.3925705346496575 2.8711134556130737
L3 16.287815372438708 21.136824026781778 27.018657537277775
L2 69.28343370776169 95.99843377951113 123.81074553123064
L2 1.07297473200811 1.6954224065155215 2.509914146104739
L1 -0.6067105719020893 0.47057137944794103 1.1798354697727513
L4 0.3969253882034986 0.5423179098163853 0.6792887609576986
L2 0.5166288250481293 1.2401569322378667 2.140224888415512
L2 1.0477654909551328 4.395041655920894 7.544248953343706
L2 0.4885578281044043 0.8127379231353288 1.1294289271331595
L2 1.2542685087325944 1.6176574889789452 2.6681099618452286
L2 185.86790582368843 709.9374287800932 1042.214454820686
Class 2 CertaintyDegree 1.0

L4 12.516131304612065 13.949467643571765 14.945588231731998
L4 3.484893865613211 4.770981588973715 6.0273250147088495
L3 1.892882917865134 2.3925705346496575 2.8711134556130737
L3 16.287815372438708 21.136824026781778 27.018657537277775
L2 69.28343370776169 95.99843377951113 123.81074553123064
L2 1.07297473200811 1.6954224065155215 2.509914146104739
L1 -0.6067105719020893 0.47057137944794103 1.1798354697727513
L4 0.3969253882034986 0.5423179098163853 0.6792887609576986
L2 0.5166288250481293 1.2401569322378667 2.140224888415512
L2 1.0477654909551328 4.395041655920894 7.544248953343706
L2 0.4885578281044043 0.8127379231353288 1.1294289271331595
L2 1.2542685087325944 1.6176574889789452 2.6681099618452286
L2 185.86790582368843 709.9374287800932 1042.214454820686
Class 2 CertaintyDegree 1.0

L3 12.114248860080568 13.014505997195762 13.97681060902169
L5 4.7368929517968725 5.656307207013504 7.148081826603534
L4 2.4161344020843694 2.76546075775468 3.196478461620804
L4 19.563549375873226 23.840016031646954 30.74320028687871
L2 69.28343370776169 95.99843377951113 123.81074553123064
L2 1.07297473200811 1.6954224065155215 2.509914146104739
L1 -0.6067105719020893 0.47057137944794103 1.1798354697727513
L5 0.5496652614393713 0.6624810135325654 0.7851925332976911
L2 0.5166288250481293 1.2401569322378667 2.140224888415512
L2 1.0477654909551328 4.395041655920894 7.544248953343706
L2 0.4885578281044043 0.8127379231353288 1.1294289271331595
L2 1.2542685087325944 1.6176574889789452 2.6681099618452286
L2 185.86790582368843 709.9374287800932 1042.214454820686
Class 2 CertaintyDegree 1.0

L3 12.114248860080568 13.014505997195762 13.97681060902169
L5 4.7368929517968725 5.656307207013504 7.148081826603534
L4 2.4161344020843694 2.76546075775468 3.196478461620804
L4 19.563549375873226 23.840016031646954 30.74320028687871
L2 69.28343370776169 95.99843377951113 123.81074553123064
L2 1.07297473200811 1.6954224065155215 2.509914146104739
L1 -0.6067105719020893 0.47057137944794103 1.1798354697727513
L5 0.5496652614393713 0.6624810135325654 0.7851925332976911
L2 0.5166288250481293 1.2401569322378667 2.140224888415512
L2 1.0477654909551328 4.395041655920894 7.544248953343706
L2 0.4885578281044043 0.8127379231353288 1.1294289271331595
L2 1.2542685087325944 1.6176574889789452 2.6681099618452286
L2 185.86790582368843 709.9374287800932 1042.214454820686
Class 2 CertaintyDegree 1.0

L3 12.114248860080568 13.014505997195762 13.97681060902169
L5 4.7368929517968725 5.656307207013504 7.148081826603534
L4 2.4161344020843694 2.76546075775468 3.196478461620804
L4 19.563549375873226 23.840016031646954 30.74320028687871
L2 69.28343370776169 95.99843377951113 123.81074553123064
L2 1.07297473200811 1.6954224065155215 2.509914146104739
L1 -0.6067105719020893 0.47057137944794103 1.1798354697727513
L5 0.5496652614393713 0.6624810135325654 0.7851925332976911
L2 0.5166288250481293 1.2401569322378667 2.140224888415512
L2 1.0477654909551328 4.395041655920894 7.544248953343706
L2 0.4885578281044043 0.8127379231353288 1.1294289271331595
L2 1.2542685087325944 1.6176574889789452 2.6681099618452286
L2 185.86790582368843 709.9374287800932 1042.214454820686
Class 2 CertaintyDegree 1.0

L2 10.937253110813868 12.131001555684245 13.110196299960649
L2 0.7942230279667761 2.095663393929322 3.3951693065126194
L2 1.311668309480142 1.8076349203944095 2.315549432053937
L2 9.653515127944582 15.853541428239549 20.32089181754876
L2 69.28343370776169 95.99843377951113 123.81074553123064
L3 1.8044990894080373 2.5015511852509356 3.2978204464443195
L3 1.583983925717185 2.8984318061607133 4.02284451680985
L2 0.1487899875759685 0.24578234539435415 0.4344682561427939
L2 0.5166288250481293 1.2401569322378667 2.140224888415512
L2 1.0477654909551328 4.395041655920894 7.544248953343706
L4 1.1332599317408731 1.4691988734109782 1.7678281532674167
L3 1.9919365067959327 2.7215171241921445 3.385294427160387
L2 185.86790582368843 709.9374287800932 1042.214454820686
Class 1 CertaintyDegree 1.0

L2 10.937253110813868 12.131001555684245 13.110196299960649
L2 0.7942230279667761 2.095663393929322 3.3951693065126194
L2 1.311668309480142 1.8076349203944095 2.315549432053937
L2 9.653515127944582 15.853541428239549 20.32089181754876
L2 69.28343370776169 95.99843377951113 123.81074553123064
L3 1.8044990894080373 2.5015511852509356 3.2978204464443195
L3 1.583983925717185 2.8984318061607133 4.02284451680985
L2 0.1487899875759685 0.24578234539435415 0.4344682561427939
L2 0.5166288250481293 1.2401569322378667 2.140224888415512
L2 1.0477654909551328 4.395041655920894 7.544248953343706
L4 1.1332599317408731 1.4691988734109782 1.7678281532674167
L3 1.9919365067959327 2.7215171241921445 3.385294427160387
L2 185.86790582368843 709.9374287800932 1042.214454820686
Class 1 CertaintyDegree 1.0

L3 12.114248860080568 13.014505997195762 13.97681060902169
L2 0.7942230279667761 2.095663393929322 3.3951693065126194
L5 2.789612312695518 3.3140805876086885 3.810790418219507
L4 19.563549375873226 23.840016031646954 30.74320028687871
L3 87.76781627118912 117.14058623422297 141.57755321568033
L3 1.8044990894080373 2.5015511852509356 3.2978204464443195
L3 1.583983925717185 2.8984318061607133 4.02284451680985
L4 0.3969253882034986 0.5423179098163853 0.6792887609576986
L3 1.1265804672402064 2.0379692027308183 2.964394407541638
L2 1.0477654909551328 4.395041655920894 7.544248953343706
L3 0.7457937152881824 1.1150421518293654 1.4560596356780617
L4 2.691369292669379 3.3849116407143462 4.0268699760629625
L3 685.1526534005135 1010.4593051817806 1375.1874882796424
Class 0 CertaintyDegree 1.0

L3 12.114248860080568 13.014505997195762 13.97681060902169
L2 0.7942230279667761 2.095663393929322 3.3951693065126194
L5 2.789612312695518 3.3140805876086885 3.810790418219507
L4 19.563549375873226 23.840016031646954 30.74320028687871
L3 87.76781627118912 117.14058623422297 141.57755321568033
L3 1.8044990894080373 2.5015511852509356 3.2978204464443195
L3 1.583983925717185 2.8984318061607133 4.02284451680985
L4 0.3969253882034986 0.5423179098163853 0.6792887609576986
L3 1.1265804672402064 2.0379692027308183 2.964394407541638
L2 1.0477654909551328 4.395041655920894 7.544248953343706
L3 0.7457937152881824 1.1150421518293654 1.4560596356780617
L4 2.691369292669379 3.3849116407143462 4.0268699760629625
L3 685.1526534005135 1010.4593051817806 1375.1874882796424
Class 0 CertaintyDegree 1.0

L3 12.114248860080568 13.014505997195762 13.97681060902169
L2 0.7942230279667761 2.095663393929322 3.3951693065126194
L5 2.789612312695518 3.3140805876086885 3.810790418219507
L4 19.563549375873226 23.840016031646954 30.74320028687871
L3 87.76781627118912 117.14058623422297 141.57755321568033
L3 1.8044990894080373 2.5015511852509356 3.2978204464443195
L3 1.583983925717185 2.8984318061607133 4.02284451680985
L4 0.3969253882034986 0.5423179098163853 0.6792887609576986
L3 1.1265804672402064 2.0379692027308183 2.964394407541638
L2 1.0477654909551328 4.395041655920894 7.544248953343706
L3 0.7457937152881824 1.1150421518293654 1.4560596356780617
L4 2.691369292669379 3.3849116407143462 4.0268699760629625
L3 685.1526534005135 1010.4593051817806 1375.1874882796424
Class 0 CertaintyDegree 1.0

L2 10.937253110813868 12.131001555684245 13.110196299960649
L2 0.7942230279667761 2.095663393929322 3.3951693065126194
L3 1.892882917865134 2.3925705346496575 2.8711134556130737
L3 16.287815372438708 21.136824026781778 27.018657537277775
L2 69.28343370776169 95.99843377951113 123.81074553123064
L1 0.33928775695335817 1.1093465387055867 1.8136947172994617
L2 0.4688484299983101 1.5241177698064916 2.781061993269666
L3 0.30055059237458553 0.40057892610299217 0.5552953328600793
L2 0.5166288250481293 1.2401569322378667 2.140224888415512
L2 1.0477654909551328 4.395041655920894 7.544248953343706
L2 0.4885578281044043 0.8127379231353288 1.1294289271331595
L2 1.2542685087325944 1.6176574889789452 2.6681099618452286
L3 685.1526534005135 1010.4593051817806 1375.1874882796424
Class 1 CertaintyDegree 1.0

L2 10.937253110813868 12.131001555684245 13.110196299960649
L2 0.7942230279667761 2.095663393929322 3.3951693065126194
L3 1.892882917865134 2.3925705346496575 2.8711134556130737
L3 16.287815372438708 21.136824026781778 27.018657537277775
L2 69.28343370776169 95.99843377951113 123.81074553123064
L1 0.33928775695335817 1.1093465387055867 1.8136947172994617
L2 0.4688484299983101 1.5241177698064916 2.781061993269666
L3 0.30055059237458553 0.40057892610299217 0.5552953328600793
L2 0.5166288250481293 1.2401569322378667 2.140224888415512
L2 1.0477654909551328 4.395041655920894 7.544248953343706
L2 0.4885578281044043 0.8127379231353288 1.1294289271331595
L2 1.2542685087325944 1.6176574889789452 2.6681099618452286
L3 685.1526534005135 1010.4593051817806 1375.1874882796424
Class 1 CertaintyDegree 1.0

L4 12.516131304612065 13.949467643571765 14.945588231731998
L4 3.484893865613211 4.770981588973715 6.0273250147088495
L3 1.892882917865134 2.3925705346496575 2.8711134556130737
L3 16.287815372438708 21.136824026781778 27.018657537277775
L1 49.71712780166021 71.29384230279994 95.84414314115554
L1 0.33928775695335817 1.1093465387055867 1.8136947172994617
L1 -0.6067105719020893 0.47057137944794103 1.1798354697727513
L3 0.30055059237458553 0.40057892610299217 0.5552953328600793
L1 -0.22901969961276686 0.44157021739280666 1.3260807070655485
L2 1.0477654909551328 4.395041655920894 7.544248953343706
L1 0.1914075743450997 0.5222218209712641 0.8447120720923984
L1 0.6742900494915814 1.3127496137764634 2.0027935263990577
L1 -98.01237828333933 333.89053443168496 705.1344515296967
Class 2 CertaintyDegree 1.0

L3 12.114248860080568 13.014505997195762 13.97681060902169
L2 0.7942230279667761 2.095663393929322 3.3951693065126194
L3 1.892882917865134 2.3925705346496575 2.8711134556130737
L2 9.653515127944582 15.853541428239549 20.32089181754876
L2 69.28343370776169 95.99843377951113 123.81074553123064
L3 1.8044990894080373 2.5015511852509356 3.2978204464443195
L3 1.583983925717185 2.8984318061607133 4.02284451680985
L2 0.1487899875759685 0.24578234539435415 0.4344682561427939
L2 0.5166288250481293 1.2401569322378667 2.140224888415512
L2 1.0477654909551328 4.395041655920894 7.544248953343706
L3 0.7457937152881824 1.1150421518293654 1.4560596356780617
L3 1.9919365067959327 2.7215171241921445 3.385294427160387
L4 1024.0576933524628 1402.1957533688094 1740.7508293235937
Class 0 CertaintyDegree 1.0

L3 12.114248860080568 13.014505997195762 13.97681060902169
L2 0.7942230279667761 2.095663393929322 3.3951693065126194
L3 1.892882917865134 2.3925705346496575 2.8711134556130737
L2 9.653515127944582 15.853541428239549 20.32089181754876
L2 69.28343370776169 95.99843377951113 123.81074553123064
L3 1.8044990894080373 2.5015511852509356 3.2978204464443195
L3 1.583983925717185 2.8984318061607133 4.02284451680985
L2 0.1487899875759685 0.24578234539435415 0.4344682561427939
L2 0.5166288250481293 1.2401569322378667 2.140224888415512
L2 1.0477654909551328 4.395041655920894 7.544248953343706
L3 0.7457937152881824 1.1150421518293654 1.4560596356780617
L3 1.9919365067959327 2.7215171241921445 3.385294427160387
L4 1024.0576933524628 1402.1957533688094 1740.7508293235937
Class 0 CertaintyDegree 1.0

L4 12.516131304612065 13.949467643571765 14.945588231731998
L2 0.7942230279667761 2.095663393929322 3.3951693065126194
L4 2.4161344020843694 2.76546075775468 3.196478461620804
L3 16.287815372438708 21.136824026781778 27.018657537277775
L2 69.28343370776169 95.99843377951113 123.81074553123064
L3 1.8044990894080373 2.5015511852509356 3.2978204464443195
L2 0.4688484299983101 1.5241177698064916 2.781061993269666
L4 0.3969253882034986 0.5423179098163853 0.6792887609576986
L3 1.1265804672402064 2.0379692027308183 2.964394407541638
L5 10.374026735223708 13.555728689633169 16.230607626233322
L1 0.1914075743450997 0.5222218209712641 0.8447120720923984
L2 1.2542685087325944 1.6176574889789452 2.6681099618452286
L2 185.86790582368843 709.9374287800932 1042.214454820686
Class 2 CertaintyDegree 1.0

L4 12.516131304612065 13.949467643571765 14.945588231731998
L2 0.7942230279667761 2.095663393929322 3.3951693065126194
L4 2.4161344020843694 2.76546075775468 3.196478461620804
L3 16.287815372438708 21.136824026781778 27.018657537277775
L2 69.28343370776169 95.99843377951113 123.81074553123064
L3 1.8044990894080373 2.5015511852509356 3.2978204464443195
L2 0.4688484299983101 1.5241177698064916 2.781061993269666
L4 0.3969253882034986 0.5423179098163853 0.6792887609576986
L3 1.1265804672402064 2.0379692027308183 2.964394407541638
L5 10.374026735223708 13.555728689633169 16.230607626233322
L1 0.1914075743450997 0.5222218209712641 0.8447120720923984
L2 1.2542685087325944 1.6176574889789452 2.6681099618452286
L2 185.86790582368843 709.9374287800932 1042.214454820686
Class 2 CertaintyDegree 1.0

L4 12.516131304612065 13.949467643571765 14.945588231731998
L2 0.7942230279667761 2.095663393929322 3.3951693065126194
L4 2.4161344020843694 2.76546075775468 3.196478461620804
L3 16.287815372438708 21.136824026781778 27.018657537277775
L2 69.28343370776169 95.99843377951113 123.81074553123064
L3 1.8044990894080373 2.5015511852509356 3.2978204464443195
L2 0.4688484299983101 1.5241177698064916 2.781061993269666
L4 0.3969253882034986 0.5423179098163853 0.6792887609576986
L3 1.1265804672402064 2.0379692027308183 2.964394407541638
L5 10.374026735223708 13.555728689633169 16.230607626233322
L1 0.1914075743450997 0.5222218209712641 0.8447120720923984
L2 1.2542685087325944 1.6176574889789452 2.6681099618452286
L2 185.86790582368843 709.9374287800932 1042.214454820686
Class 2 CertaintyDegree 1.0

L4 12.516131304612065 13.949467643571765 14.945588231731998
L3 2.1969197085209458 3.041504932744118 4.7383722520024945
L4 2.4161344020843694 2.76546075775468 3.196478461620804
L2 9.653515127944582 15.853541428239549 20.32089181754876
L3 87.76781627118912 117.14058623422297 141.57755321568033
L3 1.8044990894080373 2.5015511852509356 3.2978204464443195
L3 1.583983925717185 2.8984318061607133 4.02284451680985
L1 0.030934262228729532 0.14552884014257284 0.3081843771852818
L3 1.1265804672402064 2.0379692027308183 2.964394407541638
L2 1.0477654909551328 4.395041655920894 7.544248953343706
L3 0.7457937152881824 1.1150421518293654 1.4560596356780617
L4 2.691369292669379 3.3849116407143462 4.0268699760629625
L3 685.1526534005135 1010.4593051817806 1375.1874882796424
Class 0 CertaintyDegree 1.0

L4 12.516131304612065 13.949467643571765 14.945588231731998
L3 2.1969197085209458 3.041504932744118 4.7383722520024945
L4 2.4161344020843694 2.76546075775468 3.196478461620804
L2 9.653515127944582 15.853541428239549 20.32089181754876
L3 87.76781627118912 117.14058623422297 141.57755321568033
L3 1.8044990894080373 2.5015511852509356 3.2978204464443195
L3 1.583983925717185 2.8984318061607133 4.02284451680985
L1 0.030934262228729532 0.14552884014257284 0.3081843771852818
L3 1.1265804672402064 2.0379692027308183 2.964394407541638
L2 1.0477654909551328 4.395041655920894 7.544248953343706
L3 0.7457937152881824 1.1150421518293654 1.4560596356780617
L4 2.691369292669379 3.3849116407143462 4.0268699760629625
L3 685.1526534005135 1010.4593051817806 1375.1874882796424
Class 0 CertaintyDegree 1.0

L4 12.516131304612065 13.949467643571765 14.945588231731998
L3 2.1969197085209458 3.041504932744118 4.7383722520024945
L4 2.4161344020843694 2.76546075775468 3.196478461620804
L2 9.653515127944582 15.853541428239549 20.32089181754876
L3 87.76781627118912 117.14058623422297 141.57755321568033
L3 1.8044990894080373 2.5015511852509356 3.2978204464443195
L3 1.583983925717185 2.8984318061607133 4.02284451680985
L1 0.030934262228729532 0.14552884014257284 0.3081843771852818
L3 1.1265804672402064 2.0379692027308183 2.964394407541638
L2 1.0477654909551328 4.395041655920894 7.544248953343706
L3 0.7457937152881824 1.1150421518293654 1.4560596356780617
L4 2.691369292669379 3.3849116407143462 4.0268699760629625
L3 685.1526534005135 1010.4593051817806 1375.1874882796424
Class 0 CertaintyDegree 1.0

L4 12.516131304612065 13.949467643571765 14.945588231731998
L2 0.7942230279667761 2.095663393929322 3.3951693065126194
L3 1.892882917865134 2.3925705346496575 2.8711134556130737
L2 9.653515127944582 15.853541428239549 20.32089181754876
L3 87.76781627118912 117.14058623422297 141.57755321568033
L4 2.5166569039701367 3.274636422753453 3.9417718489999345
L4 2.799729643472683 4.008324115636251 5.404619113591844
L1 0.030934262228729532 0.14552884014257284 0.3081843771852818
L3 1.1265804672402064 2.0379692027308183 2.964394407541638
L3 4.627316729696825 7.3023802398758715 10.414474304314217
L2 0.4885578281044043 0.8127379231353288 1.1294289271331595
L3 1.9919365067959327 2.7215171241921445 3.385294427160387
L4 1024.0576933524628 1402.1957533688094 1740.7508293235937
Class 0 CertaintyDegree 1.0

L3 12.114248860080568 13.014505997195762 13.97681060902169
L2 0.7942230279667761 2.095663393929322 3.3951693065126194
L3 1.892882917865134 2.3925705346496575 2.8711134556130737
L2 9.653515127944582 15.853541428239549 20.32089181754876
L3 87.76781627118912 117.14058623422297 141.57755321568033
L4 2.5166569039701367 3.274636422753453 3.9417718489999345
L3 1.583983925717185 2.8984318061607133 4.02284451680985
L2 0.1487899875759685 0.24578234539435415 0.4344682561427939
L3 1.1265804672402064 2.0379692027308183 2.964394407541638
L2 1.0477654909551328 4.395041655920894 7.544248953343706
L2 0.4885578281044043 0.8127379231353288 1.1294289271331595
L4 2.691369292669379 3.3849116407143462 4.0268699760629625
L3 685.1526534005135 1010.4593051817806 1375.1874882796424
Class 0 CertaintyDegree 1.0

L3 12.114248860080568 13.014505997195762 13.97681060902169
L2 0.7942230279667761 2.095663393929322 3.3951693065126194
L3 1.892882917865134 2.3925705346496575 2.8711134556130737
L2 9.653515127944582 15.853541428239549 20.32089181754876
L3 87.76781627118912 117.14058623422297 141.57755321568033
L4 2.5166569039701367 3.274636422753453 3.9417718489999345
L3 1.583983925717185 2.8984318061607133 4.02284451680985
L2 0.1487899875759685 0.24578234539435415 0.4344682561427939
L3 1.1265804672402064 2.0379692027308183 2.964394407541638
L2 1.0477654909551328 4.395041655920894 7.544248953343706
L2 0.4885578281044043 0.8127379231353288 1.1294289271331595
L4 2.691369292669379 3.3849116407143462 4.0268699760629625
L3 685.1526534005135 1010.4593051817806 1375.1874882796424
Class 0 CertaintyDegree 1.0

L3 12.114248860080568 13.014505997195762 13.97681060902169
L3 2.1969197085209458 3.041504932744118 4.7383722520024945
L4 2.4161344020843694 2.76546075775468 3.196478461620804
L3 16.287815372438708 21.136824026781778 27.018657537277775
L3 87.76781627118912 117.14058623422297 141.57755321568033
L2 1.07297473200811 1.6954224065155215 2.509914146104739
L1 -0.6067105719020893 0.47057137944794103 1.1798354697727513
L5 0.5496652614393713 0.6624810135325654 0.7851925332976911
L2 0.5166288250481293 1.2401569322378667 2.140224888415512
L2 1.0477654909551328 4.395041655920894 7.544248953343706
L2 0.4885578281044043 0.8127379231353288 1.1294289271331595
L2 1.2542685087325944 1.6176574889789452 2.6681099618452286
L2 185.86790582368843 709.9374287800932 1042.214454820686
Class 2 CertaintyDegree 1.0

L3 12.114248860080568 13.014505997195762 13.97681060902169
L3 2.1969197085209458 3.041504932744118 4.7383722520024945
L4 2.4161344020843694 2.76546075775468 3.196478461620804
L3 16.287815372438708 21.136824026781778 27.018657537277775
L3 87.76781627118912 117.14058623422297 141.57755321568033
L2 1.07297473200811 1.6954224065155215 2.509914146104739
L1 -0.6067105719020893 0.47057137944794103 1.1798354697727513
L5 0.5496652614393713 0.6624810135325654 0.7851925332976911
L2 0.5166288250481293 1.2401569322378667 2.140224888415512
L2 1.0477654909551328 4.395041655920894 7.544248953343706
L2 0.4885578281044043 0.8127379231353288 1.1294289271331595
L2 1.2542685087325944 1.6176574889789452 2.6681099618452286
L2 185.86790582368843 709.9374287800932 1042.214454820686
Class 2 CertaintyDegree 1.0

L3 12.114248860080568 13.014505997195762 13.97681060902169
L3 2.1969197085209458 3.041504932744118 4.7383722520024945
L4 2.4161344020843694 2.76546075775468 3.196478461620804
L3 16.287815372438708 21.136824026781778 27.018657537277775
L3 87.76781627118912 117.14058623422297 141.57755321568033
L2 1.07297473200811 1.6954224065155215 2.509914146104739
L1 -0.6067105719020893 0.47057137944794103 1.1798354697727513
L5 0.5496652614393713 0.6624810135325654 0.7851925332976911
L2 0.5166288250481293 1.2401569322378667 2.140224888415512
L2 1.0477654909551328 4.395041655920894 7.544248953343706
L2 0.4885578281044043 0.8127379231353288 1.1294289271331595
L2 1.2542685087325944 1.6176574889789452 2.6681099618452286
L2 185.86790582368843 709.9374287800932 1042.214454820686
Class 2 CertaintyDegree 1.0

L4 12.516131304612065 13.949467643571765 14.945588231731998
L2 0.7942230279667761 2.095663393929322 3.3951693065126194
L3 1.892882917865134 2.3925705346496575 2.8711134556130737
L3 16.287815372438708 21.136824026781778 27.018657537277775
L2 69.28343370776169 95.99843377951113 123.81074553123064
L3 1.8044990894080373 2.5015511852509356 3.2978204464443195
L3 1.583983925717185 2.8984318061607133 4.02284451680985
L2 0.1487899875759685 0.24578234539435415 0.4344682561427939
L3 1.1265804672402064 2.0379692027308183 2.964394407541638
L2 1.0477654909551328 4.395041655920894 7.544248953343706
L3 0.7457937152881824 1.1150421518293654 1.4560596356780617
L4 2.691369292669379 3.3849116407143462 4.0268699760629625
L3 685.1526534005135 1010.4593051817806 1375.1874882796424
Class 0 CertaintyDegree 1.0

L3 12.114248860080568 13.014505997195762 13.97681060902169
L5 4.7368929517968725 5.656307207013504 7.148081826603534
L3 1.892882917865134 2.3925705346496575 2.8711134556130737
L3 16.287815372438708 21.136824026781778 27.018657537277775
L2 69.28343370776169 95.99843377951113 123.81074553123064
L3 1.8044990894080373 2.5015511852509356 3.2978204464443195
L3 1.583983925717185 2.8984318061607133 4.02284451680985
L2 0.1487899875759685 0.24578234539435415 0.4344682561427939
L3 1.1265804672402064 2.0379692027308183 2.964394407541638
L1 -1.2450776955655003 1.5487014088211821 4.602730904417472
L2 0.4885578281044043 0.8127379231353288 1.1294289271331595
L4 2.691369292669379 3.3849116407143462 4.0268699760629625
L1 -98.01237828333933 333.89053443168496 705.1344515296967
Class 1 CertaintyDegree 1.0

L3 12.114248860080568 13.014505997195762 13.97681060902169
L5 4.7368929517968725 5.656307207013504 7.148081826603534
L3 1.892882917865134 2.3925705346496575 2.8711134556130737
L3 16.287815372438708 21.136824026781778 27.018657537277775
L2 69.28343370776169 95.99843377951113 123.81074553123064
L3 1.8044990894080373 2.5015511852509356 3.2978204464443195
L3 1.583983925717185 2.8984318061607133 4.02284451680985
L2 0.1487899875759685 0.24578234539435415 0.4344682561427939
L3 1.1265804672402064 2.0379692027308183 2.964394407541638
L1 -1.2450776955655003 1.5487014088211821 4.602730904417472
L2 0.4885578281044043 0.8127379231353288 1.1294289271331595
L4 2.691369292669379 3.3849116407143462 4.0268699760629625
L1 -98.01237828333933 333.89053443168496 705.1344515296967
Class 1 CertaintyDegree 1.0

L3 12.114248860080568 13.014505997195762 13.97681060902169
L5 4.7368929517968725 5.656307207013504 7.148081826603534
L3 1.892882917865134 2.3925705346496575 2.8711134556130737
L3 16.287815372438708 21.136824026781778 27.018657537277775
L2 69.28343370776169 95.99843377951113 123.81074553123064
L3 1.8044990894080373 2.5015511852509356 3.2978204464443195
L3 1.583983925717185 2.8984318061607133 4.02284451680985
L2 0.1487899875759685 0.24578234539435415 0.4344682561427939
L3 1.1265804672402064 2.0379692027308183 2.964394407541638
L1 -1.2450776955655003 1.5487014088211821 4.602730904417472
L2 0.4885578281044043 0.8127379231353288 1.1294289271331595
L4 2.691369292669379 3.3849116407143462 4.0268699760629625
L1 -98.01237828333933 333.89053443168496 705.1344515296967
Class 1 CertaintyDegree 1.0

L3 12.114248860080568 13.014505997195762 13.97681060902169
L2 0.7942230279667761 2.095663393929322 3.3951693065126194
L4 2.4161344020843694 2.76546075775468 3.196478461620804
L4 19.563549375873226 23.840016031646954 30.74320028687871
L3 87.76781627118912 117.14058623422297 141.57755321568033
L3 1.8044990894080373 2.5015511852509356 3.2978204464443195
L2 0.4688484299983101 1.5241177698064916 2.781061993269666
L2 0.1487899875759685 0.24578234539435415 0.4344682561427939
L2 0.5166288250481293 1.2401569322378667 2.140224888415512
L3 4.627316729696825 7.3023802398758715 10.414474304314217
L1 0.1914075743450997 0.5222218209712641 0.8447120720923984
L1 0.6742900494915814 1.3127496137764634 2.0027935263990577
L1 -98.01237828333933 333.89053443168496 705.1344515296967
Class 2 CertaintyDegree 1.0

L1 10.139866051704136 11.035311879431047 12.007558722598354
L3 2.1969197085209458 3.041504932744118 4.7383722520024945
L2 1.311668309480142 1.8076349203944095 2.315549432053937
L3 16.287815372438708 21.136824026781778 27.018657537277775
L3 87.76781627118912 117.14058623422297 141.57755321568033
L4 2.5166569039701367 3.274636422753453 3.9417718489999345
L3 1.583983925717185 2.8984318061607133 4.02284451680985
L2 0.1487899875759685 0.24578234539435415 0.4344682561427939
L5 3.0372036853587803 3.6234594040907067 4.496297811236671
L2 1.0477654909551328 4.395041655920894 7.544248953343706
L2 0.4885578281044043 0.8127379231353288 1.1294289271331595
L3 1.9919365067959327 2.7215171241921445 3.385294427160387
L2 185.86790582368843 709.9374287800932 1042.214454820686
Class 1 CertaintyDegree 1.0

L1 10.139866051704136 11.035311879431047 12.007558722598354
L3 2.1969197085209458 3.041504932744118 4.7383722520024945
L2 1.311668309480142 1.8076349203944095 2.315549432053937
L3 16.287815372438708 21.136824026781778 27.018657537277775
L3 87.76781627118912 117.14058623422297 141.57755321568033
L4 2.5166569039701367 3.274636422753453 3.9417718489999345
L3 1.583983925717185 2.8984318061607133 4.02284451680985
L2 0.1487899875759685 0.24578234539435415 0.4344682561427939
L5 3.0372036853587803 3.6234594040907067 4.496297811236671
L2 1.0477654909551328 4.395041655920894 7.544248953343706
L2 0.4885578281044043 0.8127379231353288 1.1294289271331595
L3 1.9919365067959327 2.7215171241921445 3.385294427160387
L2 185.86790582368843 709.9374287800932 1042.214454820686
Class 1 CertaintyDegree 1.0

L4 12.516131304612065 13.949467643571765 14.945588231731998
L5 4.7368929517968725 5.656307207013504 7.148081826603534
L3 1.892882917865134 2.3925705346496575 2.8711134556130737
L3 16.287815372438708 21.136824026781778 27.018657537277775
L2 69.28343370776169 95.99843377951113 123.81074553123064
L2 1.07297473200811 1.6954224065155215 2.509914146104739
L1 -0.6067105719020893 0.47057137944794103 1.1798354697727513
L4 0.3969253882034986 0.5423179098163853 0.6792887609576986
L2 0.5166288250481293 1.2401569322378667 2.140224888415512
L3 4.627316729696825 7.3023802398758715 10.414474304314217
L2 0.4885578281044043 0.8127379231353288 1.1294289271331595
L2 1.2542685087325944 1.6176574889789452 2.6681099618452286
L2 185.86790582368843 709.9374287800932 1042.214454820686
Class 2 CertaintyDegree 1.0

L4 12.516131304612065 13.949467643571765 14.945588231731998
L5 4.7368929517968725 5.656307207013504 7.148081826603534
L3 1.892882917865134 2.3925705346496575 2.8711134556130737
L3 16.287815372438708 21.136824026781778 27.018657537277775
L2 69.28343370776169 95.99843377951113 123.81074553123064
L2 1.07297473200811 1.6954224065155215 2.509914146104739
L1 -0.6067105719020893 0.47057137944794103 1.1798354697727513
L4 0.3969253882034986 0.5423179098163853 0.6792887609576986
L2 0.5166288250481293 1.2401569322378667 2.140224888415512
L3 4.627316729696825 7.3023802398758715 10.414474304314217
L2 0.4885578281044043 0.8127379231353288 1.1294289271331595
L2 1.2542685087325944 1.6176574889789452 2.6681099618452286
L2 185.86790582368843 709.9374287800932 1042.214454820686
Class 2 CertaintyDegree 1.0

L3 12.114248860080568 13.014505997195762 13.97681060902169
L4 3.484893865613211 4.770981588973715 6.0273250147088495
L3 1.892882917865134 2.3925705346496575 2.8711134556130737
L3 16.287815372438708 21.136824026781778 27.018657537277775
L3 87.76781627118912 117.14058623422297 141.57755321568033
L2 1.07297473200811 1.6954224065155215 2.509914146104739
L1 -0.6067105719020893 0.47057137944794103 1.1798354697727513
L3 0.30055059237458553 0.40057892610299217 0.5552953328600793
L2 0.5166288250481293 1.2401569322378667 2.140224888415512
L4 7.237414030886157 10.555047085806496 13.288564535462609
L1 0.1914075743450997 0.5222218209712641 0.8447120720923984
L1 0.6742900494915814 1.3127496137764634 2.0027935263990577
L3 685.1526534005135 1010.4593051817806 1375.1874882796424
Class 2 CertaintyDegree 1.0

L3 12.114248860080568 13.014505997195762 13.97681060902169
L4 3.484893865613211 4.770981588973715 6.0273250147088495
L3 1.892882917865134 2.3925705346496575 2.8711134556130737
L3 16.287815372438708 21.136824026781778 27.018657537277775
L3 87.76781627118912 117.14058623422297 141.57755321568033
L2 1.07297473200811 1.6954224065155215 2.509914146104739
L1 -0.6067105719020893 0.47057137944794103 1.1798354697727513
L3 0.30055059237458553 0.40057892610299217 0.5552953328600793
L2 0.5166288250481293 1.2401569322378667 2.140224888415512
L4 7.237414030886157 10.555047085806496 13.288564535462609
L1 0.1914075743450997 0.5222218209712641 0.8447120720923984
L1 0.6742900494915814 1.3127496137764634 2.0027935263990577
L3 685.1526534005135 1010.4593051817806 1375.1874882796424
Class 2 CertaintyDegree 1.0

L3 12.114248860080568 13.014505997195762 13.97681060902169
L1 -0.4391802539428732 0.9283321419655868 2.000084114578163
L3 1.892882917865134 2.3925705346496575 2.8711134556130737
L3 16.287815372438708 21.136824026781778 27.018657537277775
L2 69.28343370776169 95.99843377951113 123.81074553123064
L3 1.8044990894080373 2.5015511852509356 3.2978204464443195
L2 0.4688484299983101 1.5241177698064916 2.781061993269666
L2 0.1487899875759685 0.24578234539435415 0.4344682561427939
L2 0.5166288250481293 1.2401569322378667 2.140224888415512
L1 -1.2450776955655003 1.5487014088211821 4.602730904417472
L3 0.7457937152881824 1.1150421518293654 1.4560596356780617
L4 2.691369292669379 3.3849116407143462 4.0268699760629625
L1 -98.01237828333933 333.89053443168496 705.1344515296967
Class 1 CertaintyDegree 1.0

L3 12.114248860080568 13.014505997195762 13.97681060902169
L2 0.7942230279667761 2.095663393929322 3.3951693065126194
L3 1.892882917865134 2.3925705346496575 2.8711134556130737
L3 16.287815372438708 21.136824026781778 27.018657537277775
L2 69.28343370776169 95.99843377951113 123.81074553123064
L3 1.8044990894080373 2.5015511852509356 3.2978204464443195
L3 1.583983925717185 2.8984318061607133 4.02284451680985
L2 0.1487899875759685 0.24578234539435415 0.4344682561427939
L2 0.5166288250481293 1.2401569322378667 2.140224888415512
L1 -1.2450776955655003 1.5487014088211821 4.602730904417472
L2 0.4885578281044043 0.8127379231353288 1.1294289271331595
L3 1.9919365067959327 2.7215171241921445 3.385294427160387
L1 -98.01237828333933 333.89053443168496 705.1344515296967
Class 1 CertaintyDegree 1.0

L3 12.114248860080568 13.014505997195762 13.97681060902169
L2 0.7942230279667761 2.095663393929322 3.3951693065126194
L3 1.892882917865134 2.3925705346496575 2.8711134556130737
L3 16.287815372438708 21.136824026781778 27.018657537277775
L2 69.28343370776169 95.99843377951113 123.81074553123064
L3 1.8044990894080373 2.5015511852509356 3.2978204464443195
L3 1.583983925717185 2.8984318061607133 4.02284451680985
L2 0.1487899875759685 0.24578234539435415 0.4344682561427939
L2 0.5166288250481293 1.2401569322378667 2.140224888415512
L1 -1.2450776955655003 1.5487014088211821 4.602730904417472
L2 0.4885578281044043 0.8127379231353288 1.1294289271331595
L3 1.9919365067959327 2.7215171241921445 3.385294427160387
L1 -98.01237828333933 333.89053443168496 705.1344515296967
Class 1 CertaintyDegree 1.0

L3 12.114248860080568 13.014505997195762 13.97681060902169
L1 -0.4391802539428732 0.9283321419655868 2.000084114578163
L2 1.311668309480142 1.8076349203944095 2.315549432053937
L2 9.653515127944582 15.853541428239549 20.32089181754876
L2 69.28343370776169 95.99843377951113 123.81074553123064
L2 1.07297473200811 1.6954224065155215 2.509914146104739
L2 0.4688484299983101 1.5241177698064916 2.781061993269666
L2 0.1487899875759685 0.24578234539435415 0.4344682561427939
L2 0.5166288250481293 1.2401569322378667 2.140224888415512
L2 1.0477654909551328 4.395041655920894 7.544248953343706
L3 0.7457937152881824 1.1150421518293654 1.4560596356780617
L3 1.9919365067959327 2.7215171241921445 3.385294427160387
L1 -98.01237828333933 333.89053443168496 705.1344515296967
Class 1 CertaintyDegree 1.0

L3 12.114248860080568 13.014505997195762 13.97681060902169
L1 -0.4391802539428732 0.9283321419655868 2.000084114578163
L2 1.311668309480142 1.8076349203944095 2.315549432053937
L2 9.653515127944582 15.853541428239549 20.32089181754876
L2 69.28343370776169 95.99843377951113 123.81074553123064
L2 1.07297473200811 1.6954224065155215 2.509914146104739
L2 0.4688484299983101 1.5241177698064916 2.781061993269666
L2 0.1487899875759685 0.24578234539435415 0.4344682561427939
L2 0.5166288250481293 1.2401569322378667 2.140224888415512
L2 1.0477654909551328 4.395041655920894 7.544248953343706
L3 0.7457937152881824 1.1150421518293654 1.4560596356780617
L3 1.9919365067959327 2.7215171241921445 3.385294427160387
L1 -98.01237828333933 333.89053443168496 705.1344515296967
Class 1 CertaintyDegree 1.0

L3 12.114248860080568 13.014505997195762 13.97681060902169
L1 -0.4391802539428732 0.9283321419655868 2.000084114578163
L2 1.311668309480142 1.8076349203944095 2.315549432053937
L2 9.653515127944582 15.853541428239549 20.32089181754876
L2 69.28343370776169 95.99843377951113 123.81074553123064
L2 1.07297473200811 1.6954224065155215 2.509914146104739
L2 0.4688484299983101 1.5241177698064916 2.781061993269666
L2 0.1487899875759685 0.24578234539435415 0.4344682561427939
L2 0.5166288250481293 1.2401569322378667 2.140224888415512
L2 1.0477654909551328 4.395041655920894 7.544248953343706
L3 0.7457937152881824 1.1150421518293654 1.4560596356780617
L3 1.9919365067959327 2.7215171241921445 3.385294427160387
L1 -98.01237828333933 333.89053443168496 705.1344515296967
Class 1 CertaintyDegree 1.0

L1 10.139866051704136 11.035311879431047 12.007558722598354
L2 0.7942230279667761 2.095663393929322 3.3951693065126194
L3 1.892882917865134 2.3925705346496575 2.8711134556130737
L3 16.287815372438708 21.136824026781778 27.018657537277775
L2 69.28343370776169 95.99843377951113 123.81074553123064
L3 1.8044990894080373 2.5015511852509356 3.2978204464443195
L3 1.583983925717185 2.8984318061607133 4.02284451680985
L4 0.3969253882034986 0.5423179098163853 0.6792887609576986
L3 1.1265804672402064 2.0379692027308183 2.964394407541638
L1 -1.2450776955655003 1.5487014088211821 4.602730904417472
L5 1.437908990855755 1.7930529903264492 2.0467338635163976
L3 1.9919365067959327 2.7215171241921445 3.385294427160387
L1 -98.01237828333933 333.89053443168496 705.1344515296967
Class 1 CertaintyDegree 1.0

L1 10.139866051704136 11.035311879431047 12.007558722598354
L2 0.7942230279667761 2.095663393929322 3.3951693065126194
L3 1.892882917865134 2.3925705346496575 2.8711134556130737
L3 16.287815372438708 21.136824026781778 27.018657537277775
L2 69.28343370776169 95.99843377951113 123.81074553123064
L3 1.8044990894080373 2.5015511852509356 3.2978204464443195
L3 1.583983925717185 2.8984318061607133 4.02284451680985
L4 0.3969253882034986 0.5423179098163853 0.6792887609576986
L3 1.1265804672402064 2.0379692027308183 2.964394407541638
L1 -1.2450776955655003 1.5487014088211821 4.602730904417472
L5 1.437908990855755 1.7930529903264492 2.0467338635163976
L3 1.9919365067959327 2.7215171241921445 3.385294427160387
L1 -98.01237828333933 333.89053443168496 705.1344515296967
Class 1 CertaintyDegree 1.0

L2 10.937253110813868 12.131001555684245 13.110196299960649
L1 -0.4391802539428732 0.9283321419655868 2.000084114578163
L4 2.4161344020843694 2.76546075775468 3.196478461620804
L3 16.287815372438708 21.136824026781778 27.018657537277775
L2 69.28343370776169 95.99843377951113 123.81074553123064
L3 1.8044990894080373 2.5015511852509356 3.2978204464443195
L3 1.583983925717185 2.8984318061607133 4.02284451680985
L3 0.30055059237458553 0.40057892610299217 0.5552953328600793
L3 1.1265804672402064 2.0379692027308183 2.964394407541638
L2 1.0477654909551328 4.395041655920894 7.544248953343706
L3 0.7457937152881824 1.1150421518293654 1.4560596356780617
L3 1.9919365067959327 2.7215171241921445 3.385294427160387
L2 185.86790582368843 709.9374287800932 1042.214454820686
Class 1 CertaintyDegree 1.0

L3 12.114248860080568 13.014505997195762 13.97681060902169
L3 2.1969197085209458 3.041504932744118 4.7383722520024945
L3 1.892882917865134 2.3925705346496575 2.8711134556130737
L3 16.287815372438708 21.136824026781778 27.018657537277775
L2 69.28343370776169 95.99843377951113 123.81074553123064
L1 0.33928775695335817 1.1093465387055867 1.8136947172994617
L2 0.4688484299983101 1.5241177698064916 2.781061993269666
L2 0.1487899875759685 0.24578234539435415 0.4344682561427939
L2 0.5166288250481293 1.2401569322378667 2.140224888415512
L2 1.0477654909551328 4.395041655920894 7.544248953343706
L2 0.4885578281044043 0.8127379231353288 1.1294289271331595
L1 0.6742900494915814 1.3127496137764634 2.0027935263990577
L2 185.86790582368843 709.9374287800932 1042.214454820686
Class 2 CertaintyDegree 1.0

L2 10.937253110813868 12.131001555684245 13.110196299960649
L3 2.1969197085209458 3.041504932744118 4.7383722520024945
L2 1.311668309480142 1.8076349203944095 2.315549432053937
L3 16.287815372438708 21.136824026781778 27.018657537277775
L2 69.28343370776169 95.99843377951113 123.81074553123064
L2 1.07297473200811 1.6954224065155215 2.509914146104739
L2 0.4688484299983101 1.5241177698064916 2.781061993269666
L3 0.30055059237458553 0.40057892610299217 0.5552953328600793
L3 1.1265804672402064 2.0379692027308183 2.964394407541638
L1 -1.2450776955655003 1.5487014088211821 4.602730904417472
L2 0.4885578281044043 0.8127379231353288 1.1294289271331595
L4 2.691369292669379 3.3849116407143462 4.0268699760629625
L2 185.86790582368843 709.9374287800932 1042.214454820686
Class 1 CertaintyDegree 1.0

L2 10.937253110813868 12.131001555684245 13.110196299960649
L3 2.1969197085209458 3.041504932744118 4.7383722520024945
L2 1.311668309480142 1.8076349203944095 2.315549432053937
L3 16.287815372438708 21.136824026781778 27.018657537277775
L2 69.28343370776169 95.99843377951113 123.81074553123064
L2 1.07297473200811 1.6954224065155215 2.509914146104739
L2 0.4688484299983101 1.5241177698064916 2.781061993269666
L3 0.30055059237458553 0.40057892610299217 0.5552953328600793
L3 1.1265804672402064 2.0379692027308183 2.964394407541638
L1 -1.2450776955655003 1.5487014088211821 4.602730904417472
L2 0.4885578281044043 0.8127379231353288 1.1294289271331595
L4 2.691369292669379 3.3849116407143462 4.0268699760629625
L2 185.86790582368843 709.9374287800932 1042.214454820686
Class 1 CertaintyDegree 1.0

L2 10.937253110813868 12.131001555684245 13.110196299960649
L3 2.1969197085209458 3.041504932744118 4.7383722520024945
L2 1.311668309480142 1.8076349203944095 2.315549432053937
L3 16.287815372438708 21.136824026781778 27.018657537277775
L2 69.28343370776169 95.99843377951113 123.81074553123064
L2 1.07297473200811 1.6954224065155215 2.509914146104739
L2 0.4688484299983101 1.5241177698064916 2.781061993269666
L3 0.30055059237458553 0.40057892610299217 0.5552953328600793
L3 1.1265804672402064 2.0379692027308183 2.964394407541638
L1 -1.2450776955655003 1.5487014088211821 4.602730904417472
L2 0.4885578281044043 0.8127379231353288 1.1294289271331595
L4 2.691369292669379 3.3849116407143462 4.0268699760629625
L2 185.86790582368843 709.9374287800932 1042.214454820686
Class 1 CertaintyDegree 1.0

L2 10.937253110813868 12.131001555684245 13.110196299960649
L4 3.484893865613211 4.770981588973715 6.0273250147088495
L3 1.892882917865134 2.3925705346496575 2.8711134556130737
L3 16.287815372438708 21.136824026781778 27.018657537277775
L1 49.71712780166021 71.29384230279994 95.84414314115554
L3 1.8044990894080373 2.5015511852509356 3.2978204464443195
L2 0.4688484299983101 1.5241177698064916 2.781061993269666
L3 0.30055059237458553 0.40057892610299217 0.5552953328600793
L2 0.5166288250481293 1.2401569322378667 2.140224888415512
L1 -1.2450776955655003 1.5487014088211821 4.602730904417472
L2 0.4885578281044043 0.8127379231353288 1.1294289271331595
L3 1.9919365067959327 2.7215171241921445 3.385294427160387
L2 185.86790582368843 709.9374287800932 1042.214454820686
Class 1 CertaintyDegree 1.0

L2 10.937253110813868 12.131001555684245 13.110196299960649
L4 3.484893865613211 4.770981588973715 6.0273250147088495
L3 1.892882917865134 2.3925705346496575 2.8711134556130737
L3 16.287815372438708 21.136824026781778 27.018657537277775
L1 49.71712780166021 71.29384230279994 95.84414314115554
L3 1.8044990894080373 2.5015511852509356 3.2978204464443195
L2 0.4688484299983101 1.5241177698064916 2.781061993269666
L3 0.30055059237458553 0.40057892610299217 0.5552953328600793
L2 0.5166288250481293 1.2401569322378667 2.140224888415512
L1 -1.2450776955655003 1.5487014088211821 4.602730904417472
L2 0.4885578281044043 0.8127379231353288 1.1294289271331595
L3 1.9919365067959327 2.7215171241921445 3.385294427160387
L2 185.86790582368843 709.9374287800932 1042.214454820686
Class 1 CertaintyDegree 1.0

L2 10.937253110813868 12.131001555684245 13.110196299960649
L2 0.7942230279667761 2.095663393929322 3.3951693065126194
L5 2.789612312695518 3.3140805876086885 3.810790418219507
L5 25.635387049191134 28.52504156461412 35.48585533883761
L3 87.76781627118912 117.14058623422297 141.57755321568033
L4 2.5166569039701367 3.274636422753453 3.9417718489999345
L5 4.145651199423332 5.293254344854482 6.5118847955782435
L4 0.3969253882034986 0.5423179098163853 0.6792887609576986
L3 1.1265804672402064 2.0379692027308183 2.964394407541638
L3 4.627316729696825 7.3023802398758715 10.414474304314217
L2 0.4885578281044043 0.8127379231353288 1.1294289271331595
L5 3.2525766850391453 4.1571533609350695 4.7691207669870455
L2 185.86790582368843 709.9374287800932 1042.214454820686
Class 1 CertaintyDegree 1.0

L2 10.937253110813868 12.131001555684245 13.110196299960649
L2 0.7942230279667761 2.095663393929322 3.3951693065126194
L5 2.789612312695518 3.3140805876086885 3.810790418219507
L5 25.635387049191134 28.52504156461412 35.48585533883761
L3 87.76781627118912 117.14058623422297 141.57755321568033
L4 2.5166569039701367 3.274636422753453 3.9417718489999345
L5 4.145651199423332 5.293254344854482 6.5118847955782435
L4 0.3969253882034986 0.5423179098163853 0.6792887609576986
L3 1.1265804672402064 2.0379692027308183 2.964394407541638
L3 4.627316729696825 7.3023802398758715 10.414474304314217
L2 0.4885578281044043 0.8127379231353288 1.1294289271331595
L5 3.2525766850391453 4.1571533609350695 4.7691207669870455
L2 185.86790582368843 709.9374287800932 1042.214454820686
Class 1 CertaintyDegree 1.0

L4 12.516131304612065 13.949467643571765 14.945588231731998
L2 0.7942230279667761 2.095663393929322 3.3951693065126194
L3 1.892882917865134 2.3925705346496575 2.8711134556130737
L2 9.653515127944582 15.853541428239549 20.32089181754876
L3 87.76781627118912 117.14058623422297 141.57755321568033
L4 2.5166569039701367 3.274636422753453 3.9417718489999345
L4 2.799729643472683 4.008324115636251 5.404619113591844
L2 0.1487899875759685 0.24578234539435415 0.4344682561427939
L3 1.1265804672402064 2.0379692027308183 2.964394407541638
L4 7.237414030886157 10.555047085806496 13.288564535462609
L3 0.7457937152881824 1.1150421518293654 1.4560596356780617
L3 1.9919365067959327 2.7215171241921445 3.385294427160387
L5 1332.0079684005755 1660.624313509651 2061.5230061814304
Class 0 CertaintyDegree 1.0

L4 12.516131304612065 13.949467643571765 14.945588231731998
L2 0.7942230279667761 2.095663393929322 3.3951693065126194
L3 1.892882917865134 2.3925705346496575 2.8711134556130737
L2 9.653515127944582 15.853541428239549 20.32089181754876
L2 69.28343370776169 95.99843377951113 123.81074553123064
L3 1.8044990894080373 2.5015511852509356 3.2978204464443195
L3 1.583983925717185 2.8984318061607133 4.02284451680985
L3 0.30055059237458553 0.40057892610299217 0.5552953328600793
L3 1.1265804672402064 2.0379692027308183 2.964394407541638
L2 1.0477654909551328 4.395041655920894 7.544248953343706
L3 0.7457937152881824 1.1150421518293654 1.4560596356780617
L3 1.9919365067959327 2.7215171241921445 3.385294427160387
L3 685.1526534005135 1010.4593051817806 1375.1874882796424
Class 0 CertaintyDegree 1.0

L4 12.516131304612065 13.949467643571765 14.945588231731998
L2 0.7942230279667761 2.095663393929322 3.3951693065126194
L3 1.892882917865134 2.3925705346496575 2.8711134556130737
L2 9.653515127944582 15.853541428239549 20.32089181754876
L2 69.28343370776169 95.99843377951113 123.81074553123064
L3 1.8044990894080373 2.5015511852509356 3.2978204464443195
L3 1.583983925717185 2.8984318061607133 4.02284451680985
L3 0.30055059237458553 0.40057892610299217 0.5552953328600793
L3 1.1265804672402064 2.0379692027308183 2.964394407541638
L2 1.0477654909551328 4.395041655920894 7.544248953343706
L3 0.7457937152881824 1.1150421518293654 1.4560596356780617
L3 1.9919365067959327 2.7215171241921445 3.385294427160387
L3 685.1526534005135 1010.4593051817806 1375.1874882796424
Class 0 CertaintyDegree 1.0

L2 10.937253110813868 12.131001555684245 13.110196299960649
L3 2.1969197085209458 3.041504932744118 4.7383722520024945
L3 1.892882917865134 2.3925705346496575 2.8711134556130737
L3 16.287815372438708 21.136824026781778 27.018657537277775
L2 69.28343370776169 95.99843377951113 123.81074553123064
L3 1.8044990894080373 2.5015511852509356 3.2978204464443195
L3 1.583983925717185 2.8984318061607133 4.02284451680985
L2 0.1487899875759685 0.24578234539435415 0.4344682561427939
L3 1.1265804672402064 2.0379692027308183 2.964394407541638
L1 -1.2450776955655003 1.5487014088211821 4.602730904417472
L3 0.7457937152881824 1.1150421518293654 1.4560596356780617
L4 2.691369292669379 3.3849116407143462 4.0268699760629625
L1 -98.01237828333933 333.89053443168496 705.1344515296967
Class 1 CertaintyDegree 1.0

L2 10.937253110813868 12.131001555684245 13.110196299960649
L3 2.1969197085209458 3.041504932744118 4.7383722520024945
L3 1.892882917865134 2.3925705346496575 2.8711134556130737
L3 16.287815372438708 21.136824026781778 27.018657537277775
L2 69.28343370776169 95.99843377951113 123.81074553123064
L3 1.8044990894080373 2.5015511852509356 3.2978204464443195
L3 1.583983925717185 2.8984318061607133 4.02284451680985
L2 0.1487899875759685 0.24578234539435415 0.4344682561427939
L3 1.1265804672402064 2.0379692027308183 2.964394407541638
L1 -1.2450776955655003 1.5487014088211821 4.602730904417472
L3 0.7457937152881824 1.1150421518293654 1.4560596356780617
L4 2.691369292669379 3.3849116407143462 4.0268699760629625
L1 -98.01237828333933 333.89053443168496 705.1344515296967
Class 1 CertaintyDegree 1.0



%Tra: 90.0 %Tst: 66.66666666666666
