Loading data set: mnist_uint8.mat
Setting parameters
==========================================================
* ReducedData	10000
* Training Parameters:
	-> Epochs	500
	-> LearningRate	0.20
==========================================================
Start Training
Number of training examples: 10000  BatchSize: 100
Number of inputs: 784  Number of outputs: 10
Number of hidden layers: 3 (200  200  200)
Training NN  (784  200  200  200   10) with BackPropagation for 500 epochs
 epoch 1/500. Took 0.50854 seconds. 
  Full-batch training loss = 0.280343, test loss = 0.307987
  Training set accuracy = 0.916400, Test set accuracy = 0.907400
 epoch 2/500. Took 0.50813 seconds. 
  Full-batch training loss = 0.148020, test loss = 0.198125
  Training set accuracy = 0.956500, Test set accuracy = 0.940900
 epoch 3/500. Took 0.50543 seconds. 
  Full-batch training loss = 0.101997, test loss = 0.190662
  Training set accuracy = 0.966400, Test set accuracy = 0.944800
 epoch 4/500. Took 0.50762 seconds. 
  Full-batch training loss = 0.078531, test loss = 0.194891
  Training set accuracy = 0.973700, Test set accuracy = 0.943800
 epoch 5/500. Took 0.50487 seconds. 
  Full-batch training loss = 0.060611, test loss = 0.188663
  Training set accuracy = 0.979500, Test set accuracy = 0.950900
 epoch 6/500. Took 0.50617 seconds. 
  Full-batch training loss = 0.057856, test loss = 0.208202
  Training set accuracy = 0.982600, Test set accuracy = 0.947000
 epoch 7/500. Took 0.50751 seconds. 
  Full-batch training loss = 0.094313, test loss = 0.266173
  Training set accuracy = 0.969900, Test set accuracy = 0.932400
 epoch 8/500. Took 0.50553 seconds. 
  Full-batch training loss = 0.043671, test loss = 0.221778
  Training set accuracy = 0.985400, Test set accuracy = 0.948000
 epoch 9/500. Took 0.50696 seconds. 
  Full-batch training loss = 0.029560, test loss = 0.225426
  Training set accuracy = 0.991200, Test set accuracy = 0.950500
 epoch 10/500. Took 0.50751 seconds. 
  Full-batch training loss = 0.038200, test loss = 0.244399
  Training set accuracy = 0.988000, Test set accuracy = 0.950600
 epoch 11/500. Took 0.50833 seconds. 
  Full-batch training loss = 0.028242, test loss = 0.230949
  Training set accuracy = 0.990900, Test set accuracy = 0.952800
 epoch 12/500. Took 0.50722 seconds. 
  Full-batch training loss = 0.080923, test loss = 0.324590
  Training set accuracy = 0.978600, Test set accuracy = 0.940000
 epoch 13/500. Took 0.5078 seconds. 
  Full-batch training loss = 0.005648, test loss = 0.198507
  Training set accuracy = 0.998600, Test set accuracy = 0.959000
 epoch 14/500. Took 0.50969 seconds. 
  Full-batch training loss = 0.001884, test loss = 0.193098
  Training set accuracy = 0.999500, Test set accuracy = 0.961500
 epoch 15/500. Took 0.50833 seconds. 
  Full-batch training loss = 0.000854, test loss = 0.205373
  Training set accuracy = 1.000000, Test set accuracy = 0.963800
 epoch 16/500. Took 0.50453 seconds. 
  Full-batch training loss = 0.000446, test loss = 0.204109
  Training set accuracy = 1.000000, Test set accuracy = 0.964700
 epoch 17/500. Took 0.50765 seconds. 
  Full-batch training loss = 0.000256, test loss = 0.203350
  Training set accuracy = 1.000000, Test set accuracy = 0.965300
 epoch 18/500. Took 0.50485 seconds. 
  Full-batch training loss = 0.000202, test loss = 0.206966
  Training set accuracy = 1.000000, Test set accuracy = 0.965800
 epoch 19/500. Took 0.50744 seconds. 
  Full-batch training loss = 0.000173, test loss = 0.208712
  Training set accuracy = 1.000000, Test set accuracy = 0.966000
 epoch 20/500. Took 0.50854 seconds. 
  Full-batch training loss = 0.000144, test loss = 0.210683
  Training set accuracy = 1.000000, Test set accuracy = 0.965900
 epoch 21/500. Took 0.50272 seconds. 
  Full-batch training loss = 0.000127, test loss = 0.212805
  Training set accuracy = 1.000000, Test set accuracy = 0.965800
 epoch 22/500. Took 0.50507 seconds. 
  Full-batch training loss = 0.000113, test loss = 0.214673
  Training set accuracy = 1.000000, Test set accuracy = 0.965700
 epoch 23/500. Took 0.50506 seconds. 
  Full-batch training loss = 0.000101, test loss = 0.216054
  Training set accuracy = 1.000000, Test set accuracy = 0.965700
 epoch 24/500. Took 0.50735 seconds. 
  Full-batch training loss = 0.000092, test loss = 0.217925
  Training set accuracy = 1.000000, Test set accuracy = 0.965500
 epoch 25/500. Took 0.50932 seconds. 
  Full-batch training loss = 0.000085, test loss = 0.219384
  Training set accuracy = 1.000000, Test set accuracy = 0.965500
 epoch 26/500. Took 0.50584 seconds. 
  Full-batch training loss = 0.000078, test loss = 0.220719
  Training set accuracy = 1.000000, Test set accuracy = 0.965700
 epoch 27/500. Took 0.50724 seconds. 
  Full-batch training loss = 0.000072, test loss = 0.221992
  Training set accuracy = 1.000000, Test set accuracy = 0.965900
 epoch 28/500. Took 0.51084 seconds. 
  Full-batch training loss = 0.000067, test loss = 0.223166
  Training set accuracy = 1.000000, Test set accuracy = 0.965900
 epoch 29/500. Took 0.50443 seconds. 
  Full-batch training loss = 0.000063, test loss = 0.224237
  Training set accuracy = 1.000000, Test set accuracy = 0.965800
 epoch 30/500. Took 0.51034 seconds. 
  Full-batch training loss = 0.000059, test loss = 0.225364
  Training set accuracy = 1.000000, Test set accuracy = 0.965800
 epoch 31/500. Took 0.50804 seconds. 
  Full-batch training loss = 0.000056, test loss = 0.226407
  Training set accuracy = 1.000000, Test set accuracy = 0.965800
 epoch 32/500. Took 0.50717 seconds. 
  Full-batch training loss = 0.000053, test loss = 0.227386
  Training set accuracy = 1.000000, Test set accuracy = 0.965700
 epoch 33/500. Took 0.50822 seconds. 
  Full-batch training loss = 0.000050, test loss = 0.228270
  Training set accuracy = 1.000000, Test set accuracy = 0.965600
 epoch 34/500. Took 0.51103 seconds. 
  Full-batch training loss = 0.000048, test loss = 0.229083
  Training set accuracy = 1.000000, Test set accuracy = 0.965700
 epoch 35/500. Took 0.51091 seconds. 
  Full-batch training loss = 0.000045, test loss = 0.230030
  Training set accuracy = 1.000000, Test set accuracy = 0.965400
 epoch 36/500. Took 0.51005 seconds. 
  Full-batch training loss = 0.000043, test loss = 0.230870
  Training set accuracy = 1.000000, Test set accuracy = 0.965400
 epoch 37/500. Took 0.50657 seconds. 
  Full-batch training loss = 0.000042, test loss = 0.231710
  Training set accuracy = 1.000000, Test set accuracy = 0.965400
 epoch 38/500. Took 0.50951 seconds. 
  Full-batch training loss = 0.000040, test loss = 0.232503
  Training set accuracy = 1.000000, Test set accuracy = 0.965400
 epoch 39/500. Took 0.56825 seconds. 
  Full-batch training loss = 0.000038, test loss = 0.233204
  Training set accuracy = 1.000000, Test set accuracy = 0.965400
 epoch 40/500. Took 0.51797 seconds. 
  Full-batch training loss = 0.000037, test loss = 0.233864
  Training set accuracy = 1.000000, Test set accuracy = 0.965400
 epoch 41/500. Took 0.51192 seconds. 
  Full-batch training loss = 0.000035, test loss = 0.234574
  Training set accuracy = 1.000000, Test set accuracy = 0.965500
 epoch 42/500. Took 0.51088 seconds. 
  Full-batch training loss = 0.000034, test loss = 0.235231
  Training set accuracy = 1.000000, Test set accuracy = 0.965500
 epoch 43/500. Took 0.5151 seconds. 
  Full-batch training loss = 0.000033, test loss = 0.235870
  Training set accuracy = 1.000000, Test set accuracy = 0.965500
 epoch 44/500. Took 0.5155 seconds. 
  Full-batch training loss = 0.000032, test loss = 0.236576
  Training set accuracy = 1.000000, Test set accuracy = 0.965500
 epoch 45/500. Took 0.51209 seconds. 
  Full-batch training loss = 0.000031, test loss = 0.237136
  Training set accuracy = 1.000000, Test set accuracy = 0.965500
 epoch 46/500. Took 0.51334 seconds. 
  Full-batch training loss = 0.000030, test loss = 0.237663
  Training set accuracy = 1.000000, Test set accuracy = 0.965600
 epoch 47/500. Took 0.51451 seconds. 
  Full-batch training loss = 0.000029, test loss = 0.238332
  Training set accuracy = 1.000000, Test set accuracy = 0.965500
 epoch 48/500. Took 0.51305 seconds. 
  Full-batch training loss = 0.000028, test loss = 0.238857
  Training set accuracy = 1.000000, Test set accuracy = 0.965500
 epoch 49/500. Took 0.51302 seconds. 
  Full-batch training loss = 0.000027, test loss = 0.239480
  Training set accuracy = 1.000000, Test set accuracy = 0.965500
 epoch 50/500. Took 0.51349 seconds. 
  Full-batch training loss = 0.000026, test loss = 0.239967
  Training set accuracy = 1.000000, Test set accuracy = 0.965600
 epoch 51/500. Took 0.51072 seconds. 
  Full-batch training loss = 0.000026, test loss = 0.240517
  Training set accuracy = 1.000000, Test set accuracy = 0.965500
 epoch 52/500. Took 0.5123 seconds. 
  Full-batch training loss = 0.000025, test loss = 0.240998
  Training set accuracy = 1.000000, Test set accuracy = 0.965700
 epoch 53/500. Took 0.51105 seconds. 
  Full-batch training loss = 0.000024, test loss = 0.241523
  Training set accuracy = 1.000000, Test set accuracy = 0.965700
 epoch 54/500. Took 0.51186 seconds. 
  Full-batch training loss = 0.000024, test loss = 0.242087
  Training set accuracy = 1.000000, Test set accuracy = 0.965500
 epoch 55/500. Took 0.51187 seconds. 
  Full-batch training loss = 0.000023, test loss = 0.242569
  Training set accuracy = 1.000000, Test set accuracy = 0.965600
 epoch 56/500. Took 0.51535 seconds. 
  Full-batch training loss = 0.000023, test loss = 0.243006
  Training set accuracy = 1.000000, Test set accuracy = 0.965700
 epoch 57/500. Took 0.51175 seconds. 
  Full-batch training loss = 0.000022, test loss = 0.243472
  Training set accuracy = 1.000000, Test set accuracy = 0.965800
 epoch 58/500. Took 0.5095 seconds. 
  Full-batch training loss = 0.000022, test loss = 0.243919
  Training set accuracy = 1.000000, Test set accuracy = 0.965800
 epoch 59/500. Took 0.51545 seconds. 
  Full-batch training loss = 0.000021, test loss = 0.244321
  Training set accuracy = 1.000000, Test set accuracy = 0.965800
 epoch 60/500. Took 0.50982 seconds. 
  Full-batch training loss = 0.000021, test loss = 0.244792
  Training set accuracy = 1.000000, Test set accuracy = 0.965800
 epoch 61/500. Took 0.51347 seconds. 
  Full-batch training loss = 0.000020, test loss = 0.245193
  Training set accuracy = 1.000000, Test set accuracy = 0.965800
 epoch 62/500. Took 0.51232 seconds. 
  Full-batch training loss = 0.000020, test loss = 0.245649
  Training set accuracy = 1.000000, Test set accuracy = 0.965900
 epoch 63/500. Took 0.51008 seconds. 
  Full-batch training loss = 0.000019, test loss = 0.246019
  Training set accuracy = 1.000000, Test set accuracy = 0.965800
 epoch 64/500. Took 0.50929 seconds. 
  Full-batch training loss = 0.000019, test loss = 0.246434
  Training set accuracy = 1.000000, Test set accuracy = 0.965900
 epoch 65/500. Took 0.51201 seconds. 
  Full-batch training loss = 0.000018, test loss = 0.246783
  Training set accuracy = 1.000000, Test set accuracy = 0.966000
 epoch 66/500. Took 0.51325 seconds. 
  Full-batch training loss = 0.000018, test loss = 0.247208
  Training set accuracy = 1.000000, Test set accuracy = 0.966000
 epoch 67/500. Took 0.5137 seconds. 
  Full-batch training loss = 0.000018, test loss = 0.247594
  Training set accuracy = 1.000000, Test set accuracy = 0.966000
 epoch 68/500. Took 0.51384 seconds. 
  Full-batch training loss = 0.000017, test loss = 0.247968
  Training set accuracy = 1.000000, Test set accuracy = 0.966000
 epoch 69/500. Took 0.51176 seconds. 
  Full-batch training loss = 0.000017, test loss = 0.248314
  Training set accuracy = 1.000000, Test set accuracy = 0.966000
 epoch 70/500. Took 0.51139 seconds. 
  Full-batch training loss = 0.000017, test loss = 0.248662
  Training set accuracy = 1.000000, Test set accuracy = 0.966000
 epoch 71/500. Took 0.51501 seconds. 
  Full-batch training loss = 0.000016, test loss = 0.249016
  Training set accuracy = 1.000000, Test set accuracy = 0.966100
 epoch 72/500. Took 0.51299 seconds. 
  Full-batch training loss = 0.000016, test loss = 0.249318
  Training set accuracy = 1.000000, Test set accuracy = 0.966100
 epoch 73/500. Took 0.51175 seconds. 
  Full-batch training loss = 0.000016, test loss = 0.249686
  Training set accuracy = 1.000000, Test set accuracy = 0.966100
 epoch 74/500. Took 0.51166 seconds. 
  Full-batch training loss = 0.000016, test loss = 0.250056
  Training set accuracy = 1.000000, Test set accuracy = 0.966100
 epoch 75/500. Took 0.51117 seconds. 
  Full-batch training loss = 0.000015, test loss = 0.250374
  Training set accuracy = 1.000000, Test set accuracy = 0.966100
 epoch 76/500. Took 0.51219 seconds. 
  Full-batch training loss = 0.000015, test loss = 0.250679
  Training set accuracy = 1.000000, Test set accuracy = 0.966100
 epoch 77/500. Took 0.51282 seconds. 
  Full-batch training loss = 0.000015, test loss = 0.251033
  Training set accuracy = 1.000000, Test set accuracy = 0.966100
 epoch 78/500. Took 0.50701 seconds. 
  Full-batch training loss = 0.000015, test loss = 0.251332
  Training set accuracy = 1.000000, Test set accuracy = 0.966100
 epoch 79/500. Took 0.51111 seconds. 
  Full-batch training loss = 0.000014, test loss = 0.251671
  Training set accuracy = 1.000000, Test set accuracy = 0.966100
 epoch 80/500. Took 0.51121 seconds. 
  Full-batch training loss = 0.000014, test loss = 0.251964
  Training set accuracy = 1.000000, Test set accuracy = 0.966100
 epoch 81/500. Took 0.51212 seconds. 
  Full-batch training loss = 0.000014, test loss = 0.252244
  Training set accuracy = 1.000000, Test set accuracy = 0.966100
 epoch 82/500. Took 0.51704 seconds. 
  Full-batch training loss = 0.000014, test loss = 0.252555
  Training set accuracy = 1.000000, Test set accuracy = 0.966100
 epoch 83/500. Took 0.51103 seconds. 
  Full-batch training loss = 0.000013, test loss = 0.252886
  Training set accuracy = 1.000000, Test set accuracy = 0.966200
 epoch 84/500. Took 0.51211 seconds. 
  Full-batch training loss = 0.000013, test loss = 0.253185
  Training set accuracy = 1.000000, Test set accuracy = 0.966200
 epoch 85/500. Took 0.51223 seconds. 
  Full-batch training loss = 0.000013, test loss = 0.253487
  Training set accuracy = 1.000000, Test set accuracy = 0.966200
 epoch 86/500. Took 0.51344 seconds. 
  Full-batch training loss = 0.000013, test loss = 0.253743
  Training set accuracy = 1.000000, Test set accuracy = 0.966200
 epoch 87/500. Took 0.51303 seconds. 
  Full-batch training loss = 0.000013, test loss = 0.254063
  Training set accuracy = 1.000000, Test set accuracy = 0.966200
 epoch 88/500. Took 0.51142 seconds. 
  Full-batch training loss = 0.000012, test loss = 0.254284
  Training set accuracy = 1.000000, Test set accuracy = 0.966200
 epoch 89/500. Took 0.50991 seconds. 
  Full-batch training loss = 0.000012, test loss = 0.254589
  Training set accuracy = 1.000000, Test set accuracy = 0.966200
 epoch 90/500. Took 0.51293 seconds. 
  Full-batch training loss = 0.000012, test loss = 0.254868
  Training set accuracy = 1.000000, Test set accuracy = 0.966200
 epoch 91/500. Took 0.51283 seconds. 
  Full-batch training loss = 0.000012, test loss = 0.255113
  Training set accuracy = 1.000000, Test set accuracy = 0.966200
 epoch 92/500. Took 0.51455 seconds. 
  Full-batch training loss = 0.000012, test loss = 0.255375
  Training set accuracy = 1.000000, Test set accuracy = 0.966200
 epoch 93/500. Took 0.51102 seconds. 
  Full-batch training loss = 0.000012, test loss = 0.255640
  Training set accuracy = 1.000000, Test set accuracy = 0.966200
 epoch 94/500. Took 0.51365 seconds. 
  Full-batch training loss = 0.000012, test loss = 0.255900
  Training set accuracy = 1.000000, Test set accuracy = 0.966200
 epoch 95/500. Took 0.51303 seconds. 
  Full-batch training loss = 0.000011, test loss = 0.256155
  Training set accuracy = 1.000000, Test set accuracy = 0.966200
 epoch 96/500. Took 0.51235 seconds. 
  Full-batch training loss = 0.000011, test loss = 0.256397
  Training set accuracy = 1.000000, Test set accuracy = 0.966200
 epoch 97/500. Took 0.5142 seconds. 
  Full-batch training loss = 0.000011, test loss = 0.256666
  Training set accuracy = 1.000000, Test set accuracy = 0.966200
 epoch 98/500. Took 0.51424 seconds. 
  Full-batch training loss = 0.000011, test loss = 0.256917
  Training set accuracy = 1.000000, Test set accuracy = 0.966200
 epoch 99/500. Took 0.51481 seconds. 
  Full-batch training loss = 0.000011, test loss = 0.257137
  Training set accuracy = 1.000000, Test set accuracy = 0.966200
 epoch 100/500. Took 0.51274 seconds. 
  Full-batch training loss = 0.000011, test loss = 0.257400
  Training set accuracy = 1.000000, Test set accuracy = 0.966200
 epoch 101/500. Took 0.51143 seconds. 
  Full-batch training loss = 0.000011, test loss = 0.257631
  Training set accuracy = 1.000000, Test set accuracy = 0.966100
 epoch 102/500. Took 0.51293 seconds. 
  Full-batch training loss = 0.000010, test loss = 0.257880
  Training set accuracy = 1.000000, Test set accuracy = 0.966100
 epoch 103/500. Took 0.51404 seconds. 
  Full-batch training loss = 0.000010, test loss = 0.258110
  Training set accuracy = 1.000000, Test set accuracy = 0.966100
 epoch 104/500. Took 0.51196 seconds. 
  Full-batch training loss = 0.000010, test loss = 0.258345
  Training set accuracy = 1.000000, Test set accuracy = 0.966100
 epoch 105/500. Took 0.51122 seconds. 
  Full-batch training loss = 0.000010, test loss = 0.258576
  Training set accuracy = 1.000000, Test set accuracy = 0.966100
 epoch 106/500. Took 0.51485 seconds. 
  Full-batch training loss = 0.000010, test loss = 0.258789
  Training set accuracy = 1.000000, Test set accuracy = 0.966100
 epoch 107/500. Took 0.51364 seconds. 
  Full-batch training loss = 0.000010, test loss = 0.259043
  Training set accuracy = 1.000000, Test set accuracy = 0.966100
 epoch 108/500. Took 0.51755 seconds. 
  Full-batch training loss = 0.000010, test loss = 0.259290
  Training set accuracy = 1.000000, Test set accuracy = 0.966100
 epoch 109/500. Took 0.5086 seconds. 
  Full-batch training loss = 0.000010, test loss = 0.259487
  Training set accuracy = 1.000000, Test set accuracy = 0.966100
 epoch 110/500. Took 0.51039 seconds. 
  Full-batch training loss = 0.000009, test loss = 0.259729
  Training set accuracy = 1.000000, Test set accuracy = 0.966100
 epoch 111/500. Took 0.51455 seconds. 
  Full-batch training loss = 0.000009, test loss = 0.259919
  Training set accuracy = 1.000000, Test set accuracy = 0.966100
 epoch 112/500. Took 0.51124 seconds. 
  Full-batch training loss = 0.000009, test loss = 0.260167
  Training set accuracy = 1.000000, Test set accuracy = 0.966100
 epoch 113/500. Took 0.56933 seconds. 
  Full-batch training loss = 0.000009, test loss = 0.260368
  Training set accuracy = 1.000000, Test set accuracy = 0.966100
 epoch 114/500. Took 0.52924 seconds. 
  Full-batch training loss = 0.000009, test loss = 0.260558
  Training set accuracy = 1.000000, Test set accuracy = 0.966100
 epoch 115/500. Took 0.51092 seconds. 
  Full-batch training loss = 0.000009, test loss = 0.260793
  Training set accuracy = 1.000000, Test set accuracy = 0.966100
 epoch 116/500. Took 0.51247 seconds. 
  Full-batch training loss = 0.000009, test loss = 0.260988
  Training set accuracy = 1.000000, Test set accuracy = 0.966100
 epoch 117/500. Took 0.51306 seconds. 
  Full-batch training loss = 0.000009, test loss = 0.261194
  Training set accuracy = 1.000000, Test set accuracy = 0.966000
 epoch 118/500. Took 0.51125 seconds. 
  Full-batch training loss = 0.000009, test loss = 0.261386
  Training set accuracy = 1.000000, Test set accuracy = 0.966000
 epoch 119/500. Took 0.51234 seconds. 
  Full-batch training loss = 0.000009, test loss = 0.261587
  Training set accuracy = 1.000000, Test set accuracy = 0.966000
 epoch 120/500. Took 0.51541 seconds. 
  Full-batch training loss = 0.000009, test loss = 0.261763
  Training set accuracy = 1.000000, Test set accuracy = 0.966000
 epoch 121/500. Took 0.51228 seconds. 
  Full-batch training loss = 0.000008, test loss = 0.261952
  Training set accuracy = 1.000000, Test set accuracy = 0.966000
 epoch 122/500. Took 0.5121 seconds. 
  Full-batch training loss = 0.000008, test loss = 0.262181
  Training set accuracy = 1.000000, Test set accuracy = 0.966000
 epoch 123/500. Took 0.51158 seconds. 
  Full-batch training loss = 0.000008, test loss = 0.262358
  Training set accuracy = 1.000000, Test set accuracy = 0.966000
 epoch 124/500. Took 0.51399 seconds. 
  Full-batch training loss = 0.000008, test loss = 0.262531
  Training set accuracy = 1.000000, Test set accuracy = 0.966000
 epoch 125/500. Took 0.51222 seconds. 
  Full-batch training loss = 0.000008, test loss = 0.262738
  Training set accuracy = 1.000000, Test set accuracy = 0.966000
 epoch 126/500. Took 0.51528 seconds. 
  Full-batch training loss = 0.000008, test loss = 0.262915
  Training set accuracy = 1.000000, Test set accuracy = 0.966000
 epoch 127/500. Took 0.5131 seconds. 
  Full-batch training loss = 0.000008, test loss = 0.263113
  Training set accuracy = 1.000000, Test set accuracy = 0.966000
 epoch 128/500. Took 0.51209 seconds. 
  Full-batch training loss = 0.000008, test loss = 0.263293
  Training set accuracy = 1.000000, Test set accuracy = 0.966000
 epoch 129/500. Took 0.51557 seconds. 
  Full-batch training loss = 0.000008, test loss = 0.263501
  Training set accuracy = 1.000000, Test set accuracy = 0.966000
 epoch 130/500. Took 0.50939 seconds. 
  Full-batch training loss = 0.000008, test loss = 0.263662
  Training set accuracy = 1.000000, Test set accuracy = 0.966000
 epoch 131/500. Took 0.51141 seconds. 
  Full-batch training loss = 0.000008, test loss = 0.263843
  Training set accuracy = 1.000000, Test set accuracy = 0.966000
 epoch 132/500. Took 0.50895 seconds. 
  Full-batch training loss = 0.000008, test loss = 0.264020
  Training set accuracy = 1.000000, Test set accuracy = 0.966000
 epoch 133/500. Took 0.51212 seconds. 
  Full-batch training loss = 0.000008, test loss = 0.264188
  Training set accuracy = 1.000000, Test set accuracy = 0.966000
 epoch 134/500. Took 0.51351 seconds. 
  Full-batch training loss = 0.000007, test loss = 0.264376
  Training set accuracy = 1.000000, Test set accuracy = 0.966000
 epoch 135/500. Took 0.51512 seconds. 
  Full-batch training loss = 0.000007, test loss = 0.264548
  Training set accuracy = 1.000000, Test set accuracy = 0.966000
 epoch 136/500. Took 0.50871 seconds. 
  Full-batch training loss = 0.000007, test loss = 0.264711
  Training set accuracy = 1.000000, Test set accuracy = 0.966000
 epoch 137/500. Took 0.51207 seconds. 
  Full-batch training loss = 0.000007, test loss = 0.264896
  Training set accuracy = 1.000000, Test set accuracy = 0.966000
 epoch 138/500. Took 0.51139 seconds. 
  Full-batch training loss = 0.000007, test loss = 0.265055
  Training set accuracy = 1.000000, Test set accuracy = 0.965900
 epoch 139/500. Took 0.51201 seconds. 
  Full-batch training loss = 0.000007, test loss = 0.265219
  Training set accuracy = 1.000000, Test set accuracy = 0.965900
 epoch 140/500. Took 0.51327 seconds. 
  Full-batch training loss = 0.000007, test loss = 0.265398
  Training set accuracy = 1.000000, Test set accuracy = 0.965900
 epoch 141/500. Took 0.5102 seconds. 
  Full-batch training loss = 0.000007, test loss = 0.265529
  Training set accuracy = 1.000000, Test set accuracy = 0.965900
 epoch 142/500. Took 0.51292 seconds. 
  Full-batch training loss = 0.000007, test loss = 0.265707
  Training set accuracy = 1.000000, Test set accuracy = 0.965900
 epoch 143/500. Took 0.51454 seconds. 
  Full-batch training loss = 0.000007, test loss = 0.265876
  Training set accuracy = 1.000000, Test set accuracy = 0.965900
 epoch 144/500. Took 0.51284 seconds. 
  Full-batch training loss = 0.000007, test loss = 0.266032
  Training set accuracy = 1.000000, Test set accuracy = 0.965900
 epoch 145/500. Took 0.51424 seconds. 
  Full-batch training loss = 0.000007, test loss = 0.266208
  Training set accuracy = 1.000000, Test set accuracy = 0.965900
 epoch 146/500. Took 0.51108 seconds. 
  Full-batch training loss = 0.000007, test loss = 0.266370
  Training set accuracy = 1.000000, Test set accuracy = 0.965900
 epoch 147/500. Took 0.51105 seconds. 
  Full-batch training loss = 0.000007, test loss = 0.266531
  Training set accuracy = 1.000000, Test set accuracy = 0.965900
 epoch 148/500. Took 0.51074 seconds. 
  Full-batch training loss = 0.000007, test loss = 0.266683
  Training set accuracy = 1.000000, Test set accuracy = 0.965800
 epoch 149/500. Took 0.5118 seconds. 
  Full-batch training loss = 0.000007, test loss = 0.266832
  Training set accuracy = 1.000000, Test set accuracy = 0.965800
 epoch 150/500. Took 0.51444 seconds. 
  Full-batch training loss = 0.000007, test loss = 0.266990
  Training set accuracy = 1.000000, Test set accuracy = 0.965800
 epoch 151/500. Took 0.5109 seconds. 
  Full-batch training loss = 0.000006, test loss = 0.267139
  Training set accuracy = 1.000000, Test set accuracy = 0.965800
 epoch 152/500. Took 0.50858 seconds. 
  Full-batch training loss = 0.000006, test loss = 0.267309
  Training set accuracy = 1.000000, Test set accuracy = 0.965800
 epoch 153/500. Took 0.50961 seconds. 
  Full-batch training loss = 0.000006, test loss = 0.267461
  Training set accuracy = 1.000000, Test set accuracy = 0.965800
 epoch 154/500. Took 0.51028 seconds. 
  Full-batch training loss = 0.000006, test loss = 0.267602
  Training set accuracy = 1.000000, Test set accuracy = 0.965800
 epoch 155/500. Took 0.51427 seconds. 
  Full-batch training loss = 0.000006, test loss = 0.267747
  Training set accuracy = 1.000000, Test set accuracy = 0.965800
 epoch 156/500. Took 0.51106 seconds. 
  Full-batch training loss = 0.000006, test loss = 0.267887
  Training set accuracy = 1.000000, Test set accuracy = 0.965800
 epoch 157/500. Took 0.50965 seconds. 
  Full-batch training loss = 0.000006, test loss = 0.268037
  Training set accuracy = 1.000000, Test set accuracy = 0.965800
 epoch 158/500. Took 0.51347 seconds. 
  Full-batch training loss = 0.000006, test loss = 0.268175
  Training set accuracy = 1.000000, Test set accuracy = 0.965900
 epoch 159/500. Took 0.51091 seconds. 
  Full-batch training loss = 0.000006, test loss = 0.268318
  Training set accuracy = 1.000000, Test set accuracy = 0.965900
 epoch 160/500. Took 0.51161 seconds. 
  Full-batch training loss = 0.000006, test loss = 0.268467
  Training set accuracy = 1.000000, Test set accuracy = 0.965900
 epoch 161/500. Took 0.51182 seconds. 
  Full-batch training loss = 0.000006, test loss = 0.268589
  Training set accuracy = 1.000000, Test set accuracy = 0.965800
 epoch 162/500. Took 0.50997 seconds. 
  Full-batch training loss = 0.000006, test loss = 0.268758
  Training set accuracy = 1.000000, Test set accuracy = 0.965800
 epoch 163/500. Took 0.5151 seconds. 
  Full-batch training loss = 0.000006, test loss = 0.268889
  Training set accuracy = 1.000000, Test set accuracy = 0.965800
 epoch 164/500. Took 0.51157 seconds. 
  Full-batch training loss = 0.000006, test loss = 0.269045
  Training set accuracy = 1.000000, Test set accuracy = 0.965800
 epoch 165/500. Took 0.5114 seconds. 
  Full-batch training loss = 0.000006, test loss = 0.269176
  Training set accuracy = 1.000000, Test set accuracy = 0.965800
 epoch 166/500. Took 0.51103 seconds. 
  Full-batch training loss = 0.000006, test loss = 0.269327
  Training set accuracy = 1.000000, Test set accuracy = 0.965800
 epoch 167/500. Took 0.51383 seconds. 
  Full-batch training loss = 0.000006, test loss = 0.269442
  Training set accuracy = 1.000000, Test set accuracy = 0.965800
 epoch 168/500. Took 0.50853 seconds. 
  Full-batch training loss = 0.000006, test loss = 0.269586
  Training set accuracy = 1.000000, Test set accuracy = 0.965800
 epoch 169/500. Took 0.51122 seconds. 
  Full-batch training loss = 0.000006, test loss = 0.269710
  Training set accuracy = 1.000000, Test set accuracy = 0.965800
 epoch 170/500. Took 0.51329 seconds. 
  Full-batch training loss = 0.000006, test loss = 0.269840
  Training set accuracy = 1.000000, Test set accuracy = 0.965800
 epoch 171/500. Took 0.51211 seconds. 
  Full-batch training loss = 0.000006, test loss = 0.269975
  Training set accuracy = 1.000000, Test set accuracy = 0.965900
 epoch 172/500. Took 0.51209 seconds. 
  Full-batch training loss = 0.000006, test loss = 0.270118
  Training set accuracy = 1.000000, Test set accuracy = 0.965900
 epoch 173/500. Took 0.51075 seconds. 
  Full-batch training loss = 0.000006, test loss = 0.270259
  Training set accuracy = 1.000000, Test set accuracy = 0.965800
 epoch 174/500. Took 0.51252 seconds. 
  Full-batch training loss = 0.000005, test loss = 0.270376
  Training set accuracy = 1.000000, Test set accuracy = 0.965900
 epoch 175/500. Took 0.51051 seconds. 
  Full-batch training loss = 0.000005, test loss = 0.270506
  Training set accuracy = 1.000000, Test set accuracy = 0.965900
 epoch 176/500. Took 0.51449 seconds. 
  Full-batch training loss = 0.000005, test loss = 0.270636
  Training set accuracy = 1.000000, Test set accuracy = 0.965900
 epoch 177/500. Took 0.51128 seconds. 
  Full-batch training loss = 0.000005, test loss = 0.270764
  Training set accuracy = 1.000000, Test set accuracy = 0.965900
 epoch 178/500. Took 0.5121 seconds. 
  Full-batch training loss = 0.000005, test loss = 0.270886
  Training set accuracy = 1.000000, Test set accuracy = 0.965900
 epoch 179/500. Took 0.50969 seconds. 
  Full-batch training loss = 0.000005, test loss = 0.271021
  Training set accuracy = 1.000000, Test set accuracy = 0.966000
 epoch 180/500. Took 0.51355 seconds. 
  Full-batch training loss = 0.000005, test loss = 0.271133
  Training set accuracy = 1.000000, Test set accuracy = 0.965900
 epoch 181/500. Took 0.51601 seconds. 
  Full-batch training loss = 0.000005, test loss = 0.271264
  Training set accuracy = 1.000000, Test set accuracy = 0.965900
 epoch 182/500. Took 0.51211 seconds. 
  Full-batch training loss = 0.000005, test loss = 0.271397
  Training set accuracy = 1.000000, Test set accuracy = 0.965900
 epoch 183/500. Took 0.51235 seconds. 
  Full-batch training loss = 0.000005, test loss = 0.271519
  Training set accuracy = 1.000000, Test set accuracy = 0.965900
 epoch 184/500. Took 0.51062 seconds. 
  Full-batch training loss = 0.000005, test loss = 0.271642
  Training set accuracy = 1.000000, Test set accuracy = 0.965900
 epoch 185/500. Took 0.51279 seconds. 
  Full-batch training loss = 0.000005, test loss = 0.271764
  Training set accuracy = 1.000000, Test set accuracy = 0.965900
 epoch 186/500. Took 0.51075 seconds. 
  Full-batch training loss = 0.000005, test loss = 0.271897
  Training set accuracy = 1.000000, Test set accuracy = 0.965800
 epoch 187/500. Took 0.57051 seconds. 
  Full-batch training loss = 0.000005, test loss = 0.272003
  Training set accuracy = 1.000000, Test set accuracy = 0.965900
 epoch 188/500. Took 0.55884 seconds. 
  Full-batch training loss = 0.000005, test loss = 0.272127
  Training set accuracy = 1.000000, Test set accuracy = 0.965800
 epoch 189/500. Took 0.51282 seconds. 
  Full-batch training loss = 0.000005, test loss = 0.272248
  Training set accuracy = 1.000000, Test set accuracy = 0.965900
 epoch 190/500. Took 0.51226 seconds. 
  Full-batch training loss = 0.000005, test loss = 0.272373
  Training set accuracy = 1.000000, Test set accuracy = 0.965800
 epoch 191/500. Took 0.51023 seconds. 
  Full-batch training loss = 0.000005, test loss = 0.272482
  Training set accuracy = 1.000000, Test set accuracy = 0.965900
 epoch 192/500. Took 0.51104 seconds. 
  Full-batch training loss = 0.000005, test loss = 0.272599
  Training set accuracy = 1.000000, Test set accuracy = 0.965900
 epoch 193/500. Took 0.51158 seconds. 
  Full-batch training loss = 0.000005, test loss = 0.272717
  Training set accuracy = 1.000000, Test set accuracy = 0.965900
 epoch 194/500. Took 0.51246 seconds. 
  Full-batch training loss = 0.000005, test loss = 0.272842
  Training set accuracy = 1.000000, Test set accuracy = 0.965900
 epoch 195/500. Took 0.51543 seconds. 
  Full-batch training loss = 0.000005, test loss = 0.272952
  Training set accuracy = 1.000000, Test set accuracy = 0.965900
 epoch 196/500. Took 0.51131 seconds. 
  Full-batch training loss = 0.000005, test loss = 0.273064
  Training set accuracy = 1.000000, Test set accuracy = 0.965900
 epoch 197/500. Took 0.51123 seconds. 
  Full-batch training loss = 0.000005, test loss = 0.273180
  Training set accuracy = 1.000000, Test set accuracy = 0.965800
 epoch 198/500. Took 0.51124 seconds. 
  Full-batch training loss = 0.000005, test loss = 0.273286
  Training set accuracy = 1.000000, Test set accuracy = 0.965900
 epoch 199/500. Took 0.51243 seconds. 
  Full-batch training loss = 0.000005, test loss = 0.273396
  Training set accuracy = 1.000000, Test set accuracy = 0.965900
 epoch 200/500. Took 0.50965 seconds. 
  Full-batch training loss = 0.000005, test loss = 0.273521
  Training set accuracy = 1.000000, Test set accuracy = 0.965900
 epoch 201/500. Took 0.51189 seconds. 
  Full-batch training loss = 0.000005, test loss = 0.273637
  Training set accuracy = 1.000000, Test set accuracy = 0.965900
 epoch 202/500. Took 0.5114 seconds. 
  Full-batch training loss = 0.000005, test loss = 0.273733
  Training set accuracy = 1.000000, Test set accuracy = 0.965900
 epoch 203/500. Took 0.51314 seconds. 
  Full-batch training loss = 0.000005, test loss = 0.273849
  Training set accuracy = 1.000000, Test set accuracy = 0.965900
 epoch 204/500. Took 0.51284 seconds. 
  Full-batch training loss = 0.000005, test loss = 0.273966
  Training set accuracy = 1.000000, Test set accuracy = 0.965900
 epoch 205/500. Took 0.51206 seconds. 
  Full-batch training loss = 0.000005, test loss = 0.274070
  Training set accuracy = 1.000000, Test set accuracy = 0.965900
 epoch 206/500. Took 0.51031 seconds. 
  Full-batch training loss = 0.000005, test loss = 0.274167
  Training set accuracy = 1.000000, Test set accuracy = 0.965900
 epoch 207/500. Took 0.51452 seconds. 
  Full-batch training loss = 0.000004, test loss = 0.274289
  Training set accuracy = 1.000000, Test set accuracy = 0.965900
 epoch 208/500. Took 0.51045 seconds. 
  Full-batch training loss = 0.000004, test loss = 0.274397
  Training set accuracy = 1.000000, Test set accuracy = 0.965900
 epoch 209/500. Took 0.50858 seconds. 
  Full-batch training loss = 0.000004, test loss = 0.274506
  Training set accuracy = 1.000000, Test set accuracy = 0.965900
 epoch 210/500. Took 0.51011 seconds. 
  Full-batch training loss = 0.000004, test loss = 0.274607
  Training set accuracy = 1.000000, Test set accuracy = 0.965900
 epoch 211/500. Took 0.51094 seconds. 
  Full-batch training loss = 0.000004, test loss = 0.274716
  Training set accuracy = 1.000000, Test set accuracy = 0.966000
 epoch 212/500. Took 0.51176 seconds. 
  Full-batch training loss = 0.000004, test loss = 0.274819
  Training set accuracy = 1.000000, Test set accuracy = 0.966000
 epoch 213/500. Took 0.51335 seconds. 
  Full-batch training loss = 0.000004, test loss = 0.274923
  Training set accuracy = 1.000000, Test set accuracy = 0.966000
 epoch 214/500. Took 0.51056 seconds. 
  Full-batch training loss = 0.000004, test loss = 0.275037
  Training set accuracy = 1.000000, Test set accuracy = 0.966000
 epoch 215/500. Took 0.51423 seconds. 
  Full-batch training loss = 0.000004, test loss = 0.275136
  Training set accuracy = 1.000000, Test set accuracy = 0.966000
 epoch 216/500. Took 0.51161 seconds. 
  Full-batch training loss = 0.000004, test loss = 0.275241
  Training set accuracy = 1.000000, Test set accuracy = 0.966000
 epoch 217/500. Took 0.51004 seconds. 
  Full-batch training loss = 0.000004, test loss = 0.275343
  Training set accuracy = 1.000000, Test set accuracy = 0.966000
 epoch 218/500. Took 0.50828 seconds. 
  Full-batch training loss = 0.000004, test loss = 0.275448
  Training set accuracy = 1.000000, Test set accuracy = 0.966000
 epoch 219/500. Took 0.51312 seconds. 
  Full-batch training loss = 0.000004, test loss = 0.275544
  Training set accuracy = 1.000000, Test set accuracy = 0.966000
 epoch 220/500. Took 0.5093 seconds. 
  Full-batch training loss = 0.000004, test loss = 0.275645
  Training set accuracy = 1.000000, Test set accuracy = 0.965900
 epoch 221/500. Took 0.51441 seconds. 
  Full-batch training loss = 0.000004, test loss = 0.275753
  Training set accuracy = 1.000000, Test set accuracy = 0.965900
 epoch 222/500. Took 0.51332 seconds. 
  Full-batch training loss = 0.000004, test loss = 0.275852
  Training set accuracy = 1.000000, Test set accuracy = 0.965900
 epoch 223/500. Took 0.51625 seconds. 
  Full-batch training loss = 0.000004, test loss = 0.275943
  Training set accuracy = 1.000000, Test set accuracy = 0.965900
 epoch 224/500. Took 0.51153 seconds. 
  Full-batch training loss = 0.000004, test loss = 0.276046
  Training set accuracy = 1.000000, Test set accuracy = 0.965900
 epoch 225/500. Took 0.5134 seconds. 
  Full-batch training loss = 0.000004, test loss = 0.276136
  Training set accuracy = 1.000000, Test set accuracy = 0.965900
 epoch 226/500. Took 0.51294 seconds. 
  Full-batch training loss = 0.000004, test loss = 0.276222
  Training set accuracy = 1.000000, Test set accuracy = 0.965900
 epoch 227/500. Took 0.51188 seconds. 
  Full-batch training loss = 0.000004, test loss = 0.276331
  Training set accuracy = 1.000000, Test set accuracy = 0.965900
 epoch 228/500. Took 0.51313 seconds. 
  Full-batch training loss = 0.000004, test loss = 0.276434
  Training set accuracy = 1.000000, Test set accuracy = 0.965800
 epoch 229/500. Took 0.51263 seconds. 
  Full-batch training loss = 0.000004, test loss = 0.276527
  Training set accuracy = 1.000000, Test set accuracy = 0.965800
 epoch 230/500. Took 0.51361 seconds. 
  Full-batch training loss = 0.000004, test loss = 0.276627
  Training set accuracy = 1.000000, Test set accuracy = 0.965800
 epoch 231/500. Took 0.51534 seconds. 
  Full-batch training loss = 0.000004, test loss = 0.276730
  Training set accuracy = 1.000000, Test set accuracy = 0.965800
 epoch 232/500. Took 0.51403 seconds. 
  Full-batch training loss = 0.000004, test loss = 0.276813
  Training set accuracy = 1.000000, Test set accuracy = 0.965800
 epoch 233/500. Took 0.51846 seconds. 
  Full-batch training loss = 0.000004, test loss = 0.276916
  Training set accuracy = 1.000000, Test set accuracy = 0.965800
 epoch 234/500. Took 0.50943 seconds. 
  Full-batch training loss = 0.000004, test loss = 0.277008
  Training set accuracy = 1.000000, Test set accuracy = 0.965800
 epoch 235/500. Took 0.51368 seconds. 
  Full-batch training loss = 0.000004, test loss = 0.277103
  Training set accuracy = 1.000000, Test set accuracy = 0.965800
 epoch 236/500. Took 0.51402 seconds. 
  Full-batch training loss = 0.000004, test loss = 0.277195
  Training set accuracy = 1.000000, Test set accuracy = 0.965800
 epoch 237/500. Took 0.5103 seconds. 
  Full-batch training loss = 0.000004, test loss = 0.277279
  Training set accuracy = 1.000000, Test set accuracy = 0.965800
 epoch 238/500. Took 0.5109 seconds. 
  Full-batch training loss = 0.000004, test loss = 0.277384
  Training set accuracy = 1.000000, Test set accuracy = 0.965800
 epoch 239/500. Took 0.51127 seconds. 
  Full-batch training loss = 0.000004, test loss = 0.277467
  Training set accuracy = 1.000000, Test set accuracy = 0.965800
 epoch 240/500. Took 0.50961 seconds. 
  Full-batch training loss = 0.000004, test loss = 0.277566
  Training set accuracy = 1.000000, Test set accuracy = 0.965800
 epoch 241/500. Took 0.5098 seconds. 
  Full-batch training loss = 0.000004, test loss = 0.277655
  Training set accuracy = 1.000000, Test set accuracy = 0.965800
 epoch 242/500. Took 0.55123 seconds. 
  Full-batch training loss = 0.000004, test loss = 0.277750
  Training set accuracy = 1.000000, Test set accuracy = 0.965800
 epoch 243/500. Took 0.51386 seconds. 
  Full-batch training loss = 0.000004, test loss = 0.277846
  Training set accuracy = 1.000000, Test set accuracy = 0.965800
 epoch 244/500. Took 0.51556 seconds. 
  Full-batch training loss = 0.000004, test loss = 0.277927
  Training set accuracy = 1.000000, Test set accuracy = 0.965800
 epoch 245/500. Took 0.51349 seconds. 
  Full-batch training loss = 0.000004, test loss = 0.278016
  Training set accuracy = 1.000000, Test set accuracy = 0.965800
 epoch 246/500. Took 0.51467 seconds. 
  Full-batch training loss = 0.000004, test loss = 0.278103
  Training set accuracy = 1.000000, Test set accuracy = 0.965800
 epoch 247/500. Took 0.51289 seconds. 
  Full-batch training loss = 0.000004, test loss = 0.278188
  Training set accuracy = 1.000000, Test set accuracy = 0.965700
 epoch 248/500. Took 0.51258 seconds. 
  Full-batch training loss = 0.000004, test loss = 0.278280
  Training set accuracy = 1.000000, Test set accuracy = 0.965700
 epoch 249/500. Took 0.5141 seconds. 
  Full-batch training loss = 0.000004, test loss = 0.278385
  Training set accuracy = 1.000000, Test set accuracy = 0.965700
 epoch 250/500. Took 0.51393 seconds. 
  Full-batch training loss = 0.000004, test loss = 0.278463
  Training set accuracy = 1.000000, Test set accuracy = 0.965700
 epoch 251/500. Took 0.50927 seconds. 
  Full-batch training loss = 0.000004, test loss = 0.278559
  Training set accuracy = 1.000000, Test set accuracy = 0.965700
 epoch 252/500. Took 0.51268 seconds. 
  Full-batch training loss = 0.000004, test loss = 0.278625
  Training set accuracy = 1.000000, Test set accuracy = 0.965700
 epoch 253/500. Took 0.51181 seconds. 
  Full-batch training loss = 0.000004, test loss = 0.278719
  Training set accuracy = 1.000000, Test set accuracy = 0.965700
 epoch 254/500. Took 0.51552 seconds. 
  Full-batch training loss = 0.000004, test loss = 0.278821
  Training set accuracy = 1.000000, Test set accuracy = 0.965700
 epoch 255/500. Took 0.51069 seconds. 
  Full-batch training loss = 0.000004, test loss = 0.278916
  Training set accuracy = 1.000000, Test set accuracy = 0.965700
 epoch 256/500. Took 0.5109 seconds. 
  Full-batch training loss = 0.000004, test loss = 0.278992
  Training set accuracy = 1.000000, Test set accuracy = 0.965700
 epoch 257/500. Took 0.51143 seconds. 
  Full-batch training loss = 0.000003, test loss = 0.279063
  Training set accuracy = 1.000000, Test set accuracy = 0.965700
 epoch 258/500. Took 0.50986 seconds. 
  Full-batch training loss = 0.000003, test loss = 0.279139
  Training set accuracy = 1.000000, Test set accuracy = 0.965700
 epoch 259/500. Took 0.51491 seconds. 
  Full-batch training loss = 0.000003, test loss = 0.279241
  Training set accuracy = 1.000000, Test set accuracy = 0.965700
 epoch 260/500. Took 0.51009 seconds. 
  Full-batch training loss = 0.000003, test loss = 0.279324
  Training set accuracy = 1.000000, Test set accuracy = 0.965700
 epoch 261/500. Took 0.54292 seconds. 
  Full-batch training loss = 0.000003, test loss = 0.279410
  Training set accuracy = 1.000000, Test set accuracy = 0.965700
 epoch 262/500. Took 0.5606 seconds. 
  Full-batch training loss = 0.000003, test loss = 0.279489
  Training set accuracy = 1.000000, Test set accuracy = 0.965800
 epoch 263/500. Took 0.51478 seconds. 
  Full-batch training loss = 0.000003, test loss = 0.279577
  Training set accuracy = 1.000000, Test set accuracy = 0.965800
 epoch 264/500. Took 0.51468 seconds. 
  Full-batch training loss = 0.000003, test loss = 0.279660
  Training set accuracy = 1.000000, Test set accuracy = 0.965800
 epoch 265/500. Took 0.51142 seconds. 
  Full-batch training loss = 0.000003, test loss = 0.279749
  Training set accuracy = 1.000000, Test set accuracy = 0.965800
 epoch 266/500. Took 0.50942 seconds. 
  Full-batch training loss = 0.000003, test loss = 0.279827
  Training set accuracy = 1.000000, Test set accuracy = 0.965800
 epoch 267/500. Took 0.51146 seconds. 
  Full-batch training loss = 0.000003, test loss = 0.279908
  Training set accuracy = 1.000000, Test set accuracy = 0.965800
 epoch 268/500. Took 0.51117 seconds. 
  Full-batch training loss = 0.000003, test loss = 0.279978
  Training set accuracy = 1.000000, Test set accuracy = 0.965800
 epoch 269/500. Took 0.51134 seconds. 
  Full-batch training loss = 0.000003, test loss = 0.280067
  Training set accuracy = 1.000000, Test set accuracy = 0.965800
 epoch 270/500. Took 0.51396 seconds. 
  Full-batch training loss = 0.000003, test loss = 0.280163
  Training set accuracy = 1.000000, Test set accuracy = 0.965800
 epoch 271/500. Took 0.5119 seconds. 
  Full-batch training loss = 0.000003, test loss = 0.280243
  Training set accuracy = 1.000000, Test set accuracy = 0.965800
 epoch 272/500. Took 0.51115 seconds. 
  Full-batch training loss = 0.000003, test loss = 0.280327
  Training set accuracy = 1.000000, Test set accuracy = 0.965800
 epoch 273/500. Took 0.51431 seconds. 
  Full-batch training loss = 0.000003, test loss = 0.280392
  Training set accuracy = 1.000000, Test set accuracy = 0.965700
 epoch 274/500. Took 0.51381 seconds. 
  Full-batch training loss = 0.000003, test loss = 0.280487
  Training set accuracy = 1.000000, Test set accuracy = 0.965700
 epoch 275/500. Took 0.50931 seconds. 
  Full-batch training loss = 0.000003, test loss = 0.280558
  Training set accuracy = 1.000000, Test set accuracy = 0.965700
 epoch 276/500. Took 0.50791 seconds. 
  Full-batch training loss = 0.000003, test loss = 0.280641
  Training set accuracy = 1.000000, Test set accuracy = 0.965700
 epoch 277/500. Took 0.51173 seconds. 
  Full-batch training loss = 0.000003, test loss = 0.280721
  Training set accuracy = 1.000000, Test set accuracy = 0.965700
 epoch 278/500. Took 0.50875 seconds. 
  Full-batch training loss = 0.000003, test loss = 0.280803
  Training set accuracy = 1.000000, Test set accuracy = 0.965700
 epoch 279/500. Took 0.51335 seconds. 
  Full-batch training loss = 0.000003, test loss = 0.280886
  Training set accuracy = 1.000000, Test set accuracy = 0.965700
 epoch 280/500. Took 0.51522 seconds. 
  Full-batch training loss = 0.000003, test loss = 0.280951
  Training set accuracy = 1.000000, Test set accuracy = 0.965700
 epoch 281/500. Took 0.51197 seconds. 
  Full-batch training loss = 0.000003, test loss = 0.281042
  Training set accuracy = 1.000000, Test set accuracy = 0.965700
 epoch 282/500. Took 0.51299 seconds. 
  Full-batch training loss = 0.000003, test loss = 0.281119
  Training set accuracy = 1.000000, Test set accuracy = 0.965700
 epoch 283/500. Took 0.5116 seconds. 
  Full-batch training loss = 0.000003, test loss = 0.281195
  Training set accuracy = 1.000000, Test set accuracy = 0.965700
 epoch 284/500. Took 0.5117 seconds. 
  Full-batch training loss = 0.000003, test loss = 0.281275
  Training set accuracy = 1.000000, Test set accuracy = 0.965700
 epoch 285/500. Took 0.51371 seconds. 
  Full-batch training loss = 0.000003, test loss = 0.281342
  Training set accuracy = 1.000000, Test set accuracy = 0.965700
 epoch 286/500. Took 0.51497 seconds. 
  Full-batch training loss = 0.000003, test loss = 0.281423
  Training set accuracy = 1.000000, Test set accuracy = 0.965700
 epoch 287/500. Took 0.51172 seconds. 
  Full-batch training loss = 0.000003, test loss = 0.281497
  Training set accuracy = 1.000000, Test set accuracy = 0.965700
 epoch 288/500. Took 0.51086 seconds. 
  Full-batch training loss = 0.000003, test loss = 0.281577
  Training set accuracy = 1.000000, Test set accuracy = 0.965700
 epoch 289/500. Took 0.51259 seconds. 
  Full-batch training loss = 0.000003, test loss = 0.281655
  Training set accuracy = 1.000000, Test set accuracy = 0.965700
 epoch 290/500. Took 0.51865 seconds. 
  Full-batch training loss = 0.000003, test loss = 0.281728
  Training set accuracy = 1.000000, Test set accuracy = 0.965700
 epoch 291/500. Took 0.51081 seconds. 
  Full-batch training loss = 0.000003, test loss = 0.281800
  Training set accuracy = 1.000000, Test set accuracy = 0.965700
 epoch 292/500. Took 0.51244 seconds. 
  Full-batch training loss = 0.000003, test loss = 0.281874
  Training set accuracy = 1.000000, Test set accuracy = 0.965700
 epoch 293/500. Took 0.51701 seconds. 
  Full-batch training loss = 0.000003, test loss = 0.281949
  Training set accuracy = 1.000000, Test set accuracy = 0.965700
 epoch 294/500. Took 0.51319 seconds. 
  Full-batch training loss = 0.000003, test loss = 0.282018
  Training set accuracy = 1.000000, Test set accuracy = 0.965700
 epoch 295/500. Took 0.51475 seconds. 
  Full-batch training loss = 0.000003, test loss = 0.282110
  Training set accuracy = 1.000000, Test set accuracy = 0.965700
 epoch 296/500. Took 0.50986 seconds. 
  Full-batch training loss = 0.000003, test loss = 0.282176
  Training set accuracy = 1.000000, Test set accuracy = 0.965700
 epoch 297/500. Took 0.51254 seconds. 
  Full-batch training loss = 0.000003, test loss = 0.282252
  Training set accuracy = 1.000000, Test set accuracy = 0.965700
 epoch 298/500. Took 0.51375 seconds. 
  Full-batch training loss = 0.000003, test loss = 0.282319
  Training set accuracy = 1.000000, Test set accuracy = 0.965700
 epoch 299/500. Took 0.51285 seconds. 
  Full-batch training loss = 0.000003, test loss = 0.282395
  Training set accuracy = 1.000000, Test set accuracy = 0.965700
 epoch 300/500. Took 0.51055 seconds. 
  Full-batch training loss = 0.000003, test loss = 0.282459
  Training set accuracy = 1.000000, Test set accuracy = 0.965700
 epoch 301/500. Took 0.51393 seconds. 
  Full-batch training loss = 0.000003, test loss = 0.282527
  Training set accuracy = 1.000000, Test set accuracy = 0.965700
 epoch 302/500. Took 0.51491 seconds. 
  Full-batch training loss = 0.000003, test loss = 0.282602
  Training set accuracy = 1.000000, Test set accuracy = 0.965700
 epoch 303/500. Took 0.50965 seconds. 
  Full-batch training loss = 0.000003, test loss = 0.282675
  Training set accuracy = 1.000000, Test set accuracy = 0.965700
 epoch 304/500. Took 0.51356 seconds. 
  Full-batch training loss = 0.000003, test loss = 0.282748
  Training set accuracy = 1.000000, Test set accuracy = 0.965700
 epoch 305/500. Took 0.51268 seconds. 
  Full-batch training loss = 0.000003, test loss = 0.282823
  Training set accuracy = 1.000000, Test set accuracy = 0.965700
 epoch 306/500. Took 0.51597 seconds. 
  Full-batch training loss = 0.000003, test loss = 0.282890
  Training set accuracy = 1.000000, Test set accuracy = 0.965700
 epoch 307/500. Took 0.5126 seconds. 
  Full-batch training loss = 0.000003, test loss = 0.282959
  Training set accuracy = 1.000000, Test set accuracy = 0.965700
 epoch 308/500. Took 0.51229 seconds. 
  Full-batch training loss = 0.000003, test loss = 0.283023
  Training set accuracy = 1.000000, Test set accuracy = 0.965700
 epoch 309/500. Took 0.51235 seconds. 
  Full-batch training loss = 0.000003, test loss = 0.283098
  Training set accuracy = 1.000000, Test set accuracy = 0.965700
 epoch 310/500. Took 0.51085 seconds. 
  Full-batch training loss = 0.000003, test loss = 0.283166
  Training set accuracy = 1.000000, Test set accuracy = 0.965700
 epoch 311/500. Took 0.51246 seconds. 
  Full-batch training loss = 0.000003, test loss = 0.283245
  Training set accuracy = 1.000000, Test set accuracy = 0.965700
 epoch 312/500. Took 0.51532 seconds. 
  Full-batch training loss = 0.000003, test loss = 0.283305
  Training set accuracy = 1.000000, Test set accuracy = 0.965700
 epoch 313/500. Took 0.51094 seconds. 
  Full-batch training loss = 0.000003, test loss = 0.283377
  Training set accuracy = 1.000000, Test set accuracy = 0.965700
 epoch 314/500. Took 0.51046 seconds. 
  Full-batch training loss = 0.000003, test loss = 0.283456
  Training set accuracy = 1.000000, Test set accuracy = 0.965700
 epoch 315/500. Took 0.51413 seconds. 
  Full-batch training loss = 0.000003, test loss = 0.283521
  Training set accuracy = 1.000000, Test set accuracy = 0.965700
 epoch 316/500. Took 0.51424 seconds. 
  Full-batch training loss = 0.000003, test loss = 0.283597
  Training set accuracy = 1.000000, Test set accuracy = 0.965700
 epoch 317/500. Took 0.51192 seconds. 
  Full-batch training loss = 0.000003, test loss = 0.283661
  Training set accuracy = 1.000000, Test set accuracy = 0.965700
 epoch 318/500. Took 0.51308 seconds. 
  Full-batch training loss = 0.000003, test loss = 0.283724
  Training set accuracy = 1.000000, Test set accuracy = 0.965700
 epoch 319/500. Took 0.51193 seconds. 
  Full-batch training loss = 0.000003, test loss = 0.283791
  Training set accuracy = 1.000000, Test set accuracy = 0.965700
 epoch 320/500. Took 0.51171 seconds. 
  Full-batch training loss = 0.000003, test loss = 0.283856
  Training set accuracy = 1.000000, Test set accuracy = 0.965800
 epoch 321/500. Took 0.51404 seconds. 
  Full-batch training loss = 0.000003, test loss = 0.283913
  Training set accuracy = 1.000000, Test set accuracy = 0.965800
 epoch 322/500. Took 0.51137 seconds. 
  Full-batch training loss = 0.000003, test loss = 0.284007
  Training set accuracy = 1.000000, Test set accuracy = 0.965900
 epoch 323/500. Took 0.51149 seconds. 
  Full-batch training loss = 0.000003, test loss = 0.284072
  Training set accuracy = 1.000000, Test set accuracy = 0.965900
 epoch 324/500. Took 0.5162 seconds. 
  Full-batch training loss = 0.000003, test loss = 0.284139
  Training set accuracy = 1.000000, Test set accuracy = 0.965900
 epoch 325/500. Took 0.51214 seconds. 
  Full-batch training loss = 0.000003, test loss = 0.284205
  Training set accuracy = 1.000000, Test set accuracy = 0.965900
 epoch 326/500. Took 0.51378 seconds. 
  Full-batch training loss = 0.000003, test loss = 0.284281
  Training set accuracy = 1.000000, Test set accuracy = 0.965900
 epoch 327/500. Took 0.51225 seconds. 
  Full-batch training loss = 0.000003, test loss = 0.284333
  Training set accuracy = 1.000000, Test set accuracy = 0.965900
 epoch 328/500. Took 0.51173 seconds. 
  Full-batch training loss = 0.000003, test loss = 0.284406
  Training set accuracy = 1.000000, Test set accuracy = 0.965900
 epoch 329/500. Took 0.51558 seconds. 
  Full-batch training loss = 0.000003, test loss = 0.284465
  Training set accuracy = 1.000000, Test set accuracy = 0.965900
 epoch 330/500. Took 0.50944 seconds. 
  Full-batch training loss = 0.000003, test loss = 0.284541
  Training set accuracy = 1.000000, Test set accuracy = 0.965900
 epoch 331/500. Took 0.51366 seconds. 
  Full-batch training loss = 0.000003, test loss = 0.284594
  Training set accuracy = 1.000000, Test set accuracy = 0.965900
 epoch 332/500. Took 0.51464 seconds. 
  Full-batch training loss = 0.000003, test loss = 0.284662
  Training set accuracy = 1.000000, Test set accuracy = 0.965900
 epoch 333/500. Took 0.51277 seconds. 
  Full-batch training loss = 0.000003, test loss = 0.284734
  Training set accuracy = 1.000000, Test set accuracy = 0.965900
 epoch 334/500. Took 0.5124 seconds. 
  Full-batch training loss = 0.000003, test loss = 0.284793
  Training set accuracy = 1.000000, Test set accuracy = 0.965900
 epoch 335/500. Took 0.54197 seconds. 
  Full-batch training loss = 0.000003, test loss = 0.284857
  Training set accuracy = 1.000000, Test set accuracy = 0.965900
 epoch 336/500. Took 0.5603 seconds. 
  Full-batch training loss = 0.000003, test loss = 0.284920
  Training set accuracy = 1.000000, Test set accuracy = 0.965900
 epoch 337/500. Took 0.51378 seconds. 
  Full-batch training loss = 0.000003, test loss = 0.284981
  Training set accuracy = 1.000000, Test set accuracy = 0.965900
 epoch 338/500. Took 0.51331 seconds. 
  Full-batch training loss = 0.000003, test loss = 0.285049
  Training set accuracy = 1.000000, Test set accuracy = 0.965900
 epoch 339/500. Took 0.51366 seconds. 
  Full-batch training loss = 0.000003, test loss = 0.285122
  Training set accuracy = 1.000000, Test set accuracy = 0.965900
 epoch 340/500. Took 0.51116 seconds. 
  Full-batch training loss = 0.000003, test loss = 0.285177
  Training set accuracy = 1.000000, Test set accuracy = 0.965900
 epoch 341/500. Took 0.51273 seconds. 
  Full-batch training loss = 0.000003, test loss = 0.285241
  Training set accuracy = 1.000000, Test set accuracy = 0.965900
 epoch 342/500. Took 0.51095 seconds. 
  Full-batch training loss = 0.000003, test loss = 0.285302
  Training set accuracy = 1.000000, Test set accuracy = 0.965900
 epoch 343/500. Took 0.50968 seconds. 
  Full-batch training loss = 0.000003, test loss = 0.285369
  Training set accuracy = 1.000000, Test set accuracy = 0.965900
 epoch 344/500. Took 0.50968 seconds. 
  Full-batch training loss = 0.000003, test loss = 0.285430
  Training set accuracy = 1.000000, Test set accuracy = 0.965900
 epoch 345/500. Took 0.51138 seconds. 
  Full-batch training loss = 0.000003, test loss = 0.285493
  Training set accuracy = 1.000000, Test set accuracy = 0.966000
 epoch 346/500. Took 0.51072 seconds. 
  Full-batch training loss = 0.000003, test loss = 0.285559
  Training set accuracy = 1.000000, Test set accuracy = 0.966000
 epoch 347/500. Took 0.5136 seconds. 
  Full-batch training loss = 0.000002, test loss = 0.285622
  Training set accuracy = 1.000000, Test set accuracy = 0.966000
 epoch 348/500. Took 0.51183 seconds. 
  Full-batch training loss = 0.000002, test loss = 0.285676
  Training set accuracy = 1.000000, Test set accuracy = 0.966000
 epoch 349/500. Took 0.51151 seconds. 
  Full-batch training loss = 0.000002, test loss = 0.285745
  Training set accuracy = 1.000000, Test set accuracy = 0.966000
 epoch 350/500. Took 0.50938 seconds. 
  Full-batch training loss = 0.000002, test loss = 0.285802
  Training set accuracy = 1.000000, Test set accuracy = 0.966000
 epoch 351/500. Took 0.5122 seconds. 
  Full-batch training loss = 0.000002, test loss = 0.285864
  Training set accuracy = 1.000000, Test set accuracy = 0.966000
 epoch 352/500. Took 0.51432 seconds. 
  Full-batch training loss = 0.000002, test loss = 0.285921
  Training set accuracy = 1.000000, Test set accuracy = 0.966000
 epoch 353/500. Took 0.51463 seconds. 
  Full-batch training loss = 0.000002, test loss = 0.285993
  Training set accuracy = 1.000000, Test set accuracy = 0.966000
 epoch 354/500. Took 0.50847 seconds. 
  Full-batch training loss = 0.000002, test loss = 0.286048
  Training set accuracy = 1.000000, Test set accuracy = 0.966000
 epoch 355/500. Took 0.51064 seconds. 
  Full-batch training loss = 0.000002, test loss = 0.286111
  Training set accuracy = 1.000000, Test set accuracy = 0.966000
 epoch 356/500. Took 0.50719 seconds. 
  Full-batch training loss = 0.000002, test loss = 0.286171
  Training set accuracy = 1.000000, Test set accuracy = 0.966000
 epoch 357/500. Took 0.51217 seconds. 
  Full-batch training loss = 0.000002, test loss = 0.286231
  Training set accuracy = 1.000000, Test set accuracy = 0.966000
 epoch 358/500. Took 0.51334 seconds. 
  Full-batch training loss = 0.000002, test loss = 0.286296
  Training set accuracy = 1.000000, Test set accuracy = 0.966000
 epoch 359/500. Took 0.51383 seconds. 
  Full-batch training loss = 0.000002, test loss = 0.286360
  Training set accuracy = 1.000000, Test set accuracy = 0.966000
 epoch 360/500. Took 0.51499 seconds. 
  Full-batch training loss = 0.000002, test loss = 0.286412
  Training set accuracy = 1.000000, Test set accuracy = 0.966000
 epoch 361/500. Took 0.51669 seconds. 
  Full-batch training loss = 0.000002, test loss = 0.286477
  Training set accuracy = 1.000000, Test set accuracy = 0.966000
 epoch 362/500. Took 0.51317 seconds. 
  Full-batch training loss = 0.000002, test loss = 0.286541
  Training set accuracy = 1.000000, Test set accuracy = 0.966000
 epoch 363/500. Took 0.5129 seconds. 
  Full-batch training loss = 0.000002, test loss = 0.286589
  Training set accuracy = 1.000000, Test set accuracy = 0.966000
 epoch 364/500. Took 0.51308 seconds. 
  Full-batch training loss = 0.000002, test loss = 0.286650
  Training set accuracy = 1.000000, Test set accuracy = 0.966000
 epoch 365/500. Took 0.51062 seconds. 
  Full-batch training loss = 0.000002, test loss = 0.286716
  Training set accuracy = 1.000000, Test set accuracy = 0.966000
 epoch 366/500. Took 0.51255 seconds. 
  Full-batch training loss = 0.000002, test loss = 0.286774
  Training set accuracy = 1.000000, Test set accuracy = 0.966000
 epoch 367/500. Took 0.51299 seconds. 
  Full-batch training loss = 0.000002, test loss = 0.286832
  Training set accuracy = 1.000000, Test set accuracy = 0.966000
 epoch 368/500. Took 0.51102 seconds. 
  Full-batch training loss = 0.000002, test loss = 0.286891
  Training set accuracy = 1.000000, Test set accuracy = 0.966000
 epoch 369/500. Took 0.51267 seconds. 
  Full-batch training loss = 0.000002, test loss = 0.286945
  Training set accuracy = 1.000000, Test set accuracy = 0.966000
 epoch 370/500. Took 0.51304 seconds. 
  Full-batch training loss = 0.000002, test loss = 0.287006
  Training set accuracy = 1.000000, Test set accuracy = 0.966000
 epoch 371/500. Took 0.51289 seconds. 
  Full-batch training loss = 0.000002, test loss = 0.287059
  Training set accuracy = 1.000000, Test set accuracy = 0.966000
 epoch 372/500. Took 0.54578 seconds. 
  Full-batch training loss = 0.000002, test loss = 0.287117
  Training set accuracy = 1.000000, Test set accuracy = 0.966000
 epoch 373/500. Took 0.51479 seconds. 
  Full-batch training loss = 0.000002, test loss = 0.287182
  Training set accuracy = 1.000000, Test set accuracy = 0.966000
 epoch 374/500. Took 0.51453 seconds. 
  Full-batch training loss = 0.000002, test loss = 0.287236
  Training set accuracy = 1.000000, Test set accuracy = 0.966000
 epoch 375/500. Took 0.51406 seconds. 
  Full-batch training loss = 0.000002, test loss = 0.287297
  Training set accuracy = 1.000000, Test set accuracy = 0.966000
 epoch 376/500. Took 0.51415 seconds. 
  Full-batch training loss = 0.000002, test loss = 0.287352
  Training set accuracy = 1.000000, Test set accuracy = 0.966000
 epoch 377/500. Took 0.51112 seconds. 
  Full-batch training loss = 0.000002, test loss = 0.287413
  Training set accuracy = 1.000000, Test set accuracy = 0.966000
 epoch 378/500. Took 0.50939 seconds. 
  Full-batch training loss = 0.000002, test loss = 0.287474
  Training set accuracy = 1.000000, Test set accuracy = 0.966000
 epoch 379/500. Took 0.51243 seconds. 
  Full-batch training loss = 0.000002, test loss = 0.287525
  Training set accuracy = 1.000000, Test set accuracy = 0.966000
 epoch 380/500. Took 0.50995 seconds. 
  Full-batch training loss = 0.000002, test loss = 0.287580
  Training set accuracy = 1.000000, Test set accuracy = 0.966000
 epoch 381/500. Took 0.51295 seconds. 
  Full-batch training loss = 0.000002, test loss = 0.287637
  Training set accuracy = 1.000000, Test set accuracy = 0.966000
 epoch 382/500. Took 0.50936 seconds. 
  Full-batch training loss = 0.000002, test loss = 0.287690
  Training set accuracy = 1.000000, Test set accuracy = 0.966000
 epoch 383/500. Took 0.51056 seconds. 
  Full-batch training loss = 0.000002, test loss = 0.287756
  Training set accuracy = 1.000000, Test set accuracy = 0.966000
 epoch 384/500. Took 0.51627 seconds. 
  Full-batch training loss = 0.000002, test loss = 0.287811
  Training set accuracy = 1.000000, Test set accuracy = 0.966000
 epoch 385/500. Took 0.51025 seconds. 
  Full-batch training loss = 0.000002, test loss = 0.287863
  Training set accuracy = 1.000000, Test set accuracy = 0.966000
 epoch 386/500. Took 0.51096 seconds. 
  Full-batch training loss = 0.000002, test loss = 0.287917
  Training set accuracy = 1.000000, Test set accuracy = 0.966000
 epoch 387/500. Took 0.50991 seconds. 
  Full-batch training loss = 0.000002, test loss = 0.287974
  Training set accuracy = 1.000000, Test set accuracy = 0.966000
 epoch 388/500. Took 0.50946 seconds. 
  Full-batch training loss = 0.000002, test loss = 0.288030
  Training set accuracy = 1.000000, Test set accuracy = 0.966000
 epoch 389/500. Took 0.51265 seconds. 
  Full-batch training loss = 0.000002, test loss = 0.288079
  Training set accuracy = 1.000000, Test set accuracy = 0.966000
 epoch 390/500. Took 0.51068 seconds. 
  Full-batch training loss = 0.000002, test loss = 0.288138
  Training set accuracy = 1.000000, Test set accuracy = 0.966000
 epoch 391/500. Took 0.51106 seconds. 
  Full-batch training loss = 0.000002, test loss = 0.288194
  Training set accuracy = 1.000000, Test set accuracy = 0.966000
 epoch 392/500. Took 0.51289 seconds. 
  Full-batch training loss = 0.000002, test loss = 0.288249
  Training set accuracy = 1.000000, Test set accuracy = 0.966000
 epoch 393/500. Took 0.51016 seconds. 
  Full-batch training loss = 0.000002, test loss = 0.288306
  Training set accuracy = 1.000000, Test set accuracy = 0.966000
 epoch 394/500. Took 0.5105 seconds. 
  Full-batch training loss = 0.000002, test loss = 0.288363
  Training set accuracy = 1.000000, Test set accuracy = 0.966000
 epoch 395/500. Took 0.51188 seconds. 
  Full-batch training loss = 0.000002, test loss = 0.288411
  Training set accuracy = 1.000000, Test set accuracy = 0.966000
 epoch 396/500. Took 0.51353 seconds. 
  Full-batch training loss = 0.000002, test loss = 0.288469
  Training set accuracy = 1.000000, Test set accuracy = 0.966000
 epoch 397/500. Took 0.5114 seconds. 
  Full-batch training loss = 0.000002, test loss = 0.288527
  Training set accuracy = 1.000000, Test set accuracy = 0.966000
 epoch 398/500. Took 0.51242 seconds. 
  Full-batch training loss = 0.000002, test loss = 0.288576
  Training set accuracy = 1.000000, Test set accuracy = 0.966000
 epoch 399/500. Took 0.51427 seconds. 
  Full-batch training loss = 0.000002, test loss = 0.288624
  Training set accuracy = 1.000000, Test set accuracy = 0.966000
 epoch 400/500. Took 0.51586 seconds. 
  Full-batch training loss = 0.000002, test loss = 0.288688
  Training set accuracy = 1.000000, Test set accuracy = 0.966000
 epoch 401/500. Took 0.51307 seconds. 
  Full-batch training loss = 0.000002, test loss = 0.288739
  Training set accuracy = 1.000000, Test set accuracy = 0.966000
 epoch 402/500. Took 0.51219 seconds. 
  Full-batch training loss = 0.000002, test loss = 0.288795
  Training set accuracy = 1.000000, Test set accuracy = 0.966000
 epoch 403/500. Took 0.51593 seconds. 
  Full-batch training loss = 0.000002, test loss = 0.288843
  Training set accuracy = 1.000000, Test set accuracy = 0.966000
 epoch 404/500. Took 0.51288 seconds. 
  Full-batch training loss = 0.000002, test loss = 0.288895
  Training set accuracy = 1.000000, Test set accuracy = 0.966000
 epoch 405/500. Took 0.5142 seconds. 
  Full-batch training loss = 0.000002, test loss = 0.288952
  Training set accuracy = 1.000000, Test set accuracy = 0.966000
 epoch 406/500. Took 0.51069 seconds. 
  Full-batch training loss = 0.000002, test loss = 0.289002
  Training set accuracy = 1.000000, Test set accuracy = 0.966000
 epoch 407/500. Took 0.51115 seconds. 
  Full-batch training loss = 0.000002, test loss = 0.289058
  Training set accuracy = 1.000000, Test set accuracy = 0.966000
 epoch 408/500. Took 0.51221 seconds. 
  Full-batch training loss = 0.000002, test loss = 0.289111
  Training set accuracy = 1.000000, Test set accuracy = 0.966000
 epoch 409/500. Took 0.50947 seconds. 
  Full-batch training loss = 0.000002, test loss = 0.289161
  Training set accuracy = 1.000000, Test set accuracy = 0.966000
 epoch 410/500. Took 0.51422 seconds. 
  Full-batch training loss = 0.000002, test loss = 0.289212
  Training set accuracy = 1.000000, Test set accuracy = 0.966000
 epoch 411/500. Took 0.51066 seconds. 
  Full-batch training loss = 0.000002, test loss = 0.289268
  Training set accuracy = 1.000000, Test set accuracy = 0.966000
 epoch 412/500. Took 0.5101 seconds. 
  Full-batch training loss = 0.000002, test loss = 0.289324
  Training set accuracy = 1.000000, Test set accuracy = 0.966000
 epoch 413/500. Took 0.51053 seconds. 
  Full-batch training loss = 0.000002, test loss = 0.289373
  Training set accuracy = 1.000000, Test set accuracy = 0.966000
 epoch 414/500. Took 0.50987 seconds. 
  Full-batch training loss = 0.000002, test loss = 0.289425
  Training set accuracy = 1.000000, Test set accuracy = 0.966000
 epoch 415/500. Took 0.51302 seconds. 
  Full-batch training loss = 0.000002, test loss = 0.289480
  Training set accuracy = 1.000000, Test set accuracy = 0.966000
 epoch 416/500. Took 0.51026 seconds. 
  Full-batch training loss = 0.000002, test loss = 0.289534
  Training set accuracy = 1.000000, Test set accuracy = 0.966000
 epoch 417/500. Took 0.51103 seconds. 
  Full-batch training loss = 0.000002, test loss = 0.289587
  Training set accuracy = 1.000000, Test set accuracy = 0.966000
 epoch 418/500. Took 0.51175 seconds. 
  Full-batch training loss = 0.000002, test loss = 0.289639
  Training set accuracy = 1.000000, Test set accuracy = 0.966000
 epoch 419/500. Took 0.51181 seconds. 
  Full-batch training loss = 0.000002, test loss = 0.289691
  Training set accuracy = 1.000000, Test set accuracy = 0.966000
 epoch 420/500. Took 0.51318 seconds. 
  Full-batch training loss = 0.000002, test loss = 0.289742
  Training set accuracy = 1.000000, Test set accuracy = 0.966000
 epoch 421/500. Took 0.51068 seconds. 
  Full-batch training loss = 0.000002, test loss = 0.289788
  Training set accuracy = 1.000000, Test set accuracy = 0.966000
 epoch 422/500. Took 0.51025 seconds. 
  Full-batch training loss = 0.000002, test loss = 0.289843
  Training set accuracy = 1.000000, Test set accuracy = 0.966000
 epoch 423/500. Took 0.51144 seconds. 
  Full-batch training loss = 0.000002, test loss = 0.289887
  Training set accuracy = 1.000000, Test set accuracy = 0.966000
 epoch 424/500. Took 0.51449 seconds. 
  Full-batch training loss = 0.000002, test loss = 0.289944
  Training set accuracy = 1.000000, Test set accuracy = 0.966000
 epoch 425/500. Took 0.58515 seconds. 
  Full-batch training loss = 0.000002, test loss = 0.289997
  Training set accuracy = 1.000000, Test set accuracy = 0.966000
 epoch 426/500. Took 0.51647 seconds. 
  Full-batch training loss = 0.000002, test loss = 0.290045
  Training set accuracy = 1.000000, Test set accuracy = 0.966000
 epoch 427/500. Took 0.5146 seconds. 
  Full-batch training loss = 0.000002, test loss = 0.290090
  Training set accuracy = 1.000000, Test set accuracy = 0.966000
 epoch 428/500. Took 0.5133 seconds. 
  Full-batch training loss = 0.000002, test loss = 0.290139
  Training set accuracy = 1.000000, Test set accuracy = 0.966000
 epoch 429/500. Took 0.51967 seconds. 
  Full-batch training loss = 0.000002, test loss = 0.290195
  Training set accuracy = 1.000000, Test set accuracy = 0.966000
 epoch 430/500. Took 0.51321 seconds. 
  Full-batch training loss = 0.000002, test loss = 0.290239
  Training set accuracy = 1.000000, Test set accuracy = 0.966000
 epoch 431/500. Took 0.51378 seconds. 
  Full-batch training loss = 0.000002, test loss = 0.290292
  Training set accuracy = 1.000000, Test set accuracy = 0.966000
 epoch 432/500. Took 0.51206 seconds. 
  Full-batch training loss = 0.000002, test loss = 0.290339
  Training set accuracy = 1.000000, Test set accuracy = 0.966000
 epoch 433/500. Took 0.51422 seconds. 
  Full-batch training loss = 0.000002, test loss = 0.290398
  Training set accuracy = 1.000000, Test set accuracy = 0.966000
 epoch 434/500. Took 0.51036 seconds. 
  Full-batch training loss = 0.000002, test loss = 0.290445
  Training set accuracy = 1.000000, Test set accuracy = 0.966000
 epoch 435/500. Took 0.5146 seconds. 
  Full-batch training loss = 0.000002, test loss = 0.290495
  Training set accuracy = 1.000000, Test set accuracy = 0.966000
 epoch 436/500. Took 0.51546 seconds. 
  Full-batch training loss = 0.000002, test loss = 0.290542
  Training set accuracy = 1.000000, Test set accuracy = 0.966000
 epoch 437/500. Took 0.51227 seconds. 
  Full-batch training loss = 0.000002, test loss = 0.290590
  Training set accuracy = 1.000000, Test set accuracy = 0.966000
 epoch 438/500. Took 0.51311 seconds. 
  Full-batch training loss = 0.000002, test loss = 0.290638
  Training set accuracy = 1.000000, Test set accuracy = 0.966000
 epoch 439/500. Took 0.50947 seconds. 
  Full-batch training loss = 0.000002, test loss = 0.290689
  Training set accuracy = 1.000000, Test set accuracy = 0.966000
 epoch 440/500. Took 0.62976 seconds. 
  Full-batch training loss = 0.000002, test loss = 0.290738
  Training set accuracy = 1.000000, Test set accuracy = 0.966000
 epoch 441/500. Took 0.51392 seconds. 
  Full-batch training loss = 0.000002, test loss = 0.290783
  Training set accuracy = 1.000000, Test set accuracy = 0.966000
 epoch 442/500. Took 0.51036 seconds. 
  Full-batch training loss = 0.000002, test loss = 0.290835
  Training set accuracy = 1.000000, Test set accuracy = 0.966000
 epoch 443/500. Took 0.512 seconds. 
  Full-batch training loss = 0.000002, test loss = 0.290881
  Training set accuracy = 1.000000, Test set accuracy = 0.966000
 epoch 444/500. Took 0.51334 seconds. 
  Full-batch training loss = 0.000002, test loss = 0.290931
  Training set accuracy = 1.000000, Test set accuracy = 0.966000
 epoch 445/500. Took 0.52896 seconds. 
  Full-batch training loss = 0.000002, test loss = 0.290982
  Training set accuracy = 1.000000, Test set accuracy = 0.966000
 epoch 446/500. Took 0.53149 seconds. 
  Full-batch training loss = 0.000002, test loss = 0.291027
  Training set accuracy = 1.000000, Test set accuracy = 0.966000
 epoch 447/500. Took 0.5098 seconds. 
  Full-batch training loss = 0.000002, test loss = 0.291074
  Training set accuracy = 1.000000, Test set accuracy = 0.966000
 epoch 448/500. Took 0.51691 seconds. 
  Full-batch training loss = 0.000002, test loss = 0.291125
  Training set accuracy = 1.000000, Test set accuracy = 0.966000
 epoch 449/500. Took 0.51162 seconds. 
  Full-batch training loss = 0.000002, test loss = 0.291168
  Training set accuracy = 1.000000, Test set accuracy = 0.966000
 epoch 450/500. Took 0.51087 seconds. 
  Full-batch training loss = 0.000002, test loss = 0.291214
  Training set accuracy = 1.000000, Test set accuracy = 0.966000
 epoch 451/500. Took 0.51046 seconds. 
  Full-batch training loss = 0.000002, test loss = 0.291268
  Training set accuracy = 1.000000, Test set accuracy = 0.966100
 epoch 452/500. Took 0.50916 seconds. 
  Full-batch training loss = 0.000002, test loss = 0.291312
  Training set accuracy = 1.000000, Test set accuracy = 0.966100
 epoch 453/500. Took 0.51219 seconds. 
  Full-batch training loss = 0.000002, test loss = 0.291365
  Training set accuracy = 1.000000, Test set accuracy = 0.966100
 epoch 454/500. Took 0.51264 seconds. 
  Full-batch training loss = 0.000002, test loss = 0.291408
  Training set accuracy = 1.000000, Test set accuracy = 0.966100
 epoch 455/500. Took 0.51322 seconds. 
  Full-batch training loss = 0.000002, test loss = 0.291454
  Training set accuracy = 1.000000, Test set accuracy = 0.966100
 epoch 456/500. Took 0.51133 seconds. 
  Full-batch training loss = 0.000002, test loss = 0.291507
  Training set accuracy = 1.000000, Test set accuracy = 0.966100
 epoch 457/500. Took 0.5105 seconds. 
  Full-batch training loss = 0.000002, test loss = 0.291549
  Training set accuracy = 1.000000, Test set accuracy = 0.966100
 epoch 458/500. Took 0.5139 seconds. 
  Full-batch training loss = 0.000002, test loss = 0.291597
  Training set accuracy = 1.000000, Test set accuracy = 0.966100
 epoch 459/500. Took 0.51321 seconds. 
  Full-batch training loss = 0.000002, test loss = 0.291645
  Training set accuracy = 1.000000, Test set accuracy = 0.966100
 epoch 460/500. Took 0.51265 seconds. 
  Full-batch training loss = 0.000002, test loss = 0.291685
  Training set accuracy = 1.000000, Test set accuracy = 0.966100
 epoch 461/500. Took 0.51366 seconds. 
  Full-batch training loss = 0.000002, test loss = 0.291736
  Training set accuracy = 1.000000, Test set accuracy = 0.966100
 epoch 462/500. Took 0.51513 seconds. 
  Full-batch training loss = 0.000002, test loss = 0.291777
  Training set accuracy = 1.000000, Test set accuracy = 0.966100
 epoch 463/500. Took 0.51161 seconds. 
  Full-batch training loss = 0.000002, test loss = 0.291826
  Training set accuracy = 1.000000, Test set accuracy = 0.966100
 epoch 464/500. Took 0.5114 seconds. 
  Full-batch training loss = 0.000002, test loss = 0.291868
  Training set accuracy = 1.000000, Test set accuracy = 0.966100
 epoch 465/500. Took 0.51149 seconds. 
  Full-batch training loss = 0.000002, test loss = 0.291920
  Training set accuracy = 1.000000, Test set accuracy = 0.966100
 epoch 466/500. Took 0.51227 seconds. 
  Full-batch training loss = 0.000002, test loss = 0.291964
  Training set accuracy = 1.000000, Test set accuracy = 0.966100
 epoch 467/500. Took 0.51256 seconds. 
  Full-batch training loss = 0.000002, test loss = 0.292005
  Training set accuracy = 1.000000, Test set accuracy = 0.966100
 epoch 468/500. Took 0.51324 seconds. 
  Full-batch training loss = 0.000002, test loss = 0.292049
  Training set accuracy = 1.000000, Test set accuracy = 0.966100
 epoch 469/500. Took 0.5108 seconds. 
  Full-batch training loss = 0.000002, test loss = 0.292101
  Training set accuracy = 1.000000, Test set accuracy = 0.966100
 epoch 470/500. Took 0.51391 seconds. 
  Full-batch training loss = 0.000002, test loss = 0.292148
  Training set accuracy = 1.000000, Test set accuracy = 0.966100
 epoch 471/500. Took 0.51185 seconds. 
  Full-batch training loss = 0.000002, test loss = 0.292194
  Training set accuracy = 1.000000, Test set accuracy = 0.966100
 epoch 472/500. Took 0.51513 seconds. 
  Full-batch training loss = 0.000002, test loss = 0.292237
  Training set accuracy = 1.000000, Test set accuracy = 0.966100
 epoch 473/500. Took 0.51026 seconds. 
  Full-batch training loss = 0.000002, test loss = 0.292279
  Training set accuracy = 1.000000, Test set accuracy = 0.966100
 epoch 474/500. Took 0.51223 seconds. 
  Full-batch training loss = 0.000002, test loss = 0.292328
  Training set accuracy = 1.000000, Test set accuracy = 0.966100
 epoch 475/500. Took 0.51149 seconds. 
  Full-batch training loss = 0.000002, test loss = 0.292377
  Training set accuracy = 1.000000, Test set accuracy = 0.966100
 epoch 476/500. Took 0.51271 seconds. 
  Full-batch training loss = 0.000002, test loss = 0.292411
  Training set accuracy = 1.000000, Test set accuracy = 0.966100
 epoch 477/500. Took 0.51323 seconds. 
  Full-batch training loss = 0.000002, test loss = 0.292463
  Training set accuracy = 1.000000, Test set accuracy = 0.966100
 epoch 478/500. Took 0.51145 seconds. 
  Full-batch training loss = 0.000002, test loss = 0.292512
  Training set accuracy = 1.000000, Test set accuracy = 0.966100
 epoch 479/500. Took 0.50866 seconds. 
  Full-batch training loss = 0.000002, test loss = 0.292560
  Training set accuracy = 1.000000, Test set accuracy = 0.966100
 epoch 480/500. Took 0.51106 seconds. 
  Full-batch training loss = 0.000002, test loss = 0.292602
  Training set accuracy = 1.000000, Test set accuracy = 0.966100
 epoch 481/500. Took 0.51343 seconds. 
  Full-batch training loss = 0.000002, test loss = 0.292642
  Training set accuracy = 1.000000, Test set accuracy = 0.966100
 epoch 482/500. Took 0.51598 seconds. 
  Full-batch training loss = 0.000002, test loss = 0.292687
  Training set accuracy = 1.000000, Test set accuracy = 0.966100
 epoch 483/500. Took 0.51256 seconds. 
  Full-batch training loss = 0.000002, test loss = 0.292735
  Training set accuracy = 1.000000, Test set accuracy = 0.966100
 epoch 484/500. Took 0.51314 seconds. 
  Full-batch training loss = 0.000002, test loss = 0.292775
  Training set accuracy = 1.000000, Test set accuracy = 0.966100
 epoch 485/500. Took 0.51251 seconds. 
  Full-batch training loss = 0.000002, test loss = 0.292822
  Training set accuracy = 1.000000, Test set accuracy = 0.966100
 epoch 486/500. Took 0.51369 seconds. 
  Full-batch training loss = 0.000002, test loss = 0.292861
  Training set accuracy = 1.000000, Test set accuracy = 0.966100
 epoch 487/500. Took 0.51018 seconds. 
  Full-batch training loss = 0.000002, test loss = 0.292908
  Training set accuracy = 1.000000, Test set accuracy = 0.966100
 epoch 488/500. Took 0.51449 seconds. 
  Full-batch training loss = 0.000002, test loss = 0.292947
  Training set accuracy = 1.000000, Test set accuracy = 0.966100
 epoch 489/500. Took 0.51153 seconds. 
  Full-batch training loss = 0.000002, test loss = 0.292996
  Training set accuracy = 1.000000, Test set accuracy = 0.966100
 epoch 490/500. Took 0.51638 seconds. 
  Full-batch training loss = 0.000002, test loss = 0.293043
  Training set accuracy = 1.000000, Test set accuracy = 0.966100
 epoch 491/500. Took 0.51263 seconds. 
  Full-batch training loss = 0.000002, test loss = 0.293086
  Training set accuracy = 1.000000, Test set accuracy = 0.966100
 epoch 492/500. Took 0.512 seconds. 
  Full-batch training loss = 0.000002, test loss = 0.293127
  Training set accuracy = 1.000000, Test set accuracy = 0.966100
 epoch 493/500. Took 0.51304 seconds. 
  Full-batch training loss = 0.000002, test loss = 0.293170
  Training set accuracy = 1.000000, Test set accuracy = 0.966100
 epoch 494/500. Took 0.51413 seconds. 
  Full-batch training loss = 0.000002, test loss = 0.293210
  Training set accuracy = 1.000000, Test set accuracy = 0.966100
 epoch 495/500. Took 0.51286 seconds. 
  Full-batch training loss = 0.000002, test loss = 0.293259
  Training set accuracy = 1.000000, Test set accuracy = 0.966100
 epoch 496/500. Took 0.50822 seconds. 
  Full-batch training loss = 0.000002, test loss = 0.293300
  Training set accuracy = 1.000000, Test set accuracy = 0.966100
 epoch 497/500. Took 0.51002 seconds. 
  Full-batch training loss = 0.000002, test loss = 0.293343
  Training set accuracy = 1.000000, Test set accuracy = 0.966100
 epoch 498/500. Took 0.51166 seconds. 
  Full-batch training loss = 0.000002, test loss = 0.293384
  Training set accuracy = 1.000000, Test set accuracy = 0.966100
 epoch 499/500. Took 0.51306 seconds. 
  Full-batch training loss = 0.000002, test loss = 0.293434
  Training set accuracy = 1.000000, Test set accuracy = 0.966100
 epoch 500/500. Took 0.51153 seconds. 
  Full-batch training loss = 0.000002, test loss = 0.293476
  Training set accuracy = 1.000000, Test set accuracy = 0.966100
Elapsed time is 479.923892 seconds.
End Training
