Id	ReducedData	PT Epochs	PT LearningRate	FT Epochs	FT LearningRate	Train Acc	Test Acc	Time
225	2000	20	0.1	100	0.2	1.0	0.9294	118.82
226	2000	100	0.2	100	0.2	1.0	0.9292	154.38
227	2000	50	0.2	100	0.2	1.0	0.9291	131.25
228	2000	50	0.2	100	0.1	1.0	0.929	130.5
229	2000	50	0.2	500	0.1	1.0	0.929	1034.42
230	5000			500	0.2	1.0	0.929	975.5
231	2000	20	0.2	500	0.1	1.0	0.9289	1006.85
232	2000	100	0.05	100	0.05	1.0	0.9287	164.38
233	2000	50	0.2	500	0.2	1.0	0.9287	1032.95
234	2000	50	0.1	100	0.05	1.0	0.9286	137.69
235	2000	100	0.2	500	0.2	1.0	0.9285	1073.58
236	2000	20	0.2	500	0.05	1.0	0.9284	1006.78
237	2000	20	0.1	100	0.05	0.9995	0.9282	123.73
238	2000	100	0.2	100	0.1	1.0	0.9282	154.67
239	2000	100	0.2	500	0.05	1.0	0.928	1073.18
240	2000	100	0.2	200	0.05	1.0	0.928	478.8
241	2000	20	0.05	100	0.05	0.9995	0.928	126.05
242	2000	100	0.2	200	0.1	1.0	0.9273	481.66
243	2000	20	0.2	100	0.1	1.0	0.9272	116.84
244	5000			200	0.2	1.0	0.9272	390.24
245	2000	20	0.2	100	0.2	1.0	0.9269	118.73
246	2000	50	0.1	100	0.1	1.0	0.9267	130.88
247	5000			100	0.2	0.9996	0.9263	206.77
248	2000	50	0.2	200	0.1	1.0	0.9257	440.79
249	5000			500	0.1	1.0	0.9255	972.41
250	2000	100	0.2	100	0.05	1.0	0.9254	162.47
251	2000	20	0.1	200	0.05	1.0	0.9254	412.47
252	2000	20	0.2	200	0.05	0.9995	0.9253	412.02
253	2000	50	0.2	200	0.05	1.0	0.925	437.5
254	2000	50	0.2	100	0.05	0.999	0.9247	137.28
255	5000			500	0.05	1.0	0.9242	1000.54
256	2000	20	0.2	100	0.05	0.9985	0.9216	122.96
257	5000			200	0.1	1.0	0.9212	389.41
258	5000			100	0.1	0.9996	0.9206	193.92
259	5000			200	0.05	0.9998	0.9183	387.4
260	5000			100	0.05	0.976	0.904	193.02
261	2000			200	0.2	0.9995	0.8911	395.0
262	2000			500	0.2	1.0	0.8904	990.13
263	2000			500	0.1	1.0	0.8854	989.68
264	2000			200	0.1	1.0	0.8833	393.84
265	2000			100	0.1	0.998	0.8823	111.87
266	2000			100	0.05	0.9455	0.8811	114.27
267	2000			500	0.05	1.0	0.8799	985.9
268	2000			100	0.2	0.9805	0.8768	105.74
269	2000			200	0.05	0.9975	0.8767	392.1