Id	ReducedData	PT Epochs	PT LearningRate	FT Epochs	FT LearningRate	Train Acc	Test Acc	Time
150	5000	50	0.2	100	0.05	0.9992	0.9498	260.82
151	10000			100	0.1	1.0	0.9496	310.38
152	5000	20	0.2	500	0.1	1.0	0.9494	1006.86
153	10000			500	0.05	1.0	0.9494	1556.84
154	10000			200	0.1	1.0	0.9494	642.7
155	5000	20	0.2	500	0.2	1.0	0.9494	1006.72
156	10000			200	0.05	1.0	0.9493	620.67
157	5000	50	0.2	200	0.05	1.0	0.949	458.23
158	5000	20	0.1	100	0.05	0.9996	0.949	221.51
159	5000	20	0.2	500	0.05	1.0	0.9489	1006.29
160	5000	100	0.2	100	0.1	1.0	0.9488	324.98
161	5000	50	0.1	100	0.05	0.9996	0.9485	261.96
162	5000	100	0.2	500	0.05	1.0	0.9485	1154.25
163	5000	50	0.2	200	0.1	1.0	0.9484	458.56
164	5000	20	0.1	100	0.1	1.0	0.9483	223.58
165	5000	20	0.2	100	0.2	1.0	0.9479	237.47
166	5000	20	0.2	100	0.1	1.0	0.9475	226.9
167	5000	20	0.2	100	0.05	0.999	0.9475	222.64
168	5000	100	0.2	100	0.05	0.9988	0.9471	327.29
169	5000	20	0.2	200	0.1	1.0	0.9469	418.15
170	10000			100	0.05	0.9973	0.9439	313.16
171	2000	100	0.05	500	0.05	1.0	0.9368	1074.25
172	2000	50	0.05	200	0.2	1.0	0.936	244.33
173	2000	50	0.1	500	0.1	1.0	0.9358	1046.69
174	2000	100	0.05	200	0.2	1.0	0.9357	485.25
175	2000	20	0.1	500	0.2	1.0	0.9353	1007.26
176	2000	100	0.05	500	0.2	1.0	0.9352	1076.32
177	2000	50	0.05	200	0.1	1.0	0.9351	440.73
178	2000	20	0.05	200	0.2	1.0	0.9351	230.32
179	2000	50	0.05	500	0.2	1.0	0.9347	1034.09
180	2000	100	0.05	100	0.2	1.0	0.9347	153.27
181	2000	50	0.05	200	0.05	1.0	0.9341	437.61
182	2000	20	0.05	500	0.2	1.0	0.9341	1008.09
183	2000	50	0.05	100	0.2	1.0	0.9339	130.67
184	2000	100	0.1	500	0.05	1.0	0.9339	1074.2
185	2000	20	0.05	500	0.1	1.0	0.9337	1008.68
186	2000	100	0.05	500	0.1	1.0	0.9335	1076.33
187	2000	100	0.05	200	0.05	1.0	0.9334	481.77
188	2000	100	0.1	500	0.1	1.0	0.9331	1075.25
189	2000	50	0.1	200	0.2	1.0	0.933	243.64
190	2000	50	0.05	100	0.1	1.0	0.933	130.53
191	2000	100	0.1	500	0.2	1.0	0.933	1074.67
192	2000	100	0.05	200	0.1	1.0	0.9329	483.68
193	2000	50	0.1	500	0.05	1.0	0.9328	1041.28
194	2000	20	0.05	200	0.1	1.0	0.9328	419.12
195	2000	50	0.1	200	0.1	1.0	0.9328	453.08
196	2000	20	0.1	100	0.1	1.0	0.9327	116.65
197	2000	100	0.1	100	0.2	1.0	0.9327	153.98
198	2000	100	0.1	100	0.1	1.0	0.9326	160.96
199	2000	20	0.05	100	0.1	1.0	0.9326	117.06
200	2000	50	0.1	500	0.2	1.0	0.9325	1032.34
201	2000	50	0.05	500	0.1	1.0	0.9323	1034.03
202	2000	20	0.05	100	0.2	1.0	0.9323	118.86
203	2000	20	0.1	500	0.05	1.0	0.9323	1008.25
204	2000	100	0.05	100	0.1	1.0	0.9321	161.91
205	2000	20	0.1	500	0.1	1.0	0.9314	1008.07
206	2000	50	0.1	200	0.05	1.0	0.9314	436.85
207	2000	50	0.2	500	0.05	1.0	0.9313	1031.5
208	2000	100	0.1	200	0.2	1.0	0.9312	518.05
209	2000	50	0.2	200	0.2	1.0	0.931	243.63
210	2000	50	0.05	500	0.05	1.0	0.9309	1031.96
211	2000	100	0.1	200	0.1	1.0	0.9308	487.22
212	2000	20	0.2	200	0.2	1.0	0.9308	234.12
213	2000	50	0.1	100	0.2	1.0	0.9308	130.64
214	2000	20	0.05	500	0.05	1.0	0.9308	1008.9
215	2000	20	0.05	200	0.05	1.0	0.9308	412.66
216	2000	20	0.1	200	0.2	1.0	0.9307	234.11
217	2000	50	0.05	100	0.05	1.0	0.9305	138.14
218	2000	20	0.2	500	0.2	1.0	0.9303	1010.26
219	2000	100	0.1	200	0.05	1.0	0.9303	479.65
220	2000	100	0.2	200	0.2	1.0	0.9302	267.12
221	2000	100	0.2	500	0.1	1.0	0.9302	1073.87
222	2000	20	0.2	200	0.1	1.0	0.93	414.76
223	2000	20	0.1	200	0.1	1.0	0.9295	415.19
224	2000	100	0.1	100	0.05	1.0	0.9294	161.1